COM4,508,18-Sep-19,2019-09-18 00:00:00,0.34033898305085,0.25094915254237,0.22225423728814003,0.20393220338982998,0.18932203389830998,0.16754237288135998,0.17132203389831,5
COM4,508,18-Sep-19,2019-09-18 01:00:00,0.37403333333333,0.29316666666667,0.26396666666667,0.24706666666667004,0.22961666666667002,0.20783333333332996,0.21446666666667002,5
COM4,508,18-Sep-19,2019-09-18 02:00:00,0.3278,0.31346666666667,0.29481666666667,0.28883333333333,0.27918333333333,0.26901666666667,0.2775,5
COM4,508,18-Sep-19,2019-09-18 03:00:00,0.25071666666667003,0.24226666666667004,0.22695,0.2217,0.21355,0.19881666666667003,0.20591666666667002,5
COM4,508,18-Sep-19,2019-09-18 04:00:00,0.22823333333332996,0.21411666666667004,0.19935,0.19585,0.18845,0.17613333333332998,0.18166666666667003,5
COM4,508,18-Sep-19,2019-09-18 05:00:00,0.27103333333332996,0.24281666666667004,0.22378333333332998,0.21771666666667003,0.20761666666667003,0.1935,0.19991666666667005,5
COM4,508,18-Sep-19,2019-09-18 06:00:00,0.4842,0.4335,0.39963333333333,0.38966666666667,0.37026666666667,0.3447,0.35576666666667,5
COM4,508,18-Sep-19,2019-09-18 07:00:00,0.6045833333333299,0.5713833333333299,0.53231666666667,0.52256666666667,0.5007,0.47338333333333,0.48688333333333,5
COM4,508,18-Sep-19,2019-09-18 08:00:00,0.48256666666667,0.4617,0.42653333333333,0.41951666666667,0.39716666666667,0.37246666666667,0.38376666666667,5
COM4,508,18-Sep-19,2019-09-18 09:00:00,0.63753333333333,0.6117666666666701,0.5696333333333299,0.56315,0.53733333333333,0.51451666666667,0.52946666666667,5
COM4,508,18-Sep-19,2019-09-18 10:00:00,0.6628,0.6399,0.59736666666667,0.5907666666666701,0.56315,0.53843333333333,0.5561333333333299,5
COM4,508,18-Sep-19,2019-09-18 11:00:00,0.20916666666667003,0.19561666666667002,0.1763,0.17300000000000001,0.16166666666667,0.14706666666667,0.15001666666667002,5
COM4,508,18-Sep-19,2019-09-18 12:00:00,0.40973333333333,0.38751666666667,0.35858333333333,0.35221666666667,0.33399999999999996,0.31338333333333,0.32565,5
COM4,508,18-Sep-19,2019-09-18 13:00:00,0.20885,0.18775,0.16933333333332998,0.16385,0.15351666666667002,0.14135,0.14618333333332997,5
COM4,508,18-Sep-19,2019-09-18 14:00:00,0.14216666666667002,0.1209,0.10893333333333001,0.10128333333333,0.097283333333333,0.08693333333333299,0.088583333333333,5
COM4,508,18-Sep-19,2019-09-18 15:00:00,0.12675,0.11003333333333,0.10095,0.09381666666666699,0.087966666666667,0.07585,0.0806,5
COM4,508,18-Sep-19,2019-09-18 16:00:00,0.16285,0.13996666666667001,0.1261,0.1206,0.1157,0.10731666666666999,0.11055,5
COM4,508,18-Sep-19,2019-09-18 17:00:00,0.1374,0.12055,0.10845,0.10203333333333,0.099166666666667,0.089033333333333,0.092633333333333,5
COM4,508,18-Sep-19,2019-09-18 18:00:00,0.15925,0.14023333333333,0.1279,0.12013333333333001,0.1138,0.10278333333333001,0.10611666666667,5
COM4,508,18-Sep-19,2019-09-18 19:00:00,0.20578333333332996,0.17635,0.15933333333333,0.15145,0.14343333333333,0.12971666666667,0.1338,5
COM4,508,18-Sep-19,2019-09-18 20:00:00,0.1374,0.11675,0.1046,0.0997,0.089366666666667,0.07526666666666701,0.07651666666666701,5
COM4,508,18-Sep-19,2019-09-18 21:00:00,0.16141666666667,0.14308333333332998,0.12988333333333,0.12571666666667,0.11935,0.1137,0.11851666666666999,5
COM4,508,18-Sep-19,2019-09-18 22:00:00,0.09496666666666699,0.08213333333333299,0.072883333333333,0.069983333333333,0.0631,0.05795,0.058483333333333005,5
COM4,508,18-Sep-19,2019-09-18 23:00:00,0.080383333333333,0.068133333333333,0.0598,0.055933333333333,0.0519,0.044583333333333,0.046283333333333,5
