COM4,508,30-May-19,2019-05-30 00:00:00,0.13961016949153002,0.13622033898305,0.13083050847458,0.12801694915254,0.12601694915254,0.12013559322034,0.12440677966102,5
COM4,508,30-May-19,2019-05-30 01:00:00,0.21855,0.21306666666667004,0.2029,0.20055,0.1941,0.18273333333332997,0.18776666666667002,5
COM4,508,30-May-19,2019-05-30 02:00:00,0.20941666666667003,0.20355,0.19423333333332995,0.19016666666667004,0.1858,0.17861666666667003,0.1842,5
COM4,508,30-May-19,2019-05-30 03:00:00,0.15578333333333,0.14903333333333,0.14161666666667003,0.13923333333333,0.1337,0.12416666666666999,0.12681666666667,5
COM4,508,30-May-19,2019-05-30 04:00:00,0.1657,0.15578333333333,0.14688333333332998,0.1424,0.13581666666667,0.12661666666666999,0.12956666666667,5
COM4,508,30-May-19,2019-05-30 05:00:00,0.40111666666667,0.38925,0.36876666666667,0.3628,0.34938333333333,0.33001666666667,0.33971666666667,5
COM4,508,30-May-19,2019-05-30 06:00:00,1.03615,1.041,0.99356666666667,0.98341666666667,0.95498333333333,0.92085,0.9478,5
COM4,508,30-May-19,2019-05-30 07:00:00,1.7326833333333,1.7537166666667,1.6754333333333,1.6629166666667,1.6194833333333,1.5687166666666998,1.6198166666667,5
COM4,508,30-May-19,2019-05-30 08:00:00,1.10555,1.1162166666667,1.0635333333333001,1.0538166666667,1.0241166666666999,0.98716666666667,1.0172833333333,5
COM4,508,30-May-19,2019-05-30 09:00:00,0.76878333333333,0.75261666666667,0.70941666666667,0.69735,0.66995,0.6253166666666701,0.6442333333333299,5
COM4,508,30-May-19,2019-05-30 10:00:00,0.46021666666667,0.45596666666667,0.4337,0.42623333333333,0.41031666666667,0.38355,0.39358333333333,5
COM4,508,30-May-19,2019-05-30 11:00:00,0.5700166666666701,0.55545,0.52651666666667,0.5201,0.49921666666667,0.46813333333333,0.48108333333333003,5
COM4,508,30-May-19,2019-05-30 12:00:00,0.56485,0.52596666666667,0.4839,0.47481666666667,0.46376666666667,0.42441666666667,0.43623333333333003,5
COM4,508,30-May-19,2019-05-30 13:00:00,0.34416666666667,0.33476666666667,0.31753333333333,0.3116,0.29935,0.27896666666666997,0.28831666666667,5
COM4,508,30-May-19,2019-05-30 14:00:00,0.31535,0.3058,0.28998333333333,0.28373333333333,0.27453333333332997,0.25975,0.26795,5
COM4,508,30-May-19,2019-05-30 15:00:00,0.3682,0.36341666666667,0.34600000000000003,0.34031666666667,0.32966666666667,0.31086666666667,0.32081666666666997,5
COM4,508,30-May-19,2019-05-30 16:00:00,0.30385,0.30456666666667,0.28938333333333,0.28723333333333,0.27446666666667,0.25773333333333,0.2645,5
COM4,508,30-May-19,2019-05-30 17:00:00,0.32915,0.32963333333333,0.31325,0.31346666666667,0.29836666666667,0.28626666666667,0.29326666666667,5
COM4,508,30-May-19,2019-05-30 18:00:00,0.39361666666667,0.39743333333333003,0.37815,0.37718333333333,0.36031666666667,0.34123333333333,0.34931666666667,5
COM4,508,30-May-19,2019-05-30 19:00:00,0.42865,0.37118333333333,0.34431666666667,0.33425,0.31376666666666997,0.2914,0.29856666666667,5
COM4,508,30-May-19,2019-05-30 20:00:00,0.23513333333332997,0.22399999999999998,0.20991666666667003,0.20776666666667004,0.19718333333332996,0.18591666666667003,0.18988333333332996,5
COM4,508,30-May-19,2019-05-30 21:00:00,0.083533333333333,0.11105,0.11971666666667,0.1294,0.13246666666667,0.14035,0.14285,5
COM4,508,30-May-19,2019-05-30 22:00:00,0.03975,0.05765,0.06328333333333301,0.07121666666666701,0.07305,0.0807,0.08365,5
COM4,508,30-May-19,2019-05-30 23:00:00,0.04475,0.06035,0.064333333333333,0.0689,0.06986666666666701,0.07261666666666701,0.07395,5
