COM6,0508,04-Feb-19,2019-02-04 00:00:00,0.025118644067797,0.022694915254237,0.022016949152542,0.021389830508475,0.020881355932203,0.018508474576271,0.020593220338983,5,0,0,0,0,0,0,0,0,0,0,0,0,0,0,0,0,0,0,0,0,0,0,0,0,0,0,0,0,0,0,0,0,0,0,0,0,0,0,0,0,0,0
COM6,0508,04-Feb-19,2019-02-04 01:00:00,0.014116666666667,0.014983333333333,0.014683333333333,0.014183333333333,0.014216666666667,0.014066666666667,0.014383333333333,5,0,0,0,0,0,0,0,0,0,0,0,0,0,0,0,0,0,0,0,0,0,0,0,0,0,0,0,0,0,0,0,0,0,0,0,0,0,0,0,0,0,0
COM6,0508,04-Feb-19,2019-02-04 02:00:00,0.012516666666667,0.013883333333333,0.0128,0.013483333333333,0.01245,0.013116666666667,0.013,5,0,0,0,0,0,0,0,0,0,0,0,0,0,0,0,0,0,0,0,0,0,0,0,0,0,0,0,0,0,0,0,0,0,0,0,0,0,0,0,0,0,0
COM6,0508,04-Feb-19,2019-02-04 03:00:00,0.013966666666667,0.014733333333333,0.01415,0.01465,0.013833333333333,0.014133333333333,0.01405,5,0,0,0,0,0,0,0,0,0,0,0,0,0,0,0,0,0,0,0,0,0,0,0,0,0,0,0,0,0,0,0,0,0,0,0,0,0,0,0,0,0,0
COM6,0508,04-Feb-19,2019-02-04 04:00:00,0.01625,0.016633333333333,0.015516666666667,0.014716666666667,0.014333333333333,0.014133333333333,0.015283333333333,5,0,0,0,0,0,0,0,0,0,0,0,0,0,0,0,0,0,0,0,0,0,0,0,0,0,0,0,0,0,0,0,0,0,0,0,0,0,0,0,0,0,0
COM6,0508,04-Feb-19,2019-02-04 05:00:00,0.0193,0.019233333333333,0.018633333333333,0.019433333333333,0.01845,0.0173,0.017616666666667,5,0,0,0,0,0,0,0,0,0,0,0,0,0,0,0,0,0,0,0,0,0,0,0,0,0,0,0,0,0,0,0,0,0,0,0,0,0,0,0,0,0,0
COM6,0508,04-Feb-19,2019-02-04 06:00:00,0.028266666666667,0.02885,0.027383333333333,0.027333333333333,0.026966666666667,0.02585,0.026666666666667,5,0,0,0,0,0,0,0,0,0,0,0,0,0,0,0,0,0,0,0,0,0,0,0,0,0,0,0,0,0,0,0,0,0,0,0,0,0,0,0,0,0,0
COM6,0508,04-Feb-19,2019-02-04 07:00:00,0.04855,0.048383333333333,0.047133333333333,0.045333333333333,0.0449,0.04405,0.0453,5,0,0,0,0,0,0,0,0,0,0,0,0,0,0,0,0,0,0,0,0,0,0,0,0,0,0,0,0,0,0,0,0,0,0,0,0,0,0,0,0,0,0
COM6,0508,04-Feb-19,2019-02-04 08:00:00,0.062233333333333,0.063933333333333,0.060566666666667,0.06035,0.05925,0.057616666666667,0.059516666666667,5,0,0,0,0,0,0,0,0,0,0,0,0,0,0,0,0,0,0,0,0,0,0,0,0,0,0,0,0,0,0,0,0,0,0,0,0,0,0,0,0,0,0
COM6,0508,04-Feb-19,2019-02-04 09:00:00,0.0687,0.0729,0.06985,0.071583333333333,0.0668,0.067583333333333,0.068633333333333,5,0,0,0,0,0,0,0,0,0,0,0,0,0,0,0,0,0,0,0,0,0,0,0,0,0,0,0,0,0,0,0,0,0,0,0,0,0,0,0,0,0,0
COM6,0508,04-Feb-19,2019-02-04 10:00:00,0.13758620689655,0.079413793103448,0.083431034482759,0.086775862068966,0.085948275862069,0.084810344827586,0.089655172413793,4.3965517241379,0,0,0,0,0,0,0,0,0,0,0,0,0,0,0,0,0,0,0,0,0,0,0,0,0,0,0,0,0,0,0,0,0,0,0,0,0,0,0,0,0,0
COM6,0508,04-Feb-19,2019-02-04 11:00:00,0.15851666666667,0.1194,0.11935,0.12251666666667,0.11576666666667,0.11716666666667,0.11895,5,0,0,0,0,0,0,0,0,0,0,0,0,0,0,0,0,0,0,0,0,0,0,0,0,0,0,0,0,0,0,0,0,0,0,0,0,0,0,0,0,0,0
COM6,0508,04-Feb-19,2019-02-04 12:00:00,0.0743,0.085966666666667,0.083933333333333,0.084466666666667,0.081116666666667,0.08,0.0816,5,0,0,0,0,0,0,0,0,0,0,0,0,0,0,0,0,0,0,0,0,0,0,0,0,0,0,0,0,0,0,0,0,0,0,0,0,0,0,0,0,0,0
COM6,0508,04-Feb-19,2019-02-04 13:00:00,0.0529,0.059666666666667,0.0584,0.058083333333333,0.056866666666667,0.054866666666667,0.057333333333333,5,0,0,0,0,0,0,0,0,0,0,0,0,0,0,0,0,0,0,0,0,0,0,0,0,0,0,0,0,0,0,0,0,0,0,0,0,0,0,0,0,0,0
COM6,0508,04-Feb-19,2019-02-04 14:00:00,0.10713333333333,0.11301666666667,0.10778333333333,0.10721666666667,0.10298333333333,0.099833333333333,0.10265,5,0,0,0,0,0,0,0,0,0,0,0,0,0,0,0,0,0,0,0,0,0,0,0,0,0,0,0,0,0,0,0,0,0,0,0,0,0,0,0,0,0,0
COM6,0508,04-Feb-19,2019-02-04 15:00:00,0.072916666666667,0.076733333333333,0.0735,0.073683333333333,0.069933333333333,0.070183333333333,0.0705,5,0,0,0,0,0,0,0,0,0,0,0,0,0,0,0,0,0,0,0,0,0,0,0,0,0,0,0,0,0,0,0,0,0,0,0,0,0,0,0,0,0,0
COM6,0508,04-Feb-19,2019-02-04 16:00:00,0.080533333333333,0.081266666666667,0.077366666666667,0.078483333333333,0.073533333333333,0.070783333333333,0.0725,5,0,0,0,0,0,0,0,0,0,0,0,0,0,0,0,0,0,0,0,0,0,0,0,0,0,0,0,0,0,0,0,0,0,0,0,0,0,0,0,0,0,0
COM6,0508,04-Feb-19,2019-02-04 17:00:00,0.08035,0.0784,0.074633333333333,0.0733,0.070116666666667,0.068833333333333,0.070016666666667,5,0,0,0,0,0,0,0,0,0,0,0,0,0,0,0,0,0,0,0,0,0,0,0,0,0,0,0,0,0,0,0,0,0,0,0,0,0,0,0,0,0,0
COM6,0508,04-Feb-19,2019-02-04 18:00:00,0.083416666666667,0.078016666666667,0.073766666666667,0.0729,0.069466666666667,0.065666666666667,0.0676,5,0,0,0,0,0,0,0,0,0,0,0,0,0,0,0,0,0,0,0,0,0,0,0,0,0,0,0,0,0,0,0,0,0,0,0,0,0,0,0,0,0,0
COM6,0508,04-Feb-19,2019-02-04 19:00:00,0.064616666666667,0.059133333333333,0.056033333333333,0.054066666666667,0.053216666666667,0.050266666666667,0.051933333333333,5,0,0,0,0,0,0,0,0,0,0,0,0,0,0,0,0,0,0,0,0,0,0,0,0,0,0,0,0,0,0,0,0,0,0,0,0,0,0,0,0,0,0
COM6,0508,04-Feb-19,2019-02-04 20:00:00,0.049483333333333,0.04545,0.043266666666667,0.04205,0.04115,0.0391,0.040366666666667,5,0,0,0,0,0,0,0,0,0,0,0,0,0,0,0,0,0,0,0,0,0,0,0,0,0,0,0,0,0,0,0,0,0,0,0,0,0,0,0,0,0,0
COM6,0508,04-Feb-19,2019-02-04 21:00:00,0.045583333333333,0.043466666666667,0.041166666666667,0.041066666666667,0.039083333333333,0.039616666666667,0.0411,5,0,0,0,0,0,0,0,0,0,0,0,0,0,0,0,0,0,0,0,0,0,0,0,0,0,0,0,0,0,0,0,0,0,0,0,0,0,0,0,0,0,0
COM6,0508,04-Feb-19,2019-02-04 22:00:00,0.0415,0.037,0.034916666666667,0.03415,0.031616666666667,0.029666666666667,0.029633333333333,5,0,0,0,0,0,0,0,0,0,0,0,0,0,0,0,0,0,0,0,0,0,0,0,0,0,0,0,0,0,0,0,0,0,0,0,0,0,0,0,0,0,0
COM6,0508,04-Feb-19,2019-02-04 23:00:00,0.028465517241379,0.029396551724138,0.027758620689655,0.028189655172414,0.027379310344828,0.0295,0.029603448275862,5,0,0,0,0,0,0,0,0,0,0,0,0,0,0,0,0,0,0,0,0,0,0,0,0,0,0,0,0,0,0,0,0,0,0,0,0,0,0,0,0,0,0
