COM6,508,15-Mar-19,2019-03-15 00:00:00,0.04084745762711899,0.034237288135593,0.031118644067796998,0.028644067796610002,0.027779661016948995,0.024237288135592998,0.024542372881356002,5
COM6,508,15-Mar-19,2019-03-15 01:00:00,0.0366,0.034466666666667,0.0304,0.02905,0.026183333333332996,0.025033333333332995,0.025783333333332995,5
COM6,508,15-Mar-19,2019-03-15 02:00:00,0.07795,0.068,0.063016666666667,0.060383333333333004,0.0556,0.048916666666667,0.04985,5
COM6,508,15-Mar-19,2019-03-15 03:00:00,0.13341666666667,0.11053333333333,0.099466666666667,0.09636666666666699,0.089233333333333,0.08235,0.083283333333333,5
COM6,508,15-Mar-19,2019-03-15 04:00:00,0.16608333333332997,0.14088333333332997,0.12838333333333002,0.12218333333333001,0.11403333333333,0.10178333333333,0.10421666666667,5
COM6,508,15-Mar-19,2019-03-15 05:00:00,0.2943,0.26166666666667004,0.24028333333332996,0.2316,0.21763333333332996,0.19908333333332998,0.20373333333332996,5
COM6,508,15-Mar-19,2019-03-15 06:00:00,1.0461,0.98496666666667,0.92015,0.89903333333333,0.86066666666667,0.81376666666667,0.83945,5
COM6,508,15-Mar-19,2019-03-15 07:00:00,1.4664333333333,1.41975,1.3291666666667,1.2970833333333,1.2386833333333,1.1627,1.1962833333333,5
COM6,508,15-Mar-19,2019-03-15 08:00:00,0.6037,0.62948333333333,0.5888333333333299,0.57711666666667,0.54675,0.50805,0.52153333333333,5
COM6,508,15-Mar-19,2019-03-15 09:00:00,0.5238,0.5366,0.50171666666667,0.49166666666666997,0.46438333333333,0.43781666666667,0.44771666666667,5
COM6,508,15-Mar-19,2019-03-15 10:00:00,0.6069833333333299,0.60051666666667,0.56183333333333,0.54915,0.51888333333333,0.48768333333333,0.49855,5
COM6,508,15-Mar-19,2019-03-15 11:00:00,0.28023333333333,0.2703,0.25181666666667,0.24368333333332998,0.23155,0.21026666666667004,0.21666666666667003,5
COM6,508,15-Mar-19,2019-03-15 12:00:00,0.44431666666666997,0.42966666666666997,0.40158333333333,0.39081666666667,0.37211666666667,0.3449,0.35226666666667,5
COM6,508,15-Mar-19,2019-03-15 13:00:00,0.37263333333333,0.35738333333333,0.3352,0.32596666666667,0.30791666666667,0.28138333333333,0.28896666666667,5
COM6,508,15-Mar-19,2019-03-15 14:00:00,0.33399999999999996,0.31846666666667,0.29905,0.28888333333333,0.27693333333333,0.25326666666667,0.25926666666667003,5
COM6,508,15-Mar-19,2019-03-15 15:00:00,0.31113333333333,0.2945,0.27523333333333,0.265,0.25513333333333,0.23413333333332997,0.24086666666667003,5
COM6,508,15-Mar-19,2019-03-15 16:00:00,0.30588333333333,0.2925,0.27448333333332997,0.26555,0.25555,0.23433333333332998,0.24033333333332996,5
COM6,508,15-Mar-19,2019-03-15 17:00:00,0.28145,0.26561666666667005,0.24508333333332996,0.23323333333332996,0.22058333333332997,0.19725,0.20245,5
COM6,508,15-Mar-19,2019-03-15 18:00:00,0.2892,0.27585,0.25733333333332997,0.24761666666667004,0.23653333333332996,0.21595,0.22026666666667002,5
COM6,508,15-Mar-19,2019-03-15 19:00:00,0.3184,0.29191666666667,0.27048333333332997,0.2628,0.24821666666667003,0.22641666666667004,0.23308333333332998,5
COM6,508,15-Mar-19,2019-03-15 20:00:00,0.5756833333333299,0.44018333333333,0.4058,0.39075,0.36743333333333,0.33283333333333,0.33893333333333,5
COM6,508,15-Mar-19,2019-03-15 21:00:00,0.7202833333333301,0.52606666666667,0.47633333333333,0.45211666666667,0.42188333333333,0.37658333333333,0.3833,5
COM6,508,15-Mar-19,2019-03-15 22:00:00,0.32838333333333003,0.30831666666667,0.27315,0.25676666666667003,0.23415,0.20065,0.20493333333332997,5
COM6,508,15-Mar-19,2019-03-15 23:00:00,0.25577192982456,0.24664912280701998,0.22877192982456,0.21217543859649,0.20412280701754,0.17496491228070002,0.18235087719298002,5
