COM4,508,26-May-19,2019-05-26 00:00:00,0.31633898305084995,0.25005084745763,0.22466101694915,0.21245762711864002,0.19735593220339,0.18198305084746,0.18522033898305,5
COM4,508,26-May-19,2019-05-26 01:00:00,0.32696666666667,0.25863333333333,0.23198333333332996,0.21825,0.20335,0.18355,0.188,5
COM4,508,26-May-19,2019-05-26 02:00:00,0.14295,0.12861666666667,0.11783333333333,0.11351666666667,0.10753333333333001,0.098283333333333,0.09983333333333301,5
COM4,508,26-May-19,2019-05-26 03:00:00,0.11136666666667,0.1009,0.09331666666666699,0.09003333333333301,0.08475,0.079533333333333,0.081116666666667,5
COM4,508,26-May-19,2019-05-26 04:00:00,0.15571666666667,0.13543333333333,0.12413333333333,0.12,0.11346666666666999,0.10561666666667,0.10798333333333,5
COM4,508,26-May-19,2019-05-26 05:00:00,0.2856,0.26503333333332996,0.24811666666667004,0.24296666666667002,0.23258333333332998,0.22128333333332997,0.22773333333332996,5
COM4,508,26-May-19,2019-05-26 06:00:00,0.42121666666667,0.39298333333333,0.36913333333333,0.36401666666667,0.34933333333333,0.33095,0.33835,5
COM4,508,26-May-19,2019-05-26 07:00:00,0.456,0.44463333333333,0.42098333333333,0.4168,0.40281666666667,0.38723333333333,0.3962,5
COM4,508,26-May-19,2019-05-26 08:00:00,0.43991666666667,0.4472,0.43416666666667,0.43818333333333,0.42788333333333,0.41498333333333,0.42473333333333,5
COM4,508,26-May-19,2019-05-26 09:00:00,0.4342,0.42888333333333,0.41075,0.41243333333333,0.40023333333333,0.3868,0.39675,5
COM4,508,26-May-19,2019-05-26 10:00:00,0.39516666666667,0.38505,0.36645,0.36466666666666997,0.35056666666666997,0.32788333333333003,0.33506666666667,5
COM4,508,26-May-19,2019-05-26 11:00:00,0.095833333333333,0.09431666666666699,0.08683333333333298,0.0856,0.080633333333333,0.0757,0.079016666666667,5
COM4,508,26-May-19,2019-05-26 12:00:00,0.093483333333333,0.088516666666667,0.080633333333333,0.07873333333333299,0.073733333333333,0.0703,0.072416666666667,5
COM4,508,26-May-19,2019-05-26 13:00:00,0.096416666666667,0.08783333333333299,0.079716666666667,0.078516666666667,0.073333333333333,0.072133333333333,0.075816666666667,5
COM4,508,26-May-19,2019-05-26 14:00:00,0.08555,0.07691666666666701,0.070333333333333,0.06633333333333301,0.063616666666667,0.0611,0.0624,5
COM4,508,26-May-19,2019-05-26 15:00:00,0.08285,0.071833333333333,0.065233333333333,0.06161666666666699,0.05925,0.055783333333333004,0.05685,5
COM4,508,26-May-19,2019-05-26 16:00:00,0.0941,0.08568333333333299,0.07908333333333299,0.07515,0.071383333333333,0.062383333333333006,0.0652,5
COM4,508,26-May-19,2019-05-26 17:00:00,0.1513,0.13648333333333001,0.12591666666667,0.12146666666667,0.115,0.10733333333333,0.10881666666666999,5
COM4,508,26-May-19,2019-05-26 18:00:00,0.082033333333333,0.075133333333333,0.06823333333333301,0.06505,0.0617,0.05495,0.05695,5
COM4,508,26-May-19,2019-05-26 19:00:00,0.13815,0.11313333333333,0.1025,0.09593333333333301,0.08913333333333301,0.08008333333333299,0.081,5
COM4,508,26-May-19,2019-05-26 20:00:00,0.28473333333333,0.24208333333332996,0.21981666666667002,0.21078333333332996,0.19813333333332997,0.18358333333332996,0.1881,5
COM4,508,26-May-19,2019-05-26 21:00:00,0.22081666666667002,0.1965,0.17941666666667003,0.17173333333332996,0.16098333333332998,0.14923333333333,0.15243333333332998,5
COM4,508,26-May-19,2019-05-26 22:00:00,0.12373333333333,0.11426666666667,0.10513333333333001,0.10135,0.09571666666666699,0.08845,0.090333333333333,5
COM4,508,26-May-19,2019-05-26 23:00:00,0.18486666666667004,0.15806666666667002,0.14426666666667,0.13621666666666998,0.12916666666666998,0.11758333333333,0.12103333333333001,5
