COM6,508,03-May-18,2018-05-03 00:00:00,0.19010169491525003,0.18464406779661,0.17127118644067998,0.16816949152542002,0.15401694915254,0.13647457627119,0.14132203389831,5.0
COM6,508,03-May-18,2018-05-03 01:00:00,0.1996,0.19201666666667003,0.17613333333332998,0.174,0.15856666666667002,0.1455,0.14476666666667,5.0
COM6,508,03-May-18,2018-05-03 02:00:00,0.41166666666667,0.40776666666667,0.38471666666667,0.37968333333333,0.35536666666667,0.33106666666667,0.33743333333333003,5.0
COM6,508,03-May-18,2018-05-03 03:00:00,0.33111666666667,0.3256,0.30241666666667,0.30103333333333,0.2788,0.25601666666667006,0.26258333333332995,5.0
COM6,508,03-May-18,2018-05-03 04:00:00,0.34396666666667,0.31513333333333,0.2918,0.28111666666667,0.25995,0.23386666666667003,0.23803333333332996,5.0
COM6,508,03-May-18,2018-05-03 05:00:00,0.54665,0.48933333333333,0.4472,0.43236666666667,0.40166666666667,0.36511666666667,0.37203333333333,5.0
COM6,508,03-May-18,2018-05-03 06:00:00,0.94216666666667,0.8543,0.78593333333333,0.76375,0.7084,0.64648333333333,0.6623166666666701,5.0
COM6,508,03-May-18,2018-05-03 07:00:00,2.0659,2.0018666666666998,1.8612333333333,1.8143333333333,1.7056333333333,1.5843333333333,1.6256833333333,5.0
COM6,508,03-May-18,2018-05-03 08:00:00,1.2298666666667,1.3151666666667,1.2613666666667,1.26105,1.1909999999999998,1.1295333333333,1.1557833333333,5.0
COM6,508,03-May-18,2018-05-03 09:00:00,0.73513333333333,0.6371166666666701,0.6134333333333299,0.61338333333333,0.59598333333333,0.5790666666666701,0.5999,4.6666666666667
COM6,508,03-May-18,2018-05-03 10:00:00,0.5823333333333299,0.55005,0.52253333333333,0.51853333333333,0.50111666666667,0.48403333333333,0.49701666666667,5.0
COM6,508,03-May-18,2018-05-03 11:00:00,0.38835,0.4009,0.38245,0.37935,0.3675,0.35521666666667,0.36458333333333,5.0
COM6,508,03-May-18,2018-05-03 12:00:00,0.2618,0.28338333333333,0.27198333333332997,0.27005,0.26155,0.2503,0.25651666666667006,5.0
COM6,508,03-May-18,2018-05-03 13:00:00,0.2456,0.24951666666667002,0.2372,0.23418333333332997,0.22623333333332996,0.21243333333332998,0.21918333333332995,5.0
COM6,508,03-May-18,2018-05-03 14:00:00,0.15298333333332997,0.1548,0.14775,0.14511666666667,0.14163333333332997,0.13466666666667,0.13883333333332998,5.0
COM6,508,03-May-18,2018-05-03 15:00:00,0.179,0.17656666666667004,0.16816666666667004,0.16541666666667001,0.16145,0.15456666666667002,0.16096666666667,5.0
COM6,508,03-May-18,2018-05-03 16:00:00,0.12196666666667,0.11703333333333,0.11178333333333,0.10848333333333,0.1067,0.10278333333333001,0.10608333333333,5.0
COM6,508,03-May-18,2018-05-03 17:00:00,0.13076666666667,0.1246,0.11726666666666999,0.11421666666666999,0.11086666666667,0.1052,0.10946666666667,5.0
COM6,508,03-May-18,2018-05-03 18:00:00,0.21886666666667004,0.21368333333332998,0.20298333333332996,0.19846666666667004,0.1934,0.18631666666667004,0.192,5.0
COM6,508,03-May-18,2018-05-03 19:00:00,0.23458333333332998,0.21955,0.20635,0.20055,0.1939,0.18553333333332997,0.19153333333332997,5.0
COM6,508,03-May-18,2018-05-03 20:00:00,0.19535,0.17476666666667004,0.16223333333332998,0.15736666666667,0.14935,0.13918333333333,0.14245,5.0
COM6,508,03-May-18,2018-05-03 21:00:00,0.1584,0.15025,0.1412,0.1386,0.13133333333333,0.12295,0.12481666666666999,5.0
COM6,508,03-May-18,2018-05-03 22:00:00,0.1461,0.13946666666667001,0.13163333333333,0.1282,0.12246666666667,0.11421666666666999,0.1165,5.0
COM6,508,03-May-18,2018-05-03 23:00:00,0.25333333333332997,0.1806,0.16165,0.14993333333332998,0.13841666666667002,0.12453333333333,0.12743333333333,5.0
