COM6,508,08-Feb-18,2018-02-08 00:00:00,0.33942372881356003,0.35483050847458003,0.34196610169492,0.33922033898305,0.33254237288135996,0.32110169491525004,0.33181355932203005,5
COM6,508,08-Feb-18,2018-02-08 01:00:00,0.35146666666667,0.32003333333333,0.30051666666667,0.29791666666667,0.28438333333333,0.27383333333333,0.28053333333333,5
COM6,508,08-Feb-18,2018-02-08 02:00:00,0.30563333333333,0.25966666666667004,0.23961666666667003,0.23241666666667002,0.21725,0.2099,0.21541666666667003,5
COM6,508,08-Feb-18,2018-02-08 03:00:00,0.19286666666667004,0.18395,0.17126666666667004,0.1677,0.15605,0.15291666666667,0.15506666666667002,5
COM6,508,08-Feb-18,2018-02-08 04:00:00,0.07305,0.10928333333333,0.1058,0.10946666666667,0.10155,0.1015,0.10396666666667,5
COM6,508,08-Feb-18,2018-02-08 05:00:00,0.22321666666667003,0.24613333333332996,0.23508333333332998,0.23943333333332997,0.22473333333332995,0.22399999999999998,0.2271,5
COM6,508,08-Feb-18,2018-02-08 06:00:00,0.64668333333333,0.6652,0.6348333333333299,0.63715,0.60803333333333,0.5972,0.61238333333333,5
COM6,508,08-Feb-18,2018-02-08 07:00:00,1.7704833333333,1.81375,1.7402333333333,1.7434,1.6835,1.6618333333333,1.71115,5
COM6,508,08-Feb-18,2018-02-08 08:00:00,2.17295,2.22625,2.1395666666667,2.1419,2.0670333333333,2.0326833333333,2.0888333333333002,5
COM6,508,08-Feb-18,2018-02-08 09:00:00,3.0045833333333,3.0439833333333,2.90895,2.9013666666667004,2.79045,2.7251333333332997,2.7995166666667,5
COM6,508,08-Feb-18,2018-02-08 10:00:00,1.5059,1.5348166666667,1.47025,1.4617,1.40935,1.3667166666666999,1.4057,5
COM6,508,08-Feb-18,2018-02-08 11:00:00,1.159,1.18375,1.1365666666667,1.1258666666666999,1.0914,1.0539666666667,1.0897,5
COM6,508,08-Feb-18,2018-02-08 12:00:00,1.4792833333333,1.4819333333333,1.4111166666666999,1.3955333333333,1.3438833333333,1.29785,1.3362833333333,5
COM6,508,08-Feb-18,2018-02-08 13:00:00,1.26505,1.26025,1.20055,1.18535,1.1394,1.0921166666667,1.1235833333333,5
COM6,508,08-Feb-18,2018-02-08 14:00:00,0.70858333333333,0.7213,0.69145,0.68435,0.6613166666666701,0.63755,0.6572666666666701,5
COM6,508,08-Feb-18,2018-02-08 15:00:00,0.87988333333333,0.88116666666667,0.83636666666667,0.82643333333333,0.79118333333333,0.76326666666667,0.7865,5
COM6,508,08-Feb-18,2018-02-08 16:00:00,0.88508333333333,0.87598333333333,0.83238333333333,0.82348333333333,0.7897,0.75481666666667,0.77991666666667,5
COM6,508,08-Feb-18,2018-02-08 17:00:00,1.1409666666667,1.11695,1.0586333333333,1.0445833333333001,1.0006666666667,0.95906666666667,0.98496666666667,5
COM6,508,08-Feb-18,2018-02-08 18:00:00,1.0377666666667,0.96465,0.90686666666667,0.88585,0.83865,0.78385,0.80615,5
COM6,508,08-Feb-18,2018-02-08 19:00:00,1.6653333333333,1.4050833333333002,1.3010833333333,1.2605333333333,1.1883666666666999,1.1125166666667,1.13615,5
COM6,508,08-Feb-18,2018-02-08 20:00:00,2.2759,1.8568333333333,1.7123,1.64765,1.5463,1.4374166666666999,1.4743833333333,5
COM6,508,08-Feb-18,2018-02-08 21:00:00,1.35575,1.0967,1.0097166666667,0.97056666666667,0.91038333333333,0.8576,0.88228333333333,5
COM6,508,08-Feb-18,2018-02-08 22:00:00,0.4844,0.45493333333333,0.41465,0.39796666666667,0.37105,0.34233333333333,0.35068333333333,5
COM6,508,08-Feb-18,2018-02-08 23:00:00,0.31930909090909004,0.3212,0.28854545454545,0.28007272727272997,0.25343636363635996,0.23030909090909,0.23249090909091,5
