COM4,508,24-Dec-19,2019-12-24 00:00:00,0.33150847457627003,0.30857627118644,0.28715254237288,0.28064406779661,0.26323728813559,0.24257627118643998,0.24538983050847002,5
COM4,508,24-Dec-19,2019-12-24 01:00:00,0.32321666666667,0.32326666666667,0.30748333333333,0.30586666666667,0.28901666666667,0.2717,0.2756,5
COM4,508,24-Dec-19,2019-12-24 02:00:00,0.22566666666667004,0.2219,0.20788333333332998,0.20608333333332995,0.19291666666667004,0.17938333333332998,0.18135,5
COM4,508,24-Dec-19,2019-12-24 03:00:00,0.19493333333332996,0.19906666666667003,0.18856666666667002,0.18863333333332996,0.17611666666667003,0.16611666666667002,0.16598333333332999,5
COM4,508,24-Dec-19,2019-12-24 04:00:00,0.18146666666667002,0.18516666666667003,0.17308333333332998,0.17448333333332997,0.15981666666667002,0.15235,0.15291666666667,5
COM4,508,24-Dec-19,2019-12-24 05:00:00,0.069016666666667,0.097166666666667,0.093583333333333,0.098916666666667,0.0893,0.08765,0.08625,5
COM4,508,24-Dec-19,2019-12-24 06:00:00,0.1017,0.11901666666666999,0.1138,0.11933333333333,0.10623333333333,0.10135,0.10053333333333,5
COM4,508,24-Dec-19,2019-12-24 07:00:00,0.0717,0.092733333333333,0.08758333333333299,0.093416666666667,0.0841,0.08463333333333299,0.08485,5
COM4,508,24-Dec-19,2019-12-24 08:00:00,0.11756666666667,0.14013333333332997,0.13445,0.13305,0.12148333333333,0.11976666666666999,0.12296666666667,5
COM4,508,24-Dec-19,2019-12-24 09:00:00,0.093083333333333,0.10278333333333001,0.096383333333333,0.09905,0.091916666666667,0.089366666666667,0.09075,5
COM4,508,24-Dec-19,2019-12-24 10:00:00,0.16166666666667,0.1512,0.1426,0.1359,0.13475,0.12395,0.1294,5
COM4,508,24-Dec-19,2019-12-24 11:00:00,0.24826666666667002,0.23498333333332996,0.22231666666667002,0.21366666666667003,0.20771666666667002,0.19003333333332997,0.19553333333332998,5
COM4,508,24-Dec-19,2019-12-24 12:00:00,0.30195,0.28731666666667,0.26976666666667004,0.26161666666667005,0.2515,0.23188333333332997,0.2402,5
COM4,508,24-Dec-19,2019-12-24 13:00:00,0.31638333333333,0.29513333333333003,0.27731666666667,0.26768333333332994,0.25806666666667005,0.23553333333332996,0.24293333333332998,5
COM4,508,24-Dec-19,2019-12-24 14:00:00,0.41726666666667,0.39076666666667,0.36351666666667,0.353,0.33671666666667,0.31345,0.32205,5
COM4,508,24-Dec-19,2019-12-24 15:00:00,0.48573333333333,0.43508333333333,0.40178333333333,0.38825,0.36726666666667,0.33823333333333,0.34708333333333,5
COM4,508,24-Dec-19,2019-12-24 16:00:00,0.77765,0.73003333333333,0.68463333333333,0.67438333333333,0.6452666666666701,0.61135,0.6253166666666701,5
COM4,508,24-Dec-19,2019-12-24 17:00:00,1.0638,1.0739333333333,1.0818666666666998,1.1229833333333001,1.1153666666667,1.1066,1.13605,5
COM4,508,24-Dec-19,2019-12-24 18:00:00,0.78153333333333,0.6247,0.57008333333333,0.55435,0.51785,0.47868333333333,0.48886666666667,5
COM4,508,24-Dec-19,2019-12-24 19:00:00,0.79655,0.6209166666666701,0.5634,0.55005,0.5113,0.47058333333333,0.47665,5
COM4,508,24-Dec-19,2019-12-24 20:00:00,0.50638333333333,0.43165,0.39263333333333,0.38988333333333003,0.35523333333333,0.32796666666667,0.33103333333333,5
COM4,508,24-Dec-19,2019-12-24 21:00:00,1.47065,1.09795,0.9856,0.96073333333333,0.87893333333333,0.8019166666666699,0.80841666666667,5
COM4,508,24-Dec-19,2019-12-24 22:00:00,2.11895,1.4776833333333002,1.3117166666667,1.2699833333333002,1.1574166666666998,1.04905,1.0590166666667,5
COM4,508,24-Dec-19,2019-12-24 23:00:00,1.5554833333333,1.1832333333333,1.0645,1.0491,0.96495,0.89793333333333,0.90481666666667,5
