COM6,508,19-Feb-18,2018-02-19 00:00:00,0.15557627118644002,0.14193220338982998,0.13422033898305,0.12883050847458,0.12608474576271,0.11349152542372999,0.11944067796610001,5
COM6,508,19-Feb-18,2018-02-19 01:00:00,0.13356666666667,0.11685,0.11228333333333,0.10545,0.10816666666666999,0.09685,0.10208333333333,5
COM6,508,19-Feb-18,2018-02-19 02:00:00,0.135,0.12298333333333,0.11728333333333,0.11061666666667,0.11313333333333,0.10261666666666999,0.1086,5
COM6,508,19-Feb-18,2018-02-19 03:00:00,0.092883333333333,0.08588333333333299,0.08338333333333299,0.07766666666666701,0.078933333333333,0.0678,0.071583333333333,5
COM6,508,19-Feb-18,2018-02-19 04:00:00,0.082516666666667,0.074716666666667,0.07261666666666701,0.066716666666667,0.07128333333333299,0.0636,0.06896666666666701,5
COM6,508,19-Feb-18,2018-02-19 05:00:00,0.08173333333333299,0.0803,0.076283333333333,0.0744,0.072466666666667,0.066683333333333,0.07011666666666701,5
COM6,508,19-Feb-18,2018-02-19 06:00:00,0.16585,0.16666666666667002,0.15733333333333,0.1546,0.14823333333333,0.14075,0.14506666666667,5
COM6,508,19-Feb-18,2018-02-19 07:00:00,0.18935,0.18918333333332996,0.18016666666667003,0.17925,0.17128333333332996,0.16578333333332998,0.1702,5
COM6,508,19-Feb-18,2018-02-19 08:00:00,0.1844,0.18665,0.17671666666667002,0.17761666666667003,0.16726666666667,0.16123333333332998,0.16588333333333,5
COM6,508,19-Feb-18,2018-02-19 09:00:00,0.20031666666667003,0.19763333333332997,0.18543333333332998,0.1844,0.17305,0.16533333333332997,0.16823333333332996,5
COM6,508,19-Feb-18,2018-02-19 10:00:00,0.25508333333332994,0.25158333333333,0.2361,0.23343333333332997,0.22076666666667003,0.21116666666667003,0.21496666666667003,5
COM6,508,19-Feb-18,2018-02-19 11:00:00,0.25005,0.23978333333332996,0.22485,0.22273333333332998,0.20868333333332997,0.19861666666667002,0.20411666666667003,5
COM6,508,19-Feb-18,2018-02-19 12:00:00,0.25636666666667,0.2432,0.22931666666667003,0.22406666666667002,0.21308333333332996,0.20393333333332997,0.21011666666667003,5
COM6,508,19-Feb-18,2018-02-19 13:00:00,0.302,0.29306666666667,0.2757,0.2725,0.25961666666667005,0.24738333333332996,0.25263333333333,5
COM6,508,19-Feb-18,2018-02-19 14:00:00,0.24535,0.2259,0.21228333333332997,0.2068,0.19615,0.18051666666667004,0.18451666666667002,5
COM6,508,19-Feb-18,2018-02-19 15:00:00,0.18036666666667003,0.16915,0.15741666666667,0.1528,0.14361666666667,0.1287,0.13276666666667,5
COM6,508,19-Feb-18,2018-02-19 16:00:00,0.20903333333332996,0.18448333333332997,0.17001666666667004,0.16066666666667,0.15275,0.13441666666667,0.13831666666667,5
COM6,508,19-Feb-18,2018-02-19 17:00:00,0.33508333333333,0.30925,0.28888333333333,0.28015,0.26693333333332997,0.24871666666667003,0.25521666666667003,5
COM6,508,19-Feb-18,2018-02-19 18:00:00,0.35655,0.31658333333333,0.28996666666667,0.27778333333333,0.25973333333333,0.23526666666667004,0.24033333333332996,5
COM6,508,19-Feb-18,2018-02-19 19:00:00,1.3382666666667,1.18805,1.09755,1.05875,0.98235,0.8722,0.88641666666667,5
COM6,508,19-Feb-18,2018-02-19 20:00:00,0.53791666666667,0.3905,0.34625,0.33026666666667,0.29811666666666997,0.2663,0.26905,5
COM6,508,19-Feb-18,2018-02-19 21:00:00,0.71106666666667,0.53393333333333,0.48093333333333,0.45471666666667,0.41846666666667,0.37515,0.38016666666667,5
COM6,508,19-Feb-18,2018-02-19 22:00:00,0.37358333333333,0.29735,0.26501666666667,0.25201666666667005,0.23113333333332997,0.21006666666667004,0.2115,5
COM6,508,19-Feb-18,2018-02-19 23:00:00,0.6554181818181801,0.55369090909091,0.50472727272727,0.4846,0.45152727272727006,0.415,0.42441818181818003,5
