COM6,508,06-Oct-18,2018-10-06 00:00:00,0.37259322033897996,0.33052542372881,0.30705084745763,0.29825423728814004,0.28466101694915,0.27149152542373,0.2794406779661,5
COM6,508,06-Oct-18,2018-10-06 01:00:00,0.38525,0.33326666666667,0.30816666666667,0.29695,0.28055,0.26805,0.27441666666667003,5
COM6,508,06-Oct-18,2018-10-06 02:00:00,0.4691,0.42273333333333,0.39345,0.38406666666667,0.36601666666667,0.35046666666667,0.36,5
COM6,508,06-Oct-18,2018-10-06 03:00:00,0.38475,0.3492,0.3264,0.31975,0.30521666666667,0.29066666666667,0.2992,5
COM6,508,06-Oct-18,2018-10-06 04:00:00,0.09185,0.10796666666667,0.1032,0.10475,0.099416666666667,0.096383333333333,0.098983333333333,5
COM6,508,06-Oct-18,2018-10-06 05:00:00,0.45873333333333,0.4406,0.41618333333333,0.40906666666667,0.39306666666667,0.37893333333333,0.39046666666667,5
COM6,508,06-Oct-18,2018-10-06 06:00:00,0.82615,0.76145,0.71483333333333,0.69881666666667,0.66873333333333,0.63548333333333,0.6531166666666701,5
COM6,508,06-Oct-18,2018-10-06 07:00:00,0.97971666666667,0.86495,0.80528333333333,0.78565,0.74925,0.70595,0.72541666666667,5
COM6,508,06-Oct-18,2018-10-06 08:00:00,0.36753333333333,0.38965,0.36853333333333,0.3633,0.34815,0.3302,0.33956666666667,5
COM6,508,06-Oct-18,2018-10-06 09:00:00,0.32176666666667,0.3454,0.3294,0.32855,0.3156,0.3042,0.3132,5
COM6,508,06-Oct-18,2018-10-06 10:00:00,0.28063333333333,0.29153333333333,0.27758333333333,0.27683333333333,0.26516666666667005,0.25593333333332996,0.2633,5
COM6,508,06-Oct-18,2018-10-06 11:00:00,0.31623333333333,0.32396666666667,0.3099,0.3103,0.29755,0.28838333333333,0.29558333333333,5
COM6,508,06-Oct-18,2018-10-06 12:00:00,0.27271666666667005,0.28063333333333,0.26858333333332995,0.2698,0.25998333333332996,0.25205,0.25946666666667,5
COM6,508,06-Oct-18,2018-10-06 13:00:00,0.2765,0.28113333333333,0.26986666666667003,0.26983333333333,0.26101666666667,0.25255,0.25953333333332995,5
COM6,508,06-Oct-18,2018-10-06 14:00:00,0.29805,0.30023333333333,0.28788333333333,0.2875,0.27905,0.27013333333332995,0.27718333333333,5
COM6,508,06-Oct-18,2018-10-06 15:00:00,0.3104,0.30725,0.2939,0.2918,0.28285,0.2727,0.28178333333333,5
COM6,508,06-Oct-18,2018-10-06 16:00:00,0.49036666666667,0.49138333333333,0.47201666666666997,0.47361666666667,0.46176666666667,0.4544,0.46913333333333,5
COM6,508,06-Oct-18,2018-10-06 17:00:00,0.38193333333333,0.3859,0.36958333333333,0.36966666666667,0.36096666666667,0.35346666666667,0.36436666666667,5
COM6,508,06-Oct-18,2018-10-06 18:00:00,0.36356666666667,0.36405,0.34903333333333003,0.34878333333333,0.33981666666667,0.33066666666667,0.34206666666667,5
COM6,508,06-Oct-18,2018-10-06 19:00:00,0.40213333333333,0.38545,0.36438333333333,0.35926666666667,0.34635,0.33225,0.3424,5
COM6,508,06-Oct-18,2018-10-06 20:00:00,0.96185,0.74416666666667,0.68001666666667,0.6531833333333299,0.6198166666666701,0.57808333333333,0.59456666666667,5
COM6,508,06-Oct-18,2018-10-06 21:00:00,0.6413,0.57041666666667,0.52813333333333,0.51511666666667,0.49261666666667,0.4685,0.48221666666667,5
COM6,508,06-Oct-18,2018-10-06 22:00:00,0.74193333333333,0.677,0.6309166666666701,0.6179666666666701,0.5906833333333299,0.55416666666667,0.56893333333333,5
COM6,508,06-Oct-18,2018-10-06 23:00:00,1.0288813559321999,0.95993220338983,0.90103389830508,0.88603389830508,0.8502542372881401,0.80298305084746,0.8258813559321999,5
