COM6,508,29-May-18,2018-05-29 00:00:00,0.10237288135592999,0.09391525423728801,0.087423728813559,0.08476271186440701,0.07986440677966099,0.072152542372881,0.072949152542373,5.0
COM6,508,29-May-18,2018-05-29 01:00:00,0.15885,0.1372,0.12525,0.12013333333333001,0.11173333333333,0.10108333333333,0.10283333333333,5.0
COM6,508,29-May-18,2018-05-29 02:00:00,0.18975,0.1735,0.16036666666667002,0.15623333333332998,0.14775,0.13515,0.13773333333333,5.0
COM6,508,29-May-18,2018-05-29 03:00:00,0.14341666666667002,0.13396666666666998,0.12535,0.12133333333333,0.11436666666666999,0.10451666666666999,0.10656666666667,5.0
COM6,508,29-May-18,2018-05-29 04:00:00,0.49661666666667,0.46118333333333,0.42776666666667,0.4166,0.39485,0.36606666666667,0.37465,5.0
COM6,508,29-May-18,2018-05-29 05:00:00,0.55945,0.52681666666667,0.49225,0.48183333333333,0.45625,0.42433333333333,0.434,5.0
COM6,508,29-May-18,2018-05-29 06:00:00,0.66635,0.64148333333333,0.6026333333333299,0.5917166666666701,0.5615,0.52711666666667,0.53923333333333,5.0
COM6,508,29-May-18,2018-05-29 07:00:00,1.2177166666666999,1.17265,1.0988666666667,1.0799,1.0252666666666999,0.96356666666667,0.98703333333333,5.0
COM6,508,29-May-18,2018-05-29 08:00:00,1.4460666666667,1.4232,1.34555,1.3305666666667,1.2695166666667,1.2054,1.2341333333333,5.0
COM6,508,29-May-18,2018-05-29 09:00:00,0.73026666666667,0.72906666666667,0.68956666666667,0.67961666666667,0.64576666666667,0.6027166666666701,0.61608333333333,5.0
COM6,508,29-May-18,2018-05-29 10:00:00,0.5602333333333299,0.5593666666666701,0.52645,0.51888333333333,0.49106666666667,0.4586,0.46871666666667,5.0
COM6,508,29-May-18,2018-05-29 11:00:00,0.7508,0.732,0.6879833333333301,0.67526666666667,0.6397,0.5964,0.6099,5.0
COM6,508,29-May-18,2018-05-29 12:00:00,0.5365,0.5309,0.50416666666667,0.49893333333333,0.47311666666667,0.4426,0.45098333333333,5.0
COM6,508,29-May-18,2018-05-29 13:00:00,0.42428333333333,0.41581666666667,0.39415,0.38598333333333,0.36708333333333,0.33851666666667,0.3461,5.0
COM6,508,29-May-18,2018-05-29 14:00:00,0.3581,0.3526,0.33153333333333,0.32605,0.30751666666667,0.28365,0.28905,5.0
COM6,508,29-May-18,2018-05-29 15:00:00,0.26563333333332995,0.26015,0.24675,0.23991666666667003,0.2284,0.20805,0.21216666666667003,5.0
COM6,508,29-May-18,2018-05-29 16:00:00,0.25036666666667,0.24453333333332997,0.23128333333332995,0.22705,0.21355,0.19546666666667004,0.19958333333332998,5.0
COM6,508,29-May-18,2018-05-29 17:00:00,0.2108,0.20593333333332997,0.1932,0.18738333333332996,0.17828333333332996,0.16043333333332999,0.16478333333332998,5.0
COM6,508,29-May-18,2018-05-29 18:00:00,0.21468333333332998,0.2043,0.18988333333332996,0.18355,0.17061666666667002,0.15208333333333,0.15588333333333,5.0
COM6,508,29-May-18,2018-05-29 19:00:00,0.30948333333333,0.29415,0.27406666666667,0.26633333333333,0.24988333333332996,0.23088333333332997,0.23451666666667004,5.0
COM6,508,29-May-18,2018-05-29 20:00:00,0.27899999999999997,0.26691666666667,0.24798333333332997,0.24115,0.22403333333332998,0.20488333333332998,0.20711666666667003,5.0
COM6,508,29-May-18,2018-05-29 21:00:00,0.16795,0.1531,0.13908333333332998,0.13455,0.12093333333333,0.10665,0.10863333333333,5.0
COM6,508,29-May-18,2018-05-29 22:00:00,0.15713333333333,0.14586666666667,0.1325,0.12913333333333,0.1171,0.10593333333333001,0.10671666666667,5.0
COM6,508,29-May-18,2018-05-29 23:00:00,0.21845762711864003,0.15076271186441,0.14145762711864002,0.13610169491525,0.12994915254237,0.11906779661017,0.12422033898305,4.6610169491525
