COM6,508,03-Apr-18,2018-04-03 00:00:00,0.049389830508474994,0.052423728813559,0.04859322033898301,0.05,0.043186440677966,0.046525423728814005,0.045033898305085,5
COM6,508,03-Apr-18,2018-04-03 01:00:00,0.048866666666666995,0.05135,0.0468,0.0521,0.0425,0.04605,0.044883333333333005,5
COM6,508,03-Apr-18,2018-04-03 02:00:00,0.049116666666666996,0.052266666666666996,0.047366666666666994,0.05166666666666699,0.04253333333333301,0.04525,0.04346666666666699,5
COM6,508,03-Apr-18,2018-04-03 03:00:00,0.020266666666667002,0.027133333333332996,0.024983333333332997,0.030516666666667004,0.022383333333332995,0.029283333333332995,0.027333333333332994,5
COM6,508,03-Apr-18,2018-04-03 04:00:00,0.042233333333333005,0.045383333333333005,0.042883333333333,0.045266666666666996,0.037916666666667,0.0371,0.03595,5
COM6,508,03-Apr-18,2018-04-03 05:00:00,0.09153333333333301,0.090516666666667,0.08483333333333298,0.08481666666666701,0.07865,0.07751666666666701,0.077866666666667,5
COM6,508,03-Apr-18,2018-04-03 06:00:00,0.25853333333332995,0.26095,0.24801666666667002,0.24526666666667002,0.23523333333332996,0.23188333333332997,0.2369,5
COM6,508,03-Apr-18,2018-04-03 07:00:00,0.64753333333333,0.66581666666667,0.6346,0.63143333333333,0.6091,0.5943,0.6119833333333299,5
COM6,508,03-Apr-18,2018-04-03 08:00:00,0.31128333333333,0.32643333333333,0.31076666666667,0.30895,0.29843333333333,0.2922,0.3008,5
COM6,508,03-Apr-18,2018-04-03 09:00:00,0.50828333333333,0.5272,0.50408333333333,0.5027,0.48655,0.47728333333333,0.49146666666667,5
COM6,508,03-Apr-18,2018-04-03 10:00:00,0.28905,0.28978333333333,0.27741666666667,0.27431666666667004,0.26945,0.26638333333333,0.27506666666667,5
COM6,508,03-Apr-18,2018-04-03 11:00:00,0.27288333333333,0.26611666666667005,0.25335,0.24798333333332997,0.2449,0.23651666666667004,0.24663333333332996,5
COM6,508,03-Apr-18,2018-04-03 12:00:00,0.24875,0.24493333333332998,0.23325,0.22795,0.22286666666667004,0.2116,0.22068333333332996,5
COM6,508,03-Apr-18,2018-04-03 13:00:00,0.31395,0.30811666666667,0.29355,0.28601666666666997,0.28091666666667,0.2669,0.27788333333333,5
COM6,508,03-Apr-18,2018-04-03 14:00:00,0.3639,0.3614,0.3459,0.34011666666667,0.33781666666667,0.32866666666667,0.3419,5
COM6,508,03-Apr-18,2018-04-03 15:00:00,0.47861666666667,0.48545,0.46603333333333,0.45996666666667,0.45401666666667,0.44806666666667,0.46713333333333,5
COM6,508,03-Apr-18,2018-04-03 16:00:00,0.49356666666667,0.49593333333333,0.47513333333333,0.4666,0.46128333333333,0.44985,0.46855,5
COM6,508,03-Apr-18,2018-04-03 17:00:00,0.4246,0.4341,0.41625,0.4112,0.40693333333333,0.40325,0.41918333333333,5
COM6,508,03-Apr-18,2018-04-03 18:00:00,0.41225,0.42406666666667,0.40625,0.4021,0.39375,0.38615,0.40133333333333,5
COM6,508,03-Apr-18,2018-04-03 19:00:00,0.5713,0.5852,0.55878333333333,0.5593833333333299,0.54088333333333,0.53686666666667,0.5537166666666701,5
COM6,508,03-Apr-18,2018-04-03 20:00:00,0.5624,0.5196,0.48266666666667,0.47803333333333,0.44826666666667,0.43405,0.44401666666667,5
COM6,508,03-Apr-18,2018-04-03 21:00:00,0.56096666666667,0.49086666666667,0.44953333333333,0.44281666666666997,0.4106,0.39238333333333003,0.3974,5
COM6,508,03-Apr-18,2018-04-03 22:00:00,0.53418333333333,0.43943333333333,0.39423333333333,0.37941666666667,0.34576666666667,0.32088333333333,0.32426666666667,5
COM6,508,03-Apr-18,2018-04-03 23:00:00,0.44975438596490996,0.36805263157894996,0.32799999999999996,0.31375438596490995,0.28519298245614,0.26077192982456,0.26349122807018,5
