COM4,508,07-Feb-20,2020-02-07 00:00:00,0.014913793103447998,0.051362068965516997,0.052672413793102994,0.057879310344827996,0.05536206896551699,0.055741379310345,0.05756896551724099,5.0
COM4,508,07-Feb-20,2020-02-07 01:00:00,0.0055166666666667,0.026516666666667004,0.027983333333332996,0.0326,0.029216666666667005,0.02825,0.028783333333332994,5.0
COM4,508,07-Feb-20,2020-02-07 02:00:00,0.0746,0.080633333333333,0.076483333333333,0.0754,0.07095,0.066666666666667,0.06725,5.0
COM4,508,07-Feb-20,2020-02-07 03:00:00,0.072966666666667,0.070833333333333,0.0675,0.07035,0.06471666666666699,0.0634,0.064483333333333,5.0
COM4,508,07-Feb-20,2020-02-07 04:00:00,0.14915,0.10705,0.09683333333333301,0.094266666666667,0.08708333333333299,0.080616666666667,0.082033333333333,5.0
COM4,508,07-Feb-20,2020-02-07 05:00:00,0.111,0.11021666666666999,0.10381666666667,0.10171666666667,0.09505,0.0887,0.09085,5.0
COM4,508,07-Feb-20,2020-02-07 06:00:00,0.19745,0.19258333333332997,0.1788,0.17516666666667002,0.16601666666667,0.15403333333333,0.15726666666667002,5.0
COM4,508,07-Feb-20,2020-02-07 07:00:00,0.92626666666667,0.8603,0.80775,0.79711666666667,0.7657,0.75096666666667,0.77526666666667,5.0
COM4,508,07-Feb-20,2020-02-07 08:00:00,1.2915833333333,1.1798333333333,1.1022833333333,1.0847333333333,1.0396833333333,1.01895,1.0510333333333,5.0
COM4,508,07-Feb-20,2020-02-07 09:00:00,0.8642,0.80531666666667,0.75336666666667,0.74116666666667,0.71365,0.7059,0.7302,5.0
COM4,508,07-Feb-20,2020-02-07 10:00:00,0.70465,0.669,0.6273666666666701,0.61646666666667,0.5930666666666701,0.5848,0.60515,5.0
COM4,508,07-Feb-20,2020-02-07 11:00:00,0.71148333333333,0.6652333333333299,0.625,0.6128,0.59375,0.57993333333333,0.6013,5.0
COM4,508,07-Feb-20,2020-02-07 12:00:00,0.95761666666667,0.88206666666667,0.82646666666667,0.80836666666667,0.77693333333333,0.75245,0.78258333333333,5.0
COM4,508,07-Feb-20,2020-02-07 13:00:00,0.38046666666667,0.35773333333333,0.33666666666667,0.32495,0.31891666666667,0.30943333333333,0.32153333333333,5.0
COM4,508,07-Feb-20,2020-02-07 14:00:00,0.23561666666667003,0.22331666666667002,0.20736666666667003,0.19901666666667003,0.18986666666667004,0.17666666666667002,0.18251666666667002,5.0
COM4,508,07-Feb-20,2020-02-07 15:00:00,0.40473333333333,0.37701666666667,0.35365,0.34151666666667,0.32671666666667,0.3031,0.31383333333333,5.0
COM4,508,07-Feb-20,2020-02-07 16:00:00,0.51305,0.45125,0.4157,0.39963333333333,0.37546666666667,0.3441,0.35261666666667,5.0
COM4,508,07-Feb-20,2020-02-07 17:00:00,1.0317,0.90365,0.83651666666667,0.80993333333333,0.76276666666667,0.7113,0.72938333333333,5.0
COM4,508,07-Feb-20,2020-02-07 18:00:00,1.2841666666667,1.06505,0.9837,0.9500833333333301,0.89096666666667,0.82361666666667,0.8437,5.0
COM4,508,07-Feb-20,2020-02-07 19:00:00,1.1730666666667,1.0214833333333,0.94093333333333,0.90926666666667,0.85221666666667,0.78151666666667,0.79803333333333,5.0
COM4,508,07-Feb-20,2020-02-07 20:00:00,1.0342,0.80513333333333,0.72655,0.69828333333333,0.6428,0.5792833333333299,0.5892,5.0
COM4,508,07-Feb-20,2020-02-07 21:00:00,0.64275,0.51675,0.46233333333333,0.44133333333333,0.40323333333333,0.36486666666667,0.37173333333333003,5.0
COM4,508,07-Feb-20,2020-02-07 22:00:00,0.47681666666667,0.3756,0.33373333333333,0.32306666666667,0.30185,0.28006666666667,0.28825,4.6666666666667
COM4,508,07-Feb-20,2020-02-07 23:00:00,0.84173333333333,0.51358333333333,0.44791666666667,0.41815,0.3902,0.35598333333333,0.36491666666667,5.0
