COM4,508,26-Jun-19,2019-06-26 00:00:00,0.18845762711864003,0.17515254237288003,0.16566101694914998,0.16047457627119002,0.15640677966101998,0.14655932203389999,0.15194915254237,5.0
COM4,508,26-Jun-19,2019-06-26 01:00:00,0.13361666666667,0.1214,0.11391666666667,0.10881666666666999,0.10655,0.0928,0.09761666666666699,5.0
COM4,508,26-Jun-19,2019-06-26 02:00:00,0.2004,0.1793,0.16756666666667,0.16036666666667002,0.1562,0.14856666666667,0.15441666666667,5.0
COM4,508,26-Jun-19,2019-06-26 03:00:00,0.22148333333332998,0.20343333333332997,0.18975,0.18308333333332996,0.17775,0.16563333333333,0.1713,5.0
COM4,508,26-Jun-19,2019-06-26 04:00:00,0.23733333333332995,0.21971666666667003,0.20513333333332998,0.1991,0.1909,0.17711666666667003,0.18323333333332997,5.0
COM4,508,26-Jun-19,2019-06-26 05:00:00,0.38758333333333,0.36346666666667,0.33956666666667,0.33031666666667,0.31608333333333,0.2954,0.30511666666667,5.0
COM4,508,26-Jun-19,2019-06-26 06:00:00,0.37538333333333,0.35525,0.33346666666667,0.32461666666667,0.31108333333333,0.29126666666667,0.30105,5.0
COM4,508,26-Jun-19,2019-06-26 07:00:00,0.5969666666666701,0.5667,0.5283,0.51331666666667,0.49095,0.45405,0.46926666666667,5.0
COM4,508,26-Jun-19,2019-06-26 08:00:00,0.25371666666667003,0.23311666666667002,0.21446666666667002,0.20726666666667004,0.19686666666667002,0.18393333333332998,0.19145,5.0
COM4,508,26-Jun-19,2019-06-26 09:00:00,0.1996,0.18081666666667004,0.16601666666667,0.16033333333333,0.15065,0.13668333333333,0.14081666666667,5.0
COM4,508,26-Jun-19,2019-06-26 10:00:00,0.18931666666667002,0.16963333333332997,0.15546666666667,0.14941666666667,0.14006666666667,0.12876666666667,0.13363333333333,5.0
COM4,508,26-Jun-19,2019-06-26 11:00:00,0.16411666666667002,0.14636666666667,0.13355,0.1274,0.12068333333333,0.1112,0.11431666666667,5.0
COM4,508,26-Jun-19,2019-06-26 12:00:00,0.11338333333333,0.10333333333333,0.09435,0.09181666666666699,0.083266666666667,0.075216666666667,0.07666666666666701,4.4166666666667
COM4,508,26-Jun-19,2019-06-26 13:00:00,0.07600986842105299,0.066003289473684,0.06478947368421101,0.065532894736842,0.068401315789474,0.07311842105263201,0.079134868421053,0.7894736842105301
COM4,508,26-Jun-19,2019-06-26 14:00:00,0.21701666666667002,0.2035,0.19025,0.18708333333332997,0.17906666666667004,0.17151666666667004,0.1781,5.0
COM4,508,26-Jun-19,2019-06-26 15:00:00,0.19801666666667003,0.18765,0.17463333333332998,0.17053333333332996,0.16386666666667002,0.16038333333333,0.16525,5.0
COM4,508,26-Jun-19,2019-06-26 16:00:00,0.19856666666667003,0.18631666666667004,0.17373333333332996,0.16993333333332997,0.16235,0.1566,0.1606,5.0
COM4,508,26-Jun-19,2019-06-26 17:00:00,0.21845,0.20451666666667004,0.19083333333332997,0.18528333333332997,0.17895,0.17168333333332997,0.17711666666667003,5.0
COM4,508,26-Jun-19,2019-06-26 18:00:00,0.20495,0.18901666666667002,0.17608333333332996,0.17165,0.16406666666667002,0.15565,0.15971666666667,5.0
COM4,508,26-Jun-19,2019-06-26 19:00:00,0.17906666666667004,0.16541666666667001,0.15366666666667,0.14873333333333,0.14268333333333,0.13486666666667,0.1395,5.0
COM4,508,26-Jun-19,2019-06-26 20:00:00,0.18511666666667004,0.17163333333332997,0.16048333333332998,0.15611666666667,0.15025,0.1433,0.14708333333332999,5.0
COM4,508,26-Jun-19,2019-06-26 21:00:00,0.15591666666667,0.14375,0.13415,0.12925,0.12475,0.11631666666667,0.11985,5.0
COM4,508,26-Jun-19,2019-06-26 22:00:00,0.12253333333333001,0.11015,0.10223333333333001,0.098933333333333,0.09425,0.088616666666667,0.091483333333333,5.0
COM4,508,26-Jun-19,2019-06-26 23:00:00,0.10891666666666999,0.098383333333333,0.0913,0.08905,0.08515,0.07981666666666701,0.08156666666666701,5.0
