COM6,0508,05-Jan-19,2019-01-05 00:00:00,3.9380338983051,3.2536610169492,2.8729152542373,2.7303220338983,2.4963559322034,2.2195593220339,2.2381016949153,4.5,0,0,0,0,0,0,0,0,0,0,0,0,0,0,0,0,0,0,0,0,0,0,0,0,0,0,0,0,0,0,0,0,0,0,0,0,0,0,0,0,0,0
COM6,0508,05-Jan-19,2019-01-05 01:00:00,3.8418,3.1052,2.72005,2.5665333333333,2.3481666666667,2.0685333333333,2.0885166666667,4.4816666666667,0,0,0,0,0,0,0,0,0,0,0,0,0,0,0,0,0,0,0,0,0,0,0,0,0,0,0,0,0,0,0,0,0,0,0,0,0,0,0,0,0,0
COM6,0508,05-Jan-19,2019-01-05 02:00:00,2.87115,2.3082166666667,2.0234166666667,1.8983333333333,1.7335,1.5281666666667,1.5462333333333,4.165,0,0,0,0,0,0,0,0,0,0,0,0,0,0,0,0,0,0,0,0,0,0,0,0,0,0,0,0,0,0,0,0,0,0,0,0,0,0,0,0,0,0
COM6,0508,05-Jan-19,2019-01-05 03:00:00,1.2022333333333,1.0933,1.0459166666667,1.0366166666667,1.0067666666667,0.96513333333333,0.99283333333333,4.9,0,0,0,0,0,0,0,0,0,0,0,0,0,0,0,0,0,0,0,0,0,0,0,0,0,0,0,0,0,0,0,0,0,0,0,0,0,0,0,0,0,0
COM6,0508,05-Jan-19,2019-01-05 04:00:00,1.2152333333333,1.17305,1.1142333333333,1.1022666666667,1.0720833333333,1.0295,1.0597833333333,4.9,0,0,0,0,0,0,0,0,0,0,0,0,0,0,0,0,0,0,0,0,0,0,0,0,0,0,0,0,0,0,0,0,0,0,0,0,0,0,0,0,0,0
COM6,0508,05-Jan-19,2019-01-05 05:00:00,1.2899833333333,1.2513,1.1858666666667,1.1716333333333,1.1377,1.0882833333333,1.1199666666667,4.9,0,0,0,0,0,0,0,0,0,0,0,0,0,0,0,0,0,0,0,0,0,0,0,0,0,0,0,0,0,0,0,0,0,0,0,0,0,0,0,0,0,0
COM6,0508,05-Jan-19,2019-01-05 06:00:00,1.0757,1.0554,1.0039333333333,0.99308333333333,0.9681,0.93095,0.95791666666667,4.8533333333333,0,0,0,0,0,0,0,0,0,0,0,0,0,0,0,0,0,0,0,0,0,0,0,0,0,0,0,0,0,0,0,0,0,0,0,0,0,0,0,0,0,0
COM6,0508,05-Jan-19,2019-01-05 07:00:00,1.3491666666667,1.32655,1.2601666666667,1.24675,1.2136166666667,1.1635333333333,1.1990833333333,4.8,0,0,0,0,0,0,0,0,0,0,0,0,0,0,0,0,0,0,0,0,0,0,0,0,0,0,0,0,0,0,0,0,0,0,0,0,0,0,0,0,0,0
COM6,0508,05-Jan-19,2019-01-05 08:00:00,1.3284,1.2968,1.2328833333333,1.2196833333333,1.1864833333333,1.1375,1.1701333333333,4.8,0,0,0,0,0,0,0,0,0,0,0,0,0,0,0,0,0,0,0,0,0,0,0,0,0,0,0,0,0,0,0,0,0,0,0,0,0,0,0,0,0,0
COM6,0508,05-Jan-19,2019-01-05 09:00:00,2.1075833333333,2.0432833333333,1.9476166666667,1.92905,1.8829333333333,1.7946166666667,1.8310833333333,4.7966666666667,0,0,0,0,0,0,0,0,0,0,0,0,0,0,0,0,0,0,0,0,0,0,0,0,0,0,0,0,0,0,0,0,0,0,0,0,0,0,0,0,0,0
COM6,0508,05-Jan-19,2019-01-05 10:00:00,2.4946833333333,2.4600166666667,2.3574333333333,2.3409666666667,2.2974,2.1534166666667,2.1929833333333,4.7,0,0,0,0,0,0,0,0,0,0,0,0,0,0,0,0,0,0,0,0,0,0,0,0,0,0,0,0,0,0,0,0,0,0,0,0,0,0,0,0,0,0
COM6,0508,05-Jan-19,2019-01-05 11:00:00,2.5893333333333,2.5565166666667,2.4483333333333,2.4262666666667,2.3815166666667,2.1885833333333,2.2218333333333,4.7,0,0,0,0,0,0,0,0,0,0,0,0,0,0,0,0,0,0,0,0,0,0,0,0,0,0,0,0,0,0,0,0,0,0,0,0,0,0,0,0,0,0
COM6,0508,05-Jan-19,2019-01-05 12:00:00,2.7980666666667,2.7216833333333,2.5916833333333,2.5598833333333,2.5009333333333,2.26205,2.287,4.6266666666667,0,0,0,0,0,0,0,0,0,0,0,0,0,0,0,0,0,0,0,0,0,0,0,0,0,0,0,0,0,0,0,0,0,0,0,0,0,0,0,0,0,0
COM6,0508,05-Jan-19,2019-01-05 13:00:00,2.6151666666667,2.5237,2.3929666666667,2.35475,2.2897333333333,2.0461666666667,2.0560333333333,4.6,0,0,0,0,0,0,0,0,0,0,0,0,0,0,0,0,0,0,0,0,0,0,0,0,0,0,0,0,0,0,0,0,0,0,0,0,0,0,0,0,0,0
COM6,0508,05-Jan-19,2019-01-05 14:00:00,1.9104666666667,1.7986166666667,1.6929333333333,1.65375,1.5976166666667,1.4291833333333,1.4302,4.6,0,0,0,0,0,0,0,0,0,0,0,0,0,0,0,0,0,0,0,0,0,0,0,0,0,0,0,0,0,0,0,0,0,0,0,0,0,0,0,0,0,0
COM6,0508,05-Jan-19,2019-01-05 15:00:00,1.79435,1.6594,1.5351166666667,1.4863833333333,1.4192833333333,1.2681333333333,1.2619,4.5533333333333,0,0,0,0,0,0,0,0,0,0,0,0,0,0,0,0,0,0,0,0,0,0,0,0,0,0,0,0,0,0,0,0,0,0,0,0,0,0,0,0,0,0
COM6,0508,05-Jan-19,2019-01-05 16:00:00,2.29735,2.06915,1.9054666666667,1.8373333333333,1.7496333333333,1.5780666666667,1.5641,4.5,0,0,0,0,0,0,0,0,0,0,0,0,0,0,0,0,0,0,0,0,0,0,0,0,0,0,0,0,0,0,0,0,0,0,0,0,0,0,0,0,0,0
COM6,0508,05-Jan-19,2019-01-05 17:00:00,2.4417,2.1809666666667,2.0050833333333,1.9327666666667,1.8302166666667,1.66825,1.6430666666667,4.5,0,0,0,0,0,0,0,0,0,0,0,0,0,0,0,0,0,0,0,0,0,0,0,0,0,0,0,0,0,0,0,0,0,0,0,0,0,0,0,0,0,0
COM6,0508,05-Jan-19,2019-01-05 18:00:00,3.3685333333333,3.0196166666667,2.7741666666667,2.6893166666667,2.5480333333333,2.3580666666667,2.3737833333333,4.5,0,0,0,0,0,0,0,0,0,0,0,0,0,0,0,0,0,0,0,0,0,0,0,0,0,0,0,0,0,0,0,0,0,0,0,0,0,0,0,0,0,0
COM6,0508,05-Jan-19,2019-01-05 19:00:00,3.03145,2.5780333333333,2.3521166666667,2.26415,2.1221833333333,1.9321166666667,1.9653,4.5,0,0,0,0,0,0,0,0,0,0,0,0,0,0,0,0,0,0,0,0,0,0,0,0,0,0,0,0,0,0,0,0,0,0,0,0,0,0,0,0,0,0
COM6,0508,05-Jan-19,2019-01-05 20:00:00,2.97515,2.50375,2.2715333333333,2.1783333333333,2.0394,1.86895,1.8955166666667,4.5,0,0,0,0,0,0,0,0,0,0,0,0,0,0,0,0,0,0,0,0,0,0,0,0,0,0,0,0,0,0,0,0,0,0,0,0,0,0,0,0,0,0
COM6,0508,05-Jan-19,2019-01-05 21:00:00,2.8807333333333,2.1977833333333,1.95575,1.8579833333333,1.7156166666667,1.5412833333333,1.5627666666667,4.5,0,0,0,0,0,0,0,0,0,0,0,0,0,0,0,0,0,0,0,0,0,0,0,0,0,0,0,0,0,0,0,0,0,0,0,0,0,0,0,0,0,0
COM6,0508,05-Jan-19,2019-01-05 22:00:00,2.2795833333333,1.87825,1.6890166666667,1.6106333333333,1.4895333333333,1.34155,1.35845,4.5,0,0,0,0,0,0,0,0,0,0,0,0,0,0,0,0,0,0,0,0,0,0,0,0,0,0,0,0,0,0,0,0,0,0,0,0,0,0,0,0,0,0
COM6,0508,05-Jan-19,2019-01-05 23:00:00,2.8185862068966,2.2153103448276,1.9631724137931,1.8616551724138,1.721224137931,1.5562586206897,1.5751724137931,4.4068965517241,0,0,0,0,0,0,0,0,0,0,0,0,0,0,0,0,0,0,0,0,0,0,0,0,0,0,0,0,0,0,0,0,0,0,0,0,0,0,0,0,0,0
