COM6,508,21-Aug-18,2018-08-21 00:00:00,0.24564406779661,0.20988135593220003,0.19613559322034002,0.19171186440678,0.18206779661017,0.16872881355932,0.17161016949153,5.0
COM6,508,21-Aug-18,2018-08-21 01:00:00,1.6353333333333,1.24025,1.1191833333333001,1.0775833333333,1.0238666666667,0.93321666666667,0.9532,4.6666666666667
COM6,508,21-Aug-18,2018-08-21 02:00:00,1.49545,1.2579833333333001,1.1446,1.1091333333333,1.0549833333333,0.98051666666667,1.0011333333333001,5.0
COM6,508,21-Aug-18,2018-08-21 03:00:00,0.92328333333333,0.80451666666667,0.74033333333333,0.72341666666667,0.69158333333333,0.64663333333333,0.6612833333333299,5.0
COM6,508,21-Aug-18,2018-08-21 04:00:00,0.88851666666667,0.74895,0.68288333333333,0.66286666666667,0.6306,0.58305,0.5948,5.0
COM6,508,21-Aug-18,2018-08-21 05:00:00,1.1053,0.92811666666667,0.84696666666667,0.82,0.78243333333333,0.7244,0.73955,5.0
COM6,508,21-Aug-18,2018-08-21 06:00:00,2.1816333333333002,2.0056,1.8814333333333,1.8556333333333002,1.7960666666667,1.72705,1.7759,5.0
COM6,508,21-Aug-18,2018-08-21 07:00:00,2.3917166666667002,2.2005,2.06575,2.03905,1.9745,1.8967166666667,1.9509333333333,5.0
COM6,508,21-Aug-18,2018-08-21 08:00:00,2.21495,1.9746333333333002,1.8410333333333,1.8111833333333,1.7452,1.6657666666667,1.7084666666666999,5.0
COM6,508,21-Aug-18,2018-08-21 09:00:00,2.6027,2.4042666666667003,2.2680666666667,2.2477166666667,2.1816166666667,2.1197166666667,2.1806666666667,5.0
COM6,508,21-Aug-18,2018-08-21 10:00:00,2.3730166666667003,2.1516,2.0080166666667,1.9766833333333,1.89925,1.8193166666667,1.8667666666667,5.0
COM6,508,21-Aug-18,2018-08-21 11:00:00,1.6625666666667,1.5427,1.4571666666667,1.4430333333333,1.3966166666667,1.3537166666667,1.39185,5.0
COM6,508,21-Aug-18,2018-08-21 12:00:00,0.68556666666667,0.66125,0.63435,0.63535,0.6189,0.6059666666666701,0.623,5.0
COM6,508,21-Aug-18,2018-08-21 13:00:00,0.6494,0.6007666666666701,0.56788333333333,0.55905,0.54103333333333,0.51668333333333,0.5317,5.0
COM6,508,21-Aug-18,2018-08-21 14:00:00,0.79553333333333,0.70745,0.6615166666666701,0.64695,0.6209833333333299,0.5821,0.59726666666667,5.0
COM6,508,21-Aug-18,2018-08-21 15:00:00,0.97346666666667,0.8513166666666699,0.78863333333333,0.76375,0.7285,0.67445,0.69073333333333,5.0
COM6,508,21-Aug-18,2018-08-21 16:00:00,1.0110833333333,0.90863333333333,0.84945,0.8293,0.79521666666667,0.74831666666667,0.7675,5.0
COM6,508,21-Aug-18,2018-08-21 17:00:00,2.0849666666667,1.7449833333333,1.5859333333333,1.5258333333333,1.4318166666667,1.2985333333333,1.3219333333333,5.0
COM6,508,21-Aug-18,2018-08-21 18:00:00,2.9994833333332998,2.5221166666667,2.2913666666667,2.2043166666667005,2.0684666666667,1.8860166666667,1.9216666666667,5.0
COM6,508,21-Aug-18,2018-08-21 19:00:00,0.9551333333333301,0.79225,0.7251,0.70868333333333,0.6667166666666701,0.62965,0.63935,5.0
COM6,508,21-Aug-18,2018-08-21 20:00:00,0.68025,0.56075,0.51121666666667,0.49225,0.4557,0.4012,0.40378333333333,5.0
COM6,508,21-Aug-18,2018-08-21 21:00:00,0.85983333333333,0.70501666666667,0.6336833333333299,0.6087833333333299,0.56198333333333,0.50618333333333,0.51301666666667,5.0
COM6,508,21-Aug-18,2018-08-21 22:00:00,0.8805666666666699,0.75316666666667,0.69278333333333,0.67065,0.6296833333333299,0.5825166666666701,0.5936833333333299,5.0
COM6,508,21-Aug-18,2018-08-21 23:00:00,0.73906779661017,0.6109491525423699,0.5695593220339,0.56222033898305,0.5425593220339,0.52764406779661,0.54513559322034,4.6610169491525
