COM6,508,19-Aug-17,2017-08-19 00:00:00,0.84523728813559,0.84,0.80689830508475,0.80367796610169,0.7823898305084699,0.77240677966102,0.7975593220339,5
COM6,508,19-Aug-17,2017-08-19 01:00:00,0.42448333333333,0.39171666666667,0.37013333333333,0.36495,0.35036666666667,0.32953333333333,0.33916666666667,5
COM6,508,19-Aug-17,2017-08-19 02:00:00,0.2811,0.23471666666667004,0.21548333333332997,0.20576666666667004,0.19285,0.17801666666667004,0.18153333333332997,5
COM6,508,19-Aug-17,2017-08-19 03:00:00,0.47111666666667,0.39203333333333,0.3588,0.35051666666667,0.33258333333333,0.31376666666666997,0.32198333333333,5
COM6,508,19-Aug-17,2017-08-19 04:00:00,0.2816,0.22556666666667002,0.2053,0.1977,0.18636666666667004,0.17118333333332997,0.17521666666667005,5
COM6,508,19-Aug-17,2017-08-19 05:00:00,0.43916666666667,0.37031666666667,0.34055,0.32701666666667,0.31223333333333003,0.29701666666667,0.30548333333333,5
COM6,508,19-Aug-17,2017-08-19 06:00:00,0.64315,0.5834333333333299,0.54566666666667,0.53315,0.51096666666667,0.49868333333333,0.514,5
COM6,508,19-Aug-17,2017-08-19 07:00:00,1.2310833333333,1.1860833333333,1.13,1.1234,1.0895833333333,1.0753,1.1118166666667,5
COM6,508,19-Aug-17,2017-08-19 08:00:00,1.2012166666667,1.1129166666666999,1.0497833333333,1.0364666666667,0.9928,0.96411666666667,0.99218333333333,5
COM6,508,19-Aug-17,2017-08-19 09:00:00,1.2759333333333,1.1772666666667,1.1022666666667,1.0862,1.03635,0.99568333333333,1.02455,5
COM6,508,19-Aug-17,2017-08-19 10:00:00,0.6268333333333299,0.54351666666667,0.49801666666667,0.48391666666667,0.45246666666667,0.41868333333333,0.42788333333333,5
COM6,508,19-Aug-17,2017-08-19 11:00:00,0.89255,0.7764,0.71645,0.6958,0.65491666666667,0.6168333333333299,0.63171666666667,5
COM6,508,19-Aug-17,2017-08-19 12:00:00,0.77341666666667,0.6369666666666701,0.57988333333333,0.5537166666666701,0.5182,0.47573333333333,0.4876,5
COM6,508,19-Aug-17,2017-08-19 13:00:00,0.71193333333333,0.5751,0.51835,0.49426666666667,0.45768333333333,0.40995,0.41915,5
COM6,508,19-Aug-17,2017-08-19 14:00:00,0.6441833333333299,0.50503333333333,0.45475,0.4291,0.39718333333333,0.35135,0.35773333333333,5
COM6,508,19-Aug-17,2017-08-19 15:00:00,0.57726666666667,0.43248333333333,0.38211666666667,0.3556,0.32675,0.2803,0.28623333333333,5
COM6,508,19-Aug-17,2017-08-19 16:00:00,0.5338,0.39921666666667,0.35075,0.3286,0.2988,0.2571,0.26245,5
COM6,508,19-Aug-17,2017-08-19 17:00:00,0.52986666666667,0.40128333333333,0.35653333333333,0.33436666666667,0.30751666666667,0.27021666666667005,0.2743,5
COM6,508,19-Aug-17,2017-08-19 18:00:00,0.6148166666666701,0.47485,0.425,0.40143333333333,0.36938333333333,0.33825,0.34368333333333,5
COM6,508,19-Aug-17,2017-08-19 19:00:00,0.55495,0.4352,0.38888333333333003,0.36861666666667,0.33828333333333,0.29205,0.29655,5
COM6,508,19-Aug-17,2017-08-19 20:00:00,0.6569833333333299,0.47866666666667,0.41523333333333,0.38571666666667,0.34543333333333,0.3006,0.30385,5
COM6,508,19-Aug-17,2017-08-19 21:00:00,1.8889666666667,1.5861666666667,1.4441833333333,1.3858,1.28925,1.1924333333333001,1.22175,5
COM6,508,19-Aug-17,2017-08-19 22:00:00,0.82418333333333,0.6221666666666701,0.5514833333333299,0.51821666666667,0.4707,0.4114,0.41686666666667,5
COM6,508,19-Aug-17,2017-08-19 23:00:00,0.70017543859649,0.53271929824561,0.47173684210526007,0.44464912280702,0.40185964912280997,0.34829824561404,0.35375438596490993,5
