COM6,508,28-Sep-17,2017-09-28 00:00:00,0.39652542372881,0.37820338983051,0.35725423728814,0.34832203389831,0.33216949152541997,0.30779661016949,0.31632203389831,5
COM6,508,28-Sep-17,2017-09-28 01:00:00,0.35871666666667,0.35388333333333,0.33841666666667,0.3339,0.32138333333333,0.3086,0.31773333333333,5
COM6,508,28-Sep-17,2017-09-28 02:00:00,0.6593666666666701,0.63996666666667,0.6069166666666701,0.5939,0.56935,0.54733333333333,0.5635833333333299,5
COM6,508,28-Sep-17,2017-09-28 03:00:00,0.4099,0.39563333333333,0.3727,0.36246666666667,0.34421666666667,0.319,0.32875,5
COM6,508,28-Sep-17,2017-09-28 04:00:00,0.3002,0.28593333333333,0.26855,0.26198333333332996,0.24923333333332998,0.23343333333332997,0.2393,5
COM6,508,28-Sep-17,2017-09-28 05:00:00,0.28653333333333003,0.2766,0.26195,0.25586666666667,0.24171666666667002,0.22368333333332996,0.22955,5
COM6,508,28-Sep-17,2017-09-28 06:00:00,0.31631666666667,0.30308333333333,0.28558333333333,0.28116666666667,0.26618333333332994,0.24858333333332996,0.25661666666667005,5
COM6,508,28-Sep-17,2017-09-28 07:00:00,0.47498333333333,0.46261666666667,0.4383,0.42796666666667,0.4099,0.38868333333333,0.3987,5
COM6,508,28-Sep-17,2017-09-28 08:00:00,0.65035,0.6271166666666701,0.5897833333333299,0.57741666666667,0.5516,0.52748333333333,0.54348333333333,5
COM6,508,28-Sep-17,2017-09-28 09:00:00,1.0181833333333001,0.98933333333333,0.92933333333333,0.90761666666667,0.86431666666667,0.8128,0.83583333333333,5
COM6,508,28-Sep-17,2017-09-28 10:00:00,0.81715,0.8,0.7545333333333301,0.74071666666667,0.7059,0.66895,0.68733333333333,5
COM6,508,28-Sep-17,2017-09-28 11:00:00,0.52308333333333,0.50328333333333,0.47248333333333,0.46075,0.4379,0.40893333333333,0.4189,5
COM6,508,28-Sep-17,2017-09-28 12:00:00,0.41793333333333,0.40126666666667,0.37565,0.36698333333333,0.34721666666667,0.32013333333333,0.32875,5
COM6,508,28-Sep-17,2017-09-28 13:00:00,0.49585,0.48148333333333,0.45621666666667,0.44765,0.42595,0.39991666666667,0.41041666666667,5
COM6,508,28-Sep-17,2017-09-28 14:00:00,0.596,0.5706,0.53753333333333,0.52513333333333,0.4995,0.4643,0.47615,5
COM6,508,28-Sep-17,2017-09-28 15:00:00,0.4584,0.4433,0.42083333333333,0.41278333333333,0.39463333333333,0.3676,0.37935,5
COM6,508,28-Sep-17,2017-09-28 16:00:00,0.24161666666667003,0.24508333333332996,0.23751666666667004,0.23785,0.23345,0.2235,0.2297,5
COM6,508,28-Sep-17,2017-09-28 17:00:00,0.1876,0.18545,0.17785,0.17343333333332997,0.16813333333332997,0.15566666666667,0.16128333333332998,5
COM6,508,28-Sep-17,2017-09-28 18:00:00,0.20785,0.19785,0.18655,0.1835,0.17266666666667002,0.15925,0.16395,5
COM6,508,28-Sep-17,2017-09-28 19:00:00,0.21921666666667003,0.2079,0.1946,0.18938333333332996,0.17853333333332996,0.16435,0.16831666666667003,5
COM6,508,28-Sep-17,2017-09-28 20:00:00,0.18248333333332997,0.17316666666667002,0.16556666666667003,0.16236666666667002,0.15293333333332998,0.14375,0.146,5
COM6,508,28-Sep-17,2017-09-28 21:00:00,0.23426666666667004,0.22686666666667002,0.2126,0.21045,0.19935,0.18786666666667004,0.19241666666667004,5
COM6,508,28-Sep-17,2017-09-28 22:00:00,0.18783333333332997,0.1835,0.17495,0.17196666666667004,0.16341666666667,0.15316666666667,0.15743333333332998,5
COM6,508,28-Sep-17,2017-09-28 23:00:00,0.190875,0.18655357142857001,0.17780357142857,0.17673214285714,0.16582142857143,0.15630357142857002,0.15953571428570998,5
