COM6,508,19-Mar-19,2019-03-19 00:00:00,0.74935593220339,0.655,0.59869491525424,0.5739830508474599,0.5405084745762699,0.49867796610169,0.50922033898305,5.0
COM6,508,19-Mar-19,2019-03-19 01:00:00,0.84363333333333,0.72235,0.6527833333333299,0.6199833333333299,0.57388333333333,0.5039,0.50895,5.0
COM6,508,19-Mar-19,2019-03-19 02:00:00,0.5763,0.50996666666667,0.45771666666667,0.43748333333333,0.39978333333333,0.34501666666666997,0.34936666666667,5.0
COM6,508,19-Mar-19,2019-03-19 03:00:00,0.31005,0.27363333333332995,0.24283333333332996,0.2333,0.20953333333332996,0.17808333333332996,0.18053333333332997,5.0
COM6,508,19-Mar-19,2019-03-19 04:00:00,0.46181666666667,0.40195,0.36301666666667,0.34475,0.31918333333333,0.2885,0.29245,5.0
COM6,508,19-Mar-19,2019-03-19 05:00:00,0.84185,0.72388333333333,0.6538833333333299,0.6296333333333299,0.58213333333333,0.52936666666667,0.53738333333333,5.0
COM6,508,19-Mar-19,2019-03-19 06:00:00,1.36675,1.18375,1.0769,1.0377666666667,0.9652333333333301,0.88236666666667,0.89853333333333,5.0
COM6,508,19-Mar-19,2019-03-19 07:00:00,1.8663166666667,1.65525,1.5064166666667,1.4524333333333002,1.3490833333333,1.23875,1.2590833333333,5.0
COM6,508,19-Mar-19,2019-03-19 08:00:00,3.8003,3.4949166666667004,3.18315,3.0778,2.8492833333333,2.6285166666667004,2.6666666666667003,5.0
COM6,508,19-Mar-19,2019-03-19 09:00:00,2.8170666666667,2.5804166666667,2.3219,2.2292666666667,2.0350333333333,1.84355,1.86275,5.0
COM6,508,19-Mar-19,2019-03-19 10:00:00,1.4812833333333,1.34915,1.2127,1.1624333333333001,1.0563,0.95401666666667,0.95373333333333,5.0
COM6,508,19-Mar-19,2019-03-19 11:00:00,0.99436666666667,0.9285,0.8345,0.82241666666667,0.72358333333333,0.66058333333333,0.65945,5.0
COM6,508,19-Mar-19,2019-03-19 12:00:00,0.17600471698113002,0.13495283018867998,0.11664150943396,0.12379481132075,0.11163443396226,0.092433962264151,0.10803773584906001,2.0400943396226
COM6,508,19-Mar-19,2019-03-19 13:00:00,0.10786577777778,0.019508444444444,0.021438222222222,0.011682666666667,0.026334222222222002,0.014325333333333,0.028190222222222002,4.964444444444401
COM6,508,19-Mar-19,2019-03-19 14:00:00,0.12558333333333,0.11913333333333001,0.11585,0.1197,0.11283333333333001,0.11475,0.11795,5.0
COM6,508,19-Mar-19,2019-03-19 15:00:00,0.12505,0.12991666666666998,0.12466666666666999,0.12366666666666999,0.11811666666666999,0.11305,0.11621666666667,5.0
COM6,508,19-Mar-19,2019-03-19 16:00:00,0.11348333333333001,0.1157,0.1106,0.10928333333333,0.10565,0.10085,0.10365,5.0
COM6,508,19-Mar-19,2019-03-19 17:00:00,0.13656666666667,0.13156666666667,0.12685,0.12418333333333001,0.12083333333333,0.1133,0.11698333333333001,5.0
COM6,508,19-Mar-19,2019-03-19 18:00:00,0.12535,0.11933333333333,0.11378333333333,0.11255,0.10811666666667,0.10105,0.10391666666666999,5.0
COM6,508,19-Mar-19,2019-03-19 19:00:00,0.11788333333333001,0.1131,0.10745,0.10641666666666999,0.10216666666667,0.096416666666667,0.09855,5.0
COM6,508,19-Mar-19,2019-03-19 20:00:00,0.12306666666666999,0.11905,0.11441666666667,0.11246666666666999,0.10851666666667,0.10355,0.10631666666667,5.0
COM6,508,19-Mar-19,2019-03-19 21:00:00,0.13613333333333,0.13195,0.12575,0.1248,0.1206,0.11593333333333,0.11965,5.0
COM6,508,19-Mar-19,2019-03-19 22:00:00,0.1403,0.13501666666667,0.12926666666667,0.12821666666667,0.12363333333333,0.11688333333333001,0.11978333333333001,5.0
COM6,508,19-Mar-19,2019-03-19 23:00:00,0.12961403508772001,0.12331578947368,0.11735087719298,0.11542105263158,0.11135087719298,0.10380701754386,0.1060350877193,5.0
