COM6,508,12-May-18,2018-05-12 00:00:00,0.35154237288136,0.33788135593220003,0.31923728813559005,0.31459322033898,0.3035593220339,0.29844067796609997,0.3088813559322,5.0
COM6,508,12-May-18,2018-05-12 01:00:00,0.20191666666667002,0.19668333333332996,0.18598333333332998,0.18516666666667003,0.17673333333332997,0.17536666666667003,0.18186666666667003,5.0
COM6,508,12-May-18,2018-05-12 02:00:00,0.1824,0.17631666666667004,0.16583333333332997,0.16145,0.15623333333332998,0.1556,0.16136666666667002,5.0
COM6,508,12-May-18,2018-05-12 03:00:00,0.1877,0.18243333333332998,0.17338333333332998,0.17003333333332996,0.16406666666667002,0.16331666666667002,0.16955,5.0
COM6,508,12-May-18,2018-05-12 04:00:00,0.20961666666667003,0.20645,0.19778333333332998,0.19703333333332998,0.1901,0.19096666666667003,0.19776666666667003,5.0
COM6,508,12-May-18,2018-05-12 05:00:00,0.28496666666667,0.28531666666667,0.27506666666667,0.27496666666666997,0.26713333333332995,0.26825,0.2769,5.0
COM6,508,12-May-18,2018-05-12 06:00:00,0.38413333333333,0.36243333333333,0.34101666666667,0.33536666666667,0.32095,0.3137,0.32378333333333,5.0
COM6,508,12-May-18,2018-05-12 07:00:00,0.3171,0.31628333333333003,0.30415,0.30325,0.29393333333333,0.29138333333333,0.30195,5.0
COM6,508,12-May-18,2018-05-12 08:00:00,0.2645,0.26081666666667,0.24968333333332998,0.2489,0.23845,0.2406,0.24903333333332997,5.0
COM6,508,12-May-18,2018-05-12 09:00:00,0.29721666666667,0.29643333333333,0.28188333333333,0.28135,0.27271666666667005,0.26961666666667006,0.27923333333333,5.0
COM6,508,12-May-18,2018-05-12 10:00:00,0.18243333333332998,0.17306666666667003,0.16081666666667002,0.15766666666667,0.14723333333333,0.14371666666667002,0.14701666666667002,5.0
COM6,508,12-May-18,2018-05-12 11:00:00,0.083266666666667,0.089533333333333,0.0868,0.08455,0.08321666666666701,0.08056666666666701,0.08436666666666702,5.0
COM6,508,12-May-18,2018-05-12 12:00:00,0.077783333333333,0.07875,0.076316666666667,0.075816666666667,0.07336666666666701,0.07105,0.073633333333333,5.0
COM6,508,12-May-18,2018-05-12 13:00:00,0.16445,0.16636666666667002,0.15868333333332998,0.15985,0.1512,0.14681666666667,0.15091666666667,5.0
COM6,508,12-May-18,2018-05-12 14:00:00,0.12153333333333001,0.12038333333333001,0.11678333333333,0.1155,0.10958333333333001,0.10703333333333001,0.10858333333333,5.0
COM6,508,12-May-18,2018-05-12 15:00:00,0.098483333333333,0.10191666666667,0.09568333333333301,0.0957,0.090583333333333,0.08778333333333299,0.0897,5.0
COM6,508,12-May-18,2018-05-12 16:00:00,0.08781666666666701,0.089516666666667,0.08631666666666701,0.08713333333333298,0.07973333333333299,0.07741666666666701,0.079516666666667,5.0
COM6,508,12-May-18,2018-05-12 17:00:00,0.0884,0.08543333333333299,0.07898333333333299,0.07683333333333299,0.071766666666667,0.060466666666666995,0.0629,5.0
COM6,508,12-May-18,2018-05-12 18:00:00,0.0936,0.08066666666666701,0.07501666666666701,0.07511666666666701,0.07036666666666701,0.0658,0.07075,4.6666666666667
COM6,508,12-May-18,2018-05-12 19:00:00,0.23948333333332997,0.10786666666667,0.10025,0.09543333333333301,0.092366666666667,0.08748333333333298,0.090583333333333,5.0
COM6,508,12-May-18,2018-05-12 20:00:00,0.4326,0.37835,0.35023333333333,0.33851666666667,0.32381666666666997,0.30823333333333003,0.31701666666667,5.0
COM6,508,12-May-18,2018-05-12 21:00:00,0.40181666666667,0.35981666666667,0.3305,0.31838333333333,0.30363333333333,0.28313333333333,0.29133333333333,5.0
COM6,508,12-May-18,2018-05-12 22:00:00,0.24246666666667002,0.19755,0.17758333333332996,0.16668333333333,0.15798333333332998,0.14413333333332998,0.14766666666667003,5.0
COM6,508,12-May-18,2018-05-12 23:00:00,0.1165,0.10051666666667,0.09035,0.0842,0.07791666666666701,0.07055,0.072916666666667,5.0
