COM6,508,31-Dec-17,2017-12-31 00:00:00,1.2073728813559,1.0880338983051,1.0176779661017,0.99554237288136,0.9533728813559301,0.91545762711864,0.9396610169491499,5.0
COM6,508,31-Dec-17,2017-12-31 01:00:00,0.51518333333333,0.45346666666667,0.4192,0.40761666666667,0.38565,0.3626,0.37203333333333,5.0
COM6,508,31-Dec-17,2017-12-31 02:00:00,0.39568333333333,0.30123333333333,0.27151666666667,0.2602,0.24356666666667004,0.2288,0.23346666666667004,5.0
COM6,508,31-Dec-17,2017-12-31 03:00:00,0.81508333333333,0.5859166666666701,0.52565,0.50063333333333,0.46841666666667,0.43723333333333003,0.44708333333333,5.0
COM6,508,31-Dec-17,2017-12-31 04:00:00,0.90218333333333,0.75415,0.69595,0.6718,0.63553333333333,0.6014833333333299,0.6157,5.0
COM6,508,31-Dec-17,2017-12-31 05:00:00,1.0480166666667,0.82118333333333,0.7421,0.71056666666667,0.6648,0.6184,0.63071666666667,5.0
COM6,508,31-Dec-17,2017-12-31 06:00:00,0.5176,0.47078333333333,0.43525,0.42226666666667,0.397,0.37095,0.37923333333333,5.0
COM6,508,31-Dec-17,2017-12-31 07:00:00,0.75723333333333,0.69498333333333,0.64686666666667,0.6331666666666701,0.60156666666667,0.57375,0.58846666666667,5.0
COM6,508,31-Dec-17,2017-12-31 08:00:00,1.51,1.32965,1.2386333333333,1.2117166666666999,1.1460833333333,1.0785666666667,1.1016666666666999,5.0
COM6,508,31-Dec-17,2017-12-31 09:00:00,0.84428333333333,0.81563333333333,0.7666166666666699,0.75485,0.7151,0.67248333333333,0.68823333333333,5.0
COM6,508,31-Dec-17,2017-12-31 10:00:00,0.7938333333333301,0.75493333333333,0.70558333333333,0.69455,0.6572666666666701,0.6205,0.63325,5.0
COM6,508,31-Dec-17,2017-12-31 11:00:00,1.0792166666667,0.97773333333333,0.91035,0.88998333333333,0.84261666666667,0.78796666666667,0.80648333333333,5.0
COM6,508,31-Dec-17,2017-12-31 12:00:00,0.98295,0.88995,0.82593333333333,0.80145,0.75968333333333,0.70611666666667,0.72323333333333,5.0
COM6,508,31-Dec-17,2017-12-31 13:00:00,0.85121666666667,0.76723333333333,0.71265,0.6935,0.65706666666667,0.6109333333333299,0.62645,5.0
COM6,508,31-Dec-17,2017-12-31 14:00:00,0.28543333333333,0.28761666666667,0.27196666666667,0.26538333333333,0.25691666666667,0.23763333333332998,0.24615,5.0
COM6,508,31-Dec-17,2017-12-31 15:00:00,0.48638333333333,0.44506666666667,0.4172,0.40233333333333,0.38623333333333,0.35200000000000004,0.36336666666667,5.0
COM6,508,31-Dec-17,2017-12-31 16:00:00,0.47613333333333,0.43286666666667,0.40465,0.38726666666667,0.37565,0.34051666666667,0.35506666666666997,5.0
COM6,508,31-Dec-17,2017-12-31 17:00:00,0.48175,0.40768333333333,0.37306666666667,0.36286666666667,0.33841666666667,0.31473333333333,0.32066666666667,5.0
COM6,508,31-Dec-17,2017-12-31 18:00:00,1.72235,1.3252,1.1966166666667,1.1434,1.0506666666667,0.95778333333333,0.97281666666667,5.0
COM6,508,31-Dec-17,2017-12-31 19:00:00,2.8078833333332995,1.9449666666667,1.7285833333333,1.64975,1.5115,1.34765,1.3667333333333,5.0
COM6,508,31-Dec-17,2017-12-31 20:00:00,3.1324333333333,2.0210833333333,1.7627666666667,1.65855,1.5095333333333,1.3469833333333001,1.3650333333333,5.0
COM6,508,31-Dec-17,2017-12-31 21:00:00,4.5871166666667005,2.8025833333333,2.3598166666667004,2.1383666666667,1.8784833333333,1.5714666666666999,1.5808666666667,5.0
COM6,508,31-Dec-17,2017-12-31 22:00:00,3.4010000000000002,2.1821,1.86835,1.7031666666667,1.5386,1.3319,1.3531833333333,4.6666666666667
COM6,508,31-Dec-17,2017-12-31 23:00:00,3.1612909090908996,1.8650545454545,1.5858545454545,1.4462,1.3134181818181998,1.1434909090909,1.1632363636364,5.0
