COM6,508,1/30/2019,2019-01-30 00:00:00,1.015466667,0.866083333,0.785316667,0.7468,0.703766667,0.629083333,0.64825
COM6,508,1/30/2019,2019-01-30 01:00:00,0.992133333,0.938,0.866483333,0.834783333,0.786216667,0.713716667,0.7344
COM6,508,1/30/2019,2019-01-30 02:00:00,1.13325,1.054683333,0.960416667,0.929083333,0.871133333,0.793516667,0.814916667
COM6,508,1/30/2019,2019-01-30 03:00:00,0.840633333,0.72625,0.700083333,0.687083333,0.661283333,0.618983333,0.639533333
COM6,508,1/30/2019,2019-01-30 04:00:00,0.43065,0.4148,0.3963,0.39335,0.3814,0.368016667,0.379133333
COM6,508,1/30/2019,2019-01-30 05:00:00,0.630366667,0.617466667,0.584533333,0.575766667,0.557866667,0.536416667,0.552083333
COM6,508,1/30/2019,2019-01-30 06:00:00,0.999966667,0.97255,0.917716667,0.903216667,0.874166667,0.835966667,0.86145
COM6,508,1/30/2019,2019-01-30 07:00:00,1.55,1.51305,1.428866667,1.406,1.36045,1.301533333,1.340366667
COM6,508,1/30/2019,2019-01-30 08:00:00,1.272666667,1.266033333,1.20685,1.19305,1.155633333,1.10625,1.139466667
COM6,508,1/30/2019,2019-01-30 09:00:00,3.000683333,2.951116667,2.803333333,2.7729,2.684683333,2.603916667,2.68515
COM6,508,1/30/2019,2019-01-30 10:00:00,1.743516667,1.739533333,1.659383333,1.649466667,1.5928,1.542933333,1.58665
COM6,508,1/30/2019,2019-01-30 11:00:00,1.583733333,1.567483333,1.488683333,1.478566667,1.421816667,1.3748,1.4139
COM6,508,1/30/2019,2019-01-30 12:00:00,1.658866667,1.695916667,1.6067,1.62225,1.52525,1.48885,1.512783333
COM6,508,1/30/2019,2019-01-30 13:00:00,1.774383333,1.792633333,1.6955,1.707133333,1.599716667,1.559933333,1.57745
COM6,508,1/30/2019,2019-01-30 14:00:00,1.908583333,1.900783333,1.788966667,1.78675,1.68105,1.619883333,1.640483333
COM6,508,1/30/2019,2019-01-30 15:00:00,1.827616667,1.804083333,1.693933333,1.68425,1.585883333,1.5181,1.5388
COM6,508,1/30/2019,2019-01-30 16:00:00,1.619883333,1.575766667,1.476183333,1.458033333,1.380266667,1.313883333,1.334516667
COM6,508,1/30/2019,2019-01-30 17:00:00,1.265583333,1.240016667,1.16465,1.1496,1.099033333,1.053766667,1.073966667
COM6,508,1/30/2019,2019-01-30 18:00:00,1.34405,1.310616667,1.23665,1.217433333,1.168333333,1.1133,1.13725
COM6,508,1/30/2019,2019-01-30 19:00:00,1.705216667,1.648566667,1.544083333,1.527866667,1.459383333,1.394266667,1.419683333
COM6,508,1/30/2019,2019-01-30 20:00:00,1.744166667,1.6579,1.536666667,1.506283333,1.427133333,1.345183333,1.369266667
COM6,508,1/30/2019,2019-01-30 21:00:00,1.88665,1.754783333,1.619916667,1.582916667,1.493966667,1.402066667,1.426533333
COM6,508,1/30/2019,2019-01-30 22:00:00,1.767733333,1.585583333,1.445183333,1.399983333,1.313783333,1.21515,1.23555
COM6,508,1/30/2019,2019-01-30 23:00:00,1.081847458,0.957644068,0.861898305,0.829966102,0.773966102,0.71740678,0.731813559
