COM4,508,04-Oct-19,2019-10-04 00:00:00,0.99096610169492,0.9125084745762699,0.85535593220339,0.8371694915254201,0.80528813559322,0.76857627118644,0.7893728813559301,5
COM4,508,04-Oct-19,2019-10-04 01:00:00,0.73923333333333,0.69341666666667,0.6503666666666701,0.6383666666666701,0.61313333333333,0.5817666666666701,0.5984833333333299,5
COM4,508,04-Oct-19,2019-10-04 02:00:00,0.54228333333333,0.5325,0.50485,0.50078333333333,0.4848,0.4653,0.47863333333333,5
COM4,508,04-Oct-19,2019-10-04 03:00:00,0.55311666666667,0.5398166666666699,0.51231666666667,0.50741666666667,0.48983333333333,0.47221666666667,0.48641666666667,5
COM4,508,04-Oct-19,2019-10-04 04:00:00,0.5645166666666701,0.53716666666667,0.50591666666667,0.4997,0.48076666666667,0.46253333333333,0.47571666666667,5
COM4,508,04-Oct-19,2019-10-04 05:00:00,0.6795,0.64243333333333,0.6016833333333299,0.5928166666666701,0.5669666666666701,0.54303333333333,0.5576,5
COM4,508,04-Oct-19,2019-10-04 06:00:00,2.8097,2.78415,2.6359333333332997,2.612,2.5243166666667003,2.45065,2.5262666666667,5
COM4,508,04-Oct-19,2019-10-04 07:00:00,2.0146833333333,1.99565,1.8910333333333,1.8741,1.8074666666666999,1.7501833333333001,1.8024333333333,5
COM4,508,04-Oct-19,2019-10-04 08:00:00,2.9656333333332996,3.0008166666667004,2.8571666666667004,2.84375,2.7417166666667003,2.6491,2.7255833333333,5
COM4,508,04-Oct-19,2019-10-04 09:00:00,1.3642166666667,1.4000166666667,1.33495,1.32685,1.2745833333333,1.2258,1.2587166666667,5
COM4,508,04-Oct-19,2019-10-04 10:00:00,0.39836666666667,0.4129,0.3927,0.38731666666667,0.369,0.34575,0.35253333333333,5
COM4,508,04-Oct-19,2019-10-04 11:00:00,0.49395,0.46768333333333,0.434,0.4233,0.40068333333333,0.36733333333333,0.37863333333333,5
COM4,508,04-Oct-19,2019-10-04 12:00:00,0.4434,0.41646666666667,0.38611666666667,0.3756,0.35443333333333,0.32606666666667,0.3338,5
COM4,508,04-Oct-19,2019-10-04 13:00:00,0.32548333333333,0.30483333333333,0.28356666666667,0.27523333333333,0.25941666666667,0.23873333333332997,0.24296666666667002,5
COM4,508,04-Oct-19,2019-10-04 14:00:00,0.41143333333333,0.38533333333333003,0.35885,0.35115,0.33103333333333,0.30505,0.31116666666667,5
COM4,508,04-Oct-19,2019-10-04 15:00:00,0.26616666666667005,0.25943333333332996,0.24325,0.23903333333332996,0.22768333333332996,0.21218333333332998,0.21886666666667004,5
COM4,508,04-Oct-19,2019-10-04 16:00:00,0.18968333333332996,0.18215,0.17191666666667002,0.16713333333333,0.1583,0.14791666666667003,0.15185,5
COM4,508,04-Oct-19,2019-10-04 17:00:00,0.17156666666667003,0.17163333333332997,0.16048333333332998,0.15815,0.15155,0.14328333333333,0.1477,5
COM4,508,04-Oct-19,2019-10-04 18:00:00,0.18941666666667004,0.1862,0.17453333333332996,0.17143333333332997,0.16376666666667,0.15423333333332997,0.15756666666667002,5
COM4,508,04-Oct-19,2019-10-04 19:00:00,0.17765,0.17251666666667004,0.16155,0.15861666666667001,0.1491,0.1389,0.1415,5
COM4,508,04-Oct-19,2019-10-04 20:00:00,0.088983333333333,0.079883333333333,0.072216666666667,0.071383333333333,0.063533333333333,0.056783333333333005,0.05745,5
COM4,508,04-Oct-19,2019-10-04 21:00:00,0.14123333333333,0.13086666666667,0.12056666666667,0.1183,0.10968333333333001,0.10213333333333001,0.10475,5
COM4,508,04-Oct-19,2019-10-04 22:00:00,0.071383333333333,0.0649,0.060766666666666996,0.05875,0.051683333333333005,0.045483333333333,0.045833333333333004,5
COM4,508,04-Oct-19,2019-10-04 23:00:00,0.2595,0.25155,0.2303,0.22195,0.2077,0.18516666666667003,0.18901666666667002,5
