COM6,508,24-Sep-18,2018-09-24 00:00:00,0.34513559322034,0.30715254237288003,0.28416949152542,0.27705084745763,0.26447457627119003,0.24323728813559,0.24986440677966,5
COM6,508,24-Sep-18,2018-09-24 01:00:00,0.35846666666667,0.32401666666667,0.29965,0.29483333333333,0.27948333333333003,0.26616666666667005,0.27245,5
COM6,508,24-Sep-18,2018-09-24 02:00:00,0.3341,0.29703333333333,0.27268333333332995,0.26853333333332996,0.25208333333333,0.23898333333332997,0.24208333333332996,5
COM6,508,24-Sep-18,2018-09-24 03:00:00,0.37505,0.33758333333333,0.31303333333333,0.30776666666667,0.29381666666667,0.27846666666666997,0.28498333333333,5
COM6,508,24-Sep-18,2018-09-24 04:00:00,0.40088333333333,0.35726666666667,0.33243333333333003,0.32436666666666997,0.31111666666667,0.29328333333333,0.3012,5
COM6,508,24-Sep-18,2018-09-24 05:00:00,0.54121666666667,0.50111666666667,0.47355,0.46753333333333,0.45358333333333,0.4338,0.44518333333333,5
COM6,508,24-Sep-18,2018-09-24 06:00:00,0.88021666666667,0.84751666666667,0.8085,0.8069333333333301,0.78896666666667,0.77453333333333,0.8008,5
COM6,508,24-Sep-18,2018-09-24 07:00:00,1.0107,0.99345,0.95416666666667,0.95591666666667,0.93685,0.91958333333333,0.94286666666667,5
COM6,508,24-Sep-18,2018-09-24 08:00:00,1.0591666666667,1.0653833333333,1.0217666666667,1.02815,0.99913333333333,0.98423333333333,0.9953,5
COM6,508,24-Sep-18,2018-09-24 09:00:00,0.92245,0.9329833333333301,0.89861666666667,0.9106,0.87971666666667,0.85958333333333,0.86696666666667,5
COM6,508,24-Sep-18,2018-09-24 10:00:00,0.3082,0.30551666666667,0.28501666666666997,0.2877,0.26491666666667,0.23513333333332997,0.23393333333332997,5
COM6,508,24-Sep-18,2018-09-24 11:00:00,0.27141666666667,0.25265,0.23136666666667002,0.23315,0.21466666666667003,0.20966666666667003,0.20938333333332998,5
COM6,508,24-Sep-18,2018-09-24 12:00:00,0.1833,0.1717,0.15873333333332998,0.15761666666667,0.14466666666667002,0.13205,0.13161666666667,5
COM6,508,24-Sep-18,2018-09-24 13:00:00,0.2122,0.19283333333332997,0.17891666666667003,0.17615,0.16803333333332998,0.15583333333333,0.1598,5
COM6,508,24-Sep-18,2018-09-24 14:00:00,0.22915,0.20336666666667003,0.18956666666667002,0.18088333333332998,0.175,0.16106666666667002,0.16421666666667,5
COM6,508,24-Sep-18,2018-09-24 15:00:00,0.23485,0.2092,0.19531666666667002,0.19106666666667002,0.18426666666667002,0.16223333333332998,0.17063333333332997,5
COM6,508,24-Sep-18,2018-09-24 16:00:00,0.23158333333332998,0.21318333333332998,0.20123333333332996,0.1931,0.18815,0.17161666666667003,0.1793,5
COM6,508,24-Sep-18,2018-09-24 17:00:00,0.21006666666667004,0.191,0.17923333333332997,0.1736,0.1702,0.16426666666667,0.17021666666667004,5
COM6,508,24-Sep-18,2018-09-24 18:00:00,0.36101666666667,0.3258,0.30571666666666997,0.2992,0.29495,0.29106666666666997,0.29911666666667,5
COM6,508,24-Sep-18,2018-09-24 19:00:00,0.39713333333333,0.33911666666667,0.31011666666667,0.29863333333333003,0.28663333333333,0.25386666666667,0.26333333333333,5
COM6,508,24-Sep-18,2018-09-24 20:00:00,0.31413333333333,0.24915,0.22218333333332996,0.20935,0.19716666666667004,0.18221666666667002,0.18601666666667002,5
COM6,508,24-Sep-18,2018-09-24 21:00:00,0.49718333333333,0.45053333333333,0.4233,0.41431666666667,0.40538333333333,0.4004,0.41103333333333003,5
COM6,508,24-Sep-18,2018-09-24 22:00:00,0.6414,0.6192166666666701,0.59085,0.5885,0.56983333333333,0.5513666666666701,0.56985,5
COM6,508,24-Sep-18,2018-09-24 23:00:00,1.7546610169492,1.7917966101695002,1.7299491525423998,1.7446440677966002,1.7128474576271,1.7128644067796999,1.7725423728814,5
