COM6,508,18-Jan-19,2019-01-18 00:00:00,0.501733333,0.467716667,0.44925,0.446533333,0.438233333,0.426966667,0.439083333
COM6,508,18-Jan-19,2019-01-18 01:00:00,0.329833333,0.30575,0.29195,0.288,0.28465,0.270566667,0.279933333
COM6,508,18-Jan-19,2019-01-18 02:00:00,0.093233333,0.097433333,0.0946,0.091833333,0.091533333,0.08645,0.091
COM6,508,18-Jan-19,2019-01-18 03:00:00,0.0263,0.031883333,0.0344,0.033183333,0.036083333,0.034933333,0.03655
COM6,508,18-Jan-19,2019-01-18 04:00:00,0.100083333,0.1019,0.098483333,0.097283333,0.096216667,0.09095,0.0946
COM6,508,18-Jan-19,2019-01-18 05:00:00,0.16735,0.168533333,0.161833333,0.159966667,0.157566667,0.152133333,0.157216667
COM6,508,18-Jan-19,2019-01-18 06:00:00,0.390766667,0.390066667,0.374083333,0.372966667,0.362033333,0.350666667,0.360433333
COM6,508,18-Jan-19,2019-01-18 07:00:00,0.228933333,0.232666667,0.224583333,0.22365,0.21565,0.208266667,0.214183333
COM6,508,18-Jan-19,2019-01-18 08:00:00,0.2143,0.212933333,0.201616667,0.199683333,0.192216667,0.1827,0.186483333
COM6,508,18-Jan-19,2019-01-18 09:00:00,NaN,NaN,NaN,NaN,NaN,NaN,NaN
COM6,508,18-Jan-19,2019-01-18 10:00:00,NaN,NaN,NaN,NaN,NaN,NaN,NaN
COM6,508,18-Jan-19,2019-01-18 11:00:00,0.163833333,0.087233333,0.089116667,0.089866667,0.08915,0.087283333,0.092566667
COM6,508,18-Jan-19,2019-01-18 12:00:00,0.117833333,0.125733333,0.120583333,0.12085,0.11515,0.1118,0.114016667
COM6,508,18-Jan-19,2019-01-18 13:00:00,0.119366667,0.1273,0.121683333,0.122733333,0.1161,0.113933333,0.1172
COM6,508,18-Jan-19,2019-01-18 14:00:00,0.062533333,0.06665,0.0636,0.0638,0.061016667,0.058366667,0.05945
COM6,508,18-Jan-19,2019-01-18 15:00:00,0.139,0.139016667,0.1324,0.130683333,0.1268,0.121816667,0.124833333
COM6,508,18-Jan-19,2019-01-18 16:00:00,0.171983333,0.164766667,0.15635,0.15355,0.149283333,0.142866667,0.147766667
COM6,508,18-Jan-19,2019-01-18 17:00:00,0.246216667,0.214066667,0.196833333,0.188466667,0.18035,0.16755,0.17235
COM6,508,18-Jan-19,2019-01-18 18:00:00,0.428233333,0.360816667,0.33155,0.318833333,0.303516667,0.2798,0.286266667
COM6,508,18-Jan-19,2019-01-18 19:00:00,0.267616667,0.239883333,0.2218,0.21435,0.203416667,0.187766667,0.193083333
COM6,508,18-Jan-19,2019-01-18 20:00:00,0.307466667,0.299133333,0.2849,0.2823,0.270166667,0.25535,0.26105
COM6,508,18-Jan-19,2019-01-18 21:00:00,0.223516667,0.186683333,0.167566667,0.162566667,0.148916667,0.13865,0.140466667
COM6,508,18-Jan-19,2019-01-18 22:00:00,0.09185,0.093683333,0.087933333,0.088816667,0.080416667,0.078516667,0.079333333
COM6,508,18-Jan-19,2019-01-18 23:00:00,0.212813559,0.213135593,0.199559322,0.198118644,0.185084746,0.16679661,0.167915254
