COM6,508,28-Jul-17,2017-07-28 00:00:00,0.16152542372880999,0.15993220338983,0.15486440677966,0.15520338983051,0.15094915254236999,0.14893220338983,0.15379661016949,5
COM6,508,28-Jul-17,2017-07-28 01:00:00,0.17800000000000002,0.17436666666667003,0.16795,0.16616666666667002,0.16168333333333,0.15356666666667002,0.15688333333333,5
COM6,508,28-Jul-17,2017-07-28 02:00:00,0.3031,0.30908333333333,0.29818333333333,0.29815,0.29078333333333,0.28665,0.29548333333333,5
COM6,508,28-Jul-17,2017-07-28 03:00:00,0.78494915254237,0.81284745762712,0.7851864406779699,0.78145762711864,0.76184745762712,0.75022033898305,0.7731864406779699,5
COM6,508,28-Jul-17,2017-07-28 04:00:00,0.9302,0.96976666666667,0.94245,0.9427,0.9214,0.9053,0.93283333333333,5
COM6,508,28-Jul-17,2017-07-28 05:00:00,1.92805,2.01875,1.9618666666667,1.9646333333333001,1.922,1.8958833333333,1.9580333333333,5
COM6,508,28-Jul-17,2017-07-28 06:00:00,2.3836,2.4553833333333,2.3741333333332997,2.3702833333332998,2.3057333333332997,2.2525833333332996,2.3223666666667,5
COM6,508,28-Jul-17,2017-07-28 07:00:00,3.4881833333333,3.5404833333332997,3.39175,3.36525,3.2451666666667003,3.1246,3.2171166666667004,5
COM6,508,28-Jul-17,2017-07-28 08:00:00,1.6600166666667,1.6894833333333001,1.6266166666667,1.6212,1.56345,1.5032333333333001,1.5458833333333,5
COM6,508,28-Jul-17,2017-07-28 09:00:00,1.4036333333333,1.4461333333333,1.4031,1.4110166666667,1.3706666666667,1.3339166666667,1.3729833333333001,5
COM6,508,28-Jul-17,2017-07-28 10:00:00,1.0233666666666998,1.0096666666667,0.95793333333333,0.94261666666667,0.8949,0.83661666666667,0.85861666666667,5
COM6,508,28-Jul-17,2017-07-28 11:00:00,1.0009,0.98235,0.93083333333333,0.91391666666667,0.86758333333333,0.80776666666667,0.82661666666667,5
COM6,508,28-Jul-17,2017-07-28 12:00:00,0.8623,0.8563,0.81685,0.80818333333333,0.7683,0.7141,0.73156666666667,5
COM6,508,28-Jul-17,2017-07-28 13:00:00,0.91585,0.89851666666667,0.85195,0.83651666666667,0.79263333333333,0.738,0.7545333333333301,5
COM6,508,28-Jul-17,2017-07-28 14:00:00,0.5868666666666701,0.5552333333333299,0.52103333333333,0.50665,0.47328333333333,0.42563333333333003,0.43476666666667,5
COM6,508,28-Jul-17,2017-07-28 15:00:00,0.4624,0.4272,0.39475,0.38041666666667,0.3535,0.31316666666667,0.31981666666666997,5
COM6,508,28-Jul-17,2017-07-28 16:00:00,0.40941666666667,0.38623333333333,0.36136666666667,0.34993333333333,0.32775,0.29663333333333003,0.30428333333333,5
COM6,508,28-Jul-17,2017-07-28 17:00:00,0.47583333333333,0.45266666666667,0.4232,0.413,0.3862,0.35281666666667,0.35963333333333003,5
COM6,508,28-Jul-17,2017-07-28 18:00:00,0.41946666666667,0.39616666666667,0.37016666666667,0.35641666666667,0.33396666666667,0.30016666666666997,0.30683333333333,5
COM6,508,28-Jul-17,2017-07-28 19:00:00,0.6602,0.60625,0.5615833333333299,0.54306666666667,0.50598333333333,0.45898333333333,0.46911666666667,5
COM6,508,28-Jul-17,2017-07-28 20:00:00,0.56126666666667,0.51873333333333,0.48291666666667,0.4661,0.43328333333333,0.39211666666667,0.40026666666667,5
COM6,508,28-Jul-17,2017-07-28 21:00:00,0.6091666666666701,0.54323333333333,0.49706666666667,0.47645,0.43886666666667,0.39181666666667,0.39799999999999996,5
COM6,508,28-Jul-17,2017-07-28 22:00:00,0.4787,0.42265,0.38866666666667,0.37315,0.34178333333333,0.306,0.31105,5
COM6,508,28-Jul-17,2017-07-28 23:00:00,0.3512456140350901,0.32877192982456,0.30652631578947,0.29877192982455997,0.27603508771929997,0.24950877192982,0.25370175438596,5
