COM6,508,02-Nov-18,2018-11-02 00:00:00,0.91676271186441,0.9461186440678,0.89379661016949,0.89142372881356,0.84615254237288,0.8024406779661,0.81979661016949,5.0
COM6,508,02-Nov-18,2018-11-02 01:00:00,0.6110666666666701,0.6466166666666701,0.61095,0.60255,0.5793,0.54121666666667,0.54911666666667,5.0
COM6,508,02-Nov-18,2018-11-02 02:00:00,1.5743166666667,1.5354833333333,1.4497833333333001,1.4335,1.3601,1.2817333333333,1.3047833333333,5.0
COM6,508,02-Nov-18,2018-11-02 03:00:00,1.1579833333333,1.1404166666667,1.0759666666667,1.06925,1.0115,0.94686666666667,0.9615,5.0
COM6,508,02-Nov-18,2018-11-02 04:00:00,1.0530833333333,1.0382333333333,0.97693333333333,0.9608,0.91836666666667,0.85766666666667,0.87026666666667,5.0
COM6,508,02-Nov-18,2018-11-02 05:00:00,1.8043833333333001,1.6870333333333,1.5617333333333001,1.5221,1.42905,1.3288,1.3497333333333001,5.0
COM6,508,02-Nov-18,2018-11-02 06:00:00,3.3207,3.0660000000000003,2.7986666666667004,2.7062833333332996,2.5240166666667,2.3249333333332998,2.3604833333333,5.0
COM6,508,02-Nov-18,2018-11-02 07:00:00,1.5929833333333001,1.4718,1.3460833333333,1.2972833333333,1.2124,1.1003833333333,1.1120333333333001,5.0
COM6,508,02-Nov-18,2018-11-02 08:00:00,3.63595,3.3256166666667,3.0160666666667004,2.8932,2.6727666666667003,2.4191833333333,2.4507166666667004,5.0
COM6,508,02-Nov-18,2018-11-02 09:00:00,2.775,2.7146833333332996,2.48595,2.40365,2.2160166666667003,2.0185666666667,2.03465,5.0
COM6,508,02-Nov-18,2018-11-02 10:00:00,1.47745,1.5544666666667,1.41595,1.3750666666667,1.2479833333333001,1.13195,1.1370166666666999,5.0
COM6,508,02-Nov-18,2018-11-02 11:00:00,0.56565,0.6545166666666701,0.59135,0.5806,0.5066,0.45403333333333,0.45085,5.0
COM6,508,02-Nov-18,2018-11-02 12:00:00,0.83668333333333,0.80726666666667,0.72515,0.69765,0.62218333333333,0.5523,0.5533,5.0
COM6,508,02-Nov-18,2018-11-02 13:00:00,0.91578333333333,0.84025,0.74965,0.7057,0.64163333333333,0.55506666666667,0.55885,5.0
COM6,508,02-Nov-18,2018-11-02 14:00:00,1.1097166666667,0.98676666666667,0.86701666666667,0.8064,0.73323333333333,0.6337333333333299,0.6411166666666701,5.0
COM6,508,02-Nov-18,2018-11-02 15:00:00,1.2659166666666999,1.0892666666667,0.95806666666667,0.88511666666667,0.80121666666667,0.68731666666667,0.69285,5.0
COM6,508,02-Nov-18,2018-11-02 16:00:00,1.0289166666667,0.87593333333333,0.80428333333333,0.76586666666667,0.72305,0.66455,0.68103333333333,4.6666666666667
COM6,508,02-Nov-18,2018-11-02 17:00:00,0.57531666666667,0.57795,0.5530333333333299,0.54898333333333,0.5373,0.52655,0.54438333333333,5.0
COM6,508,02-Nov-18,2018-11-02 18:00:00,0.18858333333332997,0.19421666666667003,0.18626666666667002,0.18596666666667003,0.18116666666667003,0.17853333333332996,0.1835,5.0
COM6,508,02-Nov-18,2018-11-02 19:00:00,0.14918333333332998,0.15053333333333,0.14358333333332998,0.14171666666667002,0.13735,0.13125,0.13515,5.0
COM6,508,02-Nov-18,2018-11-02 20:00:00,0.24478333333332997,0.23966666666667003,0.2281,0.22473333333332995,0.21856666666667005,0.20688333333332998,0.21313333333332996,5.0
COM6,508,02-Nov-18,2018-11-02 21:00:00,0.2563,0.23293333333332997,0.21921666666667003,0.21561666666667004,0.20931666666667004,0.2007,0.20791666666667002,5.0
COM6,508,02-Nov-18,2018-11-02 22:00:00,0.25961666666667005,0.23391666666667002,0.21928333333332997,0.21408333333332996,0.20718333333332997,0.19856666666667003,0.20525,5.0
COM6,508,02-Nov-18,2018-11-02 23:00:00,0.27488135593220003,0.25520338983051,0.23988135593220003,0.23506779661017,0.22883050847457997,0.22016949152542004,0.22703389830507997,5.0
