COM6,508,01-Sep-17,2017-09-01 00:00:00,0.9303728813559301,0.7966271186440699,0.7218305084745799,0.69008474576271,0.63501694915254,0.5593898305084699,0.5690338983050799,5.0
COM6,508,01-Sep-17,2017-09-01 01:00:00,0.87618333333333,0.71045,0.6331666666666701,0.59615,0.5409,0.46308333333333,0.46506666666667,5.0
COM6,508,01-Sep-17,2017-09-01 02:00:00,1.2484333333333,1.1697833333333,1.1005666666667,1.0820666666667,1.0335333333333,0.96556666666667,0.98803333333333,4.6666666666667
COM6,508,01-Sep-17,2017-09-01 03:00:00,1.4261666666667,1.2739833333333002,1.2015333333333,1.1769166666667,1.1297333333333,1.0801166666667,1.1115166666667,5.0
COM6,508,01-Sep-17,2017-09-01 04:00:00,1.01265,0.9536,0.89671666666667,0.87756666666667,0.83796666666667,0.79798333333333,0.81768333333333,5.0
COM6,508,01-Sep-17,2017-09-01 05:00:00,0.82316666666667,0.77861666666667,0.73016666666667,0.71491666666667,0.68175,0.6435,0.65843333333333,5.0
COM6,508,01-Sep-17,2017-09-01 06:00:00,1.3391,1.2931,1.2227,1.2005333333333001,1.1528333333333,1.1033833333333,1.1319833333333,5.0
COM6,508,01-Sep-17,2017-09-01 07:00:00,1.4483833333333,1.4216833333333,1.3500666666667,1.33165,1.2788333333333,1.2251,1.2561,5.0
COM6,508,01-Sep-17,2017-09-01 08:00:00,1.5501833333333002,1.5058166666666999,1.4267666666667,1.40445,1.3492333333333,1.29305,1.3268333333333,5.0
COM6,508,01-Sep-17,2017-09-01 09:00:00,1.98215,1.9126,1.8044,1.7738333333333,1.6987833333333,1.62355,1.6648166666667,5.0
COM6,508,01-Sep-17,2017-09-01 10:00:00,1.2803333333333,1.1892666666667,1.1097666666666999,1.0835,1.0271,0.96285,0.98553333333333,5.0
COM6,508,01-Sep-17,2017-09-01 11:00:00,0.75215,0.66073333333333,0.606,0.5838166666666701,0.54516666666667,0.49501666666667,0.504,5.0
COM6,508,01-Sep-17,2017-09-01 12:00:00,0.64355,0.51773333333333,0.45811666666667,0.43046666666667,0.39188333333333003,0.33865,0.34278333333333,5.0
COM6,508,01-Sep-17,2017-09-01 13:00:00,0.6044833333333299,0.47246666666667,0.41328333333333,0.3819,0.34515,0.29173333333333,0.29600000000000004,5.0
COM6,508,01-Sep-17,2017-09-01 14:00:00,0.6919,0.54421666666667,0.4778,0.44121666666667,0.4008,0.34205,0.3473,5.0
COM6,508,01-Sep-17,2017-09-01 15:00:00,0.91695,0.7318,0.6453166666666701,0.5994333333333299,0.54728333333333,0.46773333333333,0.47600000000000003,5.0
COM6,508,01-Sep-17,2017-09-01 16:00:00,1.4894333333333,1.1083,0.95018333333333,0.86831666666667,0.77713333333333,0.6436833333333299,0.65045,5.0
COM6,508,01-Sep-17,2017-09-01 17:00:00,1.5722666666667,1.1446,0.97663333333333,0.89075,0.7952,0.6570833333333299,0.66491666666667,5.0
COM6,508,01-Sep-17,2017-09-01 18:00:00,1.5962833333333,1.1677333333333,1.0031,0.92033333333333,0.82978333333333,0.70101666666667,0.70961666666667,5.0
COM6,508,01-Sep-17,2017-09-01 19:00:00,1.6676,1.1929166666667,1.01625,0.92671666666667,0.83063333333333,0.68713333333333,0.6950666666666699,5.0
COM6,508,01-Sep-17,2017-09-01 20:00:00,1.2789166666667,0.89551666666667,0.75436666666667,0.68245,0.6027333333333299,0.49181666666667,0.49446666666667,5.0
COM6,508,01-Sep-17,2017-09-01 21:00:00,1.1592,0.8137,0.68715,0.62261666666667,0.5500333333333299,0.45245,0.45643333333333,5.0
COM6,508,01-Sep-17,2017-09-01 22:00:00,1.0889833333333,0.7515333333333301,0.6345,0.57693333333333,0.51398333333333,0.42646666666667,0.42945,5.0
COM6,508,01-Sep-17,2017-09-01 23:00:00,0.976,0.66064285714286,0.55439285714286,0.50196428571429,0.44505357142857,0.36603571428571,0.36796428571429,5.0
