COM6,508,30-Oct-17,2017-10-30 00:00:00,0.56064406779661,0.5152033898305101,0.47964406779661,0.46572881355932,0.44289830508475,0.42281355932203,0.43440677966102004,5
COM6,508,30-Oct-17,2017-10-30 01:00:00,0.33356666666667,0.3366,0.31443333333333,0.30738333333333,0.29198333333333,0.27798333333333003,0.28536666666667,5
COM6,508,30-Oct-17,2017-10-30 02:00:00,0.4693,0.4659,0.43645,0.42825,0.40795,0.38465,0.39411666666667,5
COM6,508,30-Oct-17,2017-10-30 03:00:00,0.5924333333333299,0.5589166666666701,0.52031666666667,0.5076,0.48336666666667,0.45568333333333,0.46806666666667,5
COM6,508,30-Oct-17,2017-10-30 04:00:00,1.13285,1.0543166666666999,0.98161666666667,0.96161666666667,0.91268333333333,0.87283333333333,0.89451666666667,5
COM6,508,30-Oct-17,2017-10-30 05:00:00,2.4495833333332997,2.3754666666667004,2.24125,2.2068833333332996,2.11645,2.0486,2.1045,5
COM6,508,30-Oct-17,2017-10-30 06:00:00,3.9679666666667,3.8520166666667004,3.62145,3.56175,3.4016166666667003,3.2763833333332997,3.3603,5
COM6,508,30-Oct-17,2017-10-30 07:00:00,2.8925666666667,2.8251666666667004,2.6577333333333,2.60775,2.4824833333333,2.37945,2.4345,5
COM6,508,30-Oct-17,2017-10-30 08:00:00,1.20555,1.3476666666666999,1.3073,1.3084,1.2434333333333,1.1820333333333,1.2042333333333,5
COM6,508,30-Oct-17,2017-10-30 09:00:00,1.4953666666667,1.5627,1.4895166666667,1.4739833333333001,1.4013666666667,1.3378666666666998,1.35785,5
COM6,508,30-Oct-17,2017-10-30 10:00:00,0.11425,0.19086666666667004,0.1818,0.18498333333332997,0.16781666666667003,0.15913333333333,0.1628,5
COM6,508,30-Oct-17,2017-10-30 11:00:00,0.10643333333333001,0.14355,0.13325,0.13315,0.1234,0.11283333333333001,0.1143,5
COM6,508,30-Oct-17,2017-10-30 12:00:00,0.11526666666667,0.13503333333333,0.12826666666667,0.1254,0.11683333333333,0.1095,0.11186666666667,5
COM6,508,30-Oct-17,2017-10-30 13:00:00,0.097716666666667,0.12546666666667,0.12016666666666999,0.1163,0.10701666666667,0.09615,0.10005,5
COM6,508,30-Oct-17,2017-10-30 14:00:00,0.13905,0.15808333333333,0.14905,0.14485,0.13545,0.1166,0.1174,5
COM6,508,30-Oct-17,2017-10-30 15:00:00,0.2715,0.27311666666667,0.25453333333332995,0.24423333333332997,0.22893333333332996,0.20916666666667003,0.21363333333332996,5
COM6,508,30-Oct-17,2017-10-30 16:00:00,0.15596666666667,0.1646,0.15216666666667,0.14828333333333,0.1377,0.1217,0.12495,5
COM6,508,30-Oct-17,2017-10-30 17:00:00,0.38243333333333,0.36700000000000005,0.34371666666667,0.32735,0.30945,0.28863333333333,0.29356666666667,5
COM6,508,30-Oct-17,2017-10-30 18:00:00,0.28745,0.28601666666666997,0.25936666666667,0.24851666666667002,0.23505,0.20946666666667002,0.21341666666667003,5
COM6,508,30-Oct-17,2017-10-30 19:00:00,0.25198333333332995,0.23163333333332997,0.21323333333332997,0.20176666666667004,0.18425,0.16545,0.16891666666667005,5
COM6,508,30-Oct-17,2017-10-30 20:00:00,0.17955,0.1778,0.16283333333333,0.15573333333332998,0.14636666666667,0.13073333333333,0.13346666666666998,5
COM6,508,30-Oct-17,2017-10-30 21:00:00,0.19163333333332996,0.18796666666667003,0.171,0.16516666666667001,0.15036666666667,0.13721666666666998,0.13785,5
COM6,508,30-Oct-17,2017-10-30 22:00:00,0.71585,0.65715,0.6026333333333299,0.5808666666666701,0.54038333333333,0.49698333333333,0.50505,5
COM6,508,30-Oct-17,2017-10-30 23:00:00,0.519875,0.460625,0.41864285714286,0.39978571428571,0.37160714285714,0.35053571428571,0.35451785714286,5
