COM6,508,16-Apr-18,2018-04-16 00:00:00,0.25818644067797003,0.21557627118644,0.19483050847457997,0.18062711864407,0.16305084745763,0.14055932203389998,0.14250847457626997,5.0
COM6,508,16-Apr-18,2018-04-16 01:00:00,0.27968333333333,0.23195,0.20613333333332998,0.19448333333332996,0.17566666666667002,0.16043333333332999,0.16323333333332998,5.0
COM6,508,16-Apr-18,2018-04-16 02:00:00,0.26118333333333,0.21651666666667002,0.19105,0.18083333333332996,0.16566666666667001,0.1486,0.14908333333333,5.0
COM6,508,16-Apr-18,2018-04-16 03:00:00,0.26621666666667004,0.21868333333332995,0.19455,0.18203333333332997,0.16703333333332998,0.15251666666667002,0.15375,5.0
COM6,508,16-Apr-18,2018-04-16 04:00:00,0.26976666666667004,0.22475,0.20006666666667003,0.1887,0.17143333333332997,0.15748333333332998,0.1611,5.0
COM6,508,16-Apr-18,2018-04-16 05:00:00,0.28791666666667,0.24058333333332996,0.21563333333332996,0.20193333333332997,0.18773333333332998,0.16843333333332997,0.17108333333332998,5.0
COM6,508,16-Apr-18,2018-04-16 06:00:00,0.38928333333333,0.33621666666667,0.30431666666667,0.29118333333333,0.2695,0.24918333333332998,0.25328333333333,5.0
COM6,508,16-Apr-18,2018-04-16 07:00:00,0.37571666666667,0.31496666666667,0.28355,0.26838333333333,0.24736666666667004,0.22941666666667004,0.2333,5.0
COM6,508,16-Apr-18,2018-04-16 08:00:00,0.42175,0.35215,0.3173,0.29836666666667,0.27608333333333,0.24965,0.25483333333332997,5.0
COM6,508,16-Apr-18,2018-04-16 09:00:00,0.45118333333333,0.37043333333333,0.33023333333333,0.31335,0.28975,0.26946666666667,0.27311666666667,5.0
COM6,508,16-Apr-18,2018-04-16 10:00:00,0.80605,0.6453166666666701,0.5724833333333299,0.53691666666667,0.49626666666667,0.45421666666667,0.46211666666667,5.0
COM6,508,16-Apr-18,2018-04-16 11:00:00,1.1863166666667,0.93643333333333,0.82676666666667,0.77038333333333,0.7142,0.65825,0.6694166666666701,5.0
COM6,508,16-Apr-18,2018-04-16 12:00:00,1.0369833333333,0.80886666666667,0.71875,0.6702666666666701,0.62323333333333,0.57813333333333,0.5895,5.0
COM6,508,16-Apr-18,2018-04-16 13:00:00,0.9785,0.77006666666667,0.6851,0.63781666666667,0.59495,0.54693333333333,0.5590333333333299,5.0
COM6,508,16-Apr-18,2018-04-16 14:00:00,0.77745,0.62245,0.5619166666666701,0.53515,0.51491666666667,0.5193,0.5304,5.0
COM6,508,16-Apr-18,2018-04-16 15:00:00,0.5206666666666699,0.43698333333333,0.40383333333333,0.39081666666667,0.37403333333333,0.35405,0.36615,5.0
COM6,508,16-Apr-18,2018-04-16 16:00:00,0.34526666666667,0.29881666666667,0.27503333333333,0.26306666666667006,0.25168333333333,0.23486666666667003,0.24093333333332997,5.0
COM6,508,16-Apr-18,2018-04-16 17:00:00,0.32435,0.2156,0.20613333333332998,0.20321666666667004,0.19931666666667003,0.19515,0.20733333333332996,4.6666666666667
COM6,508,16-Apr-18,2018-04-16 18:00:00,0.36611666666667,0.31215,0.29933333333333,0.29706666666667,0.29491666666667,0.31718333333333,0.33293333333333003,5.0
COM6,508,16-Apr-18,2018-04-16 19:00:00,0.2064,0.2275,0.21788333333332996,0.21743333333332998,0.21205,0.21211666666667003,0.21875,5.0
COM6,508,16-Apr-18,2018-04-16 20:00:00,0.058166666666667,0.074883333333333,0.07161666666666701,0.069816666666667,0.067916666666667,0.0694,0.07161666666666701,5.0
COM6,508,16-Apr-18,2018-04-16 21:00:00,0.043416666666667,0.0605,0.058483333333333005,0.057733333333333005,0.055483333333333,0.057233333333333004,0.059183333333333005,5.0
COM6,508,16-Apr-18,2018-04-16 22:00:00,0.10661666666667,0.1101,0.10436666666667,0.1037,0.10028333333333,0.10001666666667,0.10336666666666999,5.0
COM6,508,16-Apr-18,2018-04-16 23:00:00,0.07136842105263201,0.07557894736842098,0.07177192982456099,0.071912280701754,0.069087719298246,0.07080701754386,0.072912280701754,5.0
