COM6,508,22-Dec-17,2017-12-22 00:00:00,0.25918644067797003,0.26749152542373,0.2541186440678,0.25538983050847003,0.24176271186441,0.23713559322034,0.24342372881356,5.0
COM6,508,22-Dec-17,2017-12-22 01:00:00,0.24026666666667004,0.2189,0.2028,0.20038333333332997,0.18805,0.18201666666667002,0.18556666666667004,5.0
COM6,508,22-Dec-17,2017-12-22 02:00:00,0.50246666666667,0.4204,0.39031666666667,0.38071666666667,0.35936666666667,0.34123333333333,0.34966666666667,5.0
COM6,508,22-Dec-17,2017-12-22 03:00:00,0.1592,0.16181666666667002,0.15231666666667001,0.152,0.14306666666667,0.13948333333333,0.14385,5.0
COM6,508,22-Dec-17,2017-12-22 04:00:00,0.44295,0.37616666666667,0.34763333333333,0.3404,0.32251666666667,0.30976666666667,0.31795,5.0
COM6,508,22-Dec-17,2017-12-22 05:00:00,0.27933333333333,0.2251,0.20576666666667004,0.19725,0.18383333333332996,0.16896666666667004,0.17293333333332997,5.0
COM6,508,22-Dec-17,2017-12-22 06:00:00,0.56731666666667,0.52025,0.48413333333333003,0.47308333333333,0.44758333333333,0.42331666666667,0.4343,5.0
COM6,508,22-Dec-17,2017-12-22 07:00:00,0.78788333333333,0.75963333333333,0.71605,0.7059,0.67298333333333,0.6464166666666701,0.66478333333333,5.0
COM6,508,22-Dec-17,2017-12-22 08:00:00,1.9166166666667,1.8852,1.7977,1.7879166666667,1.7200333333333,1.6803166666667,1.7317166666666999,5.0
COM6,508,22-Dec-17,2017-12-22 09:00:00,2.2196833333333,2.16275,2.05385,2.0365,1.9470666666667,1.8799166666667,1.9342833333333,5.0
COM6,508,22-Dec-17,2017-12-22 10:00:00,1.0658333333333,1.07625,1.0225166666667,1.0113166666667,0.9632,0.92141666666667,0.94501666666667,5.0
COM6,508,22-Dec-17,2017-12-22 11:00:00,0.82831666666667,0.8353,0.79323333333333,0.78606666666667,0.74636666666667,0.71676666666667,0.73695,5.0
COM6,508,22-Dec-17,2017-12-22 12:00:00,0.76471666666667,0.75443333333333,0.71761666666667,0.7064,0.67586666666667,0.6452333333333299,0.66311666666667,5.0
COM6,508,22-Dec-17,2017-12-22 13:00:00,0.80113333333333,0.76841666666667,0.72965,0.71583333333333,0.68706666666667,0.65135,0.67305,5.0
COM6,508,22-Dec-17,2017-12-22 14:00:00,0.85758333333333,0.79643333333333,0.7516,0.73458333333333,0.7037,0.66495,0.68831666666667,5.0
COM6,508,22-Dec-17,2017-12-22 15:00:00,1.2651,1.1937666666667,1.12905,1.10765,1.0542333333333,0.99726666666667,1.0266833333333,5.0
COM6,508,22-Dec-17,2017-12-22 16:00:00,1.2156166666666999,1.1384166666667,1.0680333333333,1.051,0.99441666666667,0.94601666666667,0.97203333333333,5.0
COM6,508,22-Dec-17,2017-12-22 17:00:00,1.58475,1.4778,1.39515,1.3759833333333,1.2999333333333,1.2408166666667,1.2708333333333,5.0
COM6,508,22-Dec-17,2017-12-22 18:00:00,1.95065,1.5521333333333,1.42005,1.3746666666667,1.2789,1.1807666666667,1.2089,5.0
COM6,508,22-Dec-17,2017-12-22 19:00:00,3.09875,2.2224666666667003,1.9978333333333,1.90415,1.749,1.5823833333333,1.6115166666667,5.0
COM6,508,22-Dec-17,2017-12-22 20:00:00,2.98665,2.1323166666667,1.9206666666667,1.8357,1.6826166666667,1.5271166666667,1.5588,5.0
COM6,508,22-Dec-17,2017-12-22 21:00:00,2.1549,1.73965,1.5821333333333,1.5295,1.4174333333333,1.3232833333333,1.3511,5.0
COM6,508,22-Dec-17,2017-12-22 22:00:00,2.0935,1.6462333333333001,1.4869666666666999,1.4166166666667,1.31475,1.2254166666667,1.2556666666667,5.0
COM6,508,22-Dec-17,2017-12-22 23:00:00,0.39981818181818,0.32472727272727003,0.30887272727272996,0.30681818181818,0.29310909090909004,0.28423636363635996,0.29889090909091,4.6363636363636
