COM6,508,21-Oct-18,2018-10-21 00:00:00,0.28011864406779996,0.27740677966102,0.26198305084746,0.25723728813559,0.24823728813558998,0.23322033898305,0.23961016949153,5
COM6,508,21-Oct-18,2018-10-21 01:00:00,0.14465,0.13936666666667002,0.13085,0.12823333333333,0.12261666666667,0.11576666666667,0.11923333333333,5
COM6,508,21-Oct-18,2018-10-21 02:00:00,0.20901666666667004,0.18918333333332996,0.17613333333332998,0.17033333333332998,0.16196666666667,0.15065,0.15588333333333,5
COM6,508,21-Oct-18,2018-10-21 03:00:00,0.22378333333332998,0.21351666666667002,0.20093333333332997,0.19688333333332997,0.18933333333332997,0.17948333333332997,0.18398333333332997,5
COM6,508,21-Oct-18,2018-10-21 04:00:00,0.25396666666667,0.2339,0.21938333333332996,0.21303333333332997,0.20348333333332996,0.19203333333332998,0.19791666666667004,5
COM6,508,21-Oct-18,2018-10-21 05:00:00,0.35305,0.3582,0.34521666666667,0.34438333333333,0.33818333333333,0.33205,0.34433333333333,5
COM6,508,21-Oct-18,2018-10-21 06:00:00,0.41166666666667,0.40275,0.38443333333333,0.38196666666667,0.37218333333333,0.35931666666667,0.3717,5
COM6,508,21-Oct-18,2018-10-21 07:00:00,0.33008333333333,0.31536666666667,0.29811666666666997,0.29266666666667,0.28166666666667,0.26723333333333,0.27398333333332997,5
COM6,508,21-Oct-18,2018-10-21 08:00:00,0.42513333333333003,0.41163333333333,0.39071666666667,0.38691666666667,0.37065,0.3504,0.35883333333333,5
COM6,508,21-Oct-18,2018-10-21 09:00:00,0.72365,0.71236666666667,0.67548333333333,0.6709333333333299,0.6439,0.6209833333333299,0.63755,5
COM6,508,21-Oct-18,2018-10-21 10:00:00,0.62266666666667,0.61815,0.5856666666666701,0.58526666666667,0.55983333333333,0.54105,0.55435,5
COM6,508,21-Oct-18,2018-10-21 11:00:00,0.3911,0.3842,0.36355,0.3605,0.34215,0.32655,0.3353,5
COM6,508,21-Oct-18,2018-10-21 12:00:00,0.28145,0.27448333333332997,0.25845,0.25608333333332994,0.24421666666667002,0.23368333333332997,0.23736666666667003,5
COM6,508,21-Oct-18,2018-10-21 13:00:00,0.34486666666667,0.33516666666667,0.31856666666667,0.316,0.30286666666667,0.2872,0.29483333333333,5
COM6,508,21-Oct-18,2018-10-21 14:00:00,0.25085,0.24181666666667004,0.23081666666667003,0.22761666666667002,0.2208,0.20926666666667004,0.21511666666667004,5
COM6,508,21-Oct-18,2018-10-21 15:00:00,0.42976666666667,0.42973333333333,0.41906666666667,0.41941666666667,0.41451666666667,0.40726666666667,0.41888333333333,5
COM6,508,21-Oct-18,2018-10-21 16:00:00,0.37625,0.43808333333333,0.44935,0.469,0.48181666666667,0.50276666666667,0.52215,5
COM6,508,21-Oct-18,2018-10-21 17:00:00,0.37853333333333,0.33773333333333,0.31458333333333,0.30231666666667,0.28945,0.27006666666667,0.27765,5
COM6,508,21-Oct-18,2018-10-21 18:00:00,0.76148333333333,0.6567,0.6077333333333299,0.5883,0.5609,0.52486666666667,0.53895,5
COM6,508,21-Oct-18,2018-10-21 19:00:00,0.87976666666667,0.69138333333333,0.6291166666666701,0.6060166666666701,0.57295,0.52953333333333,0.54205,5
COM6,508,21-Oct-18,2018-10-21 20:00:00,0.71483333333333,0.54338333333333,0.49276666666667,0.46708333333333,0.44093333333333,0.40291666666667,0.41293333333333,5
COM6,508,21-Oct-18,2018-10-21 21:00:00,0.38426666666667,0.27986666666667,0.24991666666667003,0.22858333333332997,0.2107,0.18881666666667002,0.19361666666667005,5
COM6,508,21-Oct-18,2018-10-21 22:00:00,0.20653333333332996,0.1847,0.16863333333332997,0.1581,0.14923333333333,0.13585,0.13901666666667,5
COM6,508,21-Oct-18,2018-10-21 23:00:00,0.15640677966101998,0.15130508474576,0.14147457627119,0.13635593220339,0.12874576271186,0.11652542372880999,0.11954237288135999,5
