COM4,508,27-Sep-19,2019-09-27 00:00:00,0.5478813559322,0.53647457627119,0.50674576271186,0.49825423728814,0.47440677966102,0.44750847457626997,0.45954237288135996,5.0
COM4,508,27-Sep-19,2019-09-27 01:00:00,0.27173333333332994,0.2531,0.23635,0.22908333333332997,0.2172,0.20045,0.2044,5.0
COM4,508,27-Sep-19,2019-09-27 02:00:00,0.37983333333333,0.35826666666667,0.33078333333333,0.32225,0.30331666666667,0.2814,0.28833333333333,5.0
COM4,508,27-Sep-19,2019-09-27 03:00:00,0.25248333333332995,0.24206666666667004,0.22836666666667002,0.22428333333332998,0.21245,0.19678333333332998,0.20135,5.0
COM4,508,27-Sep-19,2019-09-27 04:00:00,0.27931666666667,0.26648333333332996,0.25036666666667,0.24488333333332996,0.23413333333332997,0.21903333333332997,0.22496666666667003,5.0
COM4,508,27-Sep-19,2019-09-27 05:00:00,0.79648333333333,0.76145,0.70723333333333,0.6879833333333301,0.65091666666667,0.61041666666667,0.62595,5.0
COM4,508,27-Sep-19,2019-09-27 06:00:00,1.4115166666666998,1.3514666666667,1.25425,1.2207833333333,1.1560166666667,1.0844666666667,1.1134,5.0
COM4,508,27-Sep-19,2019-09-27 07:00:00,1.2459833333333001,1.2068166666667,1.12715,1.1014833333333,1.0456,0.98098333333333,1.0060833333333001,5.0
COM4,508,27-Sep-19,2019-09-27 08:00:00,0.83046666666667,0.80778333333333,0.75396666666667,0.73896666666667,0.69805,0.6554,0.6704833333333299,5.0
COM4,508,27-Sep-19,2019-09-27 09:00:00,0.88091666666667,0.91271666666667,0.88088333333333,0.88341666666667,0.85291666666667,0.82901666666667,0.85146666666667,5.0
COM4,508,27-Sep-19,2019-09-27 10:00:00,1.16435,1.12465,1.05365,1.0298,0.97713333333333,0.91735,0.93845,5.0
COM4,508,27-Sep-19,2019-09-27 11:00:00,1.0883833333333,0.98405,0.88965,0.84916666666667,0.7835,0.70266666666667,0.7169,5.0
COM4,508,27-Sep-19,2019-09-27 12:00:00,0.5695333333333299,0.474,0.41985,0.39453333333333,0.35516666666667,0.30495,0.30923333333333003,5.0
COM4,508,27-Sep-19,2019-09-27 13:00:00,0.44546666666667,0.36123333333333,0.31751666666667,0.29633333333333,0.2653,0.22375,0.22545,5.0
COM4,508,27-Sep-19,2019-09-27 14:00:00,0.42838333333333,0.34386666666667,0.30481666666667,0.28273333333333,0.25631666666667,0.21833333333332997,0.21951666666667002,5.0
COM4,508,27-Sep-19,2019-09-27 15:00:00,0.3811,0.30741666666667,0.2699,0.25478333333333,0.22758333333332997,0.1889,0.19201666666667003,5.0
COM4,508,27-Sep-19,2019-09-27 16:00:00,0.44293333333333,0.36678333333333,0.32703333333333,0.30383333333333,0.27665,0.23315,0.23446666666667004,5.0
COM4,508,27-Sep-19,2019-09-27 17:00:00,0.44311666666667,0.36571666666667,0.32565,0.30481666666667,0.27676666666667,0.23788333333332998,0.2406,5.0
COM4,508,27-Sep-19,2019-09-27 18:00:00,1.1728333333333,1.0595,0.9946,0.96895,0.93073333333333,0.8607,0.8853,4.6666666666667
COM4,508,27-Sep-19,2019-09-27 19:00:00,0.43818333333333,0.36025,0.33535,0.32653333333333,0.31098333333333,0.29196666666667,0.29878333333333,5.0
COM4,508,27-Sep-19,2019-09-27 20:00:00,0.40246666666666997,0.35373333333333,0.32698333333333,0.31653333333333,0.30046666666667,0.27175,0.27521666666667,5.0
COM4,508,27-Sep-19,2019-09-27 21:00:00,0.36441666666667,0.31715,0.29325,0.28408333333333,0.27,0.24533333333332996,0.24951666666667002,5.0
COM4,508,27-Sep-19,2019-09-27 22:00:00,0.15035,0.14186666666667,0.13575,0.13493333333333002,0.12993333333333001,0.12043333333333,0.12265,5.0
COM4,508,27-Sep-19,2019-09-27 23:00:00,0.13885,0.12856666666667,0.12178333333333001,0.12041666666666999,0.11571666666666999,0.10703333333333001,0.10926666666667,5.0
