COM6,0508,27-Nov-18,2018-11-27 00:00:00,0.47674576271186,0.54684745762712,0.50437288135593,0.48274576271186,0.44961016949153,0.42040677966102,0.42783050847458,5,0,0,0,0,0,0,0,0,0,0,0,0,0,0,0,0,0,0,0,0,0,0,0,0,0,0,0,0,0,0,0,0,0,0,0,0,0,0,0,0,0,0
COM6,0508,27-Nov-18,2018-11-27 01:00:00,0.46713333333333,0.44936666666667,0.39733333333333,0.3745,0.34681666666667,0.31426666666667,0.32088333333333,5,0,0,0,0,0,0,0,0,0,0,0,0,0,0,0,0,0,0,0,0,0,0,0,0,0,0,0,0,0,0,0,0,0,0,0,0,0,0,0,0,0,0
COM6,0508,27-Nov-18,2018-11-27 02:00:00,0.80731666666667,0.69576666666667,0.62375,0.59551666666667,0.5481,0.49923333333333,0.50865,5,0,0,0,0,0,0,0,0,0,0,0,0,0,0,0,0,0,0,0,0,0,0,0,0,0,0,0,0,0,0,0,0,0,0,0,0,0,0,0,0,0,0
COM6,0508,27-Nov-18,2018-11-27 03:00:00,1.7391333333333,1.4784666666667,1.3403666666667,1.2842333333333,1.18715,1.0917333333333,1.1118333333333,5,0,0,0,0,0,0,0,0,0,0,0,0,0,0,0,0,0,0,0,0,0,0,0,0,0,0,0,0,0,0,0,0,0,0,0,0,0,0,0,0,0,0
COM6,0508,27-Nov-18,2018-11-27 04:00:00,1.5533,1.33385,1.2056666666667,1.1484166666667,1.0612833333333,0.96573333333333,0.98331666666667,5,0,0,0,0,0,0,0,0,0,0,0,0,0,0,0,0,0,0,0,0,0,0,0,0,0,0,0,0,0,0,0,0,0,0,0,0,0,0,0,0,0,0
COM6,0508,27-Nov-18,2018-11-27 05:00:00,2.0032833333333,1.7459666666667,1.5779166666667,1.5099833333333,1.3886833333333,1.26995,1.2930166666667,5,0,0,0,0,0,0,0,0,0,0,0,0,0,0,0,0,0,0,0,0,0,0,0,0,0,0,0,0,0,0,0,0,0,0,0,0,0,0,0,0,0,0
COM6,0508,27-Nov-18,2018-11-27 06:00:00,2.5400666666667,2.1964833333333,1.9828,1.88985,1.7411666666667,1.5920166666667,1.6178,5,0,0,0,0,0,0,0,0,0,0,0,0,0,0,0,0,0,0,0,0,0,0,0,0,0,0,0,0,0,0,0,0,0,0,0,0,0,0,0,0,0,0
COM6,0508,27-Nov-18,2018-11-27 07:00:00,2.3407333333333,2.0896166666667,1.9239833333333,1.8453,1.72775,1.5968166666667,1.6372166666667,4.6666666666667,0,0,0,0,0,0,0,0,0,0,0,0,0,0,0,0,0,0,0,0,0,0,0,0,0,0,0,0,0,0,0,0,0,0,0,0,0,0,0,0,0,0
COM6,0508,27-Nov-18,2018-11-27 08:00:00,1.5094666666667,1.42225,1.3513333333333,1.3351666666667,1.2943333333333,1.2464666666667,1.2835166666667,5,0,0,0,0,0,0,0,0,0,0,0,0,0,0,0,0,0,0,0,0,0,0,0,0,0,0,0,0,0,0,0,0,0,0,0,0,0,0,0,0,0,0
COM6,0508,27-Nov-18,2018-11-27 09:00:00,1.8686833333333,1.8456333333333,1.7510833333333,1.73145,1.6814166666667,1.6276,1.6776833333333,5,0,0,0,0,0,0,0,0,0,0,0,0,0,0,0,0,0,0,0,0,0,0,0,0,0,0,0,0,0,0,0,0,0,0,0,0,0,0,0,0,0,0
COM6,0508,27-Nov-18,2018-11-27 10:00:00,1.3980666666667,1.4121333333333,1.3443166666667,1.3312,1.2955666666667,1.2556,1.2954,5,0,0,0,0,0,0,0,0,0,0,0,0,0,0,0,0,0,0,0,0,0,0,0,0,0,0,0,0,0,0,0,0,0,0,0,0,0,0,0,0,0,0
COM6,0508,27-Nov-18,2018-11-27 11:00:00,1.917,1.96585,1.8861166666667,1.8736833333333,1.8320666666667,1.7825166666667,1.8405666666667,5,0,0,0,0,0,0,0,0,0,0,0,0,0,0,0,0,0,0,0,0,0,0,0,0,0,0,0,0,0,0,0,0,0,0,0,0,0,0,0,0,0,0
COM6,0508,27-Nov-18,2018-11-27 12:00:00,1.5649,1.5860333333333,1.5181833333333,1.5002,1.4636666666667,1.40685,1.4544833333333,5,0,0,0,0,0,0,0,0,0,0,0,0,0,0,0,0,0,0,0,0,0,0,0,0,0,0,0,0,0,0,0,0,0,0,0,0,0,0,0,0,0,0
COM6,0508,27-Nov-18,2018-11-27 13:00:00,1.3117833333333,1.3117,1.2503333333333,1.2316666666667,1.2004,1.14975,1.1891666666667,5,0,0,0,0,0,0,0,0,0,0,0,0,0,0,0,0,0,0,0,0,0,0,0,0,0,0,0,0,0,0,0,0,0,0,0,0,0,0,0,0,0,0
COM6,0508,27-Nov-18,2018-11-27 14:00:00,1.4086,1.3737333333333,1.2957,1.2668166666667,1.2283833333333,1.1739,1.2139166666667,5,0,0,0,0,0,0,0,0,0,0,0,0,0,0,0,0,0,0,0,0,0,0,0,0,0,0,0,0,0,0,0,0,0,0,0,0,0,0,0,0,0,0
COM6,0508,27-Nov-18,2018-11-27 15:00:00,1.11615,1.1137333333333,1.0590333333333,1.04265,1.01435,0.96878333333333,1.0036833333333,5,0,0,0,0,0,0,0,0,0,0,0,0,0,0,0,0,0,0,0,0,0,0,0,0,0,0,0,0,0,0,0,0,0,0,0,0,0,0,0,0,0,0
COM6,0508,27-Nov-18,2018-11-27 16:00:00,1.0719166666667,1.07325,1.02505,1.0109833333333,0.98325,0.937,0.96798333333333,5,0,0,0,0,0,0,0,0,0,0,0,0,0,0,0,0,0,0,0,0,0,0,0,0,0,0,0,0,0,0,0,0,0,0,0,0,0,0,0,0,0,0
COM6,0508,27-Nov-18,2018-11-27 17:00:00,1.51305,1.4402166666667,1.36805,1.3477333333333,1.30515,1.23475,1.2746666666667,5,0,0,0,0,0,0,0,0,0,0,0,0,0,0,0,0,0,0,0,0,0,0,0,0,0,0,0,0,0,0,0,0,0,0,0,0,0,0,0,0,0,0
COM6,0508,27-Nov-18,2018-11-27 18:00:00,1.84115,1.7365333333333,1.64505,1.6162666666667,1.5600333333333,1.47415,1.5203333333333,5,0,0,0,0,0,0,0,0,0,0,0,0,0,0,0,0,0,0,0,0,0,0,0,0,0,0,0,0,0,0,0,0,0,0,0,0,0,0,0,0,0,0
COM6,0508,27-Nov-18,2018-11-27 19:00:00,1.4145166666667,1.3030666666667,1.2269333333333,1.2027166666667,1.1542333333333,1.0842,1.11685,5,0,0,0,0,0,0,0,0,0,0,0,0,0,0,0,0,0,0,0,0,0,0,0,0,0,0,0,0,0,0,0,0,0,0,0,0,0,0,0,0,0,0
COM6,0508,27-Nov-18,2018-11-27 20:00:00,1.5389666666667,1.42865,1.3348333333333,1.3014,1.2402333333333,1.1512166666667,1.1841833333333,5,0,0,0,0,0,0,0,0,0,0,0,0,0,0,0,0,0,0,0,0,0,0,0,0,0,0,0,0,0,0,0,0,0,0,0,0,0,0,0,0,0,0
COM6,0508,27-Nov-18,2018-11-27 21:00:00,1.7789166666667,1.6091166666667,1.4903,1.4452166666667,1.3668166666667,1.2578,1.2894333333333,5,0,0,0,0,0,0,0,0,0,0,0,0,0,0,0,0,0,0,0,0,0,0,0,0,0,0,0,0,0,0,0,0,0,0,0,0,0,0,0,0,0,0
COM6,0508,27-Nov-18,2018-11-27 22:00:00,1.8917833333333,1.6768,1.5415833333333,1.4885333333333,1.4025333333333,1.2798666666667,1.3123833333333,5,0,0,0,0,0,0,0,0,0,0,0,0,0,0,0,0,0,0,0,0,0,0,0,0,0,0,0,0,0,0,0,0,0,0,0,0,0,0,0,0,0,0
COM6,0508,27-Nov-18,2018-11-27 23:00:00,1.919275862069,1.6815862068966,1.5470172413793,1.4811896551724,1.4003275862069,1.2655172413793,1.3023103448276,5,0,0,0,0,0,0,0,0,0,0,0,0,0,0,0,0,0,0,0,0,0,0,0,0,0,0,0,0,0,0,0,0,0,0,0,0,0,0,0,0,0,0
