COM4,508,15-Oct-19,2019-10-15 00:00:00,0.35993220338983,0.27654237288135997,0.23815254237288003,0.22172881355932,0.20216949152542002,0.16808474576271,0.17083050847457998,5.0
COM4,508,15-Oct-19,2019-10-15 01:00:00,0.56711666666667,0.3267,0.26388333333333,0.2352,0.20478333333332996,0.16508333333332997,0.16435,5.0
COM4,508,15-Oct-19,2019-10-15 02:00:00,0.39443333333333,0.30945,0.26955,0.25231666666667,0.23346666666667004,0.20208333333332998,0.20531666666667003,5.0
COM4,508,15-Oct-19,2019-10-15 03:00:00,0.47776666666667,0.38638333333333,0.3433,0.32508333333333,0.30353333333333,0.2677,0.2736,5.0
COM4,508,15-Oct-19,2019-10-15 04:00:00,0.40313333333333,0.31256666666667,0.2742,0.25776666666667003,0.23781666666667003,0.20636666666667003,0.21056666666667004,5.0
COM4,508,15-Oct-19,2019-10-15 05:00:00,0.65948333333333,0.54155,0.4876,0.46826666666667,0.44321666666667,0.40561666666667,0.4157,5.0
COM4,508,15-Oct-19,2019-10-15 06:00:00,2.7336333333333,2.5379166666667,2.3664,2.3300833333332998,2.2547666666667,2.1801,2.2546,5.0
COM4,508,15-Oct-19,2019-10-15 07:00:00,2.50225,2.3036,2.1422,2.1064666666667,2.0283833333333,1.9371833333333,1.996,5.0
COM4,508,15-Oct-19,2019-10-15 08:00:00,2.3270333333332998,2.1200833333333002,1.9634833333333002,1.9223,1.8394166666667,1.7423166666667,1.7912333333333001,5.0
COM4,508,15-Oct-19,2019-10-15 09:00:00,1.1957166666666998,1.0750333333333,0.98105,0.95525,0.89703333333333,0.82793333333333,0.84403333333333,5.0
COM4,508,15-Oct-19,2019-10-15 10:00:00,1.2371333333333001,1.0884833333333002,0.99323333333333,0.96578333333333,0.91143333333333,0.85388333333333,0.87135,5.0
COM6,508,15-Oct-19,2019-10-15 11:00:00,NaN,NaN,NaN,NaN,NaN,NaN,NaN,NaN
COM6,508,15-Oct-19,2019-10-15 12:00:00,NaN,NaN,NaN,NaN,NaN,NaN,NaN,NaN
COM4,508,15-Oct-19,2019-10-15 13:00:00,1.34935,1.1742,1.0991833333333,1.0679333333333,1.0487166666667,0.99016666666667,1.02925,4.8333333333333
COM4,508,15-Oct-19,2019-10-15 14:00:00,0.5774,0.45571666666667,0.41616666666667,0.39571666666667,0.38726666666667,0.35671666666667,0.37103333333333,5.0
COM4,508,15-Oct-19,2019-10-15 15:00:00,0.49328333333333,0.4152,0.37718333333333,0.35491666666667,0.34815,0.31491666666667,0.3278,5.0
COM4,508,15-Oct-19,2019-10-15 16:00:00,0.5489999999999999,0.49731666666667,0.4608,0.44063333333333,0.43433333333333,0.40705,0.4227,5.0
COM4,508,15-Oct-19,2019-10-15 17:00:00,0.54303333333333,0.50186666666667,0.46781666666667,0.45403333333333,0.44323333333333,0.41678333333333,0.42906666666667,5.0
COM4,508,15-Oct-19,2019-10-15 18:00:00,0.68005,0.6263666666666701,0.5852333333333299,0.5625,0.5321,0.50156666666667,0.51416666666667,5.0
COM4,508,15-Oct-19,2019-10-15 19:00:00,0.50931666666667,0.45055,0.41426666666667,0.39936666666667,0.37411666666667,0.34886666666667,0.35511666666667,5.0
COM4,508,15-Oct-19,2019-10-15 20:00:00,0.44801666666667,0.39281666666667,0.3573,0.35218333333333,0.33096666666667,0.31226666666666997,0.31888333333333,5.0
COM4,508,15-Oct-19,2019-10-15 21:00:00,1.1966666666666999,1.0303666666667,0.94373333333333,0.91366666666667,0.8654,0.7973,0.81491666666667,5.0
COM4,508,15-Oct-19,2019-10-15 22:00:00,0.94538333333333,0.83015,0.76911666666667,0.75623333333333,0.72486666666667,0.67933333333333,0.69566666666667,5.0
COM4,508,15-Oct-19,2019-10-15 23:00:00,0.6462,0.5685166666666701,0.52703333333333,0.51778333333333,0.49666666666667,0.46395,0.47603333333333,5.0
