COM4,508,21-Feb-20,2020-02-21 00:00:00,0.55770689655172,0.46693103448275997,0.41510344827585993,0.39720689655172,0.36698275862069,0.33762068965517,0.3416724137931,5.0
COM4,508,21-Feb-20,2020-02-21 01:00:00,0.65911666666667,0.50915,0.4553,0.43233333333333,0.39808333333333,0.35635,0.36291666666667,5.0
COM4,508,21-Feb-20,2020-02-21 02:00:00,0.77598333333333,0.61423333333333,0.5514,0.51645,0.48025,0.42301666666667,0.43246666666667,5.0
COM4,508,21-Feb-20,2020-02-21 03:00:00,0.82835,0.60915,0.54125,0.50543333333333,0.46843333333333,0.41741666666667,0.4253,5.0
COM4,508,21-Feb-20,2020-02-21 04:00:00,1.0067666666667,0.79921666666667,0.71205,0.67143333333333,0.6202166666666701,0.5495,0.5616666666666701,5.0
COM4,508,21-Feb-20,2020-02-21 05:00:00,0.66015,0.46436666666667,0.4294,0.41176666666667,0.39408333333333,0.36325,0.37758333333333,4.6666666666667
COM4,508,21-Feb-20,2020-02-21 06:00:00,0.9337,0.81056666666667,0.76095,0.74596666666667,0.71731666666667,0.68046666666667,0.69805,5.0
COM4,508,21-Feb-20,2020-02-21 07:00:00,1.38865,1.3480666666667,1.2677833333333,1.2473333333333,1.2031166666667,1.1424833333333,1.17405,5.0
COM4,508,21-Feb-20,2020-02-21 08:00:00,1.82315,1.7767833333333,1.6767166666667,1.6508166666667,1.59625,1.52705,1.5706,5.0
COM4,508,21-Feb-20,2020-02-21 09:00:00,1.93445,1.8406166666666999,1.73065,1.7020333333333,1.64325,1.5742833333333,1.6189,5.0
COM4,508,21-Feb-20,2020-02-21 10:00:00,1.3565333333333,1.2803666666667,1.2036666666667,1.1808,1.14625,1.0968333333333,1.1334,5.0
COM4,508,21-Feb-20,2020-02-21 11:00:00,1.0158,0.95068333333333,0.90048333333333,0.87908333333333,0.86413333333333,0.82691666666667,0.85903333333333,5.0
COM4,508,21-Feb-20,2020-02-21 12:00:00,0.8619,0.79468333333333,0.75021666666667,0.72853333333333,0.71688333333333,0.68323333333333,0.71226666666667,5.0
COM4,508,21-Feb-20,2020-02-21 13:00:00,0.7031333333333301,0.6657666666666701,0.6329,0.62005,0.6125,0.59015,0.6141666666666701,5.0
COM4,508,21-Feb-20,2020-02-21 14:00:00,0.4672,0.45303333333333,0.43386666666667,0.42865,0.42498333333333,0.41501666666667,0.4331,5.0
COM4,508,21-Feb-20,2020-02-21 15:00:00,0.48175,0.46316666666667,0.44236666666667,0.43733333333333,0.43073333333333,0.42148333333333,0.43903333333333,5.0
COM4,508,21-Feb-20,2020-02-21 16:00:00,0.54565,0.52925,0.50783333333333,0.5021,0.49543333333333,0.4836,0.5015166666666699,5.0
COM4,508,21-Feb-20,2020-02-21 17:00:00,0.47923333333333,0.46441666666667,0.44455,0.44023333333333,0.43276666666667,0.42218333333333,0.4385,5.0
COM4,508,21-Feb-20,2020-02-21 18:00:00,0.6377833333333299,0.6177833333333299,0.5928166666666701,0.5868333333333299,0.57495,0.5492,0.57036666666667,5.0
COM4,508,21-Feb-20,2020-02-21 19:00:00,0.6254166666666701,0.5609166666666701,0.52846666666667,0.51818333333333,0.5035,0.47943333333333,0.49573333333333003,5.0
COM4,508,21-Feb-20,2020-02-21 20:00:00,1.0312166666667,0.9171,0.86478333333333,0.85036666666667,0.8214,0.78403333333333,0.81236666666667,5.0
COM4,508,21-Feb-20,2020-02-21 21:00:00,1.4549666666667,1.2452166666667,1.1672666666667,1.1495,1.1057666666666999,1.0544333333333,1.08735,5.0
COM4,508,21-Feb-20,2020-02-21 22:00:00,1.6428333333333,1.3519166666667,1.2549166666667,1.2286333333333002,1.1723166666667,1.1066833333333002,1.13805,5.0
COM4,508,21-Feb-20,2020-02-21 23:00:00,1.6815166666666999,1.30985,1.2014166666666999,1.1712333333333,1.1102333333333,1.0454666666666999,1.0750666666667,5.0
