COM6,508,08-Mar-19,2019-03-08 00:00:00,0.31225423728814,0.32376271186440997,0.31374576271186,0.31384745762711996,0.30601694915253996,0.28983050847458003,0.29883050847458004,5
COM6,508,08-Mar-19,2019-03-08 01:00:00,0.13208333333333,0.14941666666667,0.1481,0.15071666666667002,0.14398333333333,0.13988333333332997,0.14258333333332998,5
COM6,508,08-Mar-19,2019-03-08 02:00:00,0.10583333333333,0.11648333333333001,0.11036666666667,0.11396666666666999,0.10873333333333,0.10521666666667,0.1081,5
COM6,508,08-Mar-19,2019-03-08 03:00:00,0.08975,0.095666666666667,0.092866666666667,0.09535,0.089983333333333,0.08751666666666702,0.08875,5
COM6,508,08-Mar-19,2019-03-08 04:00:00,0.070333333333333,0.071833333333333,0.0703,0.06995,0.067233333333333,0.063883333333333,0.06485,5
COM6,508,08-Mar-19,2019-03-08 05:00:00,0.20948333333332997,0.2025,0.19115,0.1878,0.1811,0.17026666666667004,0.1748,5
COM6,508,08-Mar-19,2019-03-08 06:00:00,0.44436666666667,0.41835,0.39378333333333,0.38971666666667,0.37348333333333,0.35621666666667,0.36646666666667,5
COM6,508,08-Mar-19,2019-03-08 07:00:00,0.61035,0.60895,0.5820000000000001,0.5822833333333299,0.5594166666666701,0.54233333333333,0.5554333333333299,5
COM6,508,08-Mar-19,2019-03-08 08:00:00,0.4622,0.46705,0.44711666666667,0.44566666666667,0.42995,0.40926666666667,0.42005,5
COM6,508,08-Mar-19,2019-03-08 09:00:00,0.67701666666667,0.67181666666667,0.63795,0.63465,0.6068333333333299,0.58395,0.6003,5
COM6,508,08-Mar-19,2019-03-08 10:00:00,0.42551666666667,0.41776666666667,0.39303333333333,0.38858333333333,0.37291666666667,0.35251666666667,0.3623,5
COM6,508,08-Mar-19,2019-03-08 11:00:00,0.23401666666667004,0.22811666666667002,0.21835,0.21303333333332997,0.20918333333332997,0.19866666666667004,0.20586666666667003,5
COM6,508,08-Mar-19,2019-03-08 12:00:00,0.20726666666667004,0.19703333333332998,0.18573333333332998,0.17905,0.17228333333332996,0.16081666666667002,0.16555,5
COM6,508,08-Mar-19,2019-03-08 13:00:00,0.16513333333333,0.16418333333333,0.15213333333332998,0.1485,0.14428333333333,0.1361,0.13975,5
COM6,508,08-Mar-19,2019-03-08 14:00:00,0.5668166666666701,0.53723333333333,0.5049,0.49598333333333,0.4717,0.44475,0.45546666666667,5
COM6,508,08-Mar-19,2019-03-08 15:00:00,0.29713333333333003,0.29445,0.27633333333333,0.27321666666667005,0.26166666666667004,0.2444,0.25331666666667,5
COM6,508,08-Mar-19,2019-03-08 16:00:00,1.01775,0.9673,0.9097833333333301,0.8982,0.8558,0.81228333333333,0.8335,5
COM6,508,08-Mar-19,2019-03-08 17:00:00,0.48523333333333,0.46716666666667,0.4386,0.43195,0.41051666666666997,0.38523333333333,0.39586666666667,5
COM6,508,08-Mar-19,2019-03-08 18:00:00,0.49925,0.46366666666667,0.43396666666667,0.42305,0.4029,0.3754,0.38333333333333003,5
COM6,508,08-Mar-19,2019-03-08 19:00:00,0.38651666666667,0.35496666666667,0.32936666666666997,0.32315,0.30311666666667,0.27953333333333,0.28600000000000003,5
COM6,508,08-Mar-19,2019-03-08 20:00:00,0.36603333333333,0.34153333333333,0.31943333333333,0.31156666666667,0.2939,0.27155,0.27813333333333,5
COM6,508,08-Mar-19,2019-03-08 21:00:00,0.45358333333333,0.39571666666667,0.36416666666666997,0.35593333333333,0.33386666666667,0.30356666666667,0.30768333333333,5
COM6,508,08-Mar-19,2019-03-08 22:00:00,0.55483333333333,0.44168333333333,0.40636666666667,0.39316666666667,0.36311666666667,0.32426666666667,0.32961666666667,5
COM6,508,08-Mar-19,2019-03-08 23:00:00,0.39662068965517,0.31115517241379,0.28403448275862003,0.27303448275862,0.25462068965517004,0.22810344827586,0.23106896551724,5
