COM6,0508,08-Jan-19,2019-01-08 00:00:00,2.6330169491525,2.2116779661017,2.0348644067797,1.9787966101695,1.8671355932203,1.7542203389831,1.7903898305085,4.9,0,0,0,0,0,0,0,0,0,0,0,0,0,0,0,0,0,0,0,0,0,0,0,0,0,0,0,0,0,0,0,0,0,0,0,0,0,0,0,0,0,0
COM6,0508,08-Jan-19,2019-01-08 01:00:00,2.4304333333333,2.0956333333333,1.9280333333333,1.8747833333333,1.7601166666667,1.6455833333333,1.6775333333333,4.9,0,0,0,0,0,0,0,0,0,0,0,0,0,0,0,0,0,0,0,0,0,0,0,0,0,0,0,0,0,0,0,0,0,0,0,0,0,0,0,0,0,0
COM6,0508,08-Jan-19,2019-01-08 02:00:00,2.3872166666667,2.0648166666667,1.8911333333333,1.8268833333333,1.7089666666667,1.5803333333333,1.60925,4.9,0,0,0,0,0,0,0,0,0,0,0,0,0,0,0,0,0,0,0,0,0,0,0,0,0,0,0,0,0,0,0,0,0,0,0,0,0,0,0,0,0,0
COM6,0508,08-Jan-19,2019-01-08 03:00:00,2.5408333333333,2.2112166666667,2.0132333333333,1.9381166666667,1.8021166666667,1.6541666666667,1.6811833333333,4.82,0,0,0,0,0,0,0,0,0,0,0,0,0,0,0,0,0,0,0,0,0,0,0,0,0,0,0,0,0,0,0,0,0,0,0,0,0,0,0,0,0,0
COM6,0508,08-Jan-19,2019-01-08 04:00:00,2.5891833333333,2.20995,1.9982,1.9172333333333,1.7692166666667,1.6063166666667,1.6314166666667,4.8,0,0,0,0,0,0,0,0,0,0,0,0,0,0,0,0,0,0,0,0,0,0,0,0,0,0,0,0,0,0,0,0,0,0,0,0,0,0,0,0,0,0
COM6,0508,08-Jan-19,2019-01-08 05:00:00,2.93705,2.43755,2.1875166666667,2.0861666666667,1.9150666666667,1.7109,1.7309,4.8,0,0,0,0,0,0,0,0,0,0,0,0,0,0,0,0,0,0,0,0,0,0,0,0,0,0,0,0,0,0,0,0,0,0,0,0,0,0,0,0,0,0
COM6,0508,08-Jan-19,2019-01-08 06:00:00,3.18355,2.62455,2.3446,2.22955,2.0297666666667,1.8021166666667,1.8191,4.8,0,0,0,0,0,0,0,0,0,0,0,0,0,0,0,0,0,0,0,0,0,0,0,0,0,0,0,0,0,0,0,0,0,0,0,0,0,0,0,0,0,0
COM6,0508,08-Jan-19,2019-01-08 07:00:00,4.9035,4.1932166666667,3.7396,3.5534166666667,3.2331,2.8562666666667,2.8868,4.8,0,0,0,0,0,0,0,0,0,0,0,0,0,0,0,0,0,0,0,0,0,0,0,0,0,0,0,0,0,0,0,0,0,0,0,0,0,0,0,0,0,0
COM6,0508,08-Jan-19,2019-01-08 08:00:00,3.59485,3.2483166666667,2.91225,2.77485,2.53265,2.23865,2.2631166666667,4.8,0,0,0,0,0,0,0,0,0,0,0,0,0,0,0,0,0,0,0,0,0,0,0,0,0,0,0,0,0,0,0,0,0,0,0,0,0,0,0,0,0,0
COM6,0508,08-Jan-19,2019-01-08 09:00:00,4.5080333333333,4.1468166666667,3.8275166666667,3.7044666666667,3.4732666666667,3.1745666666667,3.23995,4.5733333333333,0,0,0,0,0,0,0,0,0,0,0,0,0,0,0,0,0,0,0,0,0,0,0,0,0,0,0,0,0,0,0,0,0,0,0,0,0,0,0,0,0,0
COM6,0508,08-Jan-19,2019-01-08 10:00:00,2.8837666666667,2.8013333333333,2.6548833333333,2.6082166666667,2.5333666666667,2.42095,2.4943333333333,5,0,0,0,0,0,0,0,0,0,0,0,0,0,0,0,0,0,0,0,0,0,0,0,0,0,0,0,0,0,0,0,0,0,0,0,0,0,0,0,0,0,0
COM6,0508,08-Jan-19,2019-01-08 11:00:00,2.08225,2.08265,1.9794166666667,1.94685,1.89095,1.8087666666667,1.8629166666667,4.9133333333333,0,0,0,0,0,0,0,0,0,0,0,0,0,0,0,0,0,0,0,0,0,0,0,0,0,0,0,0,0,0,0,0,0,0,0,0,0,0,0,0,0,0
COM6,0508,08-Jan-19,2019-01-08 12:00:00,1.2983636363636,1.1989818181818,1.1520363636364,1.1360181818182,1.1087090909091,1.0609272727273,1.0988727272727,4.3436363636364,0,0,0,0,0,0,0,0,0,0,0,0,0,0,0,0,0,0,0,0,0,0,0,0,0,0,0,0,0,0,0,0,0,0,0,0,0,0,0,0,0,0
COM6,0508,08-Jan-19,2019-01-08 13:00:00,1.1067333333333,1.0679666666667,1.0147166666667,1.0019666666667,0.97393333333333,0.93736666666667,0.96453333333333,4.9916666666667,0,0,0,0,0,0,0,0,0,0,0,0,0,0,0,0,0,0,0,0,0,0,0,0,0,0,0,0,0,0,0,0,0,0,0,0,0,0,0,0,0,0
COM6,0508,08-Jan-19,2019-01-08 14:00:00,1.2266166666667,1.2255833333333,1.16895,1.1562,1.12735,1.0867166666667,1.1201833333333,4.9,0,0,0,0,0,0,0,0,0,0,0,0,0,0,0,0,0,0,0,0,0,0,0,0,0,0,0,0,0,0,0,0,0,0,0,0,0,0,0,0,0,0
COM6,0508,08-Jan-19,2019-01-08 15:00:00,1.01995,0.96315,0.90573333333333,0.88538333333333,0.85643333333333,0.81371666666667,0.83976666666667,4.9,0,0,0,0,0,0,0,0,0,0,0,0,0,0,0,0,0,0,0,0,0,0,0,0,0,0,0,0,0,0,0,0,0,0,0,0,0,0,0,0,0,0
COM6,0508,08-Jan-19,2019-01-08 16:00:00,0.85803333333333,0.83853333333333,0.80183333333333,0.7908,0.77515,0.75113333333333,0.77703333333333,4.9,0,0,0,0,0,0,0,0,0,0,0,0,0,0,0,0,0,0,0,0,0,0,0,0,0,0,0,0,0,0,0,0,0,0,0,0,0,0,0,0,0,0
COM6,0508,08-Jan-19,2019-01-08 17:00:00,1.4957666666667,1.2913333333333,1.1943166666667,1.1553,1.1051666666667,1.0334,1.0649333333333,4.9,0,0,0,0,0,0,0,0,0,0,0,0,0,0,0,0,0,0,0,0,0,0,0,0,0,0,0,0,0,0,0,0,0,0,0,0,0,0,0,0,0,0
COM6,0508,08-Jan-19,2019-01-08 18:00:00,1.7582333333333,1.5863333333333,1.4916333333333,1.4594,1.4039666666667,1.33295,1.37295,4.9,0,0,0,0,0,0,0,0,0,0,0,0,0,0,0,0,0,0,0,0,0,0,0,0,0,0,0,0,0,0,0,0,0,0,0,0,0,0,0,0,0,0
COM6,0508,08-Jan-19,2019-01-08 19:00:00,2.4427666666667,2.25105,2.1428833333333,2.1148833333333,2.0397333333333,1.9370166666667,1.9952666666667,4.9,0,0,0,0,0,0,0,0,0,0,0,0,0,0,0,0,0,0,0,0,0,0,0,0,0,0,0,0,0,0,0,0,0,0,0,0,0,0,0,0,0,0
COM6,0508,08-Jan-19,2019-01-08 20:00:00,2.5026333333333,2.17615,2.0415333333333,1.9943666666667,1.9019,1.7855333333333,1.8349,4.9,0,0,0,0,0,0,0,0,0,0,0,0,0,0,0,0,0,0,0,0,0,0,0,0,0,0,0,0,0,0,0,0,0,0,0,0,0,0,0,0,0,0
COM6,0508,08-Jan-19,2019-01-08 21:00:00,2.4124666666667,2.13355,1.99305,1.9425666666667,1.8447833333333,1.7306333333333,1.777,4.9,0,0,0,0,0,0,0,0,0,0,0,0,0,0,0,0,0,0,0,0,0,0,0,0,0,0,0,0,0,0,0,0,0,0,0,0,0,0,0,0,0,0
COM6,0508,08-Jan-19,2019-01-08 22:00:00,2.94005,2.5657833333333,2.3850333333333,2.3157166666667,2.1840833333333,2.0255333333333,2.0748,4.9,0,0,0,0,0,0,0,0,0,0,0,0,0,0,0,0,0,0,0,0,0,0,0,0,0,0,0,0,0,0,0,0,0,0,0,0,0,0,0,0,0,0
COM6,0508,08-Jan-19,2019-01-08 23:00:00,2.8269298245614,2.4149824561404,2.2259473684211,2.1468245614035,2.0161754385965,1.8478947368421,1.8898771929825,4.8157894736842,0,0,0,0,0,0,0,0,0,0,0,0,0,0,0,0,0,0,0,0,0,0,0,0,0,0,0,0,0,0,0,0,0,0,0,0,0,0,0,0,0,0
