COM6,508,30-Mar-19,2019-03-30 00:00:00,0.22816949152542002,0.19128813559322,0.17542372881356,0.17015254237288002,0.16098305084746,0.14467796610169,0.14757627118644,5
COM6,508,30-Mar-19,2019-03-30 01:00:00,0.11786666666666999,0.12153333333333001,0.1136,0.11185,0.1044,0.09435,0.0968,5
COM6,508,30-Mar-19,2019-03-30 02:00:00,0.058683333333333004,0.062983333333333,0.060916666666666994,0.0601,0.0555,0.048866666666666995,0.0505,5
COM6,508,30-Mar-19,2019-03-30 03:00:00,0.058166666666667,0.056533333333333005,0.05315,0.0513,0.04788333333333301,0.04345,0.044466666666666994,5
COM6,508,30-Mar-19,2019-03-30 04:00:00,0.064266666666667,0.06505,0.060633333333333005,0.058366666666667,0.056483333333333004,0.052583333333333,0.053766666666667,5
COM6,508,30-Mar-19,2019-03-30 05:00:00,0.1081,0.10441666666666999,0.098666666666667,0.09671666666666699,0.090833333333333,0.08471666666666701,0.08656666666666701,5
COM6,508,30-Mar-19,2019-03-30 06:00:00,0.25185,0.23758333333332995,0.22158333333332997,0.21816666666667003,0.20681666666667003,0.18815,0.19215,5
COM6,508,30-Mar-19,2019-03-30 07:00:00,0.32686666666666997,0.31163333333333,0.29741666666667,0.29285,0.2804,0.2599,0.26761666666667006,5
COM6,508,30-Mar-19,2019-03-30 08:00:00,0.058416666666667,0.06371666666666699,0.058133333333333,0.05915,0.053483333333333,0.04855,0.04908333333333301,5
COM6,508,30-Mar-19,2019-03-30 09:00:00,0.066666666666667,0.067766666666667,0.06435,0.06555,0.059933333333333005,0.059933333333333005,0.0613,5
COM6,508,30-Mar-19,2019-03-30 10:00:00,0.046566666666667,0.0477,0.045316666666667,0.0453,0.041466666666667,0.036316666666667004,0.0367,5
COM6,508,30-Mar-19,2019-03-30 11:00:00,0.05726666666666699,0.053666666666666994,0.049883333333333,0.04945,0.047233333333333,0.0448,0.046416666666666995,5
COM6,508,30-Mar-19,2019-03-30 12:00:00,0.046883333333333006,0.04345,0.041433333333333,0.03895,0.0385,0.03353333333333299,0.0343,5
COM6,508,30-Mar-19,2019-03-30 13:00:00,0.058483333333333005,0.0547,0.051183333333333005,0.04925,0.047333333333333005,0.041833333333333,0.044383333333333004,5
COM6,508,30-Mar-19,2019-03-30 14:00:00,0.0632,0.0572,0.05418333333333301,0.051816666666667,0.04996666666666699,0.0453,0.04655,5
COM6,508,30-Mar-19,2019-03-30 15:00:00,0.076733333333333,0.071566666666667,0.0675,0.0642,0.062733333333333,0.058033333333333006,0.0613,5
COM6,508,30-Mar-19,2019-03-30 16:00:00,0.080966666666667,0.07146666666666701,0.06725,0.065416666666667,0.062,0.05435,0.054233333333333,5
COM6,508,30-Mar-19,2019-03-30 17:00:00,0.094733333333333,0.0844,0.0783,0.07365,0.07155,0.062466666666666996,0.06583333333333301,5
COM6,508,30-Mar-19,2019-03-30 18:00:00,0.099466666666667,0.08703333333333299,0.08031666666666701,0.077283333333333,0.07343333333333299,0.06425,0.06643333333333301,5
COM6,508,30-Mar-19,2019-03-30 19:00:00,0.082333333333333,0.07075,0.06535,0.061883333333333006,0.057999999999999996,0.050183333333333004,0.051066666666666996,5
COM6,508,30-Mar-19,2019-03-30 20:00:00,0.10115,0.08955,0.082083333333333,0.0792,0.0735,0.063733333333333,0.0662,5
COM6,508,30-Mar-19,2019-03-30 21:00:00,0.08298333333333299,0.07175,0.066766666666667,0.063483333333333,0.06023333333333301,0.053066666666667,0.0546,5
COM6,508,30-Mar-19,2019-03-30 22:00:00,0.1298,0.12485,0.12016666666666999,0.12078333333333001,0.11896666666667,0.12121666666667,0.12735,5
COM6,508,30-Mar-19,2019-03-30 23:00:00,0.058947368421053005,0.052000000000000005,0.047456140350877,0.04677192982456099,0.04177192982456101,0.035035087719297996,0.034491228070175003,5
