COM6,0508,16-Jan-19,2019-01-16 00:00:00,0.65669491525424,0.66633898305085,0.6461186440678,0.65128813559322,0.63732203389831,0.63479661016949,0.65572881355932,4.8,0,0,0,0,0,0,0,0,0,0,0,0,0,0,0,0,0,0,0,0,0,0,0,0,0,0,0,0,0,0,0,0,0,0,0,0,0,0,0,0,0,0
COM6,0508,16-Jan-19,2019-01-16 01:00:00,0.32098333333333,0.33833333333333,0.32673333333333,0.33223333333333,0.31978333333333,0.32281666666667,0.33163333333333,4.8,0,0,0,0,0,0,0,0,0,0,0,0,0,0,0,0,0,0,0,0,0,0,0,0,0,0,0,0,0,0,0,0,0,0,0,0,0,0,0,0,0,0
COM6,0508,16-Jan-19,2019-01-16 02:00:00,0.3832,0.39283333333333,0.3772,0.3855,0.36676666666667,0.36631666666667,0.37333333333333,4.8,0,0,0,0,0,0,0,0,0,0,0,0,0,0,0,0,0,0,0,0,0,0,0,0,0,0,0,0,0,0,0,0,0,0,0,0,0,0,0,0,0,0
COM6,0508,16-Jan-19,2019-01-16 03:00:00,0.66106666666667,0.6821,0.66025,0.67226666666667,0.65171666666667,0.65941666666667,0.67675,4.8,0,0,0,0,0,0,0,0,0,0,0,0,0,0,0,0,0,0,0,0,0,0,0,0,0,0,0,0,0,0,0,0,0,0,0,0,0,0,0,0,0,0
COM6,0508,16-Jan-19,2019-01-16 04:00:00,0.75313333333333,0.75895,0.72875,0.73661666666667,0.71108333333333,0.70883333333333,0.72758333333333,4.8,0,0,0,0,0,0,0,0,0,0,0,0,0,0,0,0,0,0,0,0,0,0,0,0,0,0,0,0,0,0,0,0,0,0,0,0,0,0,0,0,0,0
COM6,0508,16-Jan-19,2019-01-16 05:00:00,0.94698333333333,0.9614,0.92546666666667,0.93165,0.90388333333333,0.90025,0.9239,4.8,0,0,0,0,0,0,0,0,0,0,0,0,0,0,0,0,0,0,0,0,0,0,0,0,0,0,0,0,0,0,0,0,0,0,0,0,0,0,0,0,0,0
COM6,0508,16-Jan-19,2019-01-16 06:00:00,1.0641333333333,1.0709,1.0275166666667,1.0367166666667,1.00305,1.0001333333333,1.0266166666667,4.8,0,0,0,0,0,0,0,0,0,0,0,0,0,0,0,0,0,0,0,0,0,0,0,0,0,0,0,0,0,0,0,0,0,0,0,0,0,0,0,0,0,0
COM6,0508,16-Jan-19,2019-01-16 07:00:00,1.4187,1.4058,1.3465,1.3513166666667,1.3079,1.29585,1.3305166666667,4.8,0,0,0,0,0,0,0,0,0,0,0,0,0,0,0,0,0,0,0,0,0,0,0,0,0,0,0,0,0,0,0,0,0,0,0,0,0,0,0,0,0,0
COM6,0508,16-Jan-19,2019-01-16 08:00:00,2.08965,2.0864666666667,1.9969833333333,2.0035333333333,1.9407,1.9272833333333,1.98025,4.8,0,0,0,0,0,0,0,0,0,0,0,0,0,0,0,0,0,0,0,0,0,0,0,0,0,0,0,0,0,0,0,0,0,0,0,0,0,0,0,0,0,0
COM6,0508,16-Jan-19,2019-01-16 09:00:00,2.2260333333333,2.17035,2.0514333333333,2.03545,1.9619666666667,1.9358333333333,1.98985,4.7983333333333,0,0,0,0,0,0,0,0,0,0,0,0,0,0,0,0,0,0,0,0,0,0,0,0,0,0,0,0,0,0,0,0,0,0,0,0,0,0,0,0,0,0
COM6,0508,16-Jan-19,2019-01-16 10:00:00,2.4695666666667,2.3908,2.24075,2.21715,2.1346666666667,2.1047,2.1603666666667,4.705,0,0,0,0,0,0,0,0,0,0,0,0,0,0,0,0,0,0,0,0,0,0,0,0,0,0,0,0,0,0,0,0,0,0,0,0,0,0,0,0,0,0
COM6,0508,16-Jan-19,2019-01-16 11:00:00,2.1963833333333,2.1721666666667,2.0579166666667,2.0441833333333,1.9801166666667,1.9549166666667,2.0085666666667,4.7,0,0,0,0,0,0,0,0,0,0,0,0,0,0,0,0,0,0,0,0,0,0,0,0,0,0,0,0,0,0,0,0,0,0,0,0,0,0,0,0,0,0
COM6,0508,16-Jan-19,2019-01-16 12:00:00,1.54565,1.5612166666667,1.50575,1.50375,1.4810666666667,1.4626833333333,1.5063666666667,4.7,0,0,0,0,0,0,0,0,0,0,0,0,0,0,0,0,0,0,0,0,0,0,0,0,0,0,0,0,0,0,0,0,0,0,0,0,0,0,0,0,0,0
COM6,0508,16-Jan-19,2019-01-16 13:00:00,1.7881,1.7673333333333,1.6921166666667,1.6816666666667,1.6456,1.6128,1.6621666666667,4.7,0,0,0,0,0,0,0,0,0,0,0,0,0,0,0,0,0,0,0,0,0,0,0,0,0,0,0,0,0,0,0,0,0,0,0,0,0,0,0,0,0,0
COM6,0508,16-Jan-19,2019-01-16 14:00:00,2.2498833333333,2.2091333333333,2.0999333333333,2.0838666666667,2.01055,1.9529833333333,2.00195,4.7,0,0,0,0,0,0,0,0,0,0,0,0,0,0,0,0,0,0,0,0,0,0,0,0,0,0,0,0,0,0,0,0,0,0,0,0,0,0,0,0,0,0
COM6,0508,16-Jan-19,2019-01-16 15:00:00,1.8706833333333,1.8135333333333,1.7218833333333,1.7139666666667,1.6469333333333,1.585,1.62545,4.7,0,0,0,0,0,0,0,0,0,0,0,0,0,0,0,0,0,0,0,0,0,0,0,0,0,0,0,0,0,0,0,0,0,0,0,0,0,0,0,0,0,0
COM6,0508,16-Jan-19,2019-01-16 16:00:00,3.4617,3.2696166666667,3.0598,3.01115,2.8791333333333,2.7557333333333,2.8199,4.7,0,0,0,0,0,0,0,0,0,0,0,0,0,0,0,0,0,0,0,0,0,0,0,0,0,0,0,0,0,0,0,0,0,0,0,0,0,0,0,0,0,0
COM6,0508,16-Jan-19,2019-01-16 17:00:00,3.7429666666667,3.4429,3.1844,3.1036333333333,2.9463833333333,2.7712666666667,2.8354833333333,4.7,0,0,0,0,0,0,0,0,0,0,0,0,0,0,0,0,0,0,0,0,0,0,0,0,0,0,0,0,0,0,0,0,0,0,0,0,0,0,0,0,0,0
COM6,0508,16-Jan-19,2019-01-16 18:00:00,5.8852666666667,5.28125,4.8403,4.6955333333333,4.4190166666667,4.1187666666667,4.2025,4.6866666666667,0,0,0,0,0,0,0,0,0,0,0,0,0,0,0,0,0,0,0,0,0,0,0,0,0,0,0,0,0,0,0,0,0,0,0,0,0,0,0,0,0,0
COM6,0508,16-Jan-19,2019-01-16 19:00:00,3.3756166666667,2.9725666666667,2.7278333333333,2.6390333333333,2.4764166666667,2.2942833333333,2.33965,4.3433333333333,0,0,0,0,0,0,0,0,0,0,0,0,0,0,0,0,0,0,0,0,0,0,0,0,0,0,0,0,0,0,0,0,0,0,0,0,0,0,0,0,0,0
COM6,0508,16-Jan-19,2019-01-16 20:00:00,1.2396166666667,1.1571,1.1063166666667,1.0946666666667,1.0649333333333,1.02835,1.05975,4.9,0,0,0,0,0,0,0,0,0,0,0,0,0,0,0,0,0,0,0,0,0,0,0,0,0,0,0,0,0,0,0,0,0,0,0,0,0,0,0,0,0,0
COM6,0508,16-Jan-19,2019-01-16 21:00:00,0.93033333333333,0.8777,0.82678333333333,0.81285,0.78556666666667,0.74921666666667,0.77,4.9,0,0,0,0,0,0,0,0,0,0,0,0,0,0,0,0,0,0,0,0,0,0,0,0,0,0,0,0,0,0,0,0,0,0,0,0,0,0,0,0,0,0
COM6,0508,16-Jan-19,2019-01-16 22:00:00,0.49883333333333,0.44208333333333,0.41006666666667,0.40083333333333,0.3847,0.36246666666667,0.3728,4.9,0,0,0,0,0,0,0,0,0,0,0,0,0,0,0,0,0,0,0,0,0,0,0,0,0,0,0,0,0,0,0,0,0,0,0,0,0,0,0,0,0,0
COM6,0508,16-Jan-19,2019-01-16 23:00:00,0.35796551724138,0.34506896551724,0.32331034482759,0.31581034482759,0.30420689655172,0.28812068965517,0.29625862068966,4.9,0,0,0,0,0,0,0,0,0,0,0,0,0,0,0,0,0,0,0,0,0,0,0,0,0,0,0,0,0,0,0,0,0,0,0,0,0,0,0,0,0,0
