COM4,508,15-Nov-19,2019-11-15 00:00:00,1.3974067796610001,1.3247796610169,1.2413898305085,1.2162372881356,1.1814237288136,1.1253220338983,1.1601186440678,5.0
COM4,508,15-Nov-19,2019-11-15 01:00:00,0.97353333333333,0.94363333333333,0.88755,0.87151666666667,0.8488,0.81031666666667,0.83631666666667,5.0
COM4,508,15-Nov-19,2019-11-15 02:00:00,0.53645,0.52283333333333,0.49261666666667,0.48213333333333,0.47216666666667,0.44945,0.46528333333333,5.0
COM4,508,15-Nov-19,2019-11-15 03:00:00,0.4667,0.4628,0.43785,0.42828333333333,0.42035,0.40066666666667,0.41575,5.0
COM4,508,15-Nov-19,2019-11-15 04:00:00,0.58375,0.55895,0.52716666666667,0.51655,0.5036,0.47915,0.49486666666667,5.0
COM4,508,15-Nov-19,2019-11-15 05:00:00,1.1993,1.1673333333333,1.1084833333333,1.0912166666667,1.0627166666666998,1.0196833333333,1.0566,5.0
COM4,508,15-Nov-19,2019-11-15 06:00:00,1.4973333333333,1.4414666666667,1.3689333333333,1.34635,1.30945,1.2482166666666998,1.29095,5.0
COM4,508,15-Nov-19,2019-11-15 07:00:00,2.2451833333332996,2.1761,2.07005,2.0452333333333,1.98385,1.8872166666666998,1.9514666666667,5.0
COM4,508,15-Nov-19,2019-11-15 08:00:00,3.6691333333332996,3.5577,3.3810833333333,3.3407666666667004,3.2319,3.07355,3.1785666666667,5.0
COM4,508,15-Nov-19,2019-11-15 09:00:00,3.6414,3.5485333333332996,3.3844166666667004,3.3406666666667,3.23065,3.0586833333333,3.1626333333332997,5.0
COM4,508,15-Nov-19,2019-11-15 10:00:00,2.0836166666666998,1.99745,1.90415,1.86395,1.8080333333333,1.6820333333333,1.7447166666667,5.0
COM4,508,15-Nov-19,2019-11-15 11:00:00,1.8253666666666999,1.5758333333333001,1.4593333333333,1.3802166666667,1.3368333333333,1.2062333333333,1.2578833333333002,5.0
COM4,508,15-Nov-19,2019-11-15 12:00:00,2.06805,1.7630833333333,1.6394666666667,1.54685,1.5059,1.3530666666667,1.4173666666667,5.0
COM4,508,15-Nov-19,2019-11-15 13:00:00,1.9077,1.5962666666667,1.485,1.3856,1.36195,1.2186,1.2798333333333,5.0
COM4,508,15-Nov-19,2019-11-15 14:00:00,1.5081833333333001,1.3081,1.2058166666666998,1.1295333333333,1.08555,0.9638,1.00935,5.0
COM4,508,15-Nov-19,2019-11-15 15:00:00,1.4493833333333002,1.4831666666667,1.3385333333333,1.37815,1.1843833333333,1.1369,1.1353166666666998,5.0
COM4,508,15-Nov-19,2019-11-15 16:00:00,1.6840333333333,1.65705,1.5163,1.55125,1.3714333333333,1.3248166666666998,1.3279833333333,5.0
COM4,508,15-Nov-19,2019-11-15 17:00:00,2.3147666666667,2.17925,2.0414333333333,2.0366333333333,1.8821333333333001,1.7739833333333002,1.8054,5.0
COM4,508,15-Nov-19,2019-11-15 18:00:00,3.0048833333332996,2.6328666666667004,2.4343,2.3483166666667,2.20805,2.0213333333333,2.0735833333333002,5.0
COM4,508,15-Nov-19,2019-11-15 19:00:00,3.5476333333333,2.9813,2.7192333333332996,2.5929833333333,2.4439833333333,2.2227,2.2884,4.6666666666667
COM4,508,15-Nov-19,2019-11-15 20:00:00,2.7304333333332997,2.1982166666667,1.9915,1.8991,1.8115666666666999,1.68655,1.7359833333333001,5.0
COM4,508,15-Nov-19,2019-11-15 21:00:00,2.6411333333332996,2.4249833333332997,2.2715666666667,2.2165666666667003,2.1418666666667,2.04135,2.1062833333333,5.0
COM4,508,15-Nov-19,2019-11-15 22:00:00,1.3527,1.22055,1.1383166666667,1.11545,1.0785666666667,1.0210833333333,1.0544666666667,5.0
COM4,508,15-Nov-19,2019-11-15 23:00:00,1.00835,0.90215,0.83625,0.81283333333333,0.78453333333333,0.74086666666667,0.76616666666667,5.0
