COM6,508,10-Aug-17,2017-08-10 00:00:00,0.38777966101695,0.38340677966102005,0.36957627118644,0.36877966101695003,0.35803389830508003,0.35281355932203,0.36223728813559003,5
COM6,508,10-Aug-17,2017-08-10 01:00:00,0.49431666666667,0.49195,0.47671666666667,0.47756666666666997,0.46591666666667,0.45888333333333,0.47283333333333,5
COM6,508,10-Aug-17,2017-08-10 02:00:00,0.41583333333333,0.41071666666667,0.3988,0.39943333333333003,0.38891666666667,0.37975,0.39066666666667,5
COM6,508,10-Aug-17,2017-08-10 03:00:00,0.27775,0.26295,0.25158333333333,0.24895,0.2375,0.22266666666667004,0.22763333333332997,5
COM6,508,10-Aug-17,2017-08-10 04:00:00,0.4455,0.44415,0.42873333333333,0.42785,0.41313333333333,0.3978,0.40891666666667,5
COM6,508,10-Aug-17,2017-08-10 05:00:00,0.51885,0.5167,0.49903333333333,0.49806666666667,0.48200000000000004,0.46863333333333,0.48233333333333,5
COM6,508,10-Aug-17,2017-08-10 06:00:00,0.78055,0.76911666666667,0.73345,0.72543333333333,0.6976,0.67843333333333,0.69821666666667,5
COM6,508,10-Aug-17,2017-08-10 07:00:00,1.5607333333333,1.5702,1.5091166666667,1.5022166666666998,1.4574333333333,1.4324666666666999,1.4770333333333001,5
COM6,508,10-Aug-17,2017-08-10 08:00:00,0.97951666666667,0.95308333333333,0.90448333333333,0.89646666666667,0.85955,0.83443333333333,0.85835,5
COM6,508,10-Aug-17,2017-08-10 09:00:00,0.6587166666666701,0.6343,0.5983833333333299,0.58923333333333,0.56305,0.54358333333333,0.55705,5
COM6,508,10-Aug-17,2017-08-10 10:00:00,0.39686666666667,0.38845,0.37113333333333,0.36778333333333,0.34905,0.32898333333333,0.33668333333333,5
COM6,508,10-Aug-17,2017-08-10 11:00:00,0.47285,0.47183333333333,0.45291666666667,0.45136666666666997,0.4327,0.41703333333333,0.42773333333333,5
COM6,508,10-Aug-17,2017-08-10 12:00:00,0.44118333333333,0.41941666666667,0.39761666666667,0.38886666666666997,0.36855,0.34463333333333,0.3523,5
COM6,508,10-Aug-17,2017-08-10 13:00:00,0.45088333333333,0.40758333333333,0.37806666666667,0.36568333333333003,0.34668333333333,0.31718333333333,0.3256,5
COM6,508,10-Aug-17,2017-08-10 14:00:00,0.39163333333333,0.35053333333333003,0.32893333333333,0.31788333333333,0.2983,0.272,0.27795,5
COM6,508,10-Aug-17,2017-08-10 15:00:00,0.36583333333333,0.32918333333333,0.30676666666667,0.29575,0.27783333333333,0.25108333333333,0.25845,5
COM6,508,10-Aug-17,2017-08-10 16:00:00,0.35698333333333,0.31251666666667,0.28946666666667,0.27758333333333,0.25945,0.23601666666667004,0.24188333333332998,5
COM6,508,10-Aug-17,2017-08-10 17:00:00,0.47605,0.42711666666667,0.40061666666667,0.38508333333333,0.36431666666667,0.33188333333333003,0.34108333333333,5
COM6,508,10-Aug-17,2017-08-10 18:00:00,0.50923333333333,0.46758333333333,0.43666666666667,0.42233333333333,0.39783333333333,0.36435,0.37328333333333,5
COM6,508,10-Aug-17,2017-08-10 19:00:00,0.5722,0.51703333333333,0.48131666666667,0.46521666666667,0.43495,0.3965,0.40458333333333,5
COM6,508,10-Aug-17,2017-08-10 20:00:00,0.46191666666667,0.40563333333333,0.37396666666667,0.35943333333333,0.33491666666666997,0.30396666666667,0.3102,5
COM6,508,10-Aug-17,2017-08-10 21:00:00,0.33116666666667,0.30046666666667,0.28105,0.27268333333332995,0.25303333333332995,0.22741666666667004,0.23188333333332997,5
COM6,508,10-Aug-17,2017-08-10 22:00:00,0.32061666666667,0.28701666666667,0.26998333333332997,0.2614,0.24355,0.22056666666667002,0.22453333333332998,5
COM6,508,10-Aug-17,2017-08-10 23:00:00,0.30319298245614,0.2699298245614,0.24838596491228,0.23843859649123003,0.22068421052632,0.19510526315789004,0.19938596491228,5
