COM4,508,04-May-19,2019-05-04 00:00:00,0.27008474576270997,0.21708474576270997,0.19193220338983,0.18379661016948998,0.16384745762712,0.15245762711864003,0.15198305084746,5.0
COM4,508,04-May-19,2019-05-04 01:00:00,0.53026666666667,0.46483333333333,0.41588333333333,0.41115,0.36963333333333,0.34738333333333,0.34945,5.0
COM4,508,04-May-19,2019-05-04 02:00:00,0.54591666666667,0.48755,0.44415,0.43778333333333,0.4001,0.37733333333333,0.3801,5.0
COM4,508,04-May-19,2019-05-04 03:00:00,0.1987,0.17691666666667002,0.15523333333332998,0.15413333333332999,0.1304,0.11751666666666999,0.11525,5.0
COM4,508,04-May-19,2019-05-04 04:00:00,0.22643333333332996,0.20035,0.17715,0.17505,0.15476666666667002,0.14095,0.13958333333332998,5.0
COM4,508,04-May-19,2019-05-04 05:00:00,0.49738333333333,0.44823333333333,0.41053333333333003,0.39891666666667,0.37143333333333,0.3476,0.35563333333333,5.0
COM4,508,04-May-19,2019-05-04 06:00:00,0.69276666666667,0.6344166666666701,0.5802,0.5654666666666701,0.53363333333333,0.49815,0.50643333333333,5.0
COM4,508,04-May-19,2019-05-04 07:00:00,0.6967,0.6371,0.5879666666666701,0.5659166666666701,0.52996666666667,0.47885,0.48671666666667,5.0
COM4,508,04-May-19,2019-05-04 08:00:00,0.51353333333333,0.4562,0.41168333333333,0.39946666666666997,0.36771666666667,0.32545,0.33196666666667,5.0
COM4,508,04-May-19,2019-05-04 09:00:00,0.66305,0.6016,0.54613333333333,0.53016666666667,0.49578333333333,0.45631666666667,0.46573333333333,5.0
COM4,508,04-May-19,2019-05-04 10:00:00,0.61235,0.54396666666667,0.49598333333333,0.47293333333333,0.44111666666667,0.40113333333333,0.41088333333333,5.0
COM4,508,04-May-19,2019-05-04 11:00:00,0.69425,0.5961,0.53965,0.5109,0.4827,0.42991666666667,0.4404,5.0
COM4,508,04-May-19,2019-05-04 12:00:00,0.83281666666667,0.723,0.6559999999999999,0.6243166666666701,0.5872,0.52923333333333,0.53633333333333,5.0
COM4,508,04-May-19,2019-05-04 13:00:00,0.5357666666666699,0.45163333333333,0.39983333333333,0.37696666666667,0.35101666666667,0.29608333333333,0.30343333333333,5.0
COM4,508,04-May-19,2019-05-04 14:00:00,0.40396666666666997,0.3248,0.2962,0.27381666666667004,0.256,0.22223333333332998,0.22595,5.0
COM4,508,04-May-19,2019-05-04 15:00:00,0.31106666666667,0.25155,0.22206666666667002,0.2039,0.19003333333332997,0.15426666666667002,0.16043333333332999,4.9166666666667
COM4,508,04-May-19,2019-05-04 16:00:00,0.209,0.13075,0.1215,0.11699999999999999,0.1145,0.10833333333333,0.11421666666666999,4.75
COM4,508,04-May-19,2019-05-04 17:00:00,0.1515,0.13156666666667,0.12158333333333,0.11788333333333001,0.11158333333333001,0.1061,0.1086,5.0
COM4,508,04-May-19,2019-05-04 18:00:00,0.22095,0.19371666666667003,0.1776,0.17236666666667003,0.16416666666667,0.15543333333332998,0.15846666666667,5.0
COM4,508,04-May-19,2019-05-04 19:00:00,0.42795,0.32476666666667,0.28595,0.26555,0.24665,0.22386666666667004,0.22858333333332997,5.0
COM4,508,04-May-19,2019-05-04 20:00:00,0.50508333333333,0.35345,0.305,0.27521666666667,0.25223333333333,0.22468333333332996,0.22826666666667003,5.0
COM4,508,04-May-19,2019-05-04 21:00:00,0.25673333333333,0.2172,0.19723333333332996,0.18566666666667003,0.17286666666667003,0.1568,0.16041666666667,5.0
COM4,508,04-May-19,2019-05-04 22:00:00,0.23935,0.19931666666667003,0.18016666666667003,0.17048333333332996,0.15963333333333,0.14803333333333,0.1507,5.0
COM4,508,04-May-19,2019-05-04 23:00:00,0.39435,0.29801666666667,0.26251666666667,0.2427,0.22521666666667003,0.20105,0.20491666666667002,5.0
