COM6,0508,14-Feb-19,2019-02-14 00:00:00,0.043271186440678,0.036966101694915,0.038050847457627,0.037084745762712,0.03628813559322,0.027050847457627,0.028322033898305,5,0,0,0,0,0,0,0,0,0,0,0,0,0,0,0,0,0,0,0,0,0,0,0,0,0,0,0,0,0,0,0,0,0,0,0,0,0,0,0,0,0,0
COM6,0508,14-Feb-19,2019-02-14 01:00:00,0.091983333333333,0.081916666666667,0.075433333333333,0.073716666666667,0.068566666666667,0.058016666666667,0.059533333333333,5,0,0,0,0,0,0,0,0,0,0,0,0,0,0,0,0,0,0,0,0,0,0,0,0,0,0,0,0,0,0,0,0,0,0,0,0,0,0,0,0,0,0
COM6,0508,14-Feb-19,2019-02-14 02:00:00,0.10345,0.090083333333333,0.085216666666667,0.0761,0.076183333333333,0.068633333333333,0.070766666666667,5,0,0,0,0,0,0,0,0,0,0,0,0,0,0,0,0,0,0,0,0,0,0,0,0,0,0,0,0,0,0,0,0,0,0,0,0,0,0,0,0,0,0
COM6,0508,14-Feb-19,2019-02-14 03:00:00,0.10278333333333,0.090016666666667,0.082233333333333,0.081916666666667,0.07445,0.061,0.06255,5,0,0,0,0,0,0,0,0,0,0,0,0,0,0,0,0,0,0,0,0,0,0,0,0,0,0,0,0,0,0,0,0,0,0,0,0,0,0,0,0,0,0
COM6,0508,14-Feb-19,2019-02-14 04:00:00,0.07075,0.07175,0.067483333333333,0.06525,0.058333333333333,0.053266666666667,0.053883333333333,5,0,0,0,0,0,0,0,0,0,0,0,0,0,0,0,0,0,0,0,0,0,0,0,0,0,0,0,0,0,0,0,0,0,0,0,0,0,0,0,0,0,0
COM6,0508,14-Feb-19,2019-02-14 05:00:00,0.08475,0.079866666666667,0.0705,0.0683,0.065066666666667,0.056,0.058266666666667,5,0,0,0,0,0,0,0,0,0,0,0,0,0,0,0,0,0,0,0,0,0,0,0,0,0,0,0,0,0,0,0,0,0,0,0,0,0,0,0,0,0,0
COM6,0508,14-Feb-19,2019-02-14 06:00:00,0.11805,0.10483333333333,0.10046666666667,0.093916666666667,0.086866666666667,0.07815,0.08015,5,0,0,0,0,0,0,0,0,0,0,0,0,0,0,0,0,0,0,0,0,0,0,0,0,0,0,0,0,0,0,0,0,0,0,0,0,0,0,0,0,0,0
COM6,0508,14-Feb-19,2019-02-14 07:00:00,0.17475,0.15843333333333,0.14435,0.13935,0.13015,0.11786666666667,0.12135,5,0,0,0,0,0,0,0,0,0,0,0,0,0,0,0,0,0,0,0,0,0,0,0,0,0,0,0,0,0,0,0,0,0,0,0,0,0,0,0,0,0,0
COM6,0508,14-Feb-19,2019-02-14 08:00:00,0.2748,0.25715,0.23523333333333,0.2289,0.21526666666667,0.19743333333333,0.2009,5,0,0,0,0,0,0,0,0,0,0,0,0,0,0,0,0,0,0,0,0,0,0,0,0,0,0,0,0,0,0,0,0,0,0,0,0,0,0,0,0,0,0
COM6,0508,14-Feb-19,2019-02-14 09:00:00,0.27108333333333,0.25365,0.23505,0.22711666666667,0.21318333333333,0.19861666666667,0.20188333333333,5,0,0,0,0,0,0,0,0,0,0,0,0,0,0,0,0,0,0,0,0,0,0,0,0,0,0,0,0,0,0,0,0,0,0,0,0,0,0,0,0,0,0
COM6,0508,14-Feb-19,2019-02-14 10:00:00,0.34371666666667,0.32256666666667,0.29356666666667,0.28813333333333,0.26808333333333,0.24685,0.25281666666667,5,0,0,0,0,0,0,0,0,0,0,0,0,0,0,0,0,0,0,0,0,0,0,0,0,0,0,0,0,0,0,0,0,0,0,0,0,0,0,0,0,0,0
COM6,0508,14-Feb-19,2019-02-14 11:00:00,0.38585,0.35611666666667,0.33001666666667,0.31803333333333,0.29936666666667,0.27626666666667,0.28196666666667,5,0,0,0,0,0,0,0,0,0,0,0,0,0,0,0,0,0,0,0,0,0,0,0,0,0,0,0,0,0,0,0,0,0,0,0,0,0,0,0,0,0,0
COM6,0508,14-Feb-19,2019-02-14 12:00:00,0.16816666666667,0.17131666666667,0.1576,0.15216666666667,0.1442,0.12946666666667,0.1328,5,0,0,0,0,0,0,0,0,0,0,0,0,0,0,0,0,0,0,0,0,0,0,0,0,0,0,0,0,0,0,0,0,0,0,0,0,0,0,0,0,0,0
COM6,0508,14-Feb-19,2019-02-14 13:00:00,0.11543333333333,0.11248333333333,0.10421666666667,0.10358333333333,0.095533333333333,0.089483333333333,0.09045,5,0,0,0,0,0,0,0,0,0,0,0,0,0,0,0,0,0,0,0,0,0,0,0,0,0,0,0,0,0,0,0,0,0,0,0,0,0,0,0,0,0,0
COM6,0508,14-Feb-19,2019-02-14 14:00:00,0.23723333333333,0.22668333333333,0.2079,0.20008333333333,0.19008333333333,0.17593333333333,0.18018333333333,5,0,0,0,0,0,0,0,0,0,0,0,0,0,0,0,0,0,0,0,0,0,0,0,0,0,0,0,0,0,0,0,0,0,0,0,0,0,0,0,0,0,0
COM6,0508,14-Feb-19,2019-02-14 15:00:00,0.12421666666667,0.11738333333333,0.10818333333333,0.10316666666667,0.099016666666667,0.090883333333333,0.0911,5,0,0,0,0,0,0,0,0,0,0,0,0,0,0,0,0,0,0,0,0,0,0,0,0,0,0,0,0,0,0,0,0,0,0,0,0,0,0,0,0,0,0
COM6,0508,14-Feb-19,2019-02-14 16:00:00,0.19173333333333,0.17873333333333,0.16961666666667,0.16696666666667,0.1593,0.14738333333333,0.14935,5,0,0,0,0,0,0,0,0,0,0,0,0,0,0,0,0,0,0,0,0,0,0,0,0,0,0,0,0,0,0,0,0,0,0,0,0,0,0,0,0,0,0
COM6,0508,14-Feb-19,2019-02-14 17:00:00,0.32695,0.28811666666667,0.26751666666667,0.25505,0.24755,0.22033333333333,0.22843333333333,5,0,0,0,0,0,0,0,0,0,0,0,0,0,0,0,0,0,0,0,0,0,0,0,0,0,0,0,0,0,0,0,0,0,0,0,0,0,0,0,0,0,0
COM6,0508,14-Feb-19,2019-02-14 18:00:00,0.0607,0.06065,0.05925,0.052333333333333,0.056766666666667,0.049133333333333,0.053816666666667,5,0,0,0,0,0,0,0,0,0,0,0,0,0,0,0,0,0,0,0,0,0,0,0,0,0,0,0,0,0,0,0,0,0,0,0,0,0,0,0,0,0,0
COM6,0508,14-Feb-19,2019-02-14 19:00:00,0.0695,0.071016666666667,0.069966666666667,0.065433333333333,0.0648,0.059083333333333,0.061133333333333,5,0,0,0,0,0,0,0,0,0,0,0,0,0,0,0,0,0,0,0,0,0,0,0,0,0,0,0,0,0,0,0,0,0,0,0,0,0,0,0,0,0,0
COM6,0508,14-Feb-19,2019-02-14 20:00:00,0.090916666666667,0.084866666666667,0.077733333333333,0.075083333333333,0.073466666666667,0.06565,0.067016666666667,5,0,0,0,0,0,0,0,0,0,0,0,0,0,0,0,0,0,0,0,0,0,0,0,0,0,0,0,0,0,0,0,0,0,0,0,0,0,0,0,0,0,0
COM6,0508,14-Feb-19,2019-02-14 21:00:00,0.0489,0.0494,0.047966666666667,0.04805,0.043416666666667,0.038666666666667,0.0405,5,0,0,0,0,0,0,0,0,0,0,0,0,0,0,0,0,0,0,0,0,0,0,0,0,0,0,0,0,0,0,0,0,0,0,0,0,0,0,0,0,0,0
COM6,0508,14-Feb-19,2019-02-14 22:00:00,0.019866666666667,0.02405,0.02475,0.02365,0.0227,0.018066666666667,0.016766666666667,5,0,0,0,0,0,0,0,0,0,0,0,0,0,0,0,0,0,0,0,0,0,0,0,0,0,0,0,0,0,0,0,0,0,0,0,0,0,0,0,0,0,0
COM6,0508,14-Feb-19,2019-02-14 23:00:00,0.076280701754386,0.070035087719298,0.06480701754386,0.06319298245614,0.05780701754386,0.055122807017544,0.056859649122807,5,0,0,0,0,0,0,0,0,0,0,0,0,0,0,0,0,0,0,0,0,0,0,0,0,0,0,0,0,0,0,0,0,0,0,0,0,0,0,0,0,0,0
