COM6,0508,16-Dec-18,2018-12-16 00:00:00,0.68740677966102,0.66493220338983,0.65001694915254,0.64918644067797,0.63894915254237,0.62328813559322,0.64332203389831,4.7,0,0,0,0,0,0,0,0,0,0,0,0,0,0,0,0,0,0,0,0,0,0,0,0,0,0,0,0,0,0,0,0,0,0,0,0,0,0,0,0,0,0
COM6,0508,16-Dec-18,2018-12-16 01:00:00,0.46206666666667,0.44405,0.43121666666667,0.42146666666667,0.41888333333333,0.39981666666667,0.41385,4.7,0,0,0,0,0,0,0,0,0,0,0,0,0,0,0,0,0,0,0,0,0,0,0,0,0,0,0,0,0,0,0,0,0,0,0,0,0,0,0,0,0,0
COM6,0508,16-Dec-18,2018-12-16 02:00:00,0.31638333333333,0.32581666666667,0.31646666666667,0.30455,0.30596666666667,0.28536666666667,0.29821666666667,4.7,0,0,0,0,0,0,0,0,0,0,0,0,0,0,0,0,0,0,0,0,0,0,0,0,0,0,0,0,0,0,0,0,0,0,0,0,0,0,0,0,0,0
COM6,0508,16-Dec-18,2018-12-16 03:00:00,0.30621666666667,0.36601666666667,0.3616,0.35613333333333,0.3572,0.33721666666667,0.35023333333333,4.7,0,0,0,0,0,0,0,0,0,0,0,0,0,0,0,0,0,0,0,0,0,0,0,0,0,0,0,0,0,0,0,0,0,0,0,0,0,0,0,0,0,0
COM6,0508,16-Dec-18,2018-12-16 04:00:00,0.53095,0.65103333333333,0.65203333333333,0.65835,0.65606666666667,0.63058333333333,0.65276666666667,4.7,0,0,0,0,0,0,0,0,0,0,0,0,0,0,0,0,0,0,0,0,0,0,0,0,0,0,0,0,0,0,0,0,0,0,0,0,0,0,0,0,0,0
COM6,0508,16-Dec-18,2018-12-16 05:00:00,0.29803333333333,0.35191666666667,0.34275,0.33805,0.3342,0.30998333333333,0.3194,4.7,0,0,0,0,0,0,0,0,0,0,0,0,0,0,0,0,0,0,0,0,0,0,0,0,0,0,0,0,0,0,0,0,0,0,0,0,0,0,0,0,0,0
COM6,0508,16-Dec-18,2018-12-16 06:00:00,0.45233333333333,0.46635,0.4435,0.43001666666667,0.4149,0.37208333333333,0.38213333333333,4.6283333333333,0,0,0,0,0,0,0,0,0,0,0,0,0,0,0,0,0,0,0,0,0,0,0,0,0,0,0,0,0,0,0,0,0,0,0,0,0,0,0,0,0,0
COM6,0508,16-Dec-18,2018-12-16 07:00:00,0.479,0.48875,0.46976666666667,0.46191666666667,0.44436666666667,0.40363333333333,0.4139,4.6,0,0,0,0,0,0,0,0,0,0,0,0,0,0,0,0,0,0,0,0,0,0,0,0,0,0,0,0,0,0,0,0,0,0,0,0,0,0,0,0,0,0
COM6,0508,16-Dec-18,2018-12-16 08:00:00,0.58871666666667,0.68055,0.67055,0.67015,0.65128333333333,0.6022,0.61528333333333,4.6,0,0,0,0,0,0,0,0,0,0,0,0,0,0,0,0,0,0,0,0,0,0,0,0,0,0,0,0,0,0,0,0,0,0,0,0,0,0,0,0,0,0
COM6,0508,16-Dec-18,2018-12-16 09:00:00,1.0493833333333,1.2229333333333,1.21595,1.2241,1.1937666666667,1.09655,1.1230833333333,4.6,0,0,0,0,0,0,0,0,0,0,0,0,0,0,0,0,0,0,0,0,0,0,0,0,0,0,0,0,0,0,0,0,0,0,0,0,0,0,0,0,0,0
COM6,0508,16-Dec-18,2018-12-16 10:00:00,1.1932333333333,1.394,1.37185,1.3733833333333,1.3164333333333,1.18795,1.2082333333333,4.6,0,0,0,0,0,0,0,0,0,0,0,0,0,0,0,0,0,0,0,0,0,0,0,0,0,0,0,0,0,0,0,0,0,0,0,0,0,0,0,0,0,0
COM6,0508,16-Dec-18,2018-12-16 11:00:00,0.75528333333333,0.93855,0.92243333333333,0.92605,0.87603333333333,0.77703333333333,0.78555,4.6,0,0,0,0,0,0,0,0,0,0,0,0,0,0,0,0,0,0,0,0,0,0,0,0,0,0,0,0,0,0,0,0,0,0,0,0,0,0,0,0,0,0
COM6,0508,16-Dec-18,2018-12-16 12:00:00,0.65985,0.80873333333333,0.79121666666667,0.7854,0.73971666666667,0.64691666666667,0.65236666666667,4.5316666666667,0,0,0,0,0,0,0,0,0,0,0,0,0,0,0,0,0,0,0,0,0,0,0,0,0,0,0,0,0,0,0,0,0,0,0,0,0,0,0,0,0,0
COM6,0508,16-Dec-18,2018-12-16 13:00:00,0.73628333333333,0.88183333333333,0.85311666666667,0.83681666666667,0.785,0.67491666666667,0.68306666666667,4.5,0,0,0,0,0,0,0,0,0,0,0,0,0,0,0,0,0,0,0,0,0,0,0,0,0,0,0,0,0,0,0,0,0,0,0,0,0,0,0,0,0,0
COM6,0508,16-Dec-18,2018-12-16 14:00:00,0.3569,0.78453333333333,0.74938333333333,0.72445,0.67306666666667,0.55638333333333,0.56048333333333,4.5,0,0,0,0,0,0,0,0,0,0,0,0,0,0,0,0,0,0,0,0,0,0,0,0,0,0,0,0,0,0,0,0,0,0,0,0,0,0,0,0,0,0
COM6,0508,16-Dec-18,2018-12-16 15:00:00,0.27583333333333,0.81011666666667,0.76745,0.72968333333333,0.669,0.5446,0.5503,4.5,0,0,0,0,0,0,0,0,0,0,0,0,0,0,0,0,0,0,0,0,0,0,0,0,0,0,0,0,0,0,0,0,0,0,0,0,0,0,0,0,0,0
COM6,0508,16-Dec-18,2018-12-16 16:00:00,0.23471666666667,0.72485,0.67911666666667,0.64573333333333,0.59455,0.48286666666667,0.48651666666667,4.5,0,0,0,0,0,0,0,0,0,0,0,0,0,0,0,0,0,0,0,0,0,0,0,0,0,0,0,0,0,0,0,0,0,0,0,0,0,0,0,0,0,0
COM6,0508,16-Dec-18,2018-12-16 17:00:00,0.23418333333333,0.73788333333333,0.6924,0.65571666666667,0.60156666666667,0.488,0.4919,4.5,0,0,0,0,0,0,0,0,0,0,0,0,0,0,0,0,0,0,0,0,0,0,0,0,0,0,0,0,0,0,0,0,0,0,0,0,0,0,0,0,0,0
COM6,0508,16-Dec-18,2018-12-16 18:00:00,0.38761666666667,1.2388,1.1477166666667,1.0796666666667,0.97263333333333,0.77353333333333,0.77676666666667,4.5,0,0,0,0,0,0,0,0,0,0,0,0,0,0,0,0,0,0,0,0,0,0,0,0,0,0,0,0,0,0,0,0,0,0,0,0,0,0,0,0,0,0
COM6,0508,16-Dec-18,2018-12-16 19:00:00,0.62431666666667,2.1321833333333,1.9585833333333,1.8332166666667,1.6422,1.2827,1.2790333333333,4.5,0,0,0,0,0,0,0,0,0,0,0,0,0,0,0,0,0,0,0,0,0,0,0,0,0,0,0,0,0,0,0,0,0,0,0,0,0,0,0,0,0,0
COM6,0508,16-Dec-18,2018-12-16 20:00:00,0.5912,2.04175,1.8079166666667,1.6421666666667,1.4261,1.0679333333333,1.0616333333333,4.4383333333333,0,0,0,0,0,0,0,0,0,0,0,0,0,0,0,0,0,0,0,0,0,0,0,0,0,0,0,0,0,0,0,0,0,0,0,0,0,0,0,0,0,0
COM6,0508,16-Dec-18,2018-12-16 21:00:00,0.36363333333333,1.53325,1.3464666666667,1.2045166666667,1.0291,0.75726666666667,0.74851666666667,4.4,0,0,0,0,0,0,0,0,0,0,0,0,0,0,0,0,0,0,0,0,0,0,0,0,0,0,0,0,0,0,0,0,0,0,0,0,0,0,0,0,0,0
COM6,0508,16-Dec-18,2018-12-16 22:00:00,0.37208333333333,1.73405,1.5062833333333,1.3354333333333,1.1289666666667,0.80861666666667,0.80018333333333,4.4,0,0,0,0,0,0,0,0,0,0,0,0,0,0,0,0,0,0,0,0,0,0,0,0,0,0,0,0,0,0,0,0,0,0,0,0,0,0,0,0,0,0
COM6,0508,16-Dec-18,2018-12-16 23:00:00,0.34786206896552,1.8046896551724,1.5546551724138,1.3840344827586,1.1483793103448,0.81398275862069,0.80136206896552,4.4,0,0,0,0,0,0,0,0,0,0,0,0,0,0,0,0,0,0,0,0,0,0,0,0,0,0,0,0,0,0,0,0,0,0,0,0,0,0,0,0,0,0
