COM4,508,18-Dec-19,2019-12-18 00:00:00,0.7156271186440699,0.54042372881356,0.4755593220339,0.44710169491525004,0.40740677966102,0.36449152542373003,0.37050847457627,5.0
COM4,508,18-Dec-19,2019-12-18 01:00:00,0.71388333333333,0.6285833333333299,0.5706,0.55106666666667,0.5139,0.474,0.48478333333333,5.0
COM4,508,18-Dec-19,2019-12-18 02:00:00,0.42611666666667,0.4155,0.3811,0.36901666666667,0.34418333333333,0.3199,0.32448333333333,5.0
COM4,508,18-Dec-19,2019-12-18 03:00:00,0.30283333333333,0.29815,0.26888333333333,0.26036666666667,0.24218333333332998,0.22761666666667002,0.23181666666667003,5.0
COM4,508,18-Dec-19,2019-12-18 04:00:00,0.28165,0.29246666666667,0.26661666666667005,0.25908333333332995,0.24196666666667002,0.22671666666667004,0.23168333333332997,5.0
COM4,508,18-Dec-19,2019-12-18 05:00:00,0.46508333333333,0.45363333333333,0.41448333333333,0.40255,0.37651666666667,0.3471,0.35288333333333,5.0
COM4,508,18-Dec-19,2019-12-18 06:00:00,0.93225,0.86683333333333,0.79608333333333,0.77373333333333,0.72923333333333,0.67786666666667,0.6934,5.0
COM4,508,18-Dec-19,2019-12-18 07:00:00,1.5619333333333,1.4212333333333,1.3082833333333002,1.2701,1.2027,1.12015,1.14705,5.0
COM4,508,18-Dec-19,2019-12-18 08:00:00,1.9939666666667,1.80905,1.6681833333333,1.62315,1.5349333333333,1.4286166666667,1.4624166666667,5.0
COM4,508,18-Dec-19,2019-12-18 09:00:00,1.6053666666667,1.4799833333333001,1.36725,1.3301666666667,1.2554333333333,1.1506333333333,1.1748333333333,5.0
COM4,508,18-Dec-19,2019-12-18 10:00:00,2.1374166666667,1.9702333333333,1.8176833333333,1.7669,1.66355,1.5276833333333,1.5614833333333,5.0
COM4,508,18-Dec-19,2019-12-18 11:00:00,2.3747166666667003,2.156,1.9733333333333,1.9084166666667,1.7944333333333,1.6480000000000001,1.68385,5.0
COM4,508,18-Dec-19,2019-12-18 12:00:00,1.7115,1.5678,1.4365833333333,1.3837166666667,1.3057833333333,1.19025,1.21945,5.0
COM4,508,18-Dec-19,2019-12-18 13:00:00,1.38965,1.2793666666666998,1.1822333333333002,1.1416333333333,1.0857166666667,0.99565,1.02025,5.0
COM4,508,18-Dec-19,2019-12-18 14:00:00,1.4467333333333001,1.3035833333333,1.19235,1.1481166666667,1.0831166666667,0.9878,1.0108166666667,5.0
COM4,508,18-Dec-19,2019-12-18 15:00:00,1.4964833333333,1.3261,1.2035333333333,1.1532333333333,1.08665,0.98286666666667,1.0100666666667,5.0
COM4,508,18-Dec-19,2019-12-18 16:00:00,0.74931666666667,0.69686666666667,0.6360333333333299,0.6085333333333299,0.5833333333333299,0.54481666666667,0.5635333333333299,5.0
COM4,508,18-Dec-19,2019-12-18 17:00:00,1.0006271186441,0.88950847457627,0.8063898305084699,0.77440677966102,0.7284406779661,0.67340677966102,0.69269491525424,5.0
COM4,508,18-Dec-19,2019-12-18 18:00:00,1.3108666666667,1.1733666666667,1.0889,1.06595,1.0158,0.95015,0.9755,4.6666666666667
COM4,508,18-Dec-19,2019-12-18 19:00:00,1.1955166666666999,1.0426333333333,0.98286666666667,0.97076666666667,0.9368,0.89081666666667,0.91431666666667,5.0
COM4,508,18-Dec-19,2019-12-18 20:00:00,0.87625,0.77101666666667,0.71403333333333,0.69953333333333,0.67176666666667,0.63981666666667,0.6575,5.0
COM4,508,18-Dec-19,2019-12-18 21:00:00,1.14685,1.0358,0.95741666666667,0.93171666666667,0.894,0.84373333333333,0.86536666666667,5.0
COM4,508,18-Dec-19,2019-12-18 22:00:00,1.2199,1.1492166666666999,1.0699333333333,1.0468333333333,1.0092,0.96271666666667,0.99061666666667,5.0
COM4,508,18-Dec-19,2019-12-18 23:00:00,1.2505,1.1848833333333,1.1118,1.0938833333333,1.0563833333333001,1.0094166666667,1.0393666666666999,5.0
