COM4,508,14-May-19,2019-05-14 00:00:00,0.88952542372881,0.94222033898305,0.92142372881356,0.9401864406779699,0.93045762711864,0.9307627118644101,0.9623728813559301,5
COM4,508,14-May-19,2019-05-14 01:00:00,0.40045,0.40511666666667,0.39178333333333,0.39298333333333,0.38388333333333,0.37023333333333003,0.38145,5
COM4,508,14-May-19,2019-05-14 02:00:00,0.26721666666667004,0.25556666666667005,0.2406,0.2399,0.228,0.21523333333332997,0.2187,5
COM4,508,14-May-19,2019-05-14 03:00:00,0.25121666666667003,0.23418333333332997,0.21873333333332998,0.21375,0.2035,0.18903333333332997,0.19281666666667002,5
COM4,508,14-May-19,2019-05-14 04:00:00,0.3294,0.31248333333333,0.29561666666666997,0.29313333333333,0.28131666666667,0.2657,0.27231666666667004,5
COM4,508,14-May-19,2019-05-14 05:00:00,0.53343333333333,0.52211666666667,0.49185,0.48700000000000004,0.46863333333333,0.4444,0.45561666666667,5
COM4,508,14-May-19,2019-05-14 06:00:00,0.86521666666667,0.84995,0.80243333333333,0.79605,0.76836666666667,0.73955,0.76046666666667,5
COM4,508,14-May-19,2019-05-14 07:00:00,1.6458,1.65795,1.5736166666667,1.5630833333333,1.5157,1.4647666666666999,1.5097833333333,5
COM4,508,14-May-19,2019-05-14 08:00:00,1.8962,1.9111,1.81,1.7967833333333,1.7386833333333,1.6757166666667,1.72645,5
COM4,508,14-May-19,2019-05-14 09:00:00,1.03385,1.0148833333333,0.95281666666667,0.9393,0.90026666666667,0.85001666666667,0.873,5
COM4,508,14-May-19,2019-05-14 10:00:00,0.77451666666667,0.75498333333333,0.70468333333333,0.6916,0.65843333333333,0.61123333333333,0.62775,5
COM4,508,14-May-19,2019-05-14 11:00:00,0.5767166666666701,0.54913333333333,0.50808333333333,0.49371666666666997,0.46878333333333,0.43795,0.44891666666667,5
COM4,508,14-May-19,2019-05-14 12:00:00,0.53373333333333,0.50863333333333,0.47188333333333,0.45988333333333,0.43356666666667,0.40013333333333,0.40963333333333,5
COM4,508,14-May-19,2019-05-14 13:00:00,0.49541666666667,0.47843333333333,0.44281666666666997,0.43575,0.41295,0.38583333333333003,0.39556666666667,5
COM4,508,14-May-19,2019-05-14 14:00:00,0.23878333333332996,0.23653333333332996,0.22568333333332996,0.2197,0.21093333333332998,0.19488333333332997,0.19901666666667003,5
COM4,508,14-May-19,2019-05-14 15:00:00,0.2299,0.21506666666667004,0.19851666666667003,0.19101666666667003,0.18298333333332997,0.16423333333332998,0.16696666666667,5
COM4,508,14-May-19,2019-05-14 16:00:00,0.40168333333333,0.37386666666667,0.34533333333333,0.33276666666667,0.3165,0.2889,0.3,5
COM4,508,14-May-19,2019-05-14 17:00:00,0.41821666666667,0.38535,0.35311666666667,0.33953333333333,0.32373333333333,0.30058333333333,0.30828333333333,5
COM4,508,14-May-19,2019-05-14 18:00:00,0.51068333333333,0.48185,0.4437,0.43183333333333,0.4092,0.3799,0.39066666666667,5
COM4,508,14-May-19,2019-05-14 19:00:00,0.5104,0.47613333333333,0.44118333333333,0.42573333333333,0.40335,0.37433333333333,0.38245,5
COM4,508,14-May-19,2019-05-14 20:00:00,0.32855,0.30071666666667,0.2741,0.26381666666667003,0.24601666666667002,0.22396666666667003,0.22866666666667004,5
COM4,508,14-May-19,2019-05-14 21:00:00,0.23363333333332997,0.2077,0.18571666666667003,0.17888333333332998,0.16098333333332998,0.14515,0.14618333333332997,5
COM4,508,14-May-19,2019-05-14 22:00:00,0.2265,0.19155,0.17163333333332997,0.16218333333333,0.14871666666667002,0.13025,0.13266666666666999,5
COM4,508,14-May-19,2019-05-14 23:00:00,0.20953333333332996,0.17366666666667002,0.15525,0.14328333333333,0.13408333333333,0.11465,0.11623333333333001,5
