COM4,508,06-Mar-20,2020-03-06 00:00:00,0.40310344827586,0.39420689655172,0.36156896551724,0.34770689655172,0.32451724137931,0.29774137931034,0.30348275862069,5
COM4,508,06-Mar-20,2020-03-06 01:00:00,0.21906666666667002,0.24075,0.22465,0.2245,0.20461666666667003,0.18515,0.18776666666667002,5
COM4,508,06-Mar-20,2020-03-06 02:00:00,0.14163333333332997,0.1705,0.16138333333333,0.16598333333332999,0.1504,0.13933333333332998,0.14101666666667,5
COM4,508,06-Mar-20,2020-03-06 03:00:00,0.2696,0.27911666666667,0.2644,0.26435,0.24555,0.2352,0.23898333333332997,5
COM4,508,06-Mar-20,2020-03-06 04:00:00,0.25951666666667006,0.25833333333333,0.2392,0.24053333333332996,0.22101666666667003,0.20808333333332996,0.20881666666667004,5
COM4,508,06-Mar-20,2020-03-06 05:00:00,0.4796,0.4668,0.43643333333333,0.43053333333333,0.40438333333333,0.3784,0.38771666666667,5
COM4,508,06-Mar-20,2020-03-06 06:00:00,0.40465,0.39375,0.36573333333333,0.36491666666667,0.33799999999999997,0.31765,0.3211,5
COM4,508,06-Mar-20,2020-03-06 07:00:00,0.8411,0.80963333333333,0.7551,0.7482,0.7001166666666699,0.6647666666666701,0.6778,5
COM4,508,06-Mar-20,2020-03-06 08:00:00,2.1646,2.0814666666667,1.9530166666667,1.9188333333333,1.8386,1.7639333333333,1.8178333333333,5
COM4,508,06-Mar-20,2020-03-06 09:00:00,1.7186833333333,1.6372166666666998,1.53915,1.4944333333333,1.44575,1.3652333333333,1.4102833333333,5
COM4,508,06-Mar-20,2020-03-06 10:00:00,1.2768833333333,1.2113333333333,1.14175,1.1043666666667,1.0729833333333,1.00295,1.0393833333333,5
COM4,508,06-Mar-20,2020-03-06 11:00:00,0.23546666666667004,0.22346666666667003,0.21006666666667004,0.19803333333332998,0.19191666666667004,0.16521666666667,0.17656666666667004,5
COM4,508,06-Mar-20,2020-03-06 12:00:00,0.304,0.28471666666667,0.2619,0.24893333333332998,0.24266666666667003,0.22065,0.22885,5
COM4,508,06-Mar-20,2020-03-06 13:00:00,0.25785,0.23771666666667005,0.22253333333332997,0.2088,0.20321666666667004,0.18376666666667002,0.18903333333332997,5
COM4,508,06-Mar-20,2020-03-06 14:00:00,0.28658333333333,0.26081666666667,0.24408333333332996,0.23171666666667004,0.22111666666667004,0.19985,0.20566666666667002,5
COM4,508,06-Mar-20,2020-03-06 15:00:00,0.27043333333333,0.24446666666667002,0.22075,0.20948333333332997,0.19666666666667004,0.17228333333332996,0.17676666666667004,5
COM4,508,06-Mar-20,2020-03-06 16:00:00,0.3076,0.2738,0.25695,0.24343333333332998,0.23051666666667003,0.20788333333332998,0.213,5
COM4,508,06-Mar-20,2020-03-06 17:00:00,0.46528333333333,0.40786666666667,0.37435,0.35726666666667,0.33791666666667,0.30841666666667,0.31468333333333,5
COM4,508,06-Mar-20,2020-03-06 18:00:00,0.45146666666667,0.42251666666667,0.3969,0.38656666666667,0.3632,0.33015,0.33791666666667,5
COM4,508,06-Mar-20,2020-03-06 19:00:00,0.5156166666666699,0.3982,0.36028333333333,0.33603333333333,0.31433333333333,0.27603333333333,0.28276666666667,5
COM4,508,06-Mar-20,2020-03-06 20:00:00,0.35803333333333,0.31323333333333003,0.28323333333333,0.27221666666667005,0.25068333333333,0.2233,0.22693333333332996,5
COM4,508,06-Mar-20,2020-03-06 21:00:00,0.89131666666667,0.79773333333333,0.74686666666667,0.72511666666667,0.687,0.6370166666666701,0.6523333333333299,5
COM4,508,06-Mar-20,2020-03-06 22:00:00,0.75046666666667,0.63155,0.5827666666666701,0.56225,0.5303,0.4823,0.49415,5
COM4,508,06-Mar-20,2020-03-06 23:00:00,0.15695,0.15515,0.13985,0.13503333333333,0.12288333333333,0.10911666666667,0.11018333333333001,5
