COM4,508,11-Oct-19,2019-10-11 00:00:00,0.05276271186440701,0.046050847457627005,0.040305084745763,0.039949152542373,0.032830508474576,0.024559322033897997,0.02371186440678,5.0
COM4,508,11-Oct-19,2019-10-11 01:00:00,0.20456666666667003,0.1716,0.15355,0.1471,0.13775,0.13143333333333002,0.1327,5.0
COM4,508,11-Oct-19,2019-10-11 02:00:00,0.24205,0.20471666666667004,0.184,0.17698333333332997,0.162,0.14603333333333,0.14908333333333,5.0
COM4,508,11-Oct-19,2019-10-11 03:00:00,0.2279,0.18398333333332997,0.16595,0.16021666666667,0.14905,0.12925,0.1308,5.0
COM4,508,11-Oct-19,2019-10-11 04:00:00,0.08516666666666702,0.079766666666667,0.07136666666666701,0.067216666666667,0.058766666666666995,0.044000000000000004,0.04535,5.0
COM4,508,11-Oct-19,2019-10-11 05:00:00,0.18795,0.17233333333332998,0.15705,0.15226666666667002,0.1429,0.13741666666667,0.14206666666667,5.0
COM4,508,11-Oct-19,2019-10-11 06:00:00,0.9788,0.91661666666667,0.84796666666667,0.83006666666667,0.79013333333333,0.75291666666667,0.7721,5.0
COM4,508,11-Oct-19,2019-10-11 07:00:00,1.8102666666667,1.7270666666667,1.6046666666667,1.5773,1.5033166666667,1.4284333333333001,1.4666666666666999,5.0
COM4,508,11-Oct-19,2019-10-11 08:00:00,1.2576666666667,1.1779833333333,1.0848833333333001,1.0530666666667,0.9956,0.9351,0.95956666666667,5.0
COM4,508,11-Oct-19,2019-10-11 09:00:00,0.96576666666667,0.91896666666667,0.8446,0.82103333333333,0.77431666666667,0.7275,0.7424333333333301,5.0
COM4,508,11-Oct-19,2019-10-11 10:00:00,0.54896666666667,0.51095,0.46696666666666997,0.44863333333333,0.41841666666667,0.38745,0.39545,5.0
COM4,508,11-Oct-19,2019-10-11 11:00:00,0.5682333333333299,0.5116166666666699,0.46521666666667,0.44856666666667,0.41906666666667,0.38416666666667,0.39338333333333003,5.0
COM4,508,11-Oct-19,2019-10-11 12:00:00,0.5509,0.49658333333333,0.45196666666667,0.43585,0.40731666666667,0.37621666666667,0.38331666666666997,5.0
COM4,508,11-Oct-19,2019-10-11 13:00:00,0.41791666666667,0.3795,0.34638333333333,0.33243333333333003,0.3124,0.28806666666666997,0.29506666666667,5.0
COM4,508,11-Oct-19,2019-10-11 14:00:00,0.2812,0.25313333333333,0.23058333333332998,0.22055,0.20693333333332997,0.18705,0.19203333333332998,5.0
COM4,508,11-Oct-19,2019-10-11 15:00:00,0.38416666666667,0.32906666666667,0.29658333333333,0.28021666666667,0.26411666666667005,0.24236666666667003,0.24778333333332997,5.0
COM4,508,11-Oct-19,2019-10-11 16:00:00,0.42358333333333,0.36241666666667,0.32956666666667,0.3126,0.29221666666667,0.2683,0.27223333333332994,5.0
COM4,508,11-Oct-19,2019-10-11 17:00:00,0.50518333333333,0.44876666666667,0.41063333333333,0.39278333333333,0.37203333333333,0.34338333333333,0.35188333333333,5.0
COM4,508,11-Oct-19,2019-10-11 18:00:00,1.1498833333333,1.0342833333333001,0.94881666666667,0.91448333333333,0.86003333333333,0.78631666666667,0.79938333333333,5.0
COM4,508,11-Oct-19,2019-10-11 19:00:00,0.75546666666667,0.5714333333333299,0.5156,0.49741666666667,0.46563333333333,0.42615,0.43855,4.6666666666667
COM4,508,11-Oct-19,2019-10-11 20:00:00,0.67131666666667,0.52821666666667,0.4869,0.47515,0.4528,0.42696666666667,0.43881666666667,5.0
COM4,508,11-Oct-19,2019-10-11 21:00:00,0.38655,0.33603333333333,0.30698333333333,0.29833333333333,0.2825,0.266,0.27263333333332995,5.0
COM4,508,11-Oct-19,2019-10-11 22:00:00,0.33303333333333,0.28968333333333,0.26458333333332995,0.25413333333333,0.24091666666667003,0.22836666666667002,0.2341,5.0
COM4,508,11-Oct-19,2019-10-11 23:00:00,0.29295,0.28076666666667,0.2614,0.255,0.24531666666667004,0.2336,0.24103333333332996,5.0
