COM6,508,05-May-18,2018-05-05 00:00:00,0.36071186440678,0.30830508474576,0.27832203389831,0.26371186440678,0.24159322033898,0.21240677966102,0.21605084745763,5.0
COM6,508,05-May-18,2018-05-05 01:00:00,0.20913333333332998,0.17013333333332997,0.15051666666667002,0.14136666666667003,0.13,0.11708333333333,0.11821666666667,5.0
COM6,508,05-May-18,2018-05-05 02:00:00,0.3038,0.25435,0.2309,0.21633333333332996,0.20003333333332995,0.17925,0.18311666666667004,5.0
COM6,508,05-May-18,2018-05-05 03:00:00,0.26355,0.20913333333332998,0.187,0.17243333333332997,0.15828333333332997,0.13671666666666998,0.13848333333333,5.0
COM6,508,05-May-18,2018-05-05 04:00:00,0.37051666666667,0.30648333333333,0.27518333333333,0.25931666666667,0.24053333333332996,0.21638333333332996,0.22201666666667003,5.0
COM6,508,05-May-18,2018-05-05 05:00:00,0.61638333333333,0.51083333333333,0.46175,0.43591666666667,0.4041,0.3665,0.37465,5.0
COM6,508,05-May-18,2018-05-05 06:00:00,0.75176666666667,0.66381666666667,0.61146666666667,0.5917833333333299,0.5585833333333299,0.52106666666667,0.5344,5.0
COM6,508,05-May-18,2018-05-05 07:00:00,0.58288333333333,0.53653333333333,0.49206666666667,0.47246666666667,0.44358333333333,0.40428333333333,0.41366666666667,5.0
COM6,508,05-May-18,2018-05-05 08:00:00,0.88748333333333,0.83466666666667,0.77123333333333,0.7557,0.71266666666667,0.67831666666667,0.69646666666667,5.0
COM6,508,05-May-18,2018-05-05 09:00:00,0.87211666666667,0.81718333333333,0.75666666666667,0.73703333333333,0.69745,0.6596666666666701,0.67716666666667,5.0
COM6,508,05-May-18,2018-05-05 10:00:00,1.08025,1.0115166666667,0.93988333333333,0.91968333333333,0.87078333333333,0.8206,0.84111666666667,5.0
COM6,508,05-May-18,2018-05-05 11:00:00,0.72508333333333,0.66301666666667,0.61285,0.59525,0.56155,0.51346666666667,0.52591666666667,5.0
COM6,508,05-May-18,2018-05-05 12:00:00,0.58965,0.51376666666667,0.46335,0.44326666666667,0.41651666666667,0.38331666666666997,0.39391666666666997,5.0
COM6,508,05-May-18,2018-05-05 13:00:00,0.65075,0.56185,0.5094,0.48333333333333,0.45283333333333,0.40718333333333,0.4182,5.0
COM6,508,05-May-18,2018-05-05 14:00:00,0.6422,0.55155,0.50013333333333,0.47568333333333,0.44521666666667,0.4009,0.40945,5.0
COM6,508,05-May-18,2018-05-05 15:00:00,0.6513666666666701,0.5694833333333299,0.5219,0.50193333333333,0.47415,0.44225,0.4506,5.0
COM6,508,05-May-18,2018-05-05 16:00:00,0.47981666666667,0.4348,0.39899999999999997,0.38483333333333003,0.36103333333333,0.31665,0.32458333333333,5.0
COM6,508,05-May-18,2018-05-05 17:00:00,0.67365,0.61145,0.56293333333333,0.54785,0.51921666666667,0.48711666666667,0.49995,5.0
COM6,508,05-May-18,2018-05-05 18:00:00,3.0385666666667004,2.6893166666667003,2.46585,2.40185,2.3139166666667004,2.3077666666667,2.3874833333332997,5.0
COM6,508,05-May-18,2018-05-05 19:00:00,2.71525,2.3014166666667,2.0845333333333,2.0110666666667,1.9289,1.9119333333333,1.98355,4.6666666666667
COM6,508,05-May-18,2018-05-05 20:00:00,0.96756666666667,0.75533333333333,0.70165,0.67986666666667,0.6659,0.6865,0.7189,5.0
COM6,508,05-May-18,2018-05-05 21:00:00,0.46003333333333,0.4399,0.41743333333333,0.41091666666667,0.4068,0.42981666666667,0.44996666666667,5.0
COM6,508,05-May-18,2018-05-05 22:00:00,0.44743333333333,0.4558,0.43386666666667,0.42926666666667,0.42398333333333,0.44436666666667,0.46436666666667,5.0
COM6,508,05-May-18,2018-05-05 23:00:00,0.6705,0.66153333333333,0.62645,0.61705,0.60695,0.61756666666667,0.6423166666666701,5.0
