COM6,508,24-Aug-17,2017-08-24 00:00:00,0.37622033898304996,0.3781186440678,0.3615593220339,0.36305084745763005,0.34647457627119,0.33847457627119,0.34569491525423995,5.0
COM6,508,24-Aug-17,2017-08-24 01:00:00,0.42406666666667,0.39211666666667,0.36093333333333,0.34953333333333003,0.32331666666666997,0.30155,0.30721666666666997,5.0
COM6,508,24-Aug-17,2017-08-24 02:00:00,0.15141666666667,0.14175,0.13133333333333,0.12945,0.11825,0.1028,0.10315,5.0
COM6,508,24-Aug-17,2017-08-24 03:00:00,0.15856666666667002,0.14358333333332998,0.13088333333333,0.1265,0.11663333333333001,0.11186666666667,0.11466666666667,5.0
COM6,508,24-Aug-17,2017-08-24 04:00:00,0.6651,0.6210833333333299,0.57875,0.56306666666667,0.52886666666667,0.50626666666667,0.51876666666667,5.0
COM6,508,24-Aug-17,2017-08-24 05:00:00,0.71493333333333,0.67718333333333,0.62876666666667,0.6119833333333299,0.57585,0.53901666666667,0.55226666666667,5.0
COM6,508,24-Aug-17,2017-08-24 06:00:00,0.684,0.61633333333333,0.56096666666667,0.53876666666667,0.50031666666667,0.45763333333333,0.46673333333333,5.0
COM6,508,24-Aug-17,2017-08-24 07:00:00,0.41125,0.39113333333333,0.36225,0.353,0.32866666666667,0.30713333333333,0.31391666666667,5.0
COM6,508,24-Aug-17,2017-08-24 08:00:00,0.60665,0.56803333333333,0.52356666666667,0.50888333333333,0.4747,0.4493,0.45873333333333,5.0
COM6,508,24-Aug-17,2017-08-24 09:00:00,0.91126666666667,0.8708,0.81088333333333,0.79298333333333,0.74351666666667,0.7032,0.71871666666667,5.0
COM6,508,24-Aug-17,2017-08-24 10:00:00,0.8553666666666699,0.81321666666667,0.75735,0.7395,0.69321666666667,0.65243333333333,0.66555,5.0
COM6,508,24-Aug-17,2017-08-24 11:00:00,0.66348333333333,0.6224,0.57436666666667,0.5587666666666701,0.52181666666667,0.48455,0.49491666666667,5.0
COM6,508,24-Aug-17,2017-08-24 12:00:00,0.65665,0.6197,0.5769666666666701,0.55995,0.5279,0.49293333333333,0.50523333333333,5.0
COM6,508,24-Aug-17,2017-08-24 13:00:00,0.35278333333333,0.3218,0.29818333333333,0.28965,0.27073333333333,0.24485,0.25041666666667,5.0
COM6,508,24-Aug-17,2017-08-24 14:00:00,0.25328333333333,0.21435,0.19508333333332997,0.18671666666667003,0.1739,0.15538333333333,0.16055,5.0
COM6,508,24-Aug-17,2017-08-24 15:00:00,0.3225,0.27701666666667,0.25173333333333,0.23723333333332997,0.22378333333332998,0.20385,0.20946666666667002,5.0
COM6,508,24-Aug-17,2017-08-24 16:00:00,0.19371666666667003,0.15066666666667,0.13623333333333001,0.12491666666666999,0.11485,0.09845,0.1019,5.0
COM6,508,24-Aug-17,2017-08-24 17:00:00,0.37368333333333,0.32701666666667,0.29451666666667,0.28096666666667,0.26293333333332997,0.23841666666667002,0.24425,5.0
COM6,508,24-Aug-17,2017-08-24 18:00:00,0.43956666666667,0.36661666666667,0.34363333333333,0.33378333333333,0.31761666666667,0.29655,0.30671666666666997,4.6666666666667
COM6,508,24-Aug-17,2017-08-24 19:00:00,0.37131666666667,0.28775,0.26808333333332995,0.26136666666667,0.2495,0.23653333333332996,0.24303333333332997,5.0
COM6,508,24-Aug-17,2017-08-24 20:00:00,0.24765,0.2268,0.20893333333332997,0.20231666666667003,0.19033333333332997,0.17726666666667004,0.18073333333332997,5.0
COM6,508,24-Aug-17,2017-08-24 21:00:00,0.34595,0.30923333333333003,0.28435,0.27355,0.25583333333332997,0.23143333333332997,0.23456666666667003,5.0
COM6,508,24-Aug-17,2017-08-24 22:00:00,0.3663,0.31451666666667,0.28611666666667,0.27348333333332997,0.25303333333332995,0.22503333333332998,0.2289,5.0
COM6,508,24-Aug-17,2017-08-24 23:00:00,0.40864285714285997,0.37748214285714,0.35166071428571,0.34130357142857,0.32260714285714,0.30021428571429,0.30576785714286,5.0
