COM6,508,15-Mar-18,2018-03-15 00:00:00,0.36847457627118996,0.33733898305084997,0.31961016949153004,0.31784745762711997,0.30296610169492,0.29022033898305,0.29466101694915003,5
COM6,508,15-Mar-18,2018-03-15 01:00:00,0.13335,0.10315,0.09571666666666699,0.08586666666666701,0.09085,0.078316666666667,0.08493333333333299,5
COM6,508,15-Mar-18,2018-03-15 02:00:00,0.26655,0.2345,0.22296666666667003,0.2135,0.21505,0.1927,0.20341666666667002,5
COM6,508,15-Mar-18,2018-03-15 03:00:00,0.3952,0.38855,0.37633333333333,0.36546666666667,0.36285,0.34258333333333,0.35428333333333,5
COM6,508,15-Mar-18,2018-03-15 04:00:00,0.20776666666667004,0.19899999999999998,0.19146666666667003,0.1866,0.18311666666667004,0.17026666666667004,0.17585,5
COM6,508,15-Mar-18,2018-03-15 05:00:00,0.21031666666667004,0.19305,0.18311666666667004,0.17903333333332996,0.1737,0.16046666666667,0.16648333333332999,5
COM6,508,15-Mar-18,2018-03-15 06:00:00,0.24581666666667004,0.23685,0.22583333333332997,0.22426666666667003,0.21671666666667003,0.20335,0.2095,5
COM6,508,15-Mar-18,2018-03-15 07:00:00,0.6188166666666701,0.58231666666667,0.54745,0.53863333333333,0.51683333333333,0.4873,0.50196666666667,5
COM6,508,15-Mar-18,2018-03-15 08:00:00,0.81238333333333,0.7572,0.7115,0.6926,0.6544166666666701,0.6007333333333299,0.6122166666666701,5
COM6,508,15-Mar-18,2018-03-15 09:00:00,0.36853333333333,0.3457,0.32101666666667,0.3143,0.29495,0.27181666666667004,0.27808333333333,5
COM6,508,15-Mar-18,2018-03-15 10:00:00,0.21168333333332998,0.21145,0.1945,0.19096666666667003,0.1783,0.16071666666667,0.1618,5
COM6,508,15-Mar-18,2018-03-15 11:00:00,0.17238333333332997,0.16648333333332999,0.1571,0.15138333333332998,0.14221666666667002,0.12961666666667,0.12891666666666998,5
COM6,508,15-Mar-18,2018-03-15 12:00:00,0.02825,0.030366666666667003,0.027683333333332994,0.029133333333332994,0.027766666666667005,0.021566666666667,0.023216666666667007,5
COM6,508,15-Mar-18,2018-03-15 13:00:00,0.08298333333333299,0.092016666666667,0.088116666666667,0.088766666666667,0.08331666666666701,0.08403333333333299,0.08443333333333299,5
COM6,508,15-Mar-18,2018-03-15 14:00:00,NaN,NaN,NaN,NaN,NaN,NaN,NaN,NaN
COM6,508,15-Mar-18,2018-03-15 15:00:00,NaN,NaN,NaN,NaN,NaN,NaN,NaN,NaN
COM6,508,15-Mar-18,2018-03-15 16:00:00,NaN,NaN,NaN,NaN,NaN,NaN,NaN,NaN
COM6,508,15-Mar-18,2018-03-15 17:00:00,NaN,NaN,NaN,NaN,NaN,NaN,NaN,NaN
COM6,508,15-Mar-18,2018-03-15 18:00:00,NaN,NaN,NaN,NaN,NaN,NaN,NaN,NaN
COM6,508,15-Mar-18,2018-03-15 19:00:00,NaN,NaN,NaN,NaN,NaN,NaN,NaN,NaN
COM6,508,15-Mar-18,2018-03-15 20:00:00,NaN,NaN,NaN,NaN,NaN,NaN,NaN,NaN
COM6,508,15-Mar-18,2018-03-15 21:00:00,NaN,NaN,NaN,NaN,NaN,NaN,NaN,NaN
COM6,508,15-Mar-18,2018-03-15 22:00:00,NaN,NaN,NaN,NaN,NaN,NaN,NaN,NaN
COM6,508,15-Mar-18,2018-03-15 23:00:00,NaN,NaN,NaN,NaN,NaN,NaN,NaN,NaN
