COM6,508,01-Jan-18,2018-01-01 00:00:00,2.9460169491525,2.5904406779661,2.9964067796609997,2.6907796610169,1.9503728813558998,1.1568644067796998,1.1739322033898,5.0
COM6,508,01-Jan-18,2018-01-01 01:00:00,2.7116333333332996,2.0121166666667,1.8390333333333,1.6806166666667,1.4247666666667,1.1850166666667,1.2068,5.0
COM6,508,01-Jan-18,2018-01-01 02:00:00,2.6055833333333,1.5953,1.2573166666667,1.23195,1.09105,0.89825,0.91211666666667,5.0
COM6,508,01-Jan-18,2018-01-01 03:00:00,2.2550666666667003,1.6385,1.5160666666667,1.4864333333333,1.3441166666667,1.2139666666667,1.2404,5.0
COM6,508,01-Jan-18,2018-01-01 04:00:00,1.07565,0.82115,0.75883333333333,0.7227,0.6447833333333299,0.5827166666666701,0.59603333333333,5.0
COM6,508,01-Jan-18,2018-01-01 05:00:00,1.2395666666667,1.0219833333333002,0.95831666666667,0.87163333333333,0.76675,0.69896666666667,0.71603333333333,5.0
COM6,508,01-Jan-18,2018-01-01 06:00:00,1.1786,0.98725,0.92013333333333,0.83531666666667,0.73488333333333,0.6681333333333299,0.68243333333333,5.0
COM6,508,01-Jan-18,2018-01-01 07:00:00,1.6343833333333,1.2692833333333,1.1779666666667,1.0794166666667,0.95911666666667,0.87876666666667,0.8992,5.0
COM6,508,01-Jan-18,2018-01-01 08:00:00,1.5689833333333,1.3593166666667,1.2760333333333,1.1835333333333,1.061,0.98283333333333,1.00435,5.0
COM6,508,01-Jan-18,2018-01-01 09:00:00,2.2314166666667004,1.9063333333333001,1.7679333333333,1.6437833333333,1.4790166666667,1.35345,1.3779333333333001,5.0
COM6,508,01-Jan-18,2018-01-01 10:00:00,2.7865,2.3644666666667002,2.1766666666667,2.0358833333333,1.8376833333333,1.6823666666666999,1.7122666666667,5.0
COM6,508,01-Jan-18,2018-01-01 11:00:00,2.28015,2.0033166666667,1.8250666666667,1.7173166666667,1.5647333333333,1.43475,1.4564166666667,5.0
COM6,508,01-Jan-18,2018-01-01 12:00:00,1.1579333333333,1.1106166666667,1.0080666666667,0.96916666666667,0.90453333333333,0.83893333333333,0.85485,5.0
COM6,508,01-Jan-18,2018-01-01 13:00:00,0.99098333333333,0.93955,0.84735,0.81816666666667,0.77228333333333,0.71653333333333,0.7333,5.0
COM6,508,01-Jan-18,2018-01-01 14:00:00,1.0777333333333001,0.86191666666667,0.7999,0.77486666666667,0.73863333333333,0.68935,0.7101,4.6666666666667
COM6,508,01-Jan-18,2018-01-01 15:00:00,0.96291666666667,0.73728333333333,0.6809,0.6578833333333299,0.63015,0.5919,0.60945,5.0
COM6,508,01-Jan-18,2018-01-01 16:00:00,0.54571666666667,0.48406666666667,0.456,0.44506666666667,0.43468333333333,0.41991666666667,0.43546666666667,5.0
COM6,508,01-Jan-18,2018-01-01 17:00:00,0.76316666666667,0.75698333333333,0.7101,0.69356666666667,0.6702833333333299,0.64405,0.6633,5.0
COM6,508,01-Jan-18,2018-01-01 18:00:00,1.5092833333333,1.45935,1.3840333333333001,1.37065,1.3355333333333002,1.3162166666667,1.3557833333333,5.0
COM6,508,01-Jan-18,2018-01-01 19:00:00,2.48285,2.2114666666667,2.0628333333333,2.0190833333333003,1.9476833333333001,1.8931833333333001,1.9460666666667,5.0
COM6,508,01-Jan-18,2018-01-01 20:00:00,1.9974833333333,1.5033833333333,1.35935,1.2847666666667,1.2006333333333001,1.1176833333333,1.1408333333333,5.0
COM6,508,01-Jan-18,2018-01-01 21:00:00,1.91105,1.4545,1.3122166666667,1.23975,1.1566166666667,1.0731833333333,1.0959166666667,5.0
COM6,508,01-Jan-18,2018-01-01 22:00:00,1.8599666666666999,1.4022666666666999,1.25955,1.1897833333333,1.11055,1.0190333333333002,1.0405333333333,5.0
COM6,508,01-Jan-18,2018-01-01 23:00:00,1.7884909090908998,1.4086909090909,1.2721818181818,1.2072,1.1324545454545,1.0479454545455,1.0721090909091,5.0
