COM6,508,23-Jun-18,2018-06-23 00:00:00,0.17149152542373003,0.15694915254237,0.14871186440678,0.14638983050847,0.14094915254237,0.13752542372881,0.14052542372881,5
COM6,508,23-Jun-18,2018-06-23 01:00:00,0.36093333333333,0.29643333333333,0.271,0.26013333333332994,0.24876666666667002,0.24225,0.25078333333332997,5
COM6,508,23-Jun-18,2018-06-23 02:00:00,0.17515,0.15205,0.14188333333332998,0.13735,0.13138333333333,0.1274,0.13123333333333,5
COM6,508,23-Jun-18,2018-06-23 03:00:00,0.37651666666667,0.35323333333333,0.33321666666667,0.32755,0.31973333333333,0.3259,0.33703333333333,5
COM6,508,23-Jun-18,2018-06-23 04:00:00,0.6512833333333299,0.6359833333333299,0.6083,0.60551666666667,0.5914,0.59828333333333,0.6208666666666701,5
COM6,508,23-Jun-18,2018-06-23 05:00:00,0.71215,0.7033,0.6731,0.6700833333333299,0.65396666666667,0.6491166666666701,0.6709999999999999,5
COM6,508,23-Jun-18,2018-06-23 06:00:00,0.6434,0.6184833333333299,0.5882833333333299,0.5807,0.5619,0.54883333333333,0.5663,5
COM6,508,23-Jun-18,2018-06-23 07:00:00,0.82401666666667,0.77958333333333,0.73066666666667,0.7162166666666699,0.68556666666667,0.66235,0.68276666666667,5
COM6,508,23-Jun-18,2018-06-23 08:00:00,0.43175,0.40498333333333003,0.37795,0.37021666666666997,0.3532,0.33825,0.34791666666667,5
COM6,508,23-Jun-18,2018-06-23 09:00:00,0.52815,0.4952,0.46371666666667,0.4558,0.43463333333333,0.41846666666667,0.43101666666667,5
COM6,508,23-Jun-18,2018-06-23 10:00:00,0.46218333333333,0.44765,0.42428333333333,0.42083333333333,0.40253333333333,0.38651666666667,0.39685,5
COM6,508,23-Jun-18,2018-06-23 11:00:00,0.34206666666667,0.32573333333333,0.30631666666667,0.30065,0.28823333333333,0.27565,0.28305,5
COM6,508,23-Jun-18,2018-06-23 12:00:00,0.30613333333333,0.27336666666667003,0.25358333333332994,0.24611666666667004,0.23435,0.21765,0.22313333333332996,5
COM6,508,23-Jun-18,2018-06-23 13:00:00,0.30465,0.24611666666667004,0.22173333333332998,0.21193333333332998,0.19623333333332996,0.1777,0.18185,5
COM6,508,23-Jun-18,2018-06-23 14:00:00,0.31176666666666997,0.25923333333333,0.23651666666667004,0.22463333333332997,0.212,0.19261666666667004,0.19688333333332997,5
COM6,508,23-Jun-18,2018-06-23 15:00:00,0.30746666666667,0.255,0.22901666666667003,0.21713333333332996,0.20225,0.17955,0.18551666666667002,5
COM6,508,23-Jun-18,2018-06-23 16:00:00,0.28643333333333,0.22155,0.19476666666667003,0.17971666666667002,0.16451666666667,0.14111666666667003,0.14451666666667,5
COM6,508,23-Jun-18,2018-06-23 17:00:00,0.3484,0.27158333333332996,0.23933333333332996,0.22375,0.20371666666667004,0.1761,0.17976666666667004,5
COM6,508,23-Jun-18,2018-06-23 18:00:00,0.4335,0.3215,0.27586666666667,0.25178333333333,0.2261,0.18728333333332997,0.18988333333332996,5
COM6,508,23-Jun-18,2018-06-23 19:00:00,0.54038333333333,0.4001,0.34156666666667,0.311,0.27658333333333,0.22936666666667002,0.23276666666667004,5
COM6,508,23-Jun-18,2018-06-23 20:00:00,0.39976666666667,0.3034,0.26188333333332997,0.2411,0.217,0.18953333333332997,0.19326666666667003,5
COM6,508,23-Jun-18,2018-06-23 21:00:00,0.6541833333333299,0.50411666666667,0.43993333333333,0.40795,0.37065,0.3302,0.33581666666667,5
COM6,508,23-Jun-18,2018-06-23 22:00:00,0.6256833333333299,0.49258333333333,0.4329,0.40445,0.36828333333333,0.31855,0.32361666666667,5
COM6,508,23-Jun-18,2018-06-23 23:00:00,0.5572542372881399,0.40993220338983,0.35244067796609996,0.32198305084746004,0.28688135593220004,0.24271186440678,0.24562711864407,5
