COM6,508,02-Jan-18,2018-01-02 00:00:00,1.1420508474576,0.97205084745763,0.88335593220339,0.83871186440678,0.7916949152542401,0.736,0.75479661016949,5.0
COM6,508,02-Jan-18,2018-01-02 01:00:00,0.96805,0.82025,0.73446666666667,0.69251666666667,0.64795,0.5886166666666701,0.60351666666667,5.0
COM6,508,02-Jan-18,2018-01-02 02:00:00,0.70858333333333,0.6479833333333299,0.58318333333333,0.5522333333333299,0.51943333333333,0.4753,0.48646666666667,5.0
COM6,508,02-Jan-18,2018-01-02 03:00:00,0.42325,0.47595,0.43788333333333,0.42218333333333,0.40191666666667,0.37011666666667,0.38015,5.0
COM6,508,02-Jan-18,2018-01-02 04:00:00,0.72751666666667,0.64781666666667,0.5805666666666701,0.54955,0.51305,0.46971666666667,0.4811,5.0
COM6,508,02-Jan-18,2018-01-02 05:00:00,0.95115,0.8265,0.73635,0.69626666666667,0.64666666666667,0.58721666666667,0.60065,5.0
COM6,508,02-Jan-18,2018-01-02 06:00:00,1.06355,0.96275,0.87393333333333,0.83426666666667,0.78458333333333,0.72745,0.74506666666667,5.0
COM6,508,02-Jan-18,2018-01-02 07:00:00,1.6052333333333,1.4489166666667,1.3209666666667,1.2674333333333,1.1933333333333,1.1089833333333001,1.1373833333333,5.0
COM6,508,02-Jan-18,2018-01-02 08:00:00,2.7134166666667,2.4865333333332997,2.2888833333333,2.21045,2.08995,1.9422,1.98805,5.0
COM6,508,02-Jan-18,2018-01-02 09:00:00,1.77385,1.7151,1.6014833333333,1.5687166666666998,1.49295,1.3971,1.43005,5.0
COM6,508,02-Jan-18,2018-01-02 10:00:00,2.1806666666667,2.0439833333333,1.8974166666666998,1.84185,1.7369333333333001,1.5801,1.6142666666667,5.0
COM6,508,02-Jan-18,2018-01-02 11:00:00,3.81075,3.4919166666667003,3.2147833333333,3.1035166666667005,2.9232833333332997,2.6666,2.7236,5.0
COM6,508,02-Jan-18,2018-01-02 12:00:00,4.7344666666667,4.2274,3.86185,3.71045,3.4561,3.0934833333332996,3.1530666666667004,5.0
COM6,508,02-Jan-18,2018-01-02 13:00:00,3.7944333333333,3.4164666666667003,3.1537666666667,3.0479333333332996,2.87535,2.6295666666667,2.6914166666667003,4.6666666666667
COM6,508,02-Jan-18,2018-01-02 14:00:00,2.8317666666667,2.6318833333333,2.4941,2.45215,2.3728333333332996,2.2801666666667004,2.3467833333333,5.0
COM6,508,02-Jan-18,2018-01-02 15:00:00,1.8076166666667,1.7608,1.6772666666667,1.65245,1.6012833333333,1.54095,1.5864666666667,5.0
COM6,508,02-Jan-18,2018-01-02 16:00:00,1.5621833333333,1.5834,1.5051166666667,1.4797,1.42835,1.36135,1.4034166666666998,5.0
COM6,508,02-Jan-18,2018-01-02 17:00:00,2.01695,1.9416,1.835,1.7952666666666999,1.7263166666667,1.6333333333333,1.6808333333333,5.0
COM6,508,02-Jan-18,2018-01-02 18:00:00,2.5819,2.3368833333333,2.1879833333333,2.1301166666666997,2.0316,1.8991666666667,1.9534833333333002,5.0
COM6,508,02-Jan-18,2018-01-02 19:00:00,2.95485,2.6204833333332997,2.4463166666667004,2.37405,2.2516833333333,2.094,2.1509333333333,5.0
COM6,508,02-Jan-18,2018-01-02 20:00:00,3.3916,2.9608166666667004,2.7438833333333,2.6530166666667,2.4986666666667,2.3098166666667,2.3691666666667004,5.0
COM6,508,02-Jan-18,2018-01-02 21:00:00,3.0849833333333,2.66915,2.4547666666667003,2.3694833333333,2.2166666666667,2.0526,2.1064,5.0
COM6,508,02-Jan-18,2018-01-02 22:00:00,3.1436666666667,2.6443833333332996,2.4067833333333,2.3074833333332996,2.13955,1.9568,2.0005166666667,5.0
COM6,508,02-Jan-18,2018-01-02 23:00:00,2.4138545454545,2.0527818181818,1.8516909090908997,1.7695272727273,1.6239818181818,1.4632363636363999,1.4910181818182,5.0
