COM6,508,01-Apr-19,2019-04-01 00:00:00,0.10271186440678,0.086372881355932,0.07762711864406799,0.074338983050847,0.069220338983051,0.060915254237288,0.06206779661016901,5
COM6,508,01-Apr-19,2019-04-01 01:00:00,0.13108333333333,0.10328333333333001,0.09395,0.090183333333333,0.083433333333333,0.074916666666667,0.07568333333333299,5
COM6,508,01-Apr-19,2019-04-01 02:00:00,0.1039,0.09041666666666699,0.08221666666666701,0.07873333333333299,0.07175,0.062916666666667,0.06435,5
COM6,508,01-Apr-19,2019-04-01 03:00:00,0.17878333333332996,0.15581666666667002,0.14443333333333,0.1411,0.13348333333333,0.12095,0.12336666666667,5
COM6,508,01-Apr-19,2019-04-01 04:00:00,0.23685,0.21571666666667003,0.19921666666667004,0.19391666666667004,0.18338333333332996,0.16723333333333,0.1724,5
COM6,508,01-Apr-19,2019-04-01 05:00:00,0.6386,0.57126666666667,0.53621666666667,0.52856666666667,0.50555,0.4793,0.49406666666667,5
COM6,508,01-Apr-19,2019-04-01 06:00:00,1.2825166666667,1.1522333333333001,1.0799833333333,1.0611833333333,1.0134833333333,0.95831666666667,0.9908,5
COM6,508,01-Apr-19,2019-04-01 07:00:00,1.7517333333333,1.6375833333333,1.5448,1.53,1.4701333333333,1.4049666666667,1.45315,5
COM6,508,01-Apr-19,2019-04-01 08:00:00,2.1548166666667,2.0721333333333,1.9515166666666999,1.93335,1.85405,1.7868333333333,1.8462166666667,5
COM6,508,01-Apr-19,2019-04-01 09:00:00,1.2609166666667,1.24425,1.17645,1.16875,1.11805,1.0707666666667,1.1052833333333,5
COM6,508,01-Apr-19,2019-04-01 10:00:00,1.0999333333333001,1.0557333333333,0.99516666666667,0.98556666666667,0.93958333333333,0.90226666666667,0.92666666666667,5
COM6,508,01-Apr-19,2019-04-01 11:00:00,0.68873333333333,0.66211666666667,0.6231,0.6212166666666701,0.58941666666667,0.5627,0.5790666666666701,5
COM6,508,01-Apr-19,2019-04-01 12:00:00,0.35123333333333,0.35336666666667,0.33853333333333,0.34176666666667,0.32906666666667,0.32725,0.33941666666667,5
COM6,508,01-Apr-19,2019-04-01 13:00:00,0.40773333333333,0.39168333333333,0.37456666666667,0.37658333333333,0.36468333333333003,0.36176666666667,0.37458333333333,5
COM6,508,01-Apr-19,2019-04-01 14:00:00,0.24038333333332998,0.23331666666667003,0.22041666666667004,0.2214,0.21563333333332996,0.21221666666667002,0.22005,5
COM6,508,01-Apr-19,2019-04-01 15:00:00,0.29698333333333,0.28205,0.26938333333333,0.26436666666667,0.25698333333332996,0.24365,0.2519,5
COM6,508,01-Apr-19,2019-04-01 16:00:00,0.42338333333333,0.40878333333333,0.38761666666667,0.38993333333333,0.37156666666667,0.3613,0.37295,5
COM6,508,01-Apr-19,2019-04-01 17:00:00,0.50026666666667,0.47881666666667,0.45423333333333,0.45298333333333,0.43478333333333,0.42041666666667,0.43308333333333,5
COM6,508,01-Apr-19,2019-04-01 18:00:00,0.49773333333333003,0.4839,0.45806666666667,0.45486666666666997,0.43595,0.41631666666667,0.42846666666667,5
COM6,508,01-Apr-19,2019-04-01 19:00:00,0.2521,0.2424,0.22811666666667002,0.22898333333332996,0.2209,0.21705,0.22436666666667004,5
COM6,508,01-Apr-19,2019-04-01 20:00:00,0.18033333333332996,0.16828333333332998,0.1617,0.15948333333332998,0.1523,0.1479,0.15123333333333,5
COM6,508,01-Apr-19,2019-04-01 21:00:00,0.20538333333332998,0.18631666666667004,0.1743,0.17313333333332998,0.16688333333333,0.15778333333333,0.16243333333333,5
COM6,508,01-Apr-19,2019-04-01 22:00:00,0.24908333333332996,0.23303333333332996,0.221,0.2179,0.20918333333332997,0.20043333333332997,0.20755,5
COM6,508,01-Apr-19,2019-04-01 23:00:00,0.21922807017544002,0.20561403508772,0.19678947368421,0.19610526315789004,0.18696491228070003,0.17936842105263,0.18278947368421,5
