COM6,508,14-Aug-18,2018-08-14 00:00:00,1.1827796610169,1.1207796610168999,1.0736101694915,1.0723559322034,1.0554237288136,1.0511355932203001,1.0842203389831,5.0
COM6,508,14-Aug-18,2018-08-14 01:00:00,1.3756833333333,1.29585,1.23215,1.2223166666667,1.1888666666667,1.14745,1.1786833333333,5.0
COM6,508,14-Aug-18,2018-08-14 02:00:00,1.1704833333333,1.0677833333333,1.0002333333333,0.97858333333333,0.93756666666667,0.87795,0.89598333333333,5.0
COM6,508,14-Aug-18,2018-08-14 03:00:00,0.98528333333333,0.87321666666667,0.80895,0.78673333333333,0.74496666666667,0.67606666666667,0.68691666666667,5.0
COM6,508,14-Aug-18,2018-08-14 04:00:00,0.97561666666667,0.84566666666667,0.77741666666667,0.7505,0.70661666666667,0.6361833333333299,0.6458333333333299,5.0
COM6,508,14-Aug-18,2018-08-14 05:00:00,1.1340333333333001,1.0023833333333,0.92616666666667,0.89815,0.8533166666666699,0.77741666666667,0.79336666666667,5.0
COM6,508,14-Aug-18,2018-08-14 06:00:00,2.49505,2.4814,2.3951,2.4006,2.3692833333333,2.3760666666667003,2.4543166666667005,5.0
COM6,508,14-Aug-18,2018-08-14 07:00:00,2.5173833333332998,2.4449333333333,2.3357,2.3253166666667004,2.2731,2.2279166666667,2.2943833333333,5.0
COM6,508,14-Aug-18,2018-08-14 08:00:00,2.7054833333332997,2.5684833333332997,2.4237,2.3888666666667002,2.3104666666667004,2.21035,2.2704666666667004,5.0
COM6,508,14-Aug-18,2018-08-14 09:00:00,2.7100666666667004,2.4993833333332995,2.33005,2.27625,2.1780833333333,2.0504666666666997,2.0978333333333,5.0
COM6,508,14-Aug-18,2018-08-14 10:00:00,2.7341666666667,2.46455,2.2801166666667,2.22035,2.112,1.9615666666667,2.00275,5.0
COM6,508,14-Aug-18,2018-08-14 11:00:00,2.2737666666667002,1.9539166666667,1.7828666666667,1.7108833333333,1.6041,1.4295166666666999,1.4477833333333001,5.0
COM6,508,14-Aug-18,2018-08-14 12:00:00,1.9092833333333001,1.5217,1.3521,1.2742666666667,1.1653833333333001,0.9754,0.98001666666667,5.0
COM6,508,14-Aug-18,2018-08-14 13:00:00,1.8395333333333002,1.4498333333333,1.2790000000000001,1.1977666666667,1.0924166666667,0.90923333333333,0.91306666666667,5.0
COM6,508,14-Aug-18,2018-08-14 14:00:00,1.2644333333333,1.0067833333333,0.89333333333333,0.84118333333333,0.7699,0.6462333333333299,0.64668333333333,3.6666666666667003
COM6,508,14-Aug-18,2018-08-14 15:00:00,1.1895666666667,0.89331666666667,0.81456666666667,0.78166666666667,0.7441,0.6644166666666701,0.67975,5.0
COM6,508,14-Aug-18,2018-08-14 16:00:00,0.89823333333333,0.74816666666667,0.68136666666667,0.6595666666666701,0.62533333333333,0.5723833333333299,0.5846833333333299,5.0
COM6,508,14-Aug-18,2018-08-14 17:00:00,0.83008333333333,0.7106,0.6480333333333299,0.6268,0.5951666666666701,0.54341666666667,0.55483333333333,5.0
COM6,508,14-Aug-18,2018-08-14 18:00:00,1.0186833333333,0.87491666666667,0.79976666666667,0.77311666666667,0.73725,0.68523333333333,0.69895,5.0
COM6,508,14-Aug-18,2018-08-14 19:00:00,1.0684,0.89311666666667,0.8113,0.78151666666667,0.74123333333333,0.6709833333333299,0.68391666666667,5.0
COM6,508,14-Aug-18,2018-08-14 20:00:00,0.9017333333333301,0.73871666666667,0.6655,0.6375666666666701,0.6004833333333299,0.54125,0.5501,5.0
COM6,508,14-Aug-18,2018-08-14 21:00:00,0.91193333333333,0.74441666666667,0.6693166666666701,0.6427,0.60408333333333,0.54645,0.5571333333333299,5.0
COM6,508,14-Aug-18,2018-08-14 22:00:00,0.8946333333333301,0.72113333333333,0.6470833333333299,0.6176,0.57985,0.51761666666667,0.52678333333333,5.0
COM6,508,14-Aug-18,2018-08-14 23:00:00,0.97823728813559,0.8088813559322,0.73138983050847,0.70267796610169,0.6624406779661,0.59691525423729,0.60818644067797,5.0
