COM6,508,03-Nov-18,2018-11-03 00:00:00,0.19806779661017002,0.17861016949153,0.16830508474576,0.16381355932203,0.15847457627119002,0.15122033898304998,0.15562711864407,5
COM6,508,03-Nov-18,2018-11-03 01:00:00,0.18108333333332996,0.16018333333332999,0.14981666666667,0.14556666666667,0.14131666666667,0.13053333333333,0.13551666666667,5
COM6,508,03-Nov-18,2018-11-03 02:00:00,0.11341666666667,0.10378333333333001,0.097566666666667,0.0955,0.092333333333333,0.089466666666667,0.0916,5
COM6,508,03-Nov-18,2018-11-03 03:00:00,0.11738333333333001,0.10565,0.09908333333333301,0.09708333333333301,0.093366666666667,0.0876,0.09103333333333301,5
COM6,508,03-Nov-18,2018-11-03 04:00:00,0.08503333333333299,0.07668333333333299,0.07193333333333299,0.0708,0.0677,0.063416666666667,0.064816666666667,5
COM6,508,03-Nov-18,2018-11-03 05:00:00,0.08625,0.07585,0.07071666666666701,0.06785,0.06583333333333301,0.060883333333333005,0.0628,5
COM6,508,03-Nov-18,2018-11-03 06:00:00,0.15913333333333,0.14276666666667,0.13366666666667,0.12936666666667,0.12473333333333,0.11801666666666999,0.12141666666666999,5
COM6,508,03-Nov-18,2018-11-03 07:00:00,0.41575,0.38013333333333,0.354,0.34226666666667,0.32715,0.30351666666667,0.311,5
COM6,508,03-Nov-18,2018-11-03 08:00:00,0.50258333333333,0.50215,0.4758,0.46905,0.45473333333333,0.43523333333333003,0.4486,5
COM6,508,03-Nov-18,2018-11-03 09:00:00,0.44496666666667,0.46578333333333,0.44621666666667,0.44648333333333,0.43235,0.42846666666667,0.44176666666666997,5
COM6,508,03-Nov-18,2018-11-03 10:00:00,0.19518333333332996,0.20071666666667004,0.19001666666667003,0.19263333333332996,0.18038333333332998,0.17645,0.1799,5
COM6,508,03-Nov-18,2018-11-03 11:00:00,0.13005,0.12631666666667,0.11778333333333,0.11798333333333001,0.11046666666666999,0.10778333333333001,0.10936666666667,5
COM6,508,03-Nov-18,2018-11-03 12:00:00,0.11386666666666999,0.10776666666667,0.0996,0.09911666666666699,0.0928,0.08995,0.09105,5
COM6,508,03-Nov-18,2018-11-03 13:00:00,0.11003333333333,0.10023333333333001,0.09306666666666699,0.09095,0.08591666666666702,0.081666666666667,0.083,5
COM6,508,03-Nov-18,2018-11-03 14:00:00,0.10266666666667,0.092366666666667,0.08623333333333298,0.08206666666666701,0.079716666666667,0.07343333333333299,0.07708333333333299,5
COM6,508,03-Nov-18,2018-11-03 15:00:00,0.10768333333333001,0.0971,0.09135,0.0868,0.08588333333333299,0.077883333333333,0.08135,5
COM6,508,03-Nov-18,2018-11-03 16:00:00,0.12615,0.11816666666667,0.11156666666666999,0.1073,0.10623333333333,0.10038333333333001,0.1041,5
COM6,508,03-Nov-18,2018-11-03 17:00:00,0.3874,0.4037,0.39205,0.38855,0.38145,0.36313333333333003,0.37478333333333,5
COM6,508,03-Nov-18,2018-11-03 18:00:00,0.30206666666667,0.26688333333333,0.24796666666667003,0.23801666666667004,0.22888333333332997,0.2103,0.21778333333332997,5
COM6,508,03-Nov-18,2018-11-03 19:00:00,0.24023333333332997,0.1958,0.1783,0.16561666666667002,0.15871666666667,0.14066666666667002,0.14535,5
COM6,508,03-Nov-18,2018-11-03 20:00:00,0.1679,0.14483333333332998,0.1339,0.12553333333333,0.12055,0.10765,0.11108333333333001,5
COM6,508,03-Nov-18,2018-11-03 21:00:00,0.35626666666667,0.30191666666667,0.27911666666667,0.2655,0.25425,0.23291666666667002,0.24003333333332996,5
COM6,508,03-Nov-18,2018-11-03 22:00:00,0.3698,0.36498333333333,0.34733333333333,0.34176666666667,0.33088333333333003,0.31515,0.32471666666667,5
COM6,508,03-Nov-18,2018-11-03 23:00:00,0.13308474576271,0.12781355932203,0.12159322033898,0.11977966101694999,0.11571186440678001,0.10789830508475,0.11154237288136,5
