COM6,508,15-Sep-17,2017-09-15 00:00:00,0.12410169491525,0.12115254237288,0.11598305084746001,0.11532203389830999,0.11140677966102,0.10647457627119002,0.11001694915253998,5
COM6,508,15-Sep-17,2017-09-15 01:00:00,0.17818333333332997,0.17505,0.16741666666667002,0.16673333333332999,0.16151666666667,0.15708333333333,0.16121666666667,5
COM6,508,15-Sep-17,2017-09-15 02:00:00,0.20051666666667003,0.19648333333332996,0.18913333333332996,0.18735,0.18251666666667002,0.17595,0.18113333333332995,5
COM6,508,15-Sep-17,2017-09-15 03:00:00,0.21391666666667003,0.20978333333332996,0.20093333333332997,0.20033333333332998,0.19413333333332997,0.18893333333332996,0.19416666666667004,5
COM6,508,15-Sep-17,2017-09-15 04:00:00,0.12296666666667,0.11305,0.10665,0.10526666666666999,0.10061666666666999,0.09621666666666699,0.0994,5
COM6,508,15-Sep-17,2017-09-15 05:00:00,0.16948333333332996,0.15386666666667,0.14461666666667,0.14178333333332999,0.13605,0.1287,0.13193333333333002,5
COM6,508,15-Sep-17,2017-09-15 06:00:00,0.75435,0.75303333333333,0.72125,0.71701666666667,0.69721666666667,0.68653333333333,0.7088,5
COM6,508,15-Sep-17,2017-09-15 07:00:00,0.5591833333333299,0.55565,0.53058333333333,0.52686666666667,0.5119,0.50206666666667,0.5186333333333301,5
COM6,508,15-Sep-17,2017-09-15 08:00:00,0.62505,0.61341666666667,0.58526666666667,0.5814833333333299,0.56345,0.5565,0.57516666666667,5
COM6,508,15-Sep-17,2017-09-15 09:00:00,1.0055,0.8856,0.82083333333333,0.80331666666667,0.76916666666667,0.7412,0.7634,5
COM6,508,15-Sep-17,2017-09-15 10:00:00,1.79155,1.2796833333333,1.1019666666666998,1.02985,0.94726666666667,0.863,0.88273333333333,5
COM6,508,15-Sep-17,2017-09-15 11:00:00,1.5379833333333,1.0103666666667,0.84048333333333,0.76871666666667,0.68921666666667,0.59903333333333,0.60728333333333,5
COM6,508,15-Sep-17,2017-09-15 12:00:00,1.5844666666667,0.97156666666667,0.78736666666667,0.70576666666667,0.61876666666667,0.51403333333333,0.51778333333333,5
COM6,508,15-Sep-17,2017-09-15 13:00:00,1.4713,0.8859,0.70891666666667,0.627,0.54265,0.4321,0.43311666666667,5
COM6,508,15-Sep-17,2017-09-15 14:00:00,1.0181,0.6603,0.5504833333333299,0.502,0.44458333333333,0.37561666666667,0.37888333333333,5
COM6,508,15-Sep-17,2017-09-15 15:00:00,0.87928333333333,0.55921666666667,0.4635,0.41985,0.36961666666667,0.30213333333333,0.30503333333333,5
COM6,508,15-Sep-17,2017-09-15 16:00:00,0.86075,0.54088333333333,0.44818333333333,0.40218333333333,0.35591666666667,0.29093333333333,0.29268333333333,5
COM6,508,15-Sep-17,2017-09-15 17:00:00,0.88365,0.5586,0.46668333333333,0.41961666666666997,0.37508333333333,0.31056666666667,0.31521666666667,5
COM6,508,15-Sep-17,2017-09-15 18:00:00,1.0316333333333,0.6774,0.5758666666666701,0.5283,0.47655,0.40771666666667,0.41561666666667,5
COM6,508,15-Sep-17,2017-09-15 19:00:00,1.04035,0.67415,0.5744333333333299,0.52658333333333,0.47438333333333,0.39795,0.40533333333333,5
COM6,508,15-Sep-17,2017-09-15 20:00:00,1.0406166666667,0.67413333333333,0.57305,0.52503333333333,0.47138333333333,0.39705,0.40408333333333,5
COM6,508,15-Sep-17,2017-09-15 21:00:00,1.01695,0.6279333333333299,0.53026666666667,0.48315,0.434,0.36666666666666997,0.3709,5
COM6,508,15-Sep-17,2017-09-15 22:00:00,0.9365,0.55955,0.46708333333333,0.42506666666667,0.37688333333333,0.31085,0.31396666666667,5
COM6,508,15-Sep-17,2017-09-15 23:00:00,1.2178035714286002,0.69964285714286,0.57710714285714,0.51748214285714,0.45925,0.369875,0.37255357142857,5
