COM4,508,19-Jun-19,2019-06-19 00:00:00,1.1680847457627,1.1121186440678001,1.0421186440678,1.0194576271186,0.97315254237288,0.90876271186441,0.93715254237288,4.6610169491525
COM4,508,19-Jun-19,2019-06-19 01:00:00,0.17583333333332996,0.15006666666667,0.14198333333333,0.13993333333333,0.13488333333333,0.12911666666667,0.1317,5.0
COM4,508,19-Jun-19,2019-06-19 02:00:00,0.17751666666667004,0.16951666666667004,0.16045,0.15836666666667001,0.15288333333332998,0.14785,0.1518,5.0
COM4,508,19-Jun-19,2019-06-19 03:00:00,0.16611666666667002,0.15885,0.15045,0.14855,0.14323333333333,0.13583333333333,0.1387,5.0
COM4,508,19-Jun-19,2019-06-19 04:00:00,0.19093333333332996,0.18275,0.17281666666667003,0.1711,0.16508333333332997,0.15848333333332998,0.16296666666667,5.0
COM4,508,19-Jun-19,2019-06-19 05:00:00,0.37305,0.3614,0.34231666666667,0.33736666666667,0.32675,0.3123,0.3204,5.0
COM4,508,19-Jun-19,2019-06-19 06:00:00,0.56973333333333,0.56973333333333,0.54268333333333,0.53745,0.52293333333333,0.5035333333333301,0.51758333333333,5.0
COM4,508,19-Jun-19,2019-06-19 07:00:00,0.52181666666667,0.5261,0.50333333333333,0.50001666666667,0.48676666666667,0.46978333333333,0.4839,5.0
COM4,508,19-Jun-19,2019-06-19 08:00:00,0.6261666666666701,0.63891666666667,0.6146333333333299,0.6128,0.6009333333333299,0.58603333333333,0.60346666666667,5.0
COM4,508,19-Jun-19,2019-06-19 09:00:00,0.33133333333333,0.33635,0.32231666666666997,0.32093333333333,0.31273333333333003,0.30141666666667,0.30963333333333,5.0
COM4,508,19-Jun-19,2019-06-19 10:00:00,0.2376,0.24053333333332996,0.23011666666667002,0.22828333333332998,0.22288333333332996,0.21351666666667002,0.21966666666667004,5.0
COM4,508,19-Jun-19,2019-06-19 11:00:00,0.16378333333332998,0.17058333333332998,0.1651,0.1654,0.16285,0.16003333333332997,0.16465,5.0
COM4,508,19-Jun-19,2019-06-19 12:00:00,0.14185,0.14231666666667,0.13701666666667,0.13638333333333,0.13226666666667,0.12851666666667,0.13271666666667,5.0
COM4,508,19-Jun-19,2019-06-19 13:00:00,0.14925,0.15198333333332997,0.14613333333332998,0.14495,0.14283333333332998,0.13896666666667,0.1435,5.0
COM4,508,19-Jun-19,2019-06-19 14:00:00,0.1813,0.18675,0.1798,0.17831666666667004,0.17465,0.16866666666667005,0.17408333333332998,5.0
COM4,508,19-Jun-19,2019-06-19 15:00:00,0.21058333333332996,0.20581666666667003,0.19311666666667004,0.1899,0.18195,0.17321666666667004,0.17691666666667002,5.0
COM4,508,19-Jun-19,2019-06-19 16:00:00,0.15236666666667,0.15085,0.1445,0.14300000000000002,0.13976666666667,0.13348333333333,0.13818333333333,5.0
COM4,508,19-Jun-19,2019-06-19 17:00:00,0.17013333333332997,0.17046666666667004,0.16298333333332998,0.1622,0.15835,0.15446666666667,0.15956666666667002,5.0
COM4,508,19-Jun-19,2019-06-19 18:00:00,0.15026666666667002,0.1494,0.14261666666667,0.14121666666667002,0.13771666666667,0.13161666666667,0.13615,5.0
COM4,508,19-Jun-19,2019-06-19 19:00:00,0.24111666666667003,0.23268333333332997,0.22045,0.21518333333332998,0.20833333333332996,0.20083333333332998,0.2066,5.0
COM4,508,19-Jun-19,2019-06-19 20:00:00,0.29253333333333,0.26931666666667003,0.24886666666667004,0.24143333333332997,0.23145,0.21899999999999997,0.2245,5.0
COM4,508,19-Jun-19,2019-06-19 21:00:00,0.35533333333333,0.34585,0.32805,0.3251,0.3158,0.30633333333333,0.31646666666667,5.0
COM4,508,19-Jun-19,2019-06-19 22:00:00,0.3866,0.36438333333333,0.34233333333333,0.33623333333333,0.3262,0.3231,0.33405,5.0
COM4,508,19-Jun-19,2019-06-19 23:00:00,0.31875,0.2964,0.27783333333333,0.27158333333332996,0.26521666666667004,0.2594,0.2687,5.0
