COM4,508,11-Jun-19,2019-06-11 00:00:00,0.14345762711864002,0.11362711864407,0.10086440677966,0.090033898305085,0.08816949152542401,0.076966101694915,0.08037288135593201,5
COM4,508,11-Jun-19,2019-06-11 01:00:00,0.13141666666666998,0.10611666666667,0.09575,0.08756666666666701,0.083,0.071733333333333,0.0742,5
COM4,508,11-Jun-19,2019-06-11 02:00:00,0.21856666666667005,0.19588333333332997,0.17866666666667003,0.16845,0.16263333333333,0.15191666666667,0.15686666666667,5
COM4,508,11-Jun-19,2019-06-11 03:00:00,0.43916666666667,0.41036666666667,0.38095,0.37495,0.35943333333333,0.34475,0.35653333333333,5
COM4,508,11-Jun-19,2019-06-11 04:00:00,0.41116666666667,0.38356666666667,0.35451666666667,0.34426666666667,0.32783333333333,0.30538333333333,0.31523333333333,5
COM4,508,11-Jun-19,2019-06-11 05:00:00,0.28298333333333,0.2541,0.2339,0.22635,0.21366666666667003,0.19778333333332998,0.20315,5
COM4,508,11-Jun-19,2019-06-11 06:00:00,1.07975,1.01595,0.94596666666667,0.92493333333333,0.88551666666667,0.84681666666667,0.87573333333333,5
COM4,508,11-Jun-19,2019-06-11 07:00:00,0.90113333333333,0.84911666666667,0.78316666666667,0.76351666666667,0.72728333333333,0.68443333333333,0.70761666666667,5
COM4,508,11-Jun-19,2019-06-11 08:00:00,1.4226333333333,1.3150833333333,1.20425,1.1640666666667,1.1023,1.0424333333333,1.07825,5
COM4,508,11-Jun-19,2019-06-11 09:00:00,0.99526666666667,0.91146666666667,0.82938333333333,0.79628333333333,0.75063333333333,0.68835,0.71153333333333,5
COM4,508,11-Jun-19,2019-06-11 10:00:00,0.648,0.56288333333333,0.51053333333333,0.4855,0.44841666666667,0.40416666666667,0.41361666666667,5
COM4,508,11-Jun-19,2019-06-11 11:00:00,0.67873333333333,0.5917666666666701,0.53221666666667,0.509,0.469,0.41455,0.42376666666667,5
COM4,508,11-Jun-19,2019-06-11 12:00:00,0.40593333333333,0.35665,0.32471666666667,0.30395,0.28301666666666997,0.24548333333332997,0.25178333333333,5
COM4,508,11-Jun-19,2019-06-11 13:00:00,0.23548333333332996,0.2109,0.19088333333332996,0.18343333333332998,0.17266666666667002,0.16001666666667003,0.16283333333333,5
COM4,508,11-Jun-19,2019-06-11 14:00:00,0.22373333333332998,0.19928333333332998,0.18743333333332995,0.18093333333332998,0.17206666666667003,0.15896666666667,0.16398333333332998,5
COM4,508,11-Jun-19,2019-06-11 15:00:00,0.19363333333332997,0.17003333333332996,0.1593,0.14871666666667002,0.14881666666667,0.13343333333333002,0.1414,5
COM4,508,11-Jun-19,2019-06-11 16:00:00,0.20691666666667002,0.17306666666667003,0.15928333333332997,0.14471666666667002,0.14736666666667,0.13283333333333,0.1401,5
COM4,508,11-Jun-19,2019-06-11 17:00:00,0.3422,0.30216666666666997,0.27961666666667,0.26668333333332994,0.25693333333332996,0.23891666666667002,0.24943333333332998,5
COM4,508,11-Jun-19,2019-06-11 18:00:00,0.42235,0.40868333333333,0.39206666666667,0.3869,0.37758333333333,0.35395,0.3665,5
COM4,508,11-Jun-19,2019-06-11 19:00:00,0.46388333333333,0.46411666666667,0.45336666666666997,0.45303333333333,0.44516666666667,0.43191666666667,0.44576666666667,5
COM4,508,11-Jun-19,2019-06-11 20:00:00,0.6903,0.70551666666667,0.68961666666667,0.69838333333333,0.68641666666667,0.6736,0.69586666666667,5
COM4,508,11-Jun-19,2019-06-11 21:00:00,0.54198333333333,0.5193,0.49253333333333,0.49088333333333,0.4671,0.4449,0.45815,5
COM4,508,11-Jun-19,2019-06-11 22:00:00,0.45981666666667,0.44035,0.41995,0.42326666666667,0.40536666666667,0.38945,0.39806666666667,5
COM4,508,11-Jun-19,2019-06-11 23:00:00,0.4177,0.4185,0.40591666666667,0.41153333333333003,0.39906666666667,0.39561666666667,0.40576666666667,5
