COM6,508,09-Apr-18,2018-04-09 00:00:00,0.05928813559322001,0.068372881355932,0.055999999999999994,0.056864406779660995,0.04264406779661,0.038457627118644,0.036932203389831,5.0
COM6,508,09-Apr-18,2018-04-09 01:00:00,0.051416666666667,0.080383333333333,0.0687,0.075066666666667,0.055116666666666994,0.057416666666667,0.055116666666666994,5.0
COM6,508,09-Apr-18,2018-04-09 02:00:00,0.08288333333333299,0.078183333333333,0.065283333333333,0.067133333333333,0.049983333333333005,0.047033333333333004,0.043933333333333005,5.0
COM6,508,09-Apr-18,2018-04-09 03:00:00,0.13531666666667,0.10786666666667,0.09153333333333301,0.089866666666667,0.07426666666666701,0.069,0.065516666666667,5.0
COM6,508,09-Apr-18,2018-04-09 04:00:00,0.18100000000000002,0.14215,0.1238,0.11503333333333,0.10261666666666999,0.08185,0.08468333333333299,5.0
COM6,508,09-Apr-18,2018-04-09 05:00:00,0.32396666666667,0.27166666666667005,0.23646666666667004,0.22111666666667004,0.19878333333332998,0.17111666666667003,0.17378333333332996,5.0
COM6,508,09-Apr-18,2018-04-09 06:00:00,1.79255,1.6821166666667,1.5792,1.5471,1.4826833333333,1.4106833333333,1.4554833333333002,4.6666666666667
COM6,508,09-Apr-18,2018-04-09 07:00:00,0.55405,0.45295,0.42938333333333,0.42366666666667,0.40656666666667,0.39075,0.40045,5.0
COM6,508,09-Apr-18,2018-04-09 08:00:00,0.22918333333332996,0.22195,0.21125,0.2094,0.20166666666667002,0.19806666666667003,0.20401666666667004,5.0
COM6,508,09-Apr-18,2018-04-09 09:00:00,0.24716666666667003,0.27261666666667,0.25913333333332994,0.25671666666667003,0.24736666666667004,0.24563333333332996,0.25305,5.0
COM6,508,09-Apr-18,2018-04-09 10:00:00,0.42606666666667,0.43986666666667,0.4142,0.40686666666667,0.3891,0.37200000000000005,0.38063333333333,5.0
COM6,508,09-Apr-18,2018-04-09 11:00:00,0.10068333333333,0.11048333333333,0.10478333333333001,0.10403333333333001,0.09875,0.091866666666667,0.0948,5.0
COM6,508,09-Apr-18,2018-04-09 12:00:00,0.06805,0.075733333333333,0.072133333333333,0.071133333333333,0.06925,0.07085,0.07353333333333299,5.0
COM6,508,09-Apr-18,2018-04-09 13:00:00,0.11395,0.11806666666667,0.11243333333333,0.10993333333333001,0.1074,0.10415,0.1068,5.0
COM6,508,09-Apr-18,2018-04-09 14:00:00,0.11195,0.11018333333333001,0.10521666666667,0.10256666666667,0.1012,0.09456666666666699,0.0985,5.0
COM6,508,09-Apr-18,2018-04-09 15:00:00,0.11253333333333,0.1081,0.10373333333333,0.1001,0.10015,0.097066666666667,0.1027,5.0
COM6,508,09-Apr-18,2018-04-09 16:00:00,0.0937,0.09006666666666699,0.08498333333333298,0.082916666666667,0.08163333333333299,0.08045,0.083366666666667,5.0
COM6,508,09-Apr-18,2018-04-09 17:00:00,0.12568333333333,0.12123333333333,0.11498333333333001,0.11261666666667,0.10935,0.10563333333333001,0.1101,5.0
COM6,508,09-Apr-18,2018-04-09 18:00:00,0.11463333333333,0.1091,0.10253333333333,0.09808333333333301,0.096766666666667,0.09668333333333301,0.10008333333333,5.0
COM6,508,09-Apr-18,2018-04-09 19:00:00,0.29718333333333,0.25973333333333,0.24221666666667002,0.22458333333332997,0.21056666666667004,0.19698333333332996,0.20223333333332996,5.0
COM6,508,09-Apr-18,2018-04-09 20:00:00,0.12405,0.11201666666667,0.10185,0.09975,0.09546666666666699,0.08925,0.091183333333333,5.0
COM6,508,09-Apr-18,2018-04-09 21:00:00,0.13536666666667,0.11466666666667,0.10346666666667,0.098316666666667,0.093383333333333,0.08866666666666699,0.0907,5.0
COM6,508,09-Apr-18,2018-04-09 22:00:00,0.0603,0.06161666666666699,0.0577,0.057066666666666994,0.0543,0.05375,0.0552,5.0
COM6,508,09-Apr-18,2018-04-09 23:00:00,0.096789473684211,0.088982456140351,0.082701754385965,0.079929824561404,0.077175438596491,0.07561403508771901,0.078087719298246,5.0
