COM6,508,12-Dec-17,2017-12-12 00:00:00,3.4598135593220003,3.0713050847458,2.8168474576271003,2.7154576271186,2.5233559322034,2.3032711864407003,2.3533220338983,5.0
COM6,508,12-Dec-17,2017-12-12 01:00:00,3.0893333333333,2.7353,2.5052,2.4166166666667004,2.2375666666667002,2.0458666666667,2.08825,5.0
COM6,508,12-Dec-17,2017-12-12 02:00:00,2.48425,2.2759666666667004,2.0975666666667,2.0391166666667,1.9009333333333,1.75625,1.7959666666667,5.0
COM6,508,12-Dec-17,2017-12-12 03:00:00,1.57905,1.4948333333333002,1.4276666666667,1.4184166666667,1.37465,1.3223333333333,1.3625333333333,4.6666666666667
COM6,508,12-Dec-17,2017-12-12 04:00:00,1.67695,1.5753666666666999,1.5166166666667,1.5116,1.47655,1.44645,1.4890666666666998,5.0
COM6,508,12-Dec-17,2017-12-12 05:00:00,1.6901,1.6630833333333002,1.6112166666667,1.61435,1.5841333333333,1.5702666666667,1.6194666666667,5.0
COM6,508,12-Dec-17,2017-12-12 06:00:00,1.6156166666667,1.6849,1.6383333333333001,1.6486,1.6199833333333,1.61195,1.6640833333333,5.0
COM6,508,12-Dec-17,2017-12-12 07:00:00,1.50905,1.6143333333333,1.57665,1.5892166666667,1.5639,1.5581666666667,1.6082166666667,5.0
COM6,508,12-Dec-17,2017-12-12 08:00:00,1.9216166666666998,2.0101166666667,1.9635,1.9822166666667,1.9439666666667,1.9290833333333,1.9914333333333,5.0
COM6,508,12-Dec-17,2017-12-12 09:00:00,2.0605333333333,2.0886,2.0313,2.0446333333333,2.001,1.97305,2.0365333333333,5.0
COM6,508,12-Dec-17,2017-12-12 10:00:00,2.485,2.4510166666667,2.3690166666667003,2.37305,2.3024333333333,2.2375,2.3031,5.0
COM6,508,12-Dec-17,2017-12-12 11:00:00,3.1956833333333,3.0813166666667002,2.9577,2.9498833333333,2.8397833333333,2.7159166666667,2.7908,5.0
COM6,508,12-Dec-17,2017-12-12 12:00:00,2.70635,2.5824666666667,2.4608666666667003,2.44,2.3326,2.2078333333332996,2.2659166666667003,5.0
COM6,508,12-Dec-17,2017-12-12 13:00:00,2.9593833333333,2.7782833333332997,2.6278,2.5914333333333,2.4591333333332996,2.2959833333332997,2.3533333333332997,5.0
COM6,508,12-Dec-17,2017-12-12 14:00:00,2.8593666666667,2.65935,2.4989666666667003,2.4524,2.3110333333332997,2.13245,2.1809,5.0
COM6,508,12-Dec-17,2017-12-12 15:00:00,2.7085833333332996,2.5077333333332996,2.3426,2.2974666666667,2.1592833333333,1.9808666666666999,2.0246166666667,5.0
COM6,508,12-Dec-17,2017-12-12 16:00:00,2.7527,2.5155333333332996,2.3388833333332997,2.2804166666667003,2.1280333333333,1.9256166666666998,1.9672666666667,5.0
COM6,508,12-Dec-17,2017-12-12 17:00:00,2.8350166666667,2.58705,2.4005166666667,2.3390666666667004,2.1829833333333,1.97665,2.0163833333333,5.0
COM6,508,12-Dec-17,2017-12-12 18:00:00,2.7283333333332997,2.4937166666667,2.3109,2.2541333333332996,2.1013666666667,1.89915,1.93775,5.0
COM6,508,12-Dec-17,2017-12-12 19:00:00,2.2783666666667,2.1583666666667,2.0528,2.0263333333333002,1.9489666666667,1.8559999999999999,1.9099166666667,4.6666666666667
COM6,508,12-Dec-17,2017-12-12 20:00:00,2.1298,2.05295,1.9782666666667,1.9726166666667,1.92595,1.8887833333333,1.94615,5.0
COM6,508,12-Dec-17,2017-12-12 21:00:00,1.8476333333333002,1.8700166666667,1.8123833333333002,1.8158833333333,1.7752666666666999,1.74985,1.8029333333333,5.0
COM6,508,12-Dec-17,2017-12-12 22:00:00,1.8065833333333001,1.9060833333333,1.8532833333333,1.85985,1.818,1.7876166666667,1.8431666666667,5.0
COM6,508,12-Dec-17,2017-12-12 23:00:00,1.6420545454545,1.6988909090909,1.6436727272727,1.6430363636363998,1.5971636363636001,1.5553818181818,1.6013454545455,5.0
