COM4,508,30-Oct-19,2019-10-30 00:00:00,0.11055932203389998,0.086779661016949,0.075949152542373,0.07055932203389799,0.068661016949153,0.066305084745763,0.06688135593220298,5.0
COM4,508,30-Oct-19,2019-10-30 01:00:00,0.14400000000000002,0.10766666666666999,0.09765,0.08765,0.08415,0.068683333333333,0.07161666666666701,5.0
COM4,508,30-Oct-19,2019-10-30 02:00:00,0.15286666666667,0.10658333333333,0.093516666666667,0.08396666666666701,0.079883333333333,0.07,0.07136666666666701,5.0
COM4,508,30-Oct-19,2019-10-30 03:00:00,0.14041666666667002,0.09395,0.0818,0.073483333333333,0.0685,0.055999999999999994,0.057133333333333,5.0
COM4,508,30-Oct-19,2019-10-30 04:00:00,0.14586666666667,0.12038333333333001,0.10545,0.10065,0.092716666666667,0.081083333333333,0.08441666666666701,5.0
COM4,508,30-Oct-19,2019-10-30 05:00:00,0.40436666666667,0.34878333333333,0.31965,0.3098,0.28925,0.26568333333332994,0.27153333333332996,5.0
COM4,508,30-Oct-19,2019-10-30 06:00:00,0.75696666666667,0.67831666666667,0.62356666666667,0.60425,0.5714666666666701,0.52958333333333,0.54478333333333,5.0
COM4,508,30-Oct-19,2019-10-30 07:00:00,0.5427,0.4949,0.45343333333333,0.43748333333333,0.4129,0.37761666666667,0.38898333333333,5.0
COM4,508,30-Oct-19,2019-10-30 08:00:00,0.97448333333333,0.8717,0.81773333333333,0.80551666666667,0.77986666666667,0.74298333333333,0.76678333333333,4.6666666666667
COM4,508,30-Oct-19,2019-10-30 09:00:00,0.71173333333333,0.6261333333333299,0.59346666666667,0.58988333333333,0.5721333333333299,0.55416666666667,0.57108333333333,5.0
COM4,508,30-Oct-19,2019-10-30 10:00:00,1.0684666666667,1.11615,1.0769333333333,1.0843333333333,1.06785,1.0595166666667,1.0946166666666999,5.0
COM4,508,30-Oct-19,2019-10-30 11:00:00,0.55358333333333,0.5764,0.5513666666666701,0.5509333333333299,0.53736666666667,0.52395,0.54016666666667,5.0
COM4,508,30-Oct-19,2019-10-30 12:00:00,0.17643333333332997,0.17726666666667004,0.16686666666667002,0.16536666666667002,0.16056666666667002,0.15526666666667002,0.16061666666667002,5.0
COM4,508,30-Oct-19,2019-10-30 13:00:00,0.2483,0.24715,0.23285,0.22935,0.22265,0.21513333333332996,0.22148333333332998,5.0
COM4,508,30-Oct-19,2019-10-30 14:00:00,0.217,0.21061666666667003,0.19723333333332996,0.19325,0.18761666666667004,0.17856666666667004,0.18386666666667004,5.0
COM4,508,30-Oct-19,2019-10-30 15:00:00,0.18953333333332997,0.18426666666667002,0.17468333333332997,0.17118333333332997,0.1667,0.15893333333332998,0.1652,5.0
COM4,508,30-Oct-19,2019-10-30 16:00:00,0.24598333333332997,0.24236666666667003,0.22955,0.22641666666667004,0.22188333333332996,0.21443333333332998,0.22125,5.0
COM4,508,30-Oct-19,2019-10-30 17:00:00,0.32511666666667,0.30935,0.29186666666667,0.28898333333333,0.28106666666667,0.27263333333332995,0.28155,5.0
COM4,508,30-Oct-19,2019-10-30 18:00:00,0.5642833333333299,0.47416666666667,0.439,0.42598333333333,0.40956666666667,0.38958333333333,0.40036666666667,5.0
COM4,508,30-Oct-19,2019-10-30 19:00:00,0.91335,0.71591666666667,0.65181666666667,0.6256333333333299,0.5944333333333299,0.55288333333333,0.56631666666667,5.0
COM4,508,30-Oct-19,2019-10-30 20:00:00,0.69946666666667,0.5525333333333299,0.50003333333333,0.47843333333333,0.45228333333333,0.4181,0.4278,5.0
COM4,508,30-Oct-19,2019-10-30 21:00:00,0.5660833333333299,0.53353333333333,0.50101666666667,0.49413333333333,0.47661666666667,0.46038333333333,0.47476666666667,5.0
COM4,508,30-Oct-19,2019-10-30 22:00:00,0.81715,0.69075,0.6442833333333299,0.6328,0.6118833333333299,0.5904333333333299,0.60756666666667,5.0
COM4,508,30-Oct-19,2019-10-30 23:00:00,0.8965,0.73745,0.68171666666667,0.6659,0.64058333333333,0.6113166666666701,0.6293,5.0
