COM6,508,13-Feb-18,2018-02-13 00:00:00,0.38357627118644,0.29444067796609996,0.27693220338983005,0.27216949152542,0.26008474576270996,0.25161016949153,0.25842372881356,5
COM6,508,13-Feb-18,2018-02-13 01:00:00,0.18168333333332998,0.17598333333332997,0.16778333333332998,0.16671666666667,0.15868333333332998,0.15213333333332998,0.15556666666667002,5
COM6,508,13-Feb-18,2018-02-13 02:00:00,0.3105,0.31393333333333,0.29746666666667,0.29258333333333003,0.28233333333333,0.27146666666667,0.27878333333333,5
COM6,508,13-Feb-18,2018-02-13 03:00:00,0.29865,0.29456666666667,0.27843333333333,0.2722,0.26336666666667,0.2507,0.25833333333333,5
COM6,508,13-Feb-18,2018-02-13 04:00:00,0.24955,0.25315,0.23983333333332996,0.23573333333332996,0.2288,0.2189,0.22596666666667004,5
COM6,508,13-Feb-18,2018-02-13 05:00:00,0.37163333333333,0.36815,0.34906666666666997,0.34391666666667,0.33306666666667,0.31995,0.32943333333333,5
COM6,508,13-Feb-18,2018-02-13 06:00:00,0.60266666666667,0.5923,0.56206666666667,0.5534,0.5368166666666699,0.51683333333333,0.53233333333333,5
COM6,508,13-Feb-18,2018-02-13 07:00:00,1.18665,1.1797166666667,1.1220833333333,1.1089666666667,1.0747666666667,1.0368833333333,1.0673833333333,5
COM6,508,13-Feb-18,2018-02-13 08:00:00,2.0561,2.0260666666666998,1.9272833333333002,1.9045,1.8459333333333001,1.78315,1.8359999999999999,5
COM6,508,13-Feb-18,2018-02-13 09:00:00,2.4720666666667004,2.4105166666667004,2.2984166666667,2.27565,2.2093,2.1380333333333,2.2051166666667004,5
COM6,508,13-Feb-18,2018-02-13 10:00:00,2.3445833333332997,2.2863666666667,2.1717166666667,2.1445666666667,2.0829166666667,2.0155,2.0807833333333,5
COM6,508,13-Feb-18,2018-02-13 11:00:00,0.5745166666666701,0.57998333333333,0.5556166666666701,0.54503333333333,0.53358333333333,0.50598333333333,0.52423333333333,5
COM6,508,13-Feb-18,2018-02-13 12:00:00,0.36433333333333,0.36793333333333,0.35558333333333003,0.3496,0.34271666666667,0.32548333333333,0.33961666666667,5
COM6,508,13-Feb-18,2018-02-13 13:00:00,0.37761666666667,0.37633333333333,0.36191666666667,0.3562,0.34778333333333,0.33106666666667,0.34195,5
COM6,508,13-Feb-18,2018-02-13 14:00:00,0.5595333333333299,0.54906666666667,0.52601666666667,0.51988333333333,0.50171666666667,0.47606666666666997,0.49153333333333,5
COM6,508,13-Feb-18,2018-02-13 15:00:00,0.53263333333333,0.52055,0.4982,0.4912,0.47541666666667,0.45146666666667,0.46485,5
COM6,508,13-Feb-18,2018-02-13 16:00:00,0.52265,0.51595,0.49363333333333,0.48855,0.47338333333333,0.45115,0.4666,5
COM6,508,13-Feb-18,2018-02-13 17:00:00,0.53371666666667,0.52323333333333,0.50126666666667,0.49425,0.47786666666667,0.45498333333333,0.46985,5
COM6,508,13-Feb-18,2018-02-13 18:00:00,0.74416666666667,0.71973333333333,0.68405,0.67618333333333,0.6537,0.6231,0.64485,5
COM6,508,13-Feb-18,2018-02-13 19:00:00,1.00125,0.94593333333333,0.89676666666667,0.88125,0.84961666666667,0.79901666666667,0.82481666666667,5
COM6,508,13-Feb-18,2018-02-13 20:00:00,1.35715,1.1673833333333001,1.0856166666667,1.0519333333333,1.00005,0.93061666666667,0.95935,5
COM6,508,13-Feb-18,2018-02-13 21:00:00,1.7810833333333,1.4908833333333,1.3692166666667,1.3163833333333002,1.2430333333333001,1.1452666666667,1.1783666666666999,5
COM6,508,13-Feb-18,2018-02-13 22:00:00,1.2734666666667,1.1094833333333,1.0274666666666998,0.99803333333333,0.94295,0.87345,0.89858333333333,5
COM6,508,13-Feb-18,2018-02-13 23:00:00,1.4584363636363997,1.1853272727273,1.0784181818182,1.0412,0.9742909090909101,0.89512727272727,0.9163454545454499,5
