COM6,508,19-Jul-18,2018-07-19 00:00:00,0.53864406779661,0.5038813559322001,0.47727118644068,0.47071186440678,0.45740677966102006,0.442,0.45603389830508,5
COM6,508,19-Jul-18,2018-07-19 01:00:00,0.6557,0.627,0.5961166666666701,0.5870166666666701,0.57098333333333,0.54453333333333,0.5628,5
COM6,508,19-Jul-18,2018-07-19 02:00:00,0.42235,0.35183333333333,0.3168,0.29921666666667,0.27951666666667,0.24868333333332998,0.25495,5
COM6,508,19-Jul-18,2018-07-19 03:00:00,0.85688333333333,0.90636666666667,0.8951,0.909,0.90736666666667,0.91523333333333,0.9498,5
COM6,508,19-Jul-18,2018-07-19 04:00:00,0.75203333333333,0.68125,0.6352666666666701,0.6172166666666701,0.5889666666666701,0.54658333333333,0.56283333333333,5
COM6,508,19-Jul-18,2018-07-19 05:00:00,0.82591666666667,0.73571666666667,0.67975,0.65685,0.6230833333333299,0.5738666666666701,0.5897833333333299,5
COM6,508,19-Jul-18,2018-07-19 06:00:00,2.31335,2.2149166666667,2.0877,2.0487333333333,1.9713166666667,1.8706166666667,1.9310166666667,5
COM6,508,19-Jul-18,2018-07-19 07:00:00,1.8001166666667,1.8139333333333,1.7449166666667,1.7409,1.6943,1.6448,1.6994333333333,5
COM6,508,19-Jul-18,2018-07-19 08:00:00,4.0740833333332995,4.001733333333299,3.80025,3.7581166666667003,3.62135,3.4539,3.5608,5
COM6,508,19-Jul-18,2018-07-19 09:00:00,2.0562666666667,1.6873,1.49375,1.3978,1.2705,1.0881166666667,1.1065833333333,5
COM6,508,19-Jul-18,2018-07-19 10:00:00,1.7332166666667,1.4118833333333,1.25365,1.1717833333333,1.0619833333333,0.90038333333333,0.91353333333333,5
COM6,508,19-Jul-18,2018-07-19 11:00:00,1.8673833333333,1.5208833333333,1.35065,1.2648,1.146,0.97048333333333,0.9833,5
COM6,508,19-Jul-18,2018-07-19 12:00:00,1.2753666666666998,0.96751666666667,0.83428333333333,0.75918333333333,0.6707,0.53695,0.54058333333333,5
COM6,508,19-Jul-18,2018-07-19 13:00:00,0.98575,0.70971666666667,0.59761666666667,0.5377,0.4695,0.35858333333333,0.36165,5
COM6,508,19-Jul-18,2018-07-19 14:00:00,0.88036666666667,0.83361666666667,0.80003333333333,0.79213333333333,0.76015,0.70655,0.71953333333333,5
COM6,508,19-Jul-18,2018-07-19 15:00:00,0.78316666666667,0.60223333333333,0.53053333333333,0.48815,0.44411666666667,0.36153333333333,0.36741666666667,5
COM6,508,19-Jul-18,2018-07-19 16:00:00,0.5578166666666701,0.40086666666667,0.34299999999999997,0.30883333333333,0.26995,0.20008333333332998,0.2051,5
COM6,508,19-Jul-18,2018-07-19 17:00:00,0.55296666666667,0.40983333333333,0.34905,0.31585,0.27699999999999997,0.213,0.217,5
COM6,508,19-Jul-18,2018-07-19 18:00:00,0.67431666666667,0.51011666666667,0.44573333333333,0.41243333333333,0.37265,0.32071666666667,0.32381666666666997,5
COM6,508,19-Jul-18,2018-07-19 19:00:00,0.64691666666667,0.51093333333333,0.4528,0.42528333333333,0.38418333333333,0.31845,0.32106666666667,5
COM6,508,19-Jul-18,2018-07-19 20:00:00,0.54926666666667,0.40105,0.34291666666667,0.30696666666667,0.26825,0.20866666666667003,0.20941666666667003,5
COM6,508,19-Jul-18,2018-07-19 21:00:00,0.62935,0.46655,0.40051666666667,0.36913333333333,0.32253333333333,0.26798333333332996,0.2695,5
COM6,508,19-Jul-18,2018-07-19 22:00:00,0.34671666666667,0.355,0.35268333333333,0.36201666666667,0.35445,0.34931666666667,0.3553,5
COM6,508,19-Jul-18,2018-07-19 23:00:00,0.29554237288136,0.32325423728814,0.32871186440678,0.34477966101695,0.34969491525423996,0.359,0.36994915254237,5
