COM6,508,07-Apr-19,2019-04-07 00:00:00,0.064050847457627,0.045711864406779996,0.039644067796610005,0.036016949152542,0.033186440677966,0.029661016949152998,0.030271186440677996,5
COM6,508,07-Apr-19,2019-04-07 01:00:00,0.045916666666666994,0.040783333333333,0.03725,0.0341,0.030733333333332995,0.028666666666667007,0.028666666666667007,5
COM6,508,07-Apr-19,2019-04-07 02:00:00,0.13388333333333,0.08288333333333299,0.06953333333333299,0.06086666666666699,0.052883333333333005,0.04568333333333301,0.046216666666666996,5
COM6,508,07-Apr-19,2019-04-07 03:00:00,0.054133333333333006,0.0559,0.052583333333333,0.048016666666667,0.045033333333333,0.041283333333333,0.042366666666667,5
COM6,508,07-Apr-19,2019-04-07 04:00:00,0.081183333333333,0.07268333333333299,0.06615,0.062766666666667,0.058566666666666996,0.0534,0.05436666666666699,5
COM6,508,07-Apr-19,2019-04-07 05:00:00,0.18551666666667002,0.1408,0.12541666666667,0.1138,0.10328333333333001,0.09215,0.094333333333333,5
COM6,508,07-Apr-19,2019-04-07 06:00:00,0.25335,0.18611666666667004,0.16808333333332998,0.15196666666667002,0.14083333333332998,0.12968333333333001,0.1332,5
COM6,508,07-Apr-19,2019-04-07 07:00:00,0.41131666666667,0.41526666666667,0.39578333333333,0.38986666666666997,0.37685,0.36611666666667,0.3771,5
COM6,508,07-Apr-19,2019-04-07 08:00:00,0.63028333333333,0.6304666666666701,0.60108333333333,0.5944,0.5776333333333299,0.55915,0.57588333333333,5
COM6,508,07-Apr-19,2019-04-07 09:00:00,0.49436666666667,0.49518333333333,0.47036666666667,0.46545,0.45056666666667,0.43316666666667,0.44628333333333,5
COM6,508,07-Apr-19,2019-04-07 10:00:00,0.21723333333332998,0.22548333333332995,0.21533333333332996,0.21493333333332998,0.20838333333332998,0.20133333333332998,0.20755,5
COM6,508,07-Apr-19,2019-04-07 11:00:00,0.11466666666667,0.12026666666666999,0.1143,0.1148,0.11066666666667,0.10681666666666999,0.11041666666667,5
COM6,508,07-Apr-19,2019-04-07 12:00:00,0.12016666666666999,0.12191666666666999,0.11688333333333001,0.11676666666666999,0.1139,0.1123,0.11548333333333001,5
COM6,508,07-Apr-19,2019-04-07 13:00:00,0.17266666666667002,0.17455,0.166,0.1651,0.15933333333333,0.15175,0.156,5
COM6,508,07-Apr-19,2019-04-07 14:00:00,0.1248,0.12336666666667,0.11696666666667,0.11423333333333001,0.11063333333333,0.10416666666666999,0.10646666666667,5
COM6,508,07-Apr-19,2019-04-07 15:00:00,0.0707,0.07353333333333299,0.070233333333333,0.07046666666666701,0.0687,0.06385,0.0661,5
COM6,508,07-Apr-19,2019-04-07 16:00:00,0.048583333333333006,0.0516,0.049416666666667,0.0489,0.047416666666666996,0.045133333333333005,0.046533333333333,5
COM6,508,07-Apr-19,2019-04-07 17:00:00,0.073583333333333,0.07243333333333299,0.06845,0.067016666666667,0.06493333333333301,0.06065,0.062316666666667,5
COM6,508,07-Apr-19,2019-04-07 18:00:00,0.09855,0.092233333333333,0.08603333333333299,0.08395,0.080616666666667,0.076216666666667,0.078116666666667,5
COM6,508,07-Apr-19,2019-04-07 19:00:00,0.17728333333332996,0.15291666666667,0.1393,0.13278333333333,0.12616666666667,0.11383333333333001,0.11663333333333001,5
COM6,508,07-Apr-19,2019-04-07 20:00:00,0.14943333333332998,0.1383,0.12968333333333001,0.12625,0.1207,0.11465,0.11781666666667,5
COM6,508,07-Apr-19,2019-04-07 21:00:00,0.19346666666667003,0.16656666666667003,0.15466666666667,0.15053333333333,0.14416666666667002,0.1363,0.14015,5
COM6,508,07-Apr-19,2019-04-07 22:00:00,0.6112,0.39485,0.33973333333333,0.30583333333333,0.27985,0.24741666666667003,0.25218333333333,5
COM6,508,07-Apr-19,2019-04-07 23:00:00,1.0917543859649,0.72443859649123,0.62545614035088,0.57461403508772,0.5252982456140399,0.45278947368421,0.46061403508772003,5
