COM4,508,17-Jul-19,2019-07-17 00:00:00,0.61889830508475,0.62433898305085,0.60449152542373,0.6064406779661,0.59745762711864,0.5850338983050799,0.60116949152542,5
COM4,508,17-Jul-19,2019-07-17 01:00:00,0.4715,0.45936666666667,0.43716666666667,0.43278333333333,0.42001666666667,0.3973,0.40863333333333,5
COM4,508,17-Jul-19,2019-07-17 02:00:00,0.4462,0.45733333333333,0.44483333333333,0.44651666666667,0.44068333333333,0.43655,0.44995,5
COM4,508,17-Jul-19,2019-07-17 03:00:00,0.41725,0.41151666666667,0.3926,0.38955,0.37831666666667,0.35928333333333,0.36981666666667,5
COM4,508,17-Jul-19,2019-07-17 04:00:00,0.7749,0.7585833333333301,0.72378333333333,0.71825,0.69831666666667,0.67245,0.69171666666667,5
COM4,508,17-Jul-19,2019-07-17 05:00:00,0.54893333333333,0.55221666666667,0.52696666666667,0.52355,0.50686666666667,0.48078333333333,0.49445,5
COM4,508,17-Jul-19,2019-07-17 06:00:00,0.50953333333333,0.53205,0.51395,0.51386666666667,0.5029,0.48768333333333,0.50231666666667,5
COM4,508,17-Jul-19,2019-07-17 07:00:00,0.84215,0.84558333333333,0.80688333333333,0.80013333333333,0.77538333333333,0.74131666666667,0.7619,5
COM4,508,17-Jul-19,2019-07-17 08:00:00,1.0846333333333,1.0659333333333,1.0055166666667,0.99008333333333,0.95148333333333,0.89825,0.92168333333333,5
COM4,508,17-Jul-19,2019-07-17 09:00:00,0.85026666666667,0.82995,0.78158333333333,0.76971666666667,0.7390000000000001,0.6977,0.71526666666667,5
COM4,508,17-Jul-19,2019-07-17 10:00:00,0.72008333333333,0.7025,0.66168333333333,0.6513333333333299,0.6251,0.5868166666666701,0.6012166666666701,5
COM4,508,17-Jul-19,2019-07-17 11:00:00,0.6098666666666701,0.5858,0.5502833333333299,0.53986666666667,0.51513333333333,0.48048333333333,0.49026666666667,5
COM4,508,17-Jul-19,2019-07-17 12:00:00,0.3899,0.38138333333333,0.36171666666667,0.35451666666667,0.34418333333333,0.32123333333333,0.33051666666667,5
COM4,508,17-Jul-19,2019-07-17 13:00:00,0.5942833333333299,0.5711333333333299,0.53435,0.52263333333333,0.4964,0.45835,0.469,5
COM4,508,17-Jul-19,2019-07-17 14:00:00,0.74128333333333,0.71663333333333,0.67171666666667,0.6601666666666701,0.6261166666666701,0.5805,0.59308333333333,5
COM4,508,17-Jul-19,2019-07-17 15:00:00,0.6293,0.6199666666666701,0.5862,0.5786666666666701,0.55288333333333,0.5164,0.52823333333333,5
COM4,508,17-Jul-19,2019-07-17 16:00:00,0.41698333333333,0.39358333333333,0.36545,0.35356666666666997,0.33806666666667,0.30438333333333,0.31148333333333,5
COM4,508,17-Jul-19,2019-07-17 17:00:00,0.34673333333333,0.33178333333333,0.31346666666667,0.30456666666667,0.29396666666667,0.27195,0.27948333333333003,5
COM4,508,17-Jul-19,2019-07-17 18:00:00,0.3319,0.30843333333333,0.28581666666667,0.27553333333333,0.26181666666667003,0.23663333333332998,0.24265,5
COM4,508,17-Jul-19,2019-07-17 19:00:00,0.36836666666667,0.33636666666667,0.31103333333333,0.29975,0.28538333333333,0.2605,0.26608333333332995,5
COM4,508,17-Jul-19,2019-07-17 20:00:00,0.81745,0.5935333333333299,0.49795,0.45248333333333,0.40153333333333,0.3291,0.33343333333333003,5
COM4,508,17-Jul-19,2019-07-17 21:00:00,1.0348,0.71475,0.59013333333333,0.52301666666667,0.46096666666667,0.37161666666667,0.37445,5
COM4,508,17-Jul-19,2019-07-17 22:00:00,0.54116666666667,0.43083333333333,0.37463333333333,0.3506,0.31691666666667,0.26855,0.27203333333332996,5
COM4,508,17-Jul-19,2019-07-17 23:00:00,0.46253333333333,0.40031666666667,0.3612,0.34081666666667,0.31498333333333,0.27628333333333,0.28133333333333,5
