COM6,508,09-Jan-18,2018-01-09 00:00:00,1.1643559322033998,0.9534745762711899,0.87342372881356,0.8403728813559301,0.77835593220339,0.70664406779661,0.72313559322034,5.0
COM6,508,09-Jan-18,2018-01-09 01:00:00,0.66505,0.5838,0.53573333333333,0.52158333333333,0.47896666666667,0.43808333333333,0.44471666666667,5.0
COM6,508,09-Jan-18,2018-01-09 02:00:00,0.95253333333333,0.83106666666667,0.76428333333333,0.74013333333333,0.6877,0.6328833333333299,0.6452,5.0
COM6,508,09-Jan-18,2018-01-09 03:00:00,0.9556,0.94025,0.88606666666667,0.87088333333333,0.8142,0.75695,0.77333333333333,5.0
COM6,508,09-Jan-18,2018-01-09 04:00:00,0.76338333333333,0.7346,0.68476666666667,0.6705,0.62118333333333,0.57193333333333,0.5825833333333299,5.0
COM6,508,09-Jan-18,2018-01-09 05:00:00,0.43681666666667,0.4209,0.39693333333333003,0.38933333333333,0.36026666666667,0.3322,0.33601666666667,5.0
COM6,508,09-Jan-18,2018-01-09 06:00:00,0.63025,0.56083333333333,0.51446666666667,0.49666666666667,0.4557,0.41005,0.41505,5.0
COM6,508,09-Jan-18,2018-01-09 07:00:00,2.0770333333333,1.848,1.70025,1.6325666666667,1.5081,1.3589666666667,1.3848333333333,5.0
COM6,508,09-Jan-18,2018-01-09 08:00:00,1.19925,1.03125,0.94591666666667,0.909,0.83448333333333,0.74576666666667,0.75738333333333,5.0
COM6,508,09-Jan-18,2018-01-09 09:00:00,1.4020166666667,1.2751,1.2181833333333,1.1994333333333,1.1661333333333002,1.1294,1.1685,4.6666666666667
COM6,508,09-Jan-18,2018-01-09 10:00:00,0.53915,0.44538333333333,0.42845,0.42501666666667,0.41226666666667,0.39835,0.40898333333333,5.0
COM6,508,09-Jan-18,2018-01-09 11:00:00,0.11888333333333001,0.12803333333333,0.12395,0.12553333333333,0.11966666666666999,0.11978333333333001,0.1233,5.0
COM6,508,09-Jan-18,2018-01-09 12:00:00,0.1661,0.19336666666667005,0.18358333333332996,0.18135,0.17461666666667003,0.1656,0.16976666666667004,5.0
COM6,508,09-Jan-18,2018-01-09 13:00:00,0.27988333333333,0.30476666666667,0.29321666666667,0.28838333333333,0.28411666666667,0.27448333333332997,0.28448333333333,5.0
COM6,508,09-Jan-18,2018-01-09 14:00:00,0.22773333333332996,0.24616666666667003,0.2369,0.2333,0.22911666666667002,0.22153333333332997,0.23028333333332998,5.0
COM6,508,09-Jan-18,2018-01-09 15:00:00,0.20313333333332997,0.2131,0.20396666666667004,0.19998333333332996,0.19621666666667004,0.18803333333332997,0.19403333333332998,5.0
COM6,508,09-Jan-18,2018-01-09 16:00:00,0.3654,0.36058333333333,0.34321666666667,0.33545,0.3271,0.31106666666667,0.32248333333333,5.0
COM6,508,09-Jan-18,2018-01-09 17:00:00,0.23188333333332997,0.23393333333332997,0.22275,0.21995,0.2116,0.2028,0.20833333333332996,5.0
COM6,508,09-Jan-18,2018-01-09 18:00:00,0.14953333333333,0.15093333333332998,0.1432,0.14015,0.13643333333333,0.13058333333333,0.13483333333333,5.0
COM6,508,09-Jan-18,2018-01-09 19:00:00,0.18906666666667002,0.174,0.16365,0.16091666666667,0.15353333333333,0.1461,0.1505,5.0
COM6,508,09-Jan-18,2018-01-09 20:00:00,0.14673333333333,0.13476666666667,0.12663333333333002,0.12253333333333001,0.11831666666667,0.11156666666666999,0.11481666666667,5.0
COM6,508,09-Jan-18,2018-01-09 21:00:00,0.15411666666667,0.14761666666667,0.13916666666667002,0.1349,0.12921666666667,0.12383333333333,0.12675,5.0
COM6,508,09-Jan-18,2018-01-09 22:00:00,0.5602833333333299,0.53936666666667,0.51296666666667,0.50356666666667,0.48906666666667,0.46693333333333,0.4825,5.0
COM6,508,09-Jan-18,2018-01-09 23:00:00,0.5901090909090899,0.5538181818181801,0.52361818181818,0.51283636363636,0.49534545454545,0.47370909090909,0.48736363636364,5.0
