COM6,508,28-Nov-17,2017-11-28 00:00:00,0.10106779661017001,0.096033898305085,0.08340677966101699,0.083898305084746,0.07172881355932201,0.067101694915254,0.06686440677966099,5.0
COM6,508,28-Nov-17,2017-11-28 01:00:00,0.064333333333333,0.0774,0.069733333333333,0.0717,0.05966666666666699,0.0575,0.055783333333333004,5.0
COM6,508,28-Nov-17,2017-11-28 02:00:00,0.012,0.03665,0.031283333333333,0.040533333333333,0.028166666666667006,0.035766666666667,0.03485,5.0
COM6,508,28-Nov-17,2017-11-28 03:00:00,0.027166666666667005,0.046533333333333,0.042583333333333,0.048083333333333006,0.035,0.0424,0.039866666666667,5.0
COM6,508,28-Nov-17,2017-11-28 04:00:00,0.040033333333333,0.050166666666667,0.04215,0.04763333333333301,0.03595,0.0419,0.039283333333333,5.0
COM6,508,28-Nov-17,2017-11-28 05:00:00,0.12705,0.11618333333333,0.10583333333333,0.10465,0.09331666666666699,0.08805,0.08775,5.0
COM6,508,28-Nov-17,2017-11-28 06:00:00,0.38645,0.34585,0.31281666666667,0.30235,0.2769,0.25396666666667,0.26028333333333,5.0
COM6,508,28-Nov-17,2017-11-28 07:00:00,0.95593333333333,0.87496666666667,0.79855,0.77193333333333,0.71736666666667,0.6641833333333299,0.68041666666667,5.0
COM6,508,28-Nov-17,2017-11-28 08:00:00,0.86695,0.79336666666667,0.72676666666667,0.69846666666667,0.6514166666666701,0.5968666666666701,0.61055,5.0
COM6,508,28-Nov-17,2017-11-28 09:00:00,0.42256666666667,0.40326666666667,0.36765,0.35046666666667,0.3275,0.29571666666667,0.30345,5.0
COM6,508,28-Nov-17,2017-11-28 10:00:00,0.93015,0.85743333333333,0.7833,0.75028333333333,0.70226666666667,0.64715,0.6644,5.0
COM6,508,28-Nov-17,2017-11-28 11:00:00,0.70466666666667,0.6541333333333299,0.5974333333333299,0.5744333333333299,0.53735,0.49321666666666997,0.50596666666667,5.0
COM6,508,28-Nov-17,2017-11-28 12:00:00,0.69386666666667,0.6610333333333299,0.6105,0.5903833333333299,0.5511333333333299,0.50848333333333,0.51996666666667,5.0
COM6,508,28-Nov-17,2017-11-28 13:00:00,1.0011833333333,0.9374,0.86346666666667,0.83481666666667,0.7829999999999999,0.7223,0.74106666666667,5.0
COM6,508,28-Nov-17,2017-11-28 14:00:00,0.8664333333333301,0.80311666666667,0.74116666666667,0.71145,0.6692333333333299,0.61355,0.62935,5.0
COM6,508,28-Nov-17,2017-11-28 15:00:00,0.7715,0.71931666666667,0.67255,0.6542666666666701,0.62555,0.5846166666666701,0.6068,4.6666666666667
COM6,508,28-Nov-17,2017-11-28 16:00:00,0.7249,0.6186833333333299,0.5924333333333299,0.5846333333333299,0.57065,0.5556,0.5748166666666701,5.0
COM6,508,28-Nov-17,2017-11-28 17:00:00,0.6652333333333299,0.5900166666666701,0.5573,0.54678333333333,0.5279,0.50776666666667,0.52271666666667,5.0
COM6,508,28-Nov-17,2017-11-28 18:00:00,1.3467666666667,1.29845,1.22245,1.196,1.1484,1.09485,1.1248166666666999,5.0
COM6,508,28-Nov-17,2017-11-28 19:00:00,1.76565,1.6322333333333001,1.5301166666666999,1.4928666666666999,1.4309166666667,1.3710833333333001,1.4104166666667,5.0
COM6,508,28-Nov-17,2017-11-28 20:00:00,1.6599166666667,1.6928666666667,1.6317333333333,1.6249,1.5817333333333001,1.5667333333333,1.6171166666666998,5.0
COM6,508,28-Nov-17,2017-11-28 21:00:00,2.0003,1.9734166666667,1.9049166666667,1.9039666666667,1.8520333333333001,1.8398166666667,1.90025,5.0
COM6,508,28-Nov-17,2017-11-28 22:00:00,1.40915,1.2996333333333001,1.2279833333333001,1.2050166666667,1.1459333333333002,1.09565,1.1232666666667,5.0
COM6,508,28-Nov-17,2017-11-28 23:00:00,1.5261090909091002,1.3770363636363998,1.2894727272727,1.2571272727273002,1.1900363636364,1.1242727272727,1.1495818181818,5.0
