COM6,0508,02-Dec-18,2018-12-02 00:00:00,0.41476271186441,0.35164406779661,0.32054237288136,0.31274576271186,0.28805084745763,0.26813559322034,0.27235593220339,5,0,0,0,0,0,0,0,0,0,0,0,0,0,0,0,0,0,0,0,0,0,0,0,0,0,0,0,0,0,0,0,0,0,0,0,0,0,0,0,0,0,0
COM6,0508,02-Dec-18,2018-12-02 01:00:00,0.47353333333333,0.39786666666667,0.36178333333333,0.35231666666667,0.32826666666667,0.30543333333333,0.3112,5,0,0,0,0,0,0,0,0,0,0,0,0,0,0,0,0,0,0,0,0,0,0,0,0,0,0,0,0,0,0,0,0,0,0,0,0,0,0,0,0,0,0
COM6,0508,02-Dec-18,2018-12-02 02:00:00,0.21541666666667,0.1907,0.17438333333333,0.1688,0.15585,0.14481666666667,0.14833333333333,5,0,0,0,0,0,0,0,0,0,0,0,0,0,0,0,0,0,0,0,0,0,0,0,0,0,0,0,0,0,0,0,0,0,0,0,0,0,0,0,0,0,0
COM6,0508,02-Dec-18,2018-12-02 03:00:00,0.3198,0.27915,0.25401666666667,0.24561666666667,0.22888333333333,0.21085,0.21371666666667,5,0,0,0,0,0,0,0,0,0,0,0,0,0,0,0,0,0,0,0,0,0,0,0,0,0,0,0,0,0,0,0,0,0,0,0,0,0,0,0,0,0,0
COM6,0508,02-Dec-18,2018-12-02 04:00:00,0.178,0.16581666666667,0.15186666666667,0.14645,0.13793333333333,0.12856666666667,0.12963333333333,5,0,0,0,0,0,0,0,0,0,0,0,0,0,0,0,0,0,0,0,0,0,0,0,0,0,0,0,0,0,0,0,0,0,0,0,0,0,0,0,0,0,0
COM6,0508,02-Dec-18,2018-12-02 05:00:00,0.226,0.20633333333333,0.19106666666667,0.18665,0.17391666666667,0.15988333333333,0.16271666666667,5,0,0,0,0,0,0,0,0,0,0,0,0,0,0,0,0,0,0,0,0,0,0,0,0,0,0,0,0,0,0,0,0,0,0,0,0,0,0,0,0,0,0
COM6,0508,02-Dec-18,2018-12-02 06:00:00,0.18421666666667,0.17558333333333,0.1644,0.15993333333333,0.15101666666667,0.14166666666667,0.1447,5,0,0,0,0,0,0,0,0,0,0,0,0,0,0,0,0,0,0,0,0,0,0,0,0,0,0,0,0,0,0,0,0,0,0,0,0,0,0,0,0,0,0
COM6,0508,02-Dec-18,2018-12-02 07:00:00,0.1561,0.15043333333333,0.13946666666667,0.13778333333333,0.1279,0.11951666666667,0.12118333333333,5,0,0,0,0,0,0,0,0,0,0,0,0,0,0,0,0,0,0,0,0,0,0,0,0,0,0,0,0,0,0,0,0,0,0,0,0,0,0,0,0,0,0
COM6,0508,02-Dec-18,2018-12-02 08:00:00,0.16923333333333,0.16155,0.1511,0.14851666666667,0.1392,0.13331666666667,0.13586666666667,5,0,0,0,0,0,0,0,0,0,0,0,0,0,0,0,0,0,0,0,0,0,0,0,0,0,0,0,0,0,0,0,0,0,0,0,0,0,0,0,0,0,0
COM6,0508,02-Dec-18,2018-12-02 09:00:00,0.21988333333333,0.19866666666667,0.18078333333333,0.17856666666667,0.16661666666667,0.15678333333333,0.16021666666667,5,0,0,0,0,0,0,0,0,0,0,0,0,0,0,0,0,0,0,0,0,0,0,0,0,0,0,0,0,0,0,0,0,0,0,0,0,0,0,0,0,0,0
COM6,0508,02-Dec-18,2018-12-02 10:00:00,0.23458333333333,0.19883333333333,0.18071666666667,0.17498333333333,0.1636,0.15358333333333,0.15663333333333,5,0,0,0,0,0,0,0,0,0,0,0,0,0,0,0,0,0,0,0,0,0,0,0,0,0,0,0,0,0,0,0,0,0,0,0,0,0,0,0,0,0,0
COM6,0508,02-Dec-18,2018-12-02 11:00:00,0.14876666666667,0.13065,0.11891666666667,0.11433333333333,0.10546666666667,0.09605,0.097833333333333,5,0,0,0,0,0,0,0,0,0,0,0,0,0,0,0,0,0,0,0,0,0,0,0,0,0,0,0,0,0,0,0,0,0,0,0,0,0,0,0,0,0,0
COM6,0508,02-Dec-18,2018-12-02 12:00:00,0.18303333333333,0.15865,0.14525,0.13963333333333,0.13026666666667,0.11716666666667,0.11875,5,0,0,0,0,0,0,0,0,0,0,0,0,0,0,0,0,0,0,0,0,0,0,0,0,0,0,0,0,0,0,0,0,0,0,0,0,0,0,0,0,0,0
COM6,0508,02-Dec-18,2018-12-02 13:00:00,0.21488333333333,0.1854,0.17005,0.16285,0.1504,0.13683333333333,0.13938333333333,5,0,0,0,0,0,0,0,0,0,0,0,0,0,0,0,0,0,0,0,0,0,0,0,0,0,0,0,0,0,0,0,0,0,0,0,0,0,0,0,0,0,0
COM6,0508,02-Dec-18,2018-12-02 14:00:00,0.28498333333333,0.2556,0.2356,0.22936666666667,0.21511666666667,0.19568333333333,0.19771666666667,5,0,0,0,0,0,0,0,0,0,0,0,0,0,0,0,0,0,0,0,0,0,0,0,0,0,0,0,0,0,0,0,0,0,0,0,0,0,0,0,0,0,0
COM6,0508,02-Dec-18,2018-12-02 15:00:00,0.2997,0.27411666666667,0.25478333333333,0.24643333333333,0.23198333333333,0.21558333333333,0.21983333333333,5,0,0,0,0,0,0,0,0,0,0,0,0,0,0,0,0,0,0,0,0,0,0,0,0,0,0,0,0,0,0,0,0,0,0,0,0,0,0,0,0,0,0
COM6,0508,02-Dec-18,2018-12-02 16:00:00,0.39978333333333,0.36575,0.34033333333333,0.33258333333333,0.31436666666667,0.29156666666667,0.29831666666667,5,0,0,0,0,0,0,0,0,0,0,0,0,0,0,0,0,0,0,0,0,0,0,0,0,0,0,0,0,0,0,0,0,0,0,0,0,0,0,0,0,0,0
COM6,0508,02-Dec-18,2018-12-02 17:00:00,0.32083333333333,0.2734,0.2503,0.24316666666667,0.2257,0.20555,0.20903333333333,5,0,0,0,0,0,0,0,0,0,0,0,0,0,0,0,0,0,0,0,0,0,0,0,0,0,0,0,0,0,0,0,0,0,0,0,0,0,0,0,0,0,0
COM6,0508,02-Dec-18,2018-12-02 18:00:00,0.30378333333333,0.27361666666667,0.25238333333333,0.24578333333333,0.23086666666667,0.21315,0.21643333333333,5,0,0,0,0,0,0,0,0,0,0,0,0,0,0,0,0,0,0,0,0,0,0,0,0,0,0,0,0,0,0,0,0,0,0,0,0,0,0,0,0,0,0
COM6,0508,02-Dec-18,2018-12-02 19:00:00,0.26265,0.21603333333333,0.19763333333333,0.18815,0.17563333333333,0.16003333333333,0.16253333333333,5,0,0,0,0,0,0,0,0,0,0,0,0,0,0,0,0,0,0,0,0,0,0,0,0,0,0,0,0,0,0,0,0,0,0,0,0,0,0,0,0,0,0
COM6,0508,02-Dec-18,2018-12-02 20:00:00,0.3573,0.26771666666667,0.23215,0.21785,0.19895,0.17445,0.17753333333333,5,0,0,0,0,0,0,0,0,0,0,0,0,0,0,0,0,0,0,0,0,0,0,0,0,0,0,0,0,0,0,0,0,0,0,0,0,0,0,0,0,0,0
COM6,0508,02-Dec-18,2018-12-02 21:00:00,0.27923333333333,0.2472,0.22723333333333,0.22046666666667,0.20738333333333,0.1893,0.19281666666667,5,0,0,0,0,0,0,0,0,0,0,0,0,0,0,0,0,0,0,0,0,0,0,0,0,0,0,0,0,0,0,0,0,0,0,0,0,0,0,0,0,0,0
COM6,0508,02-Dec-18,2018-12-02 22:00:00,0.23825,0.2164,0.20025,0.1952,0.1829,0.17135,0.17455,5,0,0,0,0,0,0,0,0,0,0,0,0,0,0,0,0,0,0,0,0,0,0,0,0,0,0,0,0,0,0,0,0,0,0,0,0,0,0,0,0,0,0
COM6,0508,02-Dec-18,2018-12-02 23:00:00,0.15972413793103,0.15144827586207,0.14006896551724,0.13818965517241,0.12991379310345,0.12251724137931,0.12541379310345,5,0,0,0,0,0,0,0,0,0,0,0,0,0,0,0,0,0,0,0,0,0,0,0,0,0,0,0,0,0,0,0,0,0,0,0,0,0,0,0,0,0,0
