COM6,508,18-Sep-18,2018-09-18 00:00:00,0.9604067796610201,0.98638983050847,0.95094915254237,0.9493050847457599,0.92916949152542,0.91725423728814,0.9473389830508501,5
COM6,508,18-Sep-18,2018-09-18 01:00:00,0.61735,0.6299666666666701,0.6063833333333299,0.6072666666666701,0.5916666666666701,0.5838666666666701,0.60233333333333,5
COM6,508,18-Sep-18,2018-09-18 02:00:00,0.47445,0.49286666666667,0.4781,0.48261666666666997,0.47075,0.46633333333333,0.48185,5
COM6,508,18-Sep-18,2018-09-18 03:00:00,0.11245,0.11203333333333,0.10803333333333001,0.10783333333333,0.10503333333333001,0.10571666666667,0.10856666666666999,5
COM6,508,18-Sep-18,2018-09-18 04:00:00,0.13863333333333,0.12993333333333001,0.12305,0.12313333333333,0.11763333333333001,0.11558333333333,0.11805,5
COM6,508,18-Sep-18,2018-09-18 05:00:00,0.22685,0.2142,0.20313333333332997,0.20253333333332996,0.19671666666667004,0.19061666666667004,0.19641666666667004,5
COM6,508,18-Sep-18,2018-09-18 06:00:00,0.36166666666666997,0.36386666666667,0.35108333333333,0.35191666666667,0.34551666666666997,0.34495,0.35766666666667,5
COM6,508,18-Sep-18,2018-09-18 07:00:00,0.35578333333333,0.35591666666667,0.34145,0.34243333333333,0.3339,0.33721666666667,0.34873333333333,5
COM6,508,18-Sep-18,2018-09-18 08:00:00,1.0506166666666998,1.0891166666667,1.0536,1.0627,1.0430833333333,1.0491833333333,1.0869166666666998,5
COM6,508,18-Sep-18,2018-09-18 09:00:00,0.46823333333333,0.39866666666667,0.3616,0.35121666666667,0.33196666666667,0.31746666666667,0.32581666666667,5
COM6,508,18-Sep-18,2018-09-18 10:00:00,0.48503333333333,0.40231666666667,0.36178333333333,0.34846666666667,0.32985,0.31116666666667,0.31925,5
COM6,508,18-Sep-18,2018-09-18 11:00:00,0.3992,0.35008333333333,0.32146666666667,0.31513333333333,0.30125,0.29026666666667,0.29823333333333,5
COM6,508,18-Sep-18,2018-09-18 12:00:00,0.29978333333333,0.26535,0.24585,0.23986666666667003,0.23078333333332998,0.22475,0.23213333333332997,5
COM6,508,18-Sep-18,2018-09-18 13:00:00,0.25971666666667004,0.24896666666667003,0.23775,0.23615,0.23098333333332996,0.22251666666667003,0.23091666666667005,5
COM6,508,18-Sep-18,2018-09-18 14:00:00,0.15436666666667,0.15838333333333,0.15408333333333,0.1536,0.15366666666667,0.14978333333333,0.15741666666667,5
COM6,508,18-Sep-18,2018-09-18 15:00:00,0.16488333333333,0.17436666666667003,0.1706,0.17215,0.1716,0.17056666666667003,0.17888333333332998,5
COM6,508,18-Sep-18,2018-09-18 16:00:00,0.15963333333333,0.16573333333332999,0.16223333333332998,0.16103333333332998,0.16346666666667,0.16356666666667002,0.1717,5
COM6,508,18-Sep-18,2018-09-18 17:00:00,0.24476666666667002,0.26503333333332996,0.26051666666667,0.26385,0.26233333333333,0.26855,0.28061666666667,5
COM6,508,18-Sep-18,2018-09-18 18:00:00,0.3876,0.41243333333333,0.40248333333333003,0.40745,0.40226666666667,0.40823333333333,0.42431666666667,5
COM6,508,18-Sep-18,2018-09-18 19:00:00,0.16433333333333,0.16338333333333,0.1554,0.154,0.14835,0.13763333333333,0.14268333333333,5
COM6,508,18-Sep-18,2018-09-18 20:00:00,0.08465,0.08295,0.07718333333333299,0.07891666666666701,0.07425,0.07906666666666701,0.08033333333333299,5
COM6,508,18-Sep-18,2018-09-18 21:00:00,0.09418333333333301,0.09456666666666699,0.090466666666667,0.09063333333333301,0.08845,0.09658333333333301,0.09936666666666699,5
COM6,508,18-Sep-18,2018-09-18 22:00:00,0.61335,0.65885,0.64555,0.65558333333333,0.64681666666667,0.65858333333333,0.6828,5
COM6,508,18-Sep-18,2018-09-18 23:00:00,0.57645762711864,0.62464406779661,0.6138813559322,0.62393220338983,0.6140338983050799,0.61586440677966,0.6364576271186401,5
