COM6,508,11-Nov-17,2017-11-11 00:00:00,1.3518983050847,1.2176610169492,1.1084915254237,1.073593220339,0.9944067796610201,0.9216101694915301,0.9428135593220301,5.0
COM6,508,11-Nov-17,2017-11-11 01:00:00,0.96545,0.9883,0.9108,0.89131666666667,0.83256666666667,0.78776666666667,0.80665,5.0
COM6,508,11-Nov-17,2017-11-11 02:00:00,0.58531666666667,0.5942,0.54043333333333,0.52696666666667,0.48395,0.44906666666667,0.4558,5.0
COM6,508,11-Nov-17,2017-11-11 03:00:00,0.6537,0.6659,0.6133166666666701,0.5998333333333299,0.5515666666666701,0.5152,0.52231666666667,5.0
COM6,508,11-Nov-17,2017-11-11 04:00:00,1.8568166666666999,1.6855,1.5662833333333002,1.5257,1.4496666666667,1.3735,1.4110166666667,4.6666666666667
COM6,508,11-Nov-17,2017-11-11 05:00:00,1.57445,1.4421833333333,1.3671833333333,1.3476666666666999,1.3009666666667,1.2589333333333002,1.29495,5.0
COM6,508,11-Nov-17,2017-11-11 06:00:00,1.0241166666666999,0.9943,0.9491,0.93773333333333,0.90261666666667,0.86415,0.88551666666667,5.0
COM6,508,11-Nov-17,2017-11-11 07:00:00,1.24575,1.2462833333333,1.1888166666667,1.1762833333333,1.1410166666666999,1.1077833333333,1.1392166666666999,5.0
COM6,508,11-Nov-17,2017-11-11 08:00:00,1.7759,1.7578833333333002,1.67395,1.6545,1.6008666666667,1.5443166666666999,1.5881666666667,5.0
COM6,508,11-Nov-17,2017-11-11 09:00:00,1.83145,1.8226,1.7410166666667,1.7235166666667,1.6712,1.6162833333333,1.6651166666666999,5.0
COM6,508,11-Nov-17,2017-11-11 10:00:00,0.94628333333333,0.95796666666667,0.91833333333333,0.91038333333333,0.88066666666667,0.85201666666667,0.87601666666667,5.0
COM6,508,11-Nov-17,2017-11-11 11:00:00,0.41926666666667,0.42615,0.40645,0.40293333333333,0.38658333333333,0.371,0.38236666666667,5.0
COM6,508,11-Nov-17,2017-11-11 12:00:00,0.1656,0.17811666666667003,0.16996666666667004,0.1677,0.1603,0.15171666666667002,0.15555,5.0
COM6,508,11-Nov-17,2017-11-11 13:00:00,0.13236666666667,0.13441666666667,0.129,0.12701666666667,0.12171666666667,0.11365,0.11751666666666999,5.0
COM6,508,11-Nov-17,2017-11-11 14:00:00,0.12238333333333,0.11563333333333001,0.11035,0.10646666666667,0.10558333333333,0.1019,0.10628333333333001,5.0
COM6,508,11-Nov-17,2017-11-11 15:00:00,0.1596,0.15025,0.14246666666667002,0.13783333333332998,0.13448333333333,0.12645,0.1309,5.0
COM6,508,11-Nov-17,2017-11-11 16:00:00,0.22288333333332996,0.21013333333332998,0.1992,0.1927,0.1875,0.17581666666667004,0.1827,5.0
COM6,508,11-Nov-17,2017-11-11 17:00:00,0.39668333333333,0.36083333333333,0.3381,0.32623333333333,0.3141,0.2935,0.30396666666667,5.0
COM6,508,11-Nov-17,2017-11-11 18:00:00,0.84098333333333,0.64433333333333,0.5846,0.5574333333333299,0.52456666666667,0.47861666666667,0.49331666666667,5.0
COM6,508,11-Nov-17,2017-11-11 19:00:00,1.8611333333333,1.2889166666667,1.15025,1.0851,1.0117,0.91576666666667,0.93948333333333,5.0
COM6,508,11-Nov-17,2017-11-11 20:00:00,1.2467833333333,0.8718,0.77058333333333,0.72525,0.67241666666667,0.6034833333333299,0.6184,5.0
COM6,508,11-Nov-17,2017-11-11 21:00:00,0.95118333333333,0.72843333333333,0.65153333333333,0.6187333333333299,0.5699,0.51486666666667,0.52765,5.0
COM6,508,11-Nov-17,2017-11-11 22:00:00,1.5326,1.2788666666667,1.1547333333333,1.10095,1.0142833333333001,0.91435,0.93488333333333,5.0
COM6,508,11-Nov-17,2017-11-11 23:00:00,0.6161818181818199,0.51427272727273,0.45978181818182,0.43930909090909004,0.40121818181818003,0.36661818181818,0.37301818181818003,5.0
