COM6,508,31-Jul-18,2018-07-31 00:00:00,1.273406779661,1.0823728813559,0.9886779661016899,0.95459322033898,0.9091694915254201,0.85013559322034,0.8721016949152499,5.0
COM6,508,31-Jul-18,2018-07-31 01:00:00,0.997,0.84865,0.76828333333333,0.73663333333333,0.69568333333333,0.63785,0.65275,5.0
COM6,508,31-Jul-18,2018-07-31 02:00:00,0.79653333333333,0.65355,0.58188333333333,0.5500833333333299,0.51388333333333,0.45783333333333,0.46655,5.0
COM6,508,31-Jul-18,2018-07-31 03:00:00,0.67268333333333,0.52586666666667,0.45916666666667,0.42700000000000005,0.39346666666667,0.3399,0.345,5.0
COM6,508,31-Jul-18,2018-07-31 04:00:00,0.68763333333333,0.53675,0.46821666666667,0.43673333333333003,0.40145,0.34558333333333,0.3505,5.0
COM6,508,31-Jul-18,2018-07-31 05:00:00,0.83041666666667,0.67738333333333,0.60246666666667,0.56815,0.52978333333333,0.47008333333333,0.47935,5.0
COM6,508,31-Jul-18,2018-07-31 06:00:00,1.3590666666667,1.22675,1.1337,1.1022833333333,1.0597166666667,1.0046,1.0360666666667,5.0
COM6,508,31-Jul-18,2018-07-31 07:00:00,1.5390833333333,1.4566666666666999,1.3696,1.3475666666666999,1.3039666666667,1.2495666666667,1.2899166666667,5.0
COM6,508,31-Jul-18,2018-07-31 08:00:00,1.6420833333333,1.5778333333333001,1.4892666666667,1.4712,1.42735,1.3766333333333,1.4227,5.0
COM6,508,31-Jul-18,2018-07-31 09:00:00,1.42325,1.3112166666667,1.22205,1.1977166666666998,1.1521833333333,1.0984333333333,1.1341,5.0
COM6,508,31-Jul-18,2018-07-31 10:00:00,1.5492666666666999,1.4197166666667,1.32125,1.2921666666667,1.2419,1.1825666666666999,1.2177833333333001,5.0
COM6,508,31-Jul-18,2018-07-31 11:00:00,1.7985833333333001,1.5989833333333001,1.4741166666667,1.43405,1.3727666666667,1.3024166666666999,1.3427333333333,5.0
COM6,508,31-Jul-18,2018-07-31 12:00:00,1.6082833333333,1.3365,1.2012166666667,1.1460666666666999,1.0791166666667,0.99836666666667,1.0250833333333,5.0
COM6,508,31-Jul-18,2018-07-31 13:00:00,1.5994833333333,1.2381333333333,1.08455,1.01525,0.93678333333333,0.82493333333333,0.84278333333333,5.0
COM6,508,31-Jul-18,2018-07-31 14:00:00,2.1529,1.6173833333333,1.4041,1.3067833333333,1.1982833333333,1.0357,1.0459,5.0
COM6,508,31-Jul-18,2018-07-31 15:00:00,2.7946833333332997,2.0053333333333,1.71595,1.5833666666667,1.4329333333333,1.2099833333333,1.2217666666667,5.0
COM6,508,31-Jul-18,2018-07-31 16:00:00,3.3380166666667,2.3704833333332997,2.0200833333333,1.8592166666667,1.6801333333333,1.4097166666667,1.4221166666667,5.0
COM6,508,31-Jul-18,2018-07-31 17:00:00,3.6044,2.55795,2.1897333333333,2.0335166666667,1.8558,1.6201166666667,1.6384,5.0
COM6,508,31-Jul-18,2018-07-31 18:00:00,3.2256,2.37315,2.08585,1.98225,1.8480166666667,1.6896,1.7176666666667,5.0
COM6,508,31-Jul-18,2018-07-31 19:00:00,4.3700833333333,2.9890833333332996,2.5274333333333,2.3254,2.1054833333333,1.79295,1.80685,5.0
COM6,508,31-Jul-18,2018-07-31 20:00:00,3.6347333333333,2.6888666666667,2.3558333333332997,2.2258333333333,2.0631833333333,1.8338166666667,1.8610333333333,4.6666666666667
COM6,508,31-Jul-18,2018-07-31 21:00:00,1.6524666666666998,1.3382833333333,1.19825,1.1453666666667,1.0748166666666998,0.9676,0.9839,5.0
COM6,508,31-Jul-18,2018-07-31 22:00:00,0.99296666666667,0.83676666666667,0.75503333333333,0.7253166666666699,0.68343333333333,0.62571666666667,0.6371666666666701,5.0
COM6,508,31-Jul-18,2018-07-31 23:00:00,0.83964406779661,0.7125593220339,0.6473389830508499,0.62350847457627,0.5863220338983101,0.5295593220339,0.53918644067797,5.0
