COM6,508,20-Aug-17,2017-08-20 00:00:00,0.55737288135593,0.42008474576271004,0.3716101694915301,0.34713559322034,0.31274576271186,0.27067796610169,0.27445762711864,5.0
COM6,508,20-Aug-17,2017-08-20 01:00:00,0.5867333333333299,0.44978333333333,0.40415,0.38721666666667,0.35468333333333,0.32281666666666997,0.32511666666667,5.0
COM6,508,20-Aug-17,2017-08-20 02:00:00,0.62356666666667,0.52318333333333,0.49181666666667,0.48611666666666997,0.46031666666667,0.43823333333333003,0.44755,5.0
COM6,508,20-Aug-17,2017-08-20 03:00:00,0.66305,0.56116666666667,0.5262,0.51633333333333,0.48871666666667,0.46213333333333,0.4727,5.0
COM6,508,20-Aug-17,2017-08-20 04:00:00,0.59075,0.48453333333333,0.45,0.44146666666667,0.41715,0.3924,0.40065,5.0
COM6,508,20-Aug-17,2017-08-20 05:00:00,0.55363333333333,0.44831666666666997,0.40908333333333,0.39561666666667,0.36525,0.3323,0.33873333333333,5.0
COM6,508,20-Aug-17,2017-08-20 06:00:00,0.4715,0.36025,0.32458333333333,0.3069,0.28298333333333,0.25568333333333,0.25961666666667005,5.0
COM6,508,20-Aug-17,2017-08-20 07:00:00,0.72078333333333,0.58965,0.5521833333333299,0.53978333333333,0.51593333333333,0.49295,0.50876666666667,4.6666666666667
COM6,508,20-Aug-17,2017-08-20 08:00:00,0.67426666666667,0.63138333333333,0.5911666666666701,0.5800666666666701,0.55163333333333,0.52361666666667,0.53535,5.0
COM6,508,20-Aug-17,2017-08-20 09:00:00,0.47156666666667,0.43391666666667,0.40501666666667,0.39578333333333,0.37611666666667,0.35641666666667,0.36445,5.0
COM6,508,20-Aug-17,2017-08-20 10:00:00,0.42415,0.39996666666666997,0.37348333333333,0.36613333333333,0.34855,0.3326,0.34118333333333,5.0
COM6,508,20-Aug-17,2017-08-20 11:00:00,0.51548333333333,0.49233333333333,0.46253333333333,0.45341666666667,0.43328333333333,0.41443333333333,0.42506666666667,5.0
COM6,508,20-Aug-17,2017-08-20 12:00:00,0.45691666666666997,0.43173333333333,0.40633333333333,0.39663333333333,0.37931666666667,0.35678333333333,0.36605,5.0
COM6,508,20-Aug-17,2017-08-20 13:00:00,0.32295,0.30675,0.2899,0.28396666666667,0.27331666666667004,0.25703333333332995,0.26458333333332995,5.0
COM6,508,20-Aug-17,2017-08-20 14:00:00,0.21943333333332996,0.20331666666667003,0.19223333333332998,0.18843333333332996,0.18066666666667003,0.17043333333332997,0.17576666666667004,5.0
COM6,508,20-Aug-17,2017-08-20 15:00:00,0.2432,0.22581666666667002,0.21343333333332998,0.2085,0.20151666666667004,0.19015,0.1966,5.0
COM6,508,20-Aug-17,2017-08-20 16:00:00,0.20537288135593001,0.18618644067797002,0.17420338983051,0.16961016949153,0.16318644067797,0.15123728813558998,0.15567796610169002,5.0
COM6,508,20-Aug-17,2017-08-20 17:00:00,0.18646666666667003,0.16123333333332998,0.14941666666667,0.14431666666667,0.1387,0.13253333333333,0.13585,5.0
COM6,508,20-Aug-17,2017-08-20 18:00:00,0.28813333333333,0.26743333333332997,0.25098333333332995,0.24626666666667002,0.23565,0.22191666666667004,0.22818333333332996,5.0
COM6,508,20-Aug-17,2017-08-20 19:00:00,0.37295,0.33658333333333,0.31138333333333,0.30305,0.2883,0.27071666666667005,0.27743333333333,5.0
COM6,508,20-Aug-17,2017-08-20 20:00:00,0.78491666666667,0.6679,0.60123333333333,0.56988333333333,0.52786666666667,0.47026666666667,0.47863333333333,5.0
COM6,508,20-Aug-17,2017-08-20 21:00:00,0.5839298245614001,0.44664912280702,0.40682456140351,0.38768421052632,0.36429824561403995,0.32552631578946994,0.33549122807018,4.3859649122807
COM6,508,20-Aug-17,2017-08-20 22:00:00,0.54571666666667,0.39371666666667,0.353,0.3349,0.31018333333333,0.28168333333333,0.28588333333333,5.0
COM6,508,20-Aug-17,2017-08-20 23:00:00,0.5356842105263201,0.47189473684211003,0.42692982456140005,0.40757894736842,0.37936842105263,0.34443859649123,0.35045614035088,5.0
