COM6,508,08-Nov-17,2017-11-08 00:00:00,0.31522033898304996,0.30061016949153,0.27820338983051,0.27266101694915,0.25179661016948995,0.23201694915254,0.23662711864407,5.0
COM6,508,08-Nov-17,2017-11-08 01:00:00,0.29966666666666997,0.2495,0.22663333333332997,0.21686666666667004,0.2015,0.18401666666667002,0.1881,5.0
COM6,508,08-Nov-17,2017-11-08 02:00:00,0.29905,0.27546666666666997,0.25403333333332995,0.24605,0.23028333333332998,0.21665,0.22108333333332997,5.0
COM6,508,08-Nov-17,2017-11-08 03:00:00,0.32978333333333,0.28588333333333,0.26256666666667006,0.2532,0.23798333333332997,0.2206,0.22598333333332996,5.0
COM6,508,08-Nov-17,2017-11-08 04:00:00,0.26196666666667,0.2549,0.23741666666667002,0.23263333333332997,0.21875,0.2042,0.20993333333332997,5.0
COM6,508,08-Nov-17,2017-11-08 05:00:00,0.22048333333332998,0.21455,0.1991,0.19315,0.18118333333332998,0.16991666666667002,0.17418333333332997,5.0
COM6,508,08-Nov-17,2017-11-08 06:00:00,0.75678333333333,0.72851666666667,0.68086666666667,0.6680833333333299,0.6323,0.5987166666666701,0.61525,5.0
COM6,508,08-Nov-17,2017-11-08 07:00:00,1.9505666666666999,1.89935,1.7893666666666999,1.7561,1.6765833333333,1.6048,1.6544166666667,5.0
COM6,508,08-Nov-17,2017-11-08 08:00:00,2.24695,2.1958666666667,2.0618666666667,2.0228666666667,1.9264833333333,1.8363166666667,1.8917666666667,5.0
COM6,508,08-Nov-17,2017-11-08 09:00:00,2.4035,2.3762666666667003,2.24095,2.2028666666667003,2.1067333333333003,2.0214,2.0843666666667,5.0
COM6,508,08-Nov-17,2017-11-08 10:00:00,1.4095166666666998,1.4125833333333,1.32925,1.2987833333333,1.2456666666667,1.18315,1.2216833333333001,5.0
COM6,508,08-Nov-17,2017-11-08 11:00:00,0.6045,0.61823333333333,0.58035,0.56521666666667,0.53996666666667,0.50145,0.52035,5.0
COM6,508,08-Nov-17,2017-11-08 12:00:00,0.6578333333333299,0.6435666666666701,0.60313333333333,0.5857666666666701,0.5588166666666701,0.52065,0.53668333333333,5.0
COM6,508,08-Nov-17,2017-11-08 13:00:00,0.91556666666667,0.87715,0.81943333333333,0.79595,0.75963333333333,0.72066666666667,0.7462,5.0
COM6,508,08-Nov-17,2017-11-08 14:00:00,1.0295833333333,0.97258333333333,0.90218333333333,0.87256666666667,0.8357,0.7836,0.81105,5.0
COM6,508,08-Nov-17,2017-11-08 15:00:00,1.1562,1.1023833333333,1.03035,1.0035666666667,0.95971666666667,0.9061,0.93845,5.0
COM6,508,08-Nov-17,2017-11-08 16:00:00,0.80551666666667,0.7673,0.7192,0.69088333333333,0.6688833333333299,0.6328833333333299,0.6563,5.0
COM6,508,08-Nov-17,2017-11-08 17:00:00,1.18195,1.0895666666666999,1.0133333333333001,0.9878,0.93593333333333,0.8706,0.89773333333333,5.0
COM6,508,08-Nov-17,2017-11-08 18:00:00,2.2348666666667003,1.9393,1.7911666666666999,1.7396833333333002,1.6419833333333,1.5208666666667,1.56485,5.0
COM6,508,08-Nov-17,2017-11-08 19:00:00,3.0303666666667004,2.41835,2.1906,2.0897833333333002,1.94185,1.7643666666667,1.80885,5.0
COM6,508,08-Nov-17,2017-11-08 20:00:00,2.1131166666667,1.6286833333333,1.4764,1.4194,1.3311666666667,1.2303166666667,1.2672166666667,4.6666666666667
COM6,508,08-Nov-17,2017-11-08 21:00:00,1.85225,1.5274833333333,1.4154333333333,1.37125,1.3085666666667,1.2394,1.2728333333333,5.0
COM6,508,08-Nov-17,2017-11-08 22:00:00,1.7587666666667,1.5010166666667,1.3921,1.3532333333333,1.29765,1.2432666666667,1.2787833333333,5.0
COM6,508,08-Nov-17,2017-11-08 23:00:00,1.6388363636363998,1.4017636363636001,1.2928181818181999,1.2497090909091,1.1914727272727,1.1278545454545,1.1599454545455,5.0
