COM6,508,20-Sep-18,2018-09-20 00:00:00,0.72133898305085,0.66703389830508,0.6190508474576301,0.60723728813559,0.5667288135593199,0.522,0.53184745762712,5.0
COM6,508,20-Sep-18,2018-09-20 01:00:00,0.5653833333333299,0.5018,0.45916666666667,0.44181666666667,0.4107,0.36633333333333,0.37196666666667,5.0
COM6,508,20-Sep-18,2018-09-20 02:00:00,0.68683333333333,0.6057833333333299,0.5531833333333299,0.53766666666667,0.49903333333333,0.46421666666667,0.47181666666667,5.0
COM6,508,20-Sep-18,2018-09-20 03:00:00,0.61441666666667,0.53488333333333,0.49321666666666997,0.47743333333333,0.44313333333333,0.39251666666667,0.40031666666667,5.0
COM6,508,20-Sep-18,2018-09-20 04:00:00,0.96136666666667,0.86833333333333,0.8034,0.78423333333333,0.7353666666666699,0.68481666666667,0.69296666666667,5.0
COM6,508,20-Sep-18,2018-09-20 05:00:00,1.2685333333333,1.1068833333333001,1.0207,0.98568333333333,0.92531666666667,0.85276666666667,0.87115,5.0
COM6,508,20-Sep-18,2018-09-20 06:00:00,1.69605,1.4816,1.3595333333333,1.31605,1.2349666666666999,1.1353833333333,1.1578,5.0
COM6,508,20-Sep-18,2018-09-20 07:00:00,1.4886166666667,1.3281666666667,1.21525,1.1837833333333,1.1066333333333,1.0170666666666999,1.0369333333333,5.0
COM6,508,20-Sep-18,2018-09-20 08:00:00,3.5780000000000003,3.2779,3.01495,2.9507,2.7694833333332998,2.6325,2.6879833333332996,5.0
COM6,508,20-Sep-18,2018-09-20 09:00:00,2.7719833333332997,2.46625,2.2304333333332997,2.1685833333333,2.00945,1.8656166666667,1.89755,5.0
COM6,508,20-Sep-18,2018-09-20 10:00:00,1.11375,0.8823,0.77475,0.73278333333333,0.6510666666666701,0.55893333333333,0.56211666666667,5.0
COM6,508,20-Sep-18,2018-09-20 11:00:00,0.87733333333333,0.63261666666667,0.54716666666667,0.49603333333333,0.44496666666667,0.35486666666667,0.3582,5.0
COM6,508,20-Sep-18,2018-09-20 12:00:00,2.1440166666666998,1.6023,1.3972833333333001,1.3243333333333,1.2189666666666998,1.1403,1.16025,5.0
COM6,508,20-Sep-18,2018-09-20 13:00:00,NaN,NaN,NaN,NaN,NaN,NaN,NaN,NaN
COM6,508,20-Sep-18,2018-09-20 14:00:00,NaN,NaN,NaN,NaN,NaN,NaN,NaN,NaN
COM6,508,20-Sep-18,2018-09-20 15:00:00,NaN,NaN,NaN,NaN,NaN,NaN,NaN,NaN
COM6,508,20-Sep-18,2018-09-20 16:00:00,NaN,NaN,NaN,NaN,NaN,NaN,NaN,NaN
COM6,508,20-Sep-18,2018-09-20 17:00:00,NaN,NaN,NaN,NaN,NaN,NaN,NaN,NaN
COM6,508,20-Sep-18,2018-09-20 18:00:00,NaN,NaN,NaN,NaN,NaN,NaN,NaN,NaN
COM6,508,20-Sep-18,2018-09-20 19:00:00,NaN,NaN,NaN,NaN,NaN,NaN,NaN,NaN
COM6,508,20-Sep-18,2018-09-20 20:00:00,NaN,NaN,NaN,NaN,NaN,NaN,NaN,NaN
COM6,508,20-Sep-18,2018-09-20 21:00:00,NaN,NaN,NaN,NaN,NaN,NaN,NaN,NaN
COM6,508,20-Sep-18,2018-09-20 22:00:00,NaN,NaN,NaN,NaN,NaN,NaN,NaN,NaN
COM6,508,20-Sep-18,2018-09-20 23:00:00,NaN,NaN,NaN,NaN,NaN,NaN,NaN,NaN
