COM6,508,20-May-18,2018-05-20 00:00:00,0.10272881355932001,0.092932203389831,0.087,0.08364406779661,0.079593220338983,0.073338983050847,0.07547457627118599,5
COM6,508,20-May-18,2018-05-20 01:00:00,0.12605,0.11123333333333,0.1044,0.10188333333333001,0.098916666666667,0.09065,0.09365,5
COM6,508,20-May-18,2018-05-20 02:00:00,0.16313333333333,0.14971666666667002,0.14116666666667002,0.13613333333333,0.13263333333333,0.12258333333333,0.12658333333333,5
COM6,508,20-May-18,2018-05-20 03:00:00,0.12456666666666999,0.11338333333333,0.1073,0.10553333333333001,0.099816666666667,0.09345,0.095666666666667,5
COM6,508,20-May-18,2018-05-20 04:00:00,0.4525,0.41318333333333,0.39128333333333,0.38518333333333,0.37066666666667,0.35846666666667,0.36943333333333,5
COM6,508,20-May-18,2018-05-20 05:00:00,1.1009166666666999,1.0212666666666999,0.97183333333333,0.96158333333333,0.9313,0.89833333333333,0.92675,5
COM6,508,20-May-18,2018-05-20 06:00:00,1.0268166666667,0.9474,0.89878333333333,0.88916666666667,0.85971666666667,0.82281666666667,0.84878333333333,5
COM6,508,20-May-18,2018-05-20 07:00:00,0.8851,0.81321666666667,0.76818333333333,0.75868333333333,0.728,0.69488333333333,0.71488333333333,5
COM6,508,20-May-18,2018-05-20 08:00:00,0.6167833333333299,0.5724333333333299,0.53616666666667,0.52938333333333,0.50393333333333,0.47668333333333,0.4898,5
COM6,508,20-May-18,2018-05-20 09:00:00,0.31033333333333,0.29,0.27025,0.2662,0.2519,0.23611666666667003,0.24333333333332996,5
COM6,508,20-May-18,2018-05-20 10:00:00,0.25295,0.23443333333332997,0.21958333333332997,0.21501666666667002,0.20145,0.18728333333332997,0.19056666666667002,5
COM6,508,20-May-18,2018-05-20 11:00:00,0.30185,0.28058333333333,0.26341666666667,0.25868333333333,0.24548333333332997,0.22813333333332997,0.23551666666667004,5
COM6,508,20-May-18,2018-05-20 12:00:00,0.30633333333333,0.28075,0.2606,0.25386666666667,0.24143333333332997,0.22186666666667004,0.228,5
COM6,508,20-May-18,2018-05-20 13:00:00,0.37245,0.32335,0.29661666666666997,0.28538333333333,0.27256666666667,0.26586666666667,0.27796666666666997,5
COM6,508,20-May-18,2018-05-20 14:00:00,0.43111666666667,0.37925,0.35148333333333,0.33998333333333003,0.32803333333333,0.3316,0.34381666666667,5
COM6,508,20-May-18,2018-05-20 15:00:00,0.3085,0.2808,0.26163333333332994,0.25395,0.24446666666667002,0.23383333333332998,0.24246666666667002,5
COM6,508,20-May-18,2018-05-20 16:00:00,0.30718333333333003,0.2668,0.24738333333332996,0.23721666666667005,0.23025,0.22838333333332997,0.23743333333332997,5
COM6,508,20-May-18,2018-05-20 17:00:00,0.64581666666667,0.60533333333333,0.5715833333333299,0.5624833333333299,0.53991666666667,0.52548333333333,0.54583333333333,5
COM6,508,20-May-18,2018-05-20 18:00:00,0.59403333333333,0.55585,0.5243,0.5136,0.49213333333333,0.4784,0.4932,5
COM6,508,20-May-18,2018-05-20 19:00:00,0.8813,0.8267,0.77743333333333,0.76496666666667,0.72995,0.70386666666667,0.7293166666666699,5
COM6,508,20-May-18,2018-05-20 20:00:00,0.61038333333333,0.5633666666666701,0.5279,0.5167,0.49433333333333,0.47335,0.49028333333333,5
COM6,508,20-May-18,2018-05-20 21:00:00,0.31545,0.28145,0.25865,0.25075,0.23678333333332996,0.22821666666667004,0.2376,5
COM6,508,20-May-18,2018-05-20 22:00:00,0.49116666666666997,0.44518333333333,0.41386666666667,0.4031,0.38056666666667,0.36405,0.37658333333333,5
COM6,508,20-May-18,2018-05-20 23:00:00,0.62061666666667,0.5625166666666701,0.52526666666667,0.51393333333333,0.4859,0.45698333333333,0.46996666666667,5
