COM6,508,20-Apr-19,2019-04-20 00:00:00,0.33994915254236996,0.34306779661017,0.32337288135593,0.31740677966102,0.30310169491525,0.29552542372880997,0.30413559322034,5
COM6,508,20-Apr-19,2019-04-20 01:00:00,0.24486666666667004,0.24573333333332997,0.2323,0.22821666666667004,0.21591666666667003,0.2001,0.20565,5
COM6,508,20-Apr-19,2019-04-20 02:00:00,0.26895,0.2588,0.24018333333332997,0.23528333333332996,0.22143333333332996,0.20800000000000002,0.21283333333332996,5
COM6,508,20-Apr-19,2019-04-20 03:00:00,0.17056666666667003,0.1649,0.15466666666667,0.14968333333332998,0.14085,0.12468333333333001,0.1266,5
COM6,508,20-Apr-19,2019-04-20 04:00:00,0.06295,0.069433333333333,0.06508333333333301,0.064116666666667,0.06048333333333301,0.054916666666666995,0.056633333333333,5
COM6,508,20-Apr-19,2019-04-20 05:00:00,0.36166666666666997,0.34825,0.32623333333333,0.32016666666667,0.30521666666667,0.29735,0.30386666666667,5
COM6,508,20-Apr-19,2019-04-20 06:00:00,0.57683333333333,0.5543833333333299,0.52043333333333,0.50931666666667,0.48773333333333,0.45926666666667,0.47215,5
COM6,508,20-Apr-19,2019-04-20 07:00:00,0.97888333333333,0.95121666666667,0.8935,0.87858333333333,0.84073333333333,0.80375,0.82503333333333,5
COM6,508,20-Apr-19,2019-04-20 08:00:00,0.41235,0.41701666666667,0.39486666666667,0.38993333333333,0.37281666666667,0.34193333333333,0.35098333333333,5
COM6,508,20-Apr-19,2019-04-20 09:00:00,0.22465,0.22013333333332996,0.20458333333332998,0.20005,0.1899,0.17871666666667002,0.18401666666667002,5
COM6,508,20-Apr-19,2019-04-20 10:00:00,0.27755,0.26506666666667006,0.24456666666667004,0.24053333333332996,0.22578333333332998,0.20936666666667003,0.21503333333332997,5
COM6,508,20-Apr-19,2019-04-20 11:00:00,0.48278333333333,0.45271666666667,0.41966666666667,0.40571666666667,0.38583333333333003,0.35791666666667,0.36628333333333,5
COM6,508,20-Apr-19,2019-04-20 12:00:00,0.28105,0.26395,0.24675,0.23996666666667002,0.2288,0.21625,0.2215,5
COM6,508,20-Apr-19,2019-04-20 13:00:00,0.4243,0.40513333333333,0.37666666666667,0.36771666666667,0.34876666666667,0.31851666666667,0.32678333333333,5
COM6,508,20-Apr-19,2019-04-20 14:00:00,0.42118333333333,0.40566666666667,0.3796,0.37031666666667,0.35341666666667,0.3288,0.33633333333333,5
COM6,508,20-Apr-19,2019-04-20 15:00:00,0.41655,0.39815,0.375,0.36493333333333,0.34785,0.32181666666666997,0.32998333333333,5
COM6,508,20-Apr-19,2019-04-20 16:00:00,0.12741666666666998,0.12971666666667,0.12186666666667,0.12215,0.11526666666667,0.10613333333333,0.10871666666667,5
COM6,508,20-Apr-19,2019-04-20 17:00:00,0.15933333333333,0.15145,0.14326666666667,0.13885,0.13128333333333,0.12041666666666999,0.12236666666667,5
COM6,508,20-Apr-19,2019-04-20 18:00:00,0.19308333333332997,0.18591666666667003,0.1739,0.17175,0.16393333333333,0.15531666666667002,0.15865,5
COM6,508,20-Apr-19,2019-04-20 19:00:00,0.31228333333333,0.29375,0.27556666666667,0.27076666666667004,0.2573,0.24621666666667003,0.25151666666667005,5
COM6,508,20-Apr-19,2019-04-20 20:00:00,0.28625,0.3026,0.29995,0.30696666666667,0.30115,0.29743333333333,0.30401666666667,5
COM6,508,20-Apr-19,2019-04-20 21:00:00,0.3064,0.31643333333333,0.32423333333333,0.33833333333333,0.34118333333333,0.35176666666667,0.36155,5
COM6,508,20-Apr-19,2019-04-20 22:00:00,0.17103333333332996,0.24906666666667004,0.2794,0.31015,0.32645,0.35698333333333,0.36895,5
COM6,508,20-Apr-19,2019-04-20 23:00:00,0.08677192982456099,0.13221052631579,0.15096491228070003,0.16892982456140002,0.18240350877193,0.1979649122807,0.20550877192982,5
