COM6,0508,26-Feb-19,2019-02-26 00:00:00,0.081508474576271,0.07364406779661,0.07135593220339,0.067559322033898,0.069372881355932,0.062135593220339,0.065898305084746,5,0,0,0,0,0,0,0,0,0,0,0,0,0,0,0,0,0,0,0,0,0,0,0,0,0,0,0,0,0,0,0,0,0,0,0,0,0,0,0,0,0,0
COM6,0508,26-Feb-19,2019-02-26 01:00:00,0.085566666666667,0.07735,0.074933333333333,0.0689,0.0723,0.06565,0.070233333333333,5,0,0,0,0,0,0,0,0,0,0,0,0,0,0,0,0,0,0,0,0,0,0,0,0,0,0,0,0,0,0,0,0,0,0,0,0,0,0,0,0,0,0
COM6,0508,26-Feb-19,2019-02-26 02:00:00,0.078466666666667,0.074,0.071516666666667,0.066166666666667,0.067483333333333,0.0598,0.0638,5,0,0,0,0,0,0,0,0,0,0,0,0,0,0,0,0,0,0,0,0,0,0,0,0,0,0,0,0,0,0,0,0,0,0,0,0,0,0,0,0,0,0
COM6,0508,26-Feb-19,2019-02-26 03:00:00,0.084166666666667,0.0777,0.07355,0.071316666666667,0.07,0.064633333333333,0.066616666666667,5,0,0,0,0,0,0,0,0,0,0,0,0,0,0,0,0,0,0,0,0,0,0,0,0,0,0,0,0,0,0,0,0,0,0,0,0,0,0,0,0,0,0
COM6,0508,26-Feb-19,2019-02-26 04:00:00,0.094916666666667,0.08835,0.084416666666667,0.08105,0.08015,0.0749,0.077733333333333,5,0,0,0,0,0,0,0,0,0,0,0,0,0,0,0,0,0,0,0,0,0,0,0,0,0,0,0,0,0,0,0,0,0,0,0,0,0,0,0,0,0,0
COM6,0508,26-Feb-19,2019-02-26 05:00:00,0.0878,0.085966666666667,0.08295,0.0807,0.078916666666667,0.073466666666667,0.075883333333333,5,0,0,0,0,0,0,0,0,0,0,0,0,0,0,0,0,0,0,0,0,0,0,0,0,0,0,0,0,0,0,0,0,0,0,0,0,0,0,0,0,0,0
COM6,0508,26-Feb-19,2019-02-26 06:00:00,0.12461666666667,0.12375,0.1184,0.11583333333333,0.11345,0.10915,0.11303333333333,5,0,0,0,0,0,0,0,0,0,0,0,0,0,0,0,0,0,0,0,0,0,0,0,0,0,0,0,0,0,0,0,0,0,0,0,0,0,0,0,0,0,0
COM6,0508,26-Feb-19,2019-02-26 07:00:00,0.13483333333333,0.1327,0.1254,0.12603333333333,0.1208,0.11531666666667,0.12006666666667,5,0,0,0,0,0,0,0,0,0,0,0,0,0,0,0,0,0,0,0,0,0,0,0,0,0,0,0,0,0,0,0,0,0,0,0,0,0,0,0,0,0,0
COM6,0508,26-Feb-19,2019-02-26 08:00:00,0.16635,0.16573333333333,0.15918333333333,0.15808333333333,0.1536,0.14946666666667,0.15403333333333,5,0,0,0,0,0,0,0,0,0,0,0,0,0,0,0,0,0,0,0,0,0,0,0,0,0,0,0,0,0,0,0,0,0,0,0,0,0,0,0,0,0,0
COM6,0508,26-Feb-19,2019-02-26 09:00:00,0.18645,0.18435,0.17748333333333,0.17513333333333,0.1712,0.16575,0.1721,5,0,0,0,0,0,0,0,0,0,0,0,0,0,0,0,0,0,0,0,0,0,0,0,0,0,0,0,0,0,0,0,0,0,0,0,0,0,0,0,0,0,0
COM6,0508,26-Feb-19,2019-02-26 10:00:00,0.20701666666667,0.20595,0.19755,0.19671666666667,0.19238333333333,0.18865,0.1948,5,0,0,0,0,0,0,0,0,0,0,0,0,0,0,0,0,0,0,0,0,0,0,0,0,0,0,0,0,0,0,0,0,0,0,0,0,0,0,0,0,0,0
COM6,0508,26-Feb-19,2019-02-26 11:00:00,0.20801666666667,0.20715,0.19823333333333,0.19783333333333,0.19185,0.1846,0.19061666666667,5,0,0,0,0,0,0,0,0,0,0,0,0,0,0,0,0,0,0,0,0,0,0,0,0,0,0,0,0,0,0,0,0,0,0,0,0,0,0,0,0,0,0
COM6,0508,26-Feb-19,2019-02-26 12:00:00,0.17438333333333,0.17396666666667,0.16551666666667,0.16266666666667,0.15645,0.15038333333333,0.15473333333333,5,0,0,0,0,0,0,0,0,0,0,0,0,0,0,0,0,0,0,0,0,0,0,0,0,0,0,0,0,0,0,0,0,0,0,0,0,0,0,0,0,0,0
COM6,0508,26-Feb-19,2019-02-26 13:00:00,0.23403333333333,0.23298333333333,0.22245,0.22536666666667,0.21305,0.2096,0.21475,5,0,0,0,0,0,0,0,0,0,0,0,0,0,0,0,0,0,0,0,0,0,0,0,0,0,0,0,0,0,0,0,0,0,0,0,0,0,0,0,0,0,0
COM6,0508,26-Feb-19,2019-02-26 14:00:00,0.28541666666667,0.28463333333333,0.27336666666667,0.27436666666667,0.26643333333333,0.26225,0.27006666666667,5,0,0,0,0,0,0,0,0,0,0,0,0,0,0,0,0,0,0,0,0,0,0,0,0,0,0,0,0,0,0,0,0,0,0,0,0,0,0,0,0,0,0
COM6,0508,26-Feb-19,2019-02-26 15:00:00,0.20348333333333,0.19845,0.19015,0.18733333333333,0.18383333333333,0.17558333333333,0.18221666666667,5,0,0,0,0,0,0,0,0,0,0,0,0,0,0,0,0,0,0,0,0,0,0,0,0,0,0,0,0,0,0,0,0,0,0,0,0,0,0,0,0,0,0
COM6,0508,26-Feb-19,2019-02-26 16:00:00,0.21956666666667,0.21698333333333,0.20803333333333,0.20613333333333,0.19986666666667,0.19353333333333,0.19975,5,0,0,0,0,0,0,0,0,0,0,0,0,0,0,0,0,0,0,0,0,0,0,0,0,0,0,0,0,0,0,0,0,0,0,0,0,0,0,0,0,0,0
COM6,0508,26-Feb-19,2019-02-26 17:00:00,0.19833333333333,0.19203333333333,0.18405,0.1794,0.17575,0.16533333333333,0.17073333333333,5,0,0,0,0,0,0,0,0,0,0,0,0,0,0,0,0,0,0,0,0,0,0,0,0,0,0,0,0,0,0,0,0,0,0,0,0,0,0,0,0,0,0
COM6,0508,26-Feb-19,2019-02-26 18:00:00,0.21326666666667,0.20611666666667,0.19761666666667,0.19515,0.18953333333333,0.17963333333333,0.18696666666667,5,0,0,0,0,0,0,0,0,0,0,0,0,0,0,0,0,0,0,0,0,0,0,0,0,0,0,0,0,0,0,0,0,0,0,0,0,0,0,0,0,0,0
COM6,0508,26-Feb-19,2019-02-26 19:00:00,0.1921,0.18238333333333,0.17088333333333,0.16696666666667,0.16105,0.15168333333333,0.15526666666667,5,0,0,0,0,0,0,0,0,0,0,0,0,0,0,0,0,0,0,0,0,0,0,0,0,0,0,0,0,0,0,0,0,0,0,0,0,0,0,0,0,0,0
COM6,0508,26-Feb-19,2019-02-26 20:00:00,0.14245,0.13463333333333,0.12815,0.12606666666667,0.11978333333333,0.1102,0.11301666666667,5,0,0,0,0,0,0,0,0,0,0,0,0,0,0,0,0,0,0,0,0,0,0,0,0,0,0,0,0,0,0,0,0,0,0,0,0,0,0,0,0,0,0
COM6,0508,26-Feb-19,2019-02-26 21:00:00,0.15221666666667,0.14636666666667,0.13996666666667,0.13733333333333,0.13218333333333,0.12443333333333,0.12885,5,0,0,0,0,0,0,0,0,0,0,0,0,0,0,0,0,0,0,0,0,0,0,0,0,0,0,0,0,0,0,0,0,0,0,0,0,0,0,0,0,0,0
COM6,0508,26-Feb-19,2019-02-26 22:00:00,0.19638333333333,0.19206666666667,0.18121666666667,0.17843333333333,0.17325,0.1629,0.16888333333333,5,0,0,0,0,0,0,0,0,0,0,0,0,0,0,0,0,0,0,0,0,0,0,0,0,0,0,0,0,0,0,0,0,0,0,0,0,0,0,0,0,0,0
COM6,0508,26-Feb-19,2019-02-26 23:00:00,0.12798275862069,0.12377586206897,0.11925862068966,0.11446551724138,0.11079310344828,0.10210344827586,0.10522413793103,5,0,0,0,0,0,0,0,0,0,0,0,0,0,0,0,0,0,0,0,0,0,0,0,0,0,0,0,0,0,0,0,0,0,0,0,0,0,0,0,0,0,0
