COM6,508,03-Oct-17,2017-10-03 00:00:00,0.025271186440677995,0.038406779661017,0.034016949152542005,0.03676271186440701,0.030610169491525004,0.03328813559322,0.031966101694915004,5
COM6,508,03-Oct-17,2017-10-03 01:00:00,0.04955,0.0514,0.0478,0.047166666666666995,0.042283333333333006,0.04235,0.042683333333333004,5
COM6,508,03-Oct-17,2017-10-03 02:00:00,0.12833333333333,0.12298333333333,0.11228333333333,0.10898333333333,0.097633333333333,0.090216666666667,0.09116666666666699,5
COM6,508,03-Oct-17,2017-10-03 03:00:00,0.18211666666667004,0.17783333333332996,0.16318333333333,0.16283333333333,0.14673333333333,0.1401,0.14148333333333,5
COM6,508,03-Oct-17,2017-10-03 04:00:00,0.17671666666667002,0.16775,0.1538,0.15136666666667,0.13645,0.13206666666667,0.13296666666667,5
COM6,508,03-Oct-17,2017-10-03 05:00:00,0.36748333333333,0.34311666666667,0.31608333333333,0.31178333333333,0.28821666666667,0.27313333333332995,0.27788333333333,5
COM6,508,03-Oct-17,2017-10-03 06:00:00,0.85263333333333,0.81828333333333,0.76386666666667,0.75408333333333,0.70755,0.67973333333333,0.6970666666666699,5
COM6,508,03-Oct-17,2017-10-03 07:00:00,1.3244166666666999,1.2898666666667,1.2064666666666999,1.1851833333333,1.1223666666667,1.0752333333333,1.1049333333333,5
COM6,508,03-Oct-17,2017-10-03 08:00:00,2.8665166666667004,2.8129333333332998,2.6460666666667003,2.60105,2.4785666666667003,2.3774333333332995,2.4473833333333,5
COM6,508,03-Oct-17,2017-10-03 09:00:00,1.8746333333333,1.87445,1.7641833333333001,1.7326833333333,1.6511833333333001,1.5666833333333001,1.6106333333333,5
COM6,508,03-Oct-17,2017-10-03 10:00:00,0.63425,0.65153333333333,0.6188666666666701,0.60528333333333,0.5807166666666701,0.5465,0.56501666666667,5
COM6,508,03-Oct-17,2017-10-03 11:00:00,0.32296666666667,0.33161666666667,0.31216666666667,0.30365,0.29078333333333,0.271,0.28005,5
COM6,508,03-Oct-17,2017-10-03 12:00:00,0.33793333333333003,0.33578333333333,0.31451666666667,0.30665,0.28966666666667,0.26785,0.2754,5
COM6,508,03-Oct-17,2017-10-03 13:00:00,0.52945,0.50285,0.47125,0.45596666666667,0.43501666666667,0.40453333333333,0.4181,5
COM6,508,03-Oct-17,2017-10-03 14:00:00,0.45295,0.42111666666666997,0.39135,0.37613333333333,0.35888333333333,0.3298,0.34148333333333003,5
COM6,508,03-Oct-17,2017-10-03 15:00:00,0.50235,0.45525,0.42285,0.40781666666667,0.38903333333333,0.36025,0.37505,5
COM6,508,03-Oct-17,2017-10-03 16:00:00,0.4703,0.43231666666667,0.40251666666667,0.3812,0.37011666666667,0.33896666666666997,0.35238333333333,5
COM6,508,03-Oct-17,2017-10-03 17:00:00,0.3582,0.33511666666667,0.31108333333333,0.29801666666667,0.28331666666667,0.2592,0.26846666666667,5
COM6,508,03-Oct-17,2017-10-03 18:00:00,0.1779,0.15501666666667002,0.1413,0.12981666666667,0.12613333333333002,0.10223333333333001,0.1103,5
COM6,508,03-Oct-17,2017-10-03 19:00:00,0.20358333333332998,0.17143333333332997,0.15313333333332999,0.14518333333333,0.13495,0.12046666666667,0.12021666666667,5
COM6,508,03-Oct-17,2017-10-03 20:00:00,0.1757,0.16008333333333,0.15036666666667,0.14273333333333,0.12926666666667,0.11648333333333001,0.12081666666667,5
COM6,508,03-Oct-17,2017-10-03 21:00:00,0.1728,0.15315,0.13785,0.12991666666666998,0.11933333333333,0.10586666666667,0.10733333333333,5
COM6,508,03-Oct-17,2017-10-03 22:00:00,0.18891666666667004,0.16173333333332998,0.14716666666667003,0.14143333333333,0.1319,0.11656666666667,0.11956666666667,5
COM6,508,03-Oct-17,2017-10-03 23:00:00,0.18207142857143,0.15905357142857,0.14616071428570998,0.13769642857143,0.1295,0.10973214285714,0.11303571428571,5
