COM6,508,24-Jul-18,2018-07-24 00:00:00,0.53937288135593,0.44437288135592995,0.39191525423728996,0.36701694915253996,0.32364406779661,0.25081355932203,0.25089830508475,4.8305084745763
COM6,508,24-Jul-18,2018-07-24 01:00:00,0.35361666666667,0.2192,0.20131666666667003,0.19451666666667003,0.18326666666667002,0.16411666666667002,0.16955,4.8333333333333
COM6,508,24-Jul-18,2018-07-24 02:00:00,0.38103333333333,0.34816666666667,0.3238,0.31635,0.30091666666667,0.28348333333333,0.29011666666667,5.0
COM6,508,24-Jul-18,2018-07-24 03:00:00,0.5637166666666701,0.54263333333333,0.5138,0.50836666666667,0.4905,0.46926666666667,0.48125,5.0
COM6,508,24-Jul-18,2018-07-24 04:00:00,0.72041666666667,0.70556666666667,0.6724,0.6662333333333299,0.6471166666666701,0.6229,0.6402166666666701,5.0
COM6,508,24-Jul-18,2018-07-24 05:00:00,0.7163,0.70446666666667,0.6727,0.6667666666666701,0.64763333333333,0.6210666666666701,0.6379833333333299,5.0
COM6,508,24-Jul-18,2018-07-24 06:00:00,0.516,0.49573333333333003,0.47166666666667,0.46463333333333,0.44951666666667,0.42736666666667,0.4387,5.0
COM6,508,24-Jul-18,2018-07-24 07:00:00,0.7283333333333301,0.72316666666667,0.69141666666667,0.6789333333333301,0.66076666666667,0.64176666666667,0.65911666666667,5.0
COM6,508,24-Jul-18,2018-07-24 08:00:00,2.33115,2.3732166666667003,2.2741166666667003,2.2575666666667003,2.1982,2.1257,2.1909166666667,5.0
COM6,508,24-Jul-18,2018-07-24 09:00:00,1.3090000000000002,1.2849833333333,1.2219666666667,1.2017666666667,1.1554,1.0975666666666999,1.1261833333333,5.0
COM6,508,24-Jul-18,2018-07-24 10:00:00,0.74411666666667,0.7031333333333301,0.6600833333333299,0.6468,0.6161166666666701,0.5706333333333299,0.58415,5.0
COM6,508,24-Jul-18,2018-07-24 11:00:00,0.5707,0.53638333333333,0.50483333333333,0.4931,0.46873333333333,0.43108333333333,0.44083333333333,5.0
COM6,508,24-Jul-18,2018-07-24 12:00:00,0.46018333333333,0.42708333333333,0.39996666666666997,0.38963333333333,0.36995,0.33898333333333003,0.34728333333333,5.0
COM6,508,24-Jul-18,2018-07-24 13:00:00,0.40815,0.37095,0.34535,0.33345,0.31593333333333,0.2853,0.29166666666667,5.0
COM6,508,24-Jul-18,2018-07-24 14:00:00,0.36773333333333,0.36881666666667,0.35758333333333,0.35668333333333,0.3475,0.32961666666667,0.33705,5.0
COM6,508,24-Jul-18,2018-07-24 15:00:00,0.3468,0.31145,0.2892,0.2784,0.26421666666667004,0.23828333333332996,0.24423333333332997,5.0
COM6,508,24-Jul-18,2018-07-24 16:00:00,0.30283333333333,0.26021666666667004,0.23823333333332997,0.2263,0.21131666666667004,0.1858,0.19191666666667004,5.0
COM6,508,24-Jul-18,2018-07-24 17:00:00,0.33326666666667,0.2924,0.2678,0.25341666666667,0.23823333333332997,0.21046666666667002,0.21685,5.0
COM6,508,24-Jul-18,2018-07-24 18:00:00,0.49616666666667,0.45568333333333,0.42303333333333,0.4072,0.38595,0.35643333333333,0.36521666666667,5.0
COM6,508,24-Jul-18,2018-07-24 19:00:00,0.79163333333333,0.70795,0.6478833333333299,0.6198333333333299,0.5747333333333299,0.50845,0.51941666666667,5.0
COM6,508,24-Jul-18,2018-07-24 20:00:00,1.3749166666666999,1.0067833333333,0.82341666666667,0.7213,0.61251666666667,0.45086666666666997,0.4493,5.0
COM6,508,24-Jul-18,2018-07-24 21:00:00,1.09435,0.80601666666667,0.66196666666667,0.59046666666667,0.503,0.3659,0.36698333333333,5.0
COM6,508,24-Jul-18,2018-07-24 22:00:00,0.38961666666667,0.30955,0.26911666666667006,0.24645,0.21851666666667002,0.17726666666667004,0.17891666666667003,5.0
COM6,508,24-Jul-18,2018-07-24 23:00:00,0.5697627118644101,0.48030508474576006,0.42922033898305,0.40445762711864003,0.37301694915253997,0.32523728813559005,0.33147457627119004,5.0
