COM4,508,03-Jan-20,2020-01-03 00:00:00,0.32259322033897997,0.19889830508474998,0.16922033898305,0.15371186440678,0.13835593220339001,0.11800000000000001,0.11838983050846999,5.0
COM4,508,03-Jan-20,2020-01-03 01:00:00,-0.06098333333333301,0.018716666666667,0.0189,0.018583333333333,0.01795,0.017916666666667,0.019133333333333,5.0
COM4,508,03-Jan-20,2020-01-03 02:00:00,-0.0782,0.012516666666667,0.0188,0.024083333333332995,0.024383333333332993,0.024983333333332997,0.02435,5.0
COM4,508,03-Jan-20,2020-01-03 03:00:00,0.12298333333333,0.15125,0.1413,0.14086666666667003,0.13155,0.12483333333333001,0.12838333333333002,5.0
COM4,508,03-Jan-20,2020-01-03 04:00:00,0.42158333333333,0.38665,0.35723333333333,0.34818333333333,0.33136666666667,0.30698333333333,0.31615,5.0
COM4,508,03-Jan-20,2020-01-03 05:00:00,0.62935,0.58365,0.54195,0.53118333333333,0.5025166666666699,0.46808333333333,0.47708333333333003,5.0
COM4,508,03-Jan-20,2020-01-03 06:00:00,1.1740166666667,1.0894,1.0084166666667,0.99305,0.94426666666667,0.89343333333333,0.91918333333333,5.0
COM4,508,03-Jan-20,2020-01-03 07:00:00,1.1789833333333,1.09035,1.0049666666666999,0.98443333333333,0.93095,0.8745166666666699,0.89715,5.0
COM4,508,03-Jan-20,2020-01-03 08:00:00,1.6032,1.5045166666667,1.3935166666667,1.3631,1.2893,1.2053166666667,1.2336666666667,5.0
COM4,508,03-Jan-20,2020-01-03 09:00:00,3.6475166666667,3.2795166666667,2.96615,2.8609666666667004,2.6783333333333,2.49265,2.5542,5.0
COM4,508,03-Jan-20,2020-01-03 10:00:00,2.0051166666666997,1.8980166666667,1.7415333333333,1.6908,1.5896666666666999,1.4668,1.4974333333333,5.0
COM4,508,03-Jan-20,2020-01-03 11:00:00,1.4386666666666998,1.3479333333333001,1.25975,1.2154833333333002,1.1542166666667,1.0411833333333,1.0701833333333,5.0
COM4,508,03-Jan-20,2020-01-03 12:00:00,0.95403333333333,0.83568333333333,0.78526666666667,0.74723333333333,0.72798333333333,0.6552666666666701,0.6807,4.6666666666667
COM4,508,03-Jan-20,2020-01-03 13:00:00,0.65448333333333,0.51025,0.48953333333333,0.47938333333333,0.47468333333333,0.45466666666667,0.4731,5.0
COM4,508,03-Jan-20,2020-01-03 14:00:00,0.5624166666666701,0.54771666666667,0.52075,0.51268333333333,0.50373333333333,0.48621666666667,0.50363333333333,5.0
COM4,508,03-Jan-20,2020-01-03 15:00:00,0.7464833333333301,0.76976666666667,0.73176666666667,0.72111666666667,0.70791666666667,0.68355,0.70646666666667,5.0
COM4,508,03-Jan-20,2020-01-03 16:00:00,1.0158166666667,0.99653333333333,0.94335,0.93018333333333,0.9097833333333301,0.8834,0.9129999999999999,5.0
COM4,508,03-Jan-20,2020-01-03 17:00:00,0.8208,0.76946666666667,0.7148,0.69613333333333,0.67405,0.6459833333333299,0.6663166666666701,5.0
COM4,508,03-Jan-20,2020-01-03 18:00:00,1.2959,1.2196166666666999,1.14065,1.1185833333333,1.0772666666667,1.0295,1.0592666666666999,5.0
COM4,508,03-Jan-20,2020-01-03 19:00:00,1.14925,1.01655,0.9419,0.92198333333333,0.87806666666667,0.83236666666667,0.85361666666667,5.0
COM4,508,03-Jan-20,2020-01-03 20:00:00,1.4444666666666999,1.1424833333333,1.0380833333333002,1.0100833333333001,0.9507,0.88466666666667,0.90231666666667,5.0
COM4,508,03-Jan-20,2020-01-03 21:00:00,1.35925,1.0271333333333001,0.93775,0.91565,0.86275,0.8093,0.82421666666667,5.0
COM4,508,03-Jan-20,2020-01-03 22:00:00,1.4655666666667,0.97278333333333,0.86003333333333,0.82065,0.76236666666667,0.70431666666667,0.71553333333333,5.0
COM4,508,03-Jan-20,2020-01-03 23:00:00,1.3601833333333,1.008,0.90646666666667,0.87093333333333,0.8177,0.76071666666667,0.77766666666667,5.0
