COM6,508,25-May-18,2018-05-25 00:00:00,1.2467966101695,1.1960847457627,1.1466271186441002,1.1381694915254,1.1129322033898001,1.0950847457627,1.1312881355931999,5
COM6,508,25-May-18,2018-05-25 01:00:00,1.2970333333333,1.3289666666667,1.2733,1.2638833333333002,1.2311333333333,1.20195,1.2385833333333,5
COM6,508,25-May-18,2018-05-25 02:00:00,1.0942166666667,1.01315,0.95363333333333,0.9287,0.89636666666667,0.86078333333333,0.88505,5
COM6,508,25-May-18,2018-05-25 03:00:00,0.81445,0.80643333333333,0.77015,0.76145,0.73865,0.71125,0.7304,5
COM6,508,25-May-18,2018-05-25 04:00:00,1.12185,1.1077666666666999,1.06225,1.0549,1.0259833333333002,0.99225,1.0222,5
COM6,508,25-May-18,2018-05-25 05:00:00,2.2130333333333,2.1045833333333,1.99115,1.9602666666667,1.8884833333333,1.8033666666666999,1.8534833333333,5
COM6,508,25-May-18,2018-05-25 06:00:00,1.52935,1.4613333333333,1.3898333333333,1.37505,1.3273833333333,1.2708333333333,1.3051666666667,5
COM6,508,25-May-18,2018-05-25 07:00:00,2.7455333333332996,2.6310333333332996,2.4974833333333,2.4754166666667,2.3858833333333,2.2930833333333,2.3596833333332996,5
COM6,508,25-May-18,2018-05-25 08:00:00,2.1458833333333,2.0486333333333,1.9452,1.9314666666667,1.8560666666666998,1.7750166666667,1.8245166666666999,5
COM6,508,25-May-18,2018-05-25 09:00:00,1.8790166666666999,1.7619999999999998,1.65945,1.64085,1.5649,1.4829333333333001,1.5223666666667,5
COM6,508,25-May-18,2018-05-25 10:00:00,1.3967833333333,1.2986833333333,1.2185833333333,1.2013833333333002,1.14045,1.06605,1.09265,5
COM6,508,25-May-18,2018-05-25 11:00:00,0.78808333333333,0.72266666666667,0.67378333333333,0.66311666666667,0.62651666666667,0.5836666666666701,0.6003,5
COM6,508,25-May-18,2018-05-25 12:00:00,0.44065,0.39856666666667,0.36945,0.36001666666667,0.33956666666667,0.31285,0.32166666666667,5
COM6,508,25-May-18,2018-05-25 13:00:00,0.51538333333333,0.45825,0.42501666666667,0.41186666666667,0.39051666666667,0.36426666666667,0.37381666666667,5
COM6,508,25-May-18,2018-05-25 14:00:00,0.61036666666667,0.55593333333333,0.51935,0.50456666666667,0.48001666666667,0.44213333333333,0.45361666666667,5
COM6,508,25-May-18,2018-05-25 15:00:00,0.5836833333333299,0.53596666666667,0.50178333333333,0.49103333333333,0.46433333333333,0.42393333333333,0.43635,5
COM6,508,25-May-18,2018-05-25 16:00:00,0.33586666666667,0.2925,0.26956666666667,0.25991666666667,0.24658333333332996,0.22626666666667003,0.23451666666667004,5
COM6,508,25-May-18,2018-05-25 17:00:00,0.48233333333333,0.4341,0.40433333333333,0.39355,0.37576666666666997,0.35841666666667,0.36836666666667,5
COM6,508,25-May-18,2018-05-25 18:00:00,0.29718333333333,0.26683333333333,0.24785,0.23995,0.2259,0.20556666666667003,0.2103,5
COM6,508,25-May-18,2018-05-25 19:00:00,0.4474,0.40399999999999997,0.37525,0.3669,0.3471,0.32406666666667,0.3325,5
COM6,508,25-May-18,2018-05-25 20:00:00,0.99881666666667,0.7688,0.68286666666667,0.64338333333333,0.5852333333333299,0.50395,0.51091666666667,5
COM6,508,25-May-18,2018-05-25 21:00:00,0.43799999999999994,0.35478333333333,0.31545,0.29573333333333,0.2677,0.23663333333332998,0.24193333333332998,5
COM6,508,25-May-18,2018-05-25 22:00:00,0.5072,0.42468333333333,0.38163333333333,0.36308333333333,0.33311666666667,0.30121666666667,0.30766666666667,5
COM6,508,25-May-18,2018-05-25 23:00:00,0.48403389830508003,0.41618644067797,0.37825423728814,0.36201694915253996,0.33581355932203,0.29728813559322,0.30350847457627,5
