COM4,508,26-Feb-20,2020-02-26 00:00:00,0.1323275862069,0.12691379310345,0.11927586206896999,0.11868965517241001,0.11187931034483001,0.10882758620689999,0.1095,5
COM4,508,26-Feb-20,2020-02-26 01:00:00,0.16556666666667003,0.15176666666667002,0.1411,0.13863333333333,0.13121666666667,0.12365,0.12655,5
COM4,508,26-Feb-20,2020-02-26 02:00:00,0.20535,0.16906666666667003,0.15295,0.14805,0.13688333333333,0.12646666666667,0.12791666666666998,5
COM4,508,26-Feb-20,2020-02-26 03:00:00,0.13461666666667,0.1202,0.11098333333333,0.10773333333333,0.1,0.0922,0.09443333333333301,5
COM4,508,26-Feb-20,2020-02-26 04:00:00,0.1834,0.16323333333332998,0.15061666666667,0.14615,0.13885,0.13065,0.13398333333333,5
COM4,508,26-Feb-20,2020-02-26 05:00:00,0.1652,0.14655,0.1345,0.13013333333333,0.1225,0.11588333333333001,0.11763333333333001,5
COM4,508,26-Feb-20,2020-02-26 06:00:00,0.50796666666667,0.49081666666667,0.46223333333333,0.45745,0.43928333333333003,0.42045,0.43191666666667,5
COM4,508,26-Feb-20,2020-02-26 07:00:00,0.8674166666666699,0.84406666666667,0.79503333333333,0.78776666666667,0.75316666666667,0.71791666666667,0.73596666666667,5
COM4,508,26-Feb-20,2020-02-26 08:00:00,1.4649666666666998,1.4287333333333,1.3466,1.3372666666667,1.2834666666666998,1.2354333333333,1.2685,5
COM4,508,26-Feb-20,2020-02-26 09:00:00,1.1661833333333,1.1644833333333,1.10275,1.09805,1.0567833333333,1.0275166666667,1.0553166666667,5
COM4,508,26-Feb-20,2020-02-26 10:00:00,1.13695,1.11565,1.05385,1.0448166666667,1.0088333333333002,0.97538333333333,1.0054,5
COM4,508,26-Feb-20,2020-02-26 11:00:00,0.78918333333333,0.73903333333333,0.69875,0.6796,0.66815,0.63455,0.6601,5
COM4,508,26-Feb-20,2020-02-26 12:00:00,0.72671666666667,0.67763333333333,0.6392666666666701,0.6182166666666701,0.61018333333333,0.5765666666666701,0.60303333333333,5
COM4,508,26-Feb-20,2020-02-26 13:00:00,0.60733333333333,0.5673,0.53263333333333,0.51811666666667,0.50703333333333,0.48035,0.49841666666667,5
COM4,508,26-Feb-20,2020-02-26 14:00:00,0.55805,0.52041666666667,0.48855,0.47563333333333,0.46246666666666997,0.44071666666667,0.45751666666667,5
COM4,508,26-Feb-20,2020-02-26 15:00:00,0.49505,0.44895,0.41796666666667,0.40523333333333,0.391,0.36941666666667,0.38303333333333,5
COM4,508,26-Feb-20,2020-02-26 16:00:00,0.28998333333333,0.27571666666667,0.25776666666667003,0.25061666666667004,0.24431666666667004,0.23046666666667004,0.23915,5
COM4,508,26-Feb-20,2020-02-26 17:00:00,0.22423333333332998,0.2127,0.2013,0.19553333333332998,0.1894,0.17865,0.18505,5
COM4,508,26-Feb-20,2020-02-26 18:00:00,0.29765,0.27135,0.25251666666667005,0.24488333333332996,0.23853333333332996,0.22545,0.23428333333332996,5
COM4,508,26-Feb-20,2020-02-26 19:00:00,0.27141666666667,0.25448333333332995,0.2366,0.23148333333332996,0.21883333333332997,0.20818333333332997,0.2123,5
COM4,508,26-Feb-20,2020-02-26 20:00:00,0.31331666666667,0.2824,0.25963333333332994,0.25816666666667004,0.23861666666667003,0.2289,0.23271666666667004,5
COM4,508,26-Feb-20,2020-02-26 21:00:00,0.54223333333333,0.47396666666667,0.43151666666667,0.42873333333333,0.3972,0.38141666666667,0.38703333333333,5
COM4,508,26-Feb-20,2020-02-26 22:00:00,0.82355,0.7486,0.68833333333333,0.68816666666667,0.6385,0.61238333333333,0.62228333333333,5
COM4,508,26-Feb-20,2020-02-26 23:00:00,0.52013333333333,0.47358333333333,0.4322,0.43185,0.39088333333333003,0.37058333333333,0.37161666666667,5
