COM6,508,29-Nov-17,2017-11-29 00:00:00,1.1203559322033998,1.0084576271186,0.9433389830508501,0.9204745762711899,0.87093220338983,0.81971186440678,0.83754237288136,5.0
COM6,508,29-Nov-17,2017-11-29 01:00:00,0.67146666666667,0.6368833333333299,0.5987833333333299,0.58325,0.54908333333333,0.51153333333333,0.52228333333333,5.0
COM6,508,29-Nov-17,2017-11-29 02:00:00,0.86955,0.89658333333333,0.84711666666667,0.83631666666667,0.79603333333333,0.7629,0.78258333333333,5.0
COM6,508,29-Nov-17,2017-11-29 03:00:00,1.6628166666667,1.55945,1.4582166666667,1.4248166666667,1.3490166666666998,1.2761,1.3051,5.0
COM6,508,29-Nov-17,2017-11-29 04:00:00,1.3119666666667,1.23845,1.15785,1.1320666666666999,1.0695666666666999,1.0048666666666999,1.0280833333333002,5.0
COM6,508,29-Nov-17,2017-11-29 05:00:00,1.38725,1.33835,1.2558666666667,1.2324333333333,1.1653,1.09545,1.1204666666667,5.0
COM6,508,29-Nov-17,2017-11-29 06:00:00,1.5978833333333,1.5469833333333,1.4470666666667,1.4162833333333,1.3418833333333,1.2641166666666999,1.2936166666667,5.0
COM6,508,29-Nov-17,2017-11-29 07:00:00,2.00145,1.9069666666667,1.7716333333333,1.7243,1.6213166666667,1.50655,1.5409833333333,5.0
COM6,508,29-Nov-17,2017-11-29 08:00:00,3.2084833333333,3.0238333333333,2.7970666666667,2.716,2.5517333333332997,2.3695,2.4177,5.0
COM6,508,29-Nov-17,2017-11-29 09:00:00,2.78205,2.7170166666667,2.5385666666667004,2.4841333333332996,2.3381166666667004,2.1639166666667,2.2079166666667,5.0
COM6,508,29-Nov-17,2017-11-29 10:00:00,1.8443333333333,1.8384166666667,1.7288666666666999,1.6903333333333002,1.6024333333333,1.4851833333333,1.5197666666667,5.0
COM6,508,29-Nov-17,2017-11-29 11:00:00,2.0446333333333,2.0187166666667,1.8954833333333,1.8486333333333,1.7562166666666998,1.61665,1.6505,5.0
COM6,508,29-Nov-17,2017-11-29 12:00:00,1.0816,1.0833666666667,1.0179166666666999,0.99236666666667,0.9410166666666699,0.8571,0.87763333333333,5.0
COM6,508,29-Nov-17,2017-11-29 13:00:00,0.53536666666667,0.53068333333333,0.50708333333333,0.49493333333333,0.47693333333333,0.44416666666667,0.45915,4.6666666666667
COM6,508,29-Nov-17,2017-11-29 14:00:00,0.9473,0.83925,0.79751666666667,0.78525,0.76098333333333,0.7345,0.75676666666667,5.0
COM6,508,29-Nov-17,2017-11-29 15:00:00,0.42576666666667,0.38021666666667,0.36018333333333,0.35411666666667,0.34408333333333,0.33165,0.34255,5.0
COM6,508,29-Nov-17,2017-11-29 16:00:00,0.28428333333333,0.29591666666667,0.28088333333333,0.27585,0.26996666666667,0.26115,0.27033333333333,5.0
COM6,508,29-Nov-17,2017-11-29 17:00:00,0.50601666666667,0.52836666666667,0.50285,0.4954,0.48276666666667,0.46635,0.48376666666667,5.0
COM6,508,29-Nov-17,2017-11-29 18:00:00,0.67118333333333,0.6628833333333299,0.6238666666666701,0.60971666666667,0.58605,0.54968333333333,0.5643,5.0
COM6,508,29-Nov-17,2017-11-29 19:00:00,0.55585,0.48978333333333,0.44908333333333,0.43201666666667,0.41043333333333,0.38175,0.39066666666667,5.0
COM6,508,29-Nov-17,2017-11-29 20:00:00,0.69916666666667,0.59423333333333,0.5467,0.52436666666667,0.4965,0.46508333333333,0.47798333333333,5.0
COM6,508,29-Nov-17,2017-11-29 21:00:00,0.64443333333333,0.54193333333333,0.49465,0.4735,0.44746666666667,0.41741666666667,0.42706666666667,5.0
COM6,508,29-Nov-17,2017-11-29 22:00:00,0.63345,0.6228833333333299,0.58608333333333,0.5728,0.54603333333333,0.51436666666667,0.52848333333333,5.0
COM6,508,29-Nov-17,2017-11-29 23:00:00,0.46536363636364,0.40754545454545,0.37441818181818,0.36301818181818,0.34252727272727007,0.32170909090909006,0.32903636363635996,5.0
