COM4,508,13-Dec-19,2019-12-13 00:00:00,0.12066101694914999,0.15571186440678,0.14894915254237,0.1514406779661,0.14084745762712,0.13677966101695,0.13649152542373,5.0
COM4,508,13-Dec-19,2019-12-13 01:00:00,0.05941666666666699,0.08683333333333298,0.081583333333333,0.08505,0.07765,0.077233333333333,0.07693333333333299,5.0
COM4,508,13-Dec-19,2019-12-13 02:00:00,0.17341666666667002,0.1682,0.15606666666667002,0.15426666666667002,0.14146666666667002,0.13658333333333,0.13723333333333002,5.0
COM4,508,13-Dec-19,2019-12-13 03:00:00,0.35891666666667,0.33321666666667,0.30738333333333,0.30045,0.28291666666667,0.26616666666667005,0.27245,5.0
COM4,508,13-Dec-19,2019-12-13 04:00:00,0.16515,0.13893333333333,0.12448333333333,0.11723333333333001,0.10665,0.095783333333333,0.09595,5.0
COM4,508,13-Dec-19,2019-12-13 05:00:00,0.18563333333332996,0.16808333333332998,0.1496,0.14058333333332998,0.12906666666667,0.11199999999999999,0.11671666666667,5.0
COM4,508,13-Dec-19,2019-12-13 06:00:00,0.3067,0.2801,0.25416666666667004,0.2466,0.22555,0.20658333333332995,0.2086,5.0
COM4,508,13-Dec-19,2019-12-13 07:00:00,0.52301666666667,0.45001666666667,0.40231666666667,0.38533333333333003,0.35223333333333,0.32366666666667,0.32816666666667,5.0
COM4,508,13-Dec-19,2019-12-13 08:00:00,0.6019333333333299,0.54346666666667,0.49101666666667,0.47118333333333,0.43643333333333,0.39463333333333,0.40038333333333,5.0
COM4,508,13-Dec-19,2019-12-13 09:00:00,0.70591666666667,0.67316666666667,0.61513333333333,0.59756666666667,0.55506666666667,0.51063333333333,0.51716666666667,5.0
COM4,508,13-Dec-19,2019-12-13 10:00:00,0.34476666666667,0.3138,0.2852,0.27306666666667,0.25108333333333,0.21675,0.22136666666667004,5.0
COM4,508,13-Dec-19,2019-12-13 11:00:00,0.17203333333332996,0.12781666666667,0.11308333333333001,0.09975,0.0982,0.080366666666667,0.08541666666666702,5.0
COM4,508,13-Dec-19,2019-12-13 12:00:00,1.6225166666667,1.5607,1.4478166666666998,1.40965,1.3639333333333001,1.3081,1.3525666666667,5.0
COM4,508,13-Dec-19,2019-12-13 13:00:00,0.685,0.59593333333333,0.54948333333333,0.51426666666667,0.49785,0.44548333333333,0.46006666666667,5.0
COM4,508,13-Dec-19,2019-12-13 14:00:00,0.37528333333333,0.31536666666667,0.28265,0.25948333333332996,0.25238333333332996,0.22281666666667002,0.23043333333332996,5.0
COM4,508,13-Dec-19,2019-12-13 15:00:00,0.26613333333332995,0.22131666666667002,0.1984,0.18003333333332996,0.17403333333332996,0.15226666666667002,0.15845,5.0
COM4,508,13-Dec-19,2019-12-13 16:00:00,0.20748333333332997,0.1823,0.16356666666667002,0.15816666666667,0.14546666666667002,0.13085,0.13406666666667,5.0
COM4,508,13-Dec-19,2019-12-13 17:00:00,0.42246666666667,0.385,0.34898333333333,0.33785,0.31645,0.29575,0.2997,5.0
COM4,508,13-Dec-19,2019-12-13 18:00:00,0.69373333333333,0.6318,0.5739166666666701,0.55291666666667,0.50955,0.46221666666667,0.46815,5.0
COM4,508,13-Dec-19,2019-12-13 19:00:00,0.44698333333333,0.40573333333333,0.36956666666667,0.36136666666667,0.33606666666667,0.31308333333333,0.31778333333333003,5.0
COM4,508,13-Dec-19,2019-12-13 20:00:00,0.7759,0.65981666666667,0.59498333333333,0.57746666666667,0.53466666666667,0.4945,0.50173333333333,5.0
COM4,508,13-Dec-19,2019-12-13 21:00:00,1.16825,0.85373333333333,0.77676666666667,0.75078333333333,0.71966666666667,0.67613333333333,0.69661666666667,4.6666666666667
COM4,508,13-Dec-19,2019-12-13 22:00:00,1.5539166666667,1.2749,1.18075,1.1607333333333,1.1194333333333,1.0626166666666998,1.0910666666667,5.0
COM4,508,13-Dec-19,2019-12-13 23:00:00,1.0813833333333,0.92936666666667,0.85965,0.84408333333333,0.81596666666667,0.78181666666667,0.80316666666667,5.0
