COM4,508,17-Feb-20,2020-02-17 00:00:00,0.16455172413792998,0.14991379310345002,0.13560344827586002,0.12660344827586,0.11353448275861999,0.09382758620689699,0.09472413793103399,5
COM4,508,17-Feb-20,2020-02-17 01:00:00,0.11058333333333001,0.1144,0.1036,0.09671666666666699,0.08486666666666702,0.06561666666666699,0.06621666666666699,5
COM4,508,17-Feb-20,2020-02-17 02:00:00,0.2238,0.20676666666667004,0.18788333333332996,0.1795,0.16493333333333,0.14168333333333,0.14465,5
COM4,508,17-Feb-20,2020-02-17 03:00:00,0.18088333333332998,0.15816666666667,0.14055,0.13248333333333,0.12085,0.10308333333333,0.10463333333333001,5
COM4,508,17-Feb-20,2020-02-17 04:00:00,0.2948,0.26821666666667004,0.24075,0.23261666666667002,0.21383333333332996,0.18685,0.19165,5
COM4,508,17-Feb-20,2020-02-17 05:00:00,0.5595833333333299,0.43055,0.3834,0.36371666666667,0.33645,0.29986666666667,0.304,5
COM4,508,17-Feb-20,2020-02-17 06:00:00,0.15253333333333,0.13021666666667,0.11458333333333001,0.10756666666666999,0.0966,0.07795,0.080266666666667,5
COM4,508,17-Feb-20,2020-02-17 07:00:00,0.16399999999999998,0.14828333333333,0.13053333333333,0.12391666666666999,0.10966666666666999,0.08723333333333298,0.08991666666666699,5
COM4,508,17-Feb-20,2020-02-17 08:00:00,0.13203333333333,0.13001666666667,0.11708333333333,0.1112,0.09905,0.08793333333333299,0.088483333333333,5
COM4,508,17-Feb-20,2020-02-17 09:00:00,0.17256666666667003,0.17881666666667004,0.16125,0.15616666666667,0.13983333333332998,0.11878333333333001,0.11798333333333001,5
COM4,508,17-Feb-20,2020-02-17 10:00:00,0.1112,0.10341666666667,0.09175,0.08356666666666701,0.080833333333333,0.06851666666666699,0.069916666666667,5
COM4,508,17-Feb-20,2020-02-17 11:00:00,0.2231,0.16343333333333,0.1482,0.1297,0.13105,0.10435,0.11226666666667,5
COM4,508,17-Feb-20,2020-02-17 12:00:00,0.28438333333333,0.18353333333332997,0.16661666666667002,0.13075,0.1401,0.10515,0.11618333333333,5
COM4,508,17-Feb-20,2020-02-17 13:00:00,0.27448333333332997,0.17165,0.15051666666667002,0.11603333333333,0.12906666666667,0.08955,0.09983333333333301,5
COM4,508,17-Feb-20,2020-02-17 14:00:00,0.19226666666667003,0.12601666666667,0.11818333333333,0.088033333333333,0.098166666666667,0.06826666666666699,0.07718333333333299,5
COM4,508,17-Feb-20,2020-02-17 15:00:00,0.21983333333332997,0.14705,0.12758333333333,0.10083333333333,0.10278333333333001,0.072716666666667,0.07908333333333299,5
COM4,508,17-Feb-20,2020-02-17 16:00:00,0.174,0.15581666666667002,0.13875,0.12476666666667,0.11708333333333,0.0993,0.10338333333333001,5
COM4,508,17-Feb-20,2020-02-17 17:00:00,0.24426666666667002,0.25386666666667,0.22638333333332997,0.22416666666667004,0.19868333333332996,0.18268333333332998,0.18346666666667003,5
COM4,508,17-Feb-20,2020-02-17 18:00:00,0.49233333333333,0.43471666666666997,0.38456666666667,0.3787,0.33301666666667,0.30905,0.3056,5
COM4,508,17-Feb-20,2020-02-17 19:00:00,0.37165,0.36103333333333,0.31755,0.32668333333333,0.2755,0.26413333333332994,0.25951666666667006,5
COM4,508,17-Feb-20,2020-02-17 20:00:00,0.60466666666667,0.54131666666667,0.48303333333333,0.48091666666667,0.41983333333333,0.38985,0.38848333333333,5
COM4,508,17-Feb-20,2020-02-17 21:00:00,0.5483,0.45955,0.40795,0.39898333333333,0.35288333333333,0.3195,0.31818333333333,5
COM4,508,17-Feb-20,2020-02-17 22:00:00,0.67736666666667,0.5388333333333301,0.4735,0.46056666666667,0.41491666666667,0.37053333333333,0.37183333333333,5
COM4,508,17-Feb-20,2020-02-17 23:00:00,0.52275,0.44375,0.3977,0.3758,0.34248333333333003,0.30036666666667,0.30376666666667,5
