COM6,508,27-Oct-17,2017-10-27 00:00:00,1.1854576271186001,1.0218983050847,0.92613559322034,0.88384745762712,0.8194745762711899,0.73954237288136,0.75071186440678,5.0
COM6,508,27-Oct-17,2017-10-27 01:00:00,1.1718333333333,1.03575,0.93931666666667,0.90321666666667,0.83435,0.7542,0.76836666666667,5.0
COM6,508,27-Oct-17,2017-10-27 02:00:00,0.8377,0.73255,0.66273333333333,0.6350333333333299,0.58426666666667,0.52195,0.53461666666667,5.0
COM6,508,27-Oct-17,2017-10-27 03:00:00,0.56516666666667,0.49308333333333,0.44273333333333,0.42073333333333,0.38513333333333,0.3474,0.35333333333333,5.0
COM6,508,27-Oct-17,2017-10-27 04:00:00,0.9703,0.86295,0.78216666666667,0.75328333333333,0.69241666666667,0.62986666666667,0.6381833333333299,5.0
COM6,508,27-Oct-17,2017-10-27 05:00:00,1.5454666666666999,1.39185,1.2636166666667,1.2225333333333002,1.1291833333333001,1.0423666666667,1.0638,5.0
COM6,508,27-Oct-17,2017-10-27 06:00:00,1.5465333333333,1.3558166666667,1.2253,1.1744333333333001,1.0831,0.9952,1.0116833333333,5.0
COM6,508,27-Oct-17,2017-10-27 07:00:00,1.4980333333333,1.3933166666666998,1.3134833333333,1.2901333333333,1.2412166666667,1.1942,1.2307666666666999,4.6666666666667
COM6,508,27-Oct-17,2017-10-27 08:00:00,2.7936666666667,2.73125,2.5942166666667004,2.5649333333332995,2.4861333333332998,2.4285833333333,2.5045666666667,5.0
COM6,508,27-Oct-17,2017-10-27 09:00:00,2.22825,2.2422833333332997,2.1439833333333,2.1254166666667,2.0581166666667,2.0112833333333002,2.07255,5.0
COM6,508,27-Oct-17,2017-10-27 10:00:00,0.85596666666667,0.87925,0.83688333333333,0.83091666666667,0.79978333333333,0.78331666666667,0.8051,5.0
COM6,508,27-Oct-17,2017-10-27 11:00:00,0.51341666666667,0.52435,0.49455,0.48878333333333,0.46765,0.45286666666666997,0.46375,5.0
COM6,508,27-Oct-17,2017-10-27 12:00:00,0.29928333333333,0.30141666666667,0.28476666666667,0.28123333333333,0.26701666666667,0.25883333333333,0.266,5.0
COM6,508,27-Oct-17,2017-10-27 13:00:00,0.47826666666667,0.47086666666667,0.44421666666667,0.43278333333333,0.41468333333333,0.39451666666667,0.40471666666667,5.0
COM6,508,27-Oct-17,2017-10-27 14:00:00,0.54821666666667,0.52756666666667,0.50023333333333,0.49125,0.47076666666667,0.44701666666667,0.45991666666666997,5.0
COM6,508,27-Oct-17,2017-10-27 15:00:00,0.32586666666666997,0.3107,0.29541666666667,0.28946666666667,0.28205,0.27191666666667,0.28148333333333003,5.0
COM6,508,27-Oct-17,2017-10-27 16:00:00,0.38978333333333,0.36796666666667,0.34925,0.34385,0.33538333333333,0.32731666666667,0.33926666666667,5.0
COM6,508,27-Oct-17,2017-10-27 17:00:00,0.45296666666667,0.44868333333333,0.43,0.4237,0.41395,0.40278333333333,0.41595,5.0
COM6,508,27-Oct-17,2017-10-27 18:00:00,0.6806,0.61751666666667,0.5796166666666701,0.5682833333333299,0.54668333333333,0.52128333333333,0.53715,5.0
COM6,508,27-Oct-17,2017-10-27 19:00:00,0.6288833333333299,0.53808333333333,0.50015,0.4878,0.46358333333333,0.4362,0.4477,5.0
COM6,508,27-Oct-17,2017-10-27 20:00:00,0.39243333333333,0.3581,0.33408333333333,0.32213333333333,0.3083,0.28821666666667,0.29675,5.0
COM6,508,27-Oct-17,2017-10-27 21:00:00,0.33678333333333,0.30103333333333,0.27705,0.26905,0.25478333333333,0.2378,0.24378333333332997,5.0
COM6,508,27-Oct-17,2017-10-27 22:00:00,0.4575,0.42038333333333,0.39333333333333,0.38216666666667,0.36698333333333,0.34705,0.358,5.0
COM6,508,27-Oct-17,2017-10-27 23:00:00,0.31208928571429,0.27166071428571,0.251,0.24189285714286,0.22826785714286,0.21208928571429,0.21835714285714,5.0
