COM6,508,27-Jun-18,2018-06-27 00:00:00,0.58559322033898,0.5531355932203399,0.52013559322034,0.50922033898305,0.489,0.45962711864407,0.47030508474576005,5
COM6,508,27-Jun-18,2018-06-27 01:00:00,1.1549,1.1500333333333002,1.0996,1.0907833333333001,1.0649833333333,1.0371166666667,1.0686,5
COM6,508,27-Jun-18,2018-06-27 02:00:00,0.72775,0.71468333333333,0.68291666666667,0.67685,0.65848333333333,0.6357833333333299,0.6549,5
COM6,508,27-Jun-18,2018-06-27 03:00:00,0.6187,0.5567166666666701,0.51891666666667,0.5051,0.4848,0.45773333333333,0.47156666666667,5
COM6,508,27-Jun-18,2018-06-27 04:00:00,0.47246666666667,0.41848333333333,0.38688333333333,0.37535,0.35731666666667,0.33336666666667,0.34023333333333,5
COM6,508,27-Jun-18,2018-06-27 05:00:00,0.90586666666667,0.87831666666667,0.83571666666667,0.82575,0.80045,0.77463333333333,0.7978833333333301,5
COM6,508,27-Jun-18,2018-06-27 06:00:00,0.84428333333333,0.83555,0.80233333333333,0.79871666666667,0.7773,0.75465,0.77618333333333,5
COM6,508,27-Jun-18,2018-06-27 07:00:00,2.32995,2.35365,2.2558166666667003,2.24455,2.1825666666667,2.1248333333333003,2.1935666666666997,5
COM6,508,27-Jun-18,2018-06-27 08:00:00,1.7814333333333001,1.7860833333333002,1.70945,1.6992166666667,1.6454333333333,1.5926666666667,1.6404333333333,5
COM6,508,27-Jun-18,2018-06-27 09:00:00,1.20585,1.20395,1.1557833333333,1.1523166666667,1.1155333333333,1.0791666666667,1.1089,5
COM6,508,27-Jun-18,2018-06-27 10:00:00,0.99021666666667,1.02405,1.0009833333333,1.0145166666667,0.9948,0.9855,1.0152666666666998,5
COM6,508,27-Jun-18,2018-06-27 11:00:00,0.73686666666667,0.69636666666667,0.65985,0.65075,0.62165,0.5825666666666701,0.5973833333333299,5
COM6,508,27-Jun-18,2018-06-27 12:00:00,1.0116333333333,0.94473333333333,0.88376666666667,0.86313333333333,0.81586666666667,0.7565333333333301,0.77401666666667,5
COM6,508,27-Jun-18,2018-06-27 13:00:00,1.0598666666667,0.97761666666667,0.9101,0.88436666666667,0.83265,0.76121666666667,0.77776666666667,5
COM6,508,27-Jun-18,2018-06-27 14:00:00,1.0409833333333,0.92546666666667,0.85066666666667,0.81748333333333,0.76445,0.69221666666667,0.70973333333333,5
COM6,508,27-Jun-18,2018-06-27 15:00:00,0.94173333333333,0.83546666666667,0.7668,0.73366666666667,0.68485,0.61433333333333,0.6285833333333299,5
COM6,508,27-Jun-18,2018-06-27 16:00:00,0.80773333333333,0.73106666666667,0.67566666666667,0.65243333333333,0.61205,0.55578333333333,0.56926666666667,5
COM6,508,27-Jun-18,2018-06-27 17:00:00,0.72381666666667,0.645,0.5940666666666701,0.57083333333333,0.53318333333333,0.47801666666667,0.48806666666667,5
COM6,508,27-Jun-18,2018-06-27 18:00:00,0.69765,0.6355166666666701,0.5914833333333299,0.5756166666666701,0.53926666666667,0.49243333333333,0.50235,5
COM6,508,27-Jun-18,2018-06-27 19:00:00,0.5314,0.46496666666666997,0.42496666666667,0.40695,0.37861666666667,0.33605,0.34371666666667,5
COM6,508,27-Jun-18,2018-06-27 20:00:00,0.4272,0.35023333333333,0.30955,0.29148333333333,0.26246666666667,0.22306666666667002,0.22646666666667004,5
COM6,508,27-Jun-18,2018-06-27 21:00:00,0.36338333333333,0.3058,0.2716,0.25718333333333,0.23053333333332998,0.20131666666667003,0.20371666666667004,5
COM6,508,27-Jun-18,2018-06-27 22:00:00,0.34028333333333,0.28716666666667,0.25596666666667,0.24206666666667004,0.21511666666667004,0.1808,0.18338333333332996,5
COM6,508,27-Jun-18,2018-06-27 23:00:00,0.40796610169492,0.29150847457627005,0.24269491525424,0.21705084745763,0.18767796610169002,0.15071186440678,0.15450847457626998,5
