COM6,508,30-Dec-17,2017-12-30 00:00:00,1.0277796610169,0.88730508474576,0.82196610169492,0.79693220338983,0.7595932203389799,0.7202203389830499,0.7398135593220301,5.0
COM6,508,30-Dec-17,2017-12-30 01:00:00,0.7774,0.6729999999999999,0.61756666666667,0.5955,0.5651,0.53151666666667,0.54551666666667,5.0
COM6,508,30-Dec-17,2017-12-30 02:00:00,0.4715,0.447,0.41115,0.39863333333333,0.38036666666667,0.35991666666667,0.3691,5.0
COM6,508,30-Dec-17,2017-12-30 03:00:00,0.60785,0.58755,0.5523166666666701,0.54198333333333,0.52271666666667,0.50908333333333,0.5256833333333301,5.0
COM6,508,30-Dec-17,2017-12-30 04:00:00,0.5317,0.5145,0.48688333333333,0.47781666666667,0.46088333333333,0.4486,0.46241666666667,5.0
COM6,508,30-Dec-17,2017-12-30 05:00:00,0.4675,0.45818333333333,0.43471666666666997,0.42791666666667,0.41346666666667,0.40086666666667,0.41313333333333,5.0
COM6,508,30-Dec-17,2017-12-30 06:00:00,0.54673333333333,0.49221666666667,0.46058333333333,0.452,0.43535,0.42146666666667,0.43446666666667,5.0
COM6,508,30-Dec-17,2017-12-30 07:00:00,0.55345,0.49655,0.46418333333333,0.45201666666667,0.43208333333333,0.41106666666667,0.42318333333333,5.0
COM6,508,30-Dec-17,2017-12-30 08:00:00,1.1355333333333,1.06085,1.0024166666667,0.98515,0.9470000000000001,0.9169,0.9450666666666699,5.0
COM6,508,30-Dec-17,2017-12-30 09:00:00,2.35815,2.2116333333332996,2.1045333333333,2.0864833333333,2.0240833333333,1.9983666666667,2.0651833333333,5.0
COM6,508,30-Dec-17,2017-12-30 10:00:00,3.5343333333333,3.3204833333333,3.1468666666667002,3.1097333333333,2.9931333333333,2.905,2.9951666666667003,5.0
COM6,508,30-Dec-17,2017-12-30 11:00:00,1.8429166666666998,1.6965166666667,1.5856666666666999,1.55655,1.48355,1.4151833333333002,1.4558666666667,5.0
COM6,508,30-Dec-17,2017-12-30 12:00:00,3.06135,2.8625,2.69445,2.6535,2.53525,2.4245833333333,2.49435,5.0
COM6,508,30-Dec-17,2017-12-30 13:00:00,4.1592166666667,3.91495,3.69065,3.64085,3.4756333333333,3.3090333333333,3.40205,5.0
COM6,508,30-Dec-17,2017-12-30 14:00:00,4.5137166666667,4.0917666666667,3.8041833333332997,3.7187,3.5120333333333,3.2714333333332997,3.3548166666667,5.0
COM6,508,30-Dec-17,2017-12-30 15:00:00,3.4802166666667,3.1983666666667,2.9679,2.89855,2.7335833333333,2.5329166666667002,2.5989,5.0
COM6,508,30-Dec-17,2017-12-30 16:00:00,3.5634333333333,3.1651666666667,2.9063833333332996,2.8147333333332996,2.6305333333333,2.4125666666667,2.4664166666667002,5.0
COM6,508,30-Dec-17,2017-12-30 17:00:00,3.5609833333333,3.1481666666667003,2.8780666666667,2.7926,2.5910666666667,2.3534,2.4028666666667005,5.0
COM6,508,30-Dec-17,2017-12-30 18:00:00,2.3373166666667005,2.0276666666667,1.8678333333333001,1.8081333333333,1.7021666666667,1.57925,1.6214,4.6666666666667
COM6,508,30-Dec-17,2017-12-30 19:00:00,1.3526833333333002,1.0688166666667,0.99223333333333,0.96365,0.91775,0.87161666666667,0.89446666666667,5.0
COM6,508,30-Dec-17,2017-12-30 20:00:00,0.85456666666667,0.7443,0.69426666666667,0.67923333333333,0.64768333333333,0.62023333333333,0.6359666666666701,5.0
COM6,508,30-Dec-17,2017-12-30 21:00:00,0.45923333333333,0.48065,0.45556666666667,0.45241666666667,0.43416666666667,0.42238333333333,0.43315,5.0
COM6,508,30-Dec-17,2017-12-30 22:00:00,0.88165,0.8337,0.78218333333333,0.7673,0.73765,0.7101666666666699,0.73045,5.0
COM6,508,30-Dec-17,2017-12-30 23:00:00,1.2628909090909,1.1560545454545,1.0794363636364,1.0548181818181999,1.0072909090909,0.95843636363636,0.9831090909090899,5.0
