COM6,508,18-Jan-18,2018-01-18 00:00:00,1.4721186440678,1.3068474576271,1.2292881355932,1.2100847457627,1.1503220338983,1.1003559322033998,1.1258813559321998,5.0
COM6,508,18-Jan-18,2018-01-18 01:00:00,0.7186,0.70081666666667,0.6605,0.6533333333333299,0.62356666666667,0.59718333333333,0.6113666666666701,5.0
COM6,508,18-Jan-18,2018-01-18 02:00:00,0.7152,0.69513333333333,0.6551,0.6448833333333299,0.61485,0.5888333333333299,0.6035,5.0
COM6,508,18-Jan-18,2018-01-18 03:00:00,1.1742,1.1129166666666999,1.0443666666667,1.0304166666666998,0.97906666666667,0.93591666666667,0.95846666666667,5.0
COM6,508,18-Jan-18,2018-01-18 04:00:00,1.0264,0.96746666666667,0.9082,0.89333333333333,0.84738333333333,0.80678333333333,0.82658333333333,5.0
COM6,508,18-Jan-18,2018-01-18 05:00:00,0.87276666666667,0.81825,0.76225,0.74681666666667,0.70838333333333,0.67233333333333,0.68836666666667,5.0
COM6,508,18-Jan-18,2018-01-18 06:00:00,0.69856666666667,0.6600333333333299,0.6149666666666701,0.6055333333333299,0.5716333333333299,0.54523333333333,0.5585833333333299,5.0
COM6,508,18-Jan-18,2018-01-18 07:00:00,2.7514333333332996,2.5645833333333,2.3960166666667004,2.3526333333332996,2.2286833333333,2.1213666666667,2.1736166666667,5.0
COM6,508,18-Jan-18,2018-01-18 08:00:00,3.7038333333332996,3.4323166666667,3.19715,3.1405,2.9620166666667003,2.8064,2.87125,5.0
COM6,508,18-Jan-18,2018-01-18 09:00:00,4.037,3.7352666666667003,3.4731666666667,3.4119833333333,3.2135,3.0274666666667,3.0991166666667,5.0
COM6,508,18-Jan-18,2018-01-18 10:00:00,1.80165,1.75765,1.64505,1.6173833333333,1.5266,1.4241666666666999,1.4571833333333,5.0
COM6,508,18-Jan-18,2018-01-18 11:00:00,1.9011333333333,1.8607,1.7385,1.7054333333333,1.61965,1.51655,1.558,5.0
COM6,508,18-Jan-18,2018-01-18 12:00:00,1.3658333333333001,1.3591666666667,1.2715833333333,1.24675,1.1830333333333,1.1107833333333001,1.14035,5.0
COM6,508,18-Jan-18,2018-01-18 13:00:00,1.3197333333333001,1.2964666666667,1.2115,1.1911166666667,1.1266833333333,1.0494666666666999,1.0792333333333,5.0
COM6,508,18-Jan-18,2018-01-18 14:00:00,1.2183,1.1688333333333,1.0902666666667,1.0615333333333001,1.0108833333333,0.93928333333333,0.96678333333333,5.0
COM6,508,18-Jan-18,2018-01-18 15:00:00,1.2261333333333,1.1174166666667,1.0568333333333,1.0387833333333,1.00365,0.95715,0.99153333333333,4.6666666666667
COM6,508,18-Jan-18,2018-01-18 16:00:00,1.8978,1.8015833333333,1.7236833333333001,1.7093833333333,1.6705833333333,1.64285,1.6989666666667,5.0
COM6,508,18-Jan-18,2018-01-18 17:00:00,1.4594666666667,1.4872666666667,1.42535,1.4118,1.38035,1.3526333333333,1.3983333333333001,5.0
COM6,508,18-Jan-18,2018-01-18 18:00:00,1.2208833333333,1.2578166666667,1.2067666666666998,1.1979666666667,1.1715666666667,1.14755,1.1862,5.0
COM6,508,18-Jan-18,2018-01-18 19:00:00,2.0082333333333002,1.9547333333333001,1.8627833333333002,1.8369,1.7781666666667,1.7143833333333,1.76865,5.0
COM6,508,18-Jan-18,2018-01-18 20:00:00,1.46055,1.3653833333333,1.2926,1.2695333333333,1.2235,1.17645,1.2132166666667,5.0
COM6,508,18-Jan-18,2018-01-18 21:00:00,2.3308,2.2528166666667,2.1653666666666997,2.1628833333333,2.1093,2.0926166666667,2.1670333333333,5.0
COM6,508,18-Jan-18,2018-01-18 22:00:00,1.42775,1.7539333333333,1.84085,1.9926,2.0899833333333,2.3806333333332996,2.51425,5.0
COM6,508,18-Jan-18,2018-01-18 23:00:00,0.11987272727273,0.21712727272726998,0.23314545454545002,0.25823636363636,0.26605454545455,0.30163636363636,0.31656363636364004,5.0
