COM6,508,05-Apr-19,2019-04-05 00:00:00,0.14201694915254,0.12328813559322,0.11101694915253998,0.10196610169492001,0.094033898305085,0.078237288135593,0.079779661016949,5.0
COM6,508,05-Apr-19,2019-04-05 01:00:00,0.15025,0.12581666666667,0.11056666666666999,0.10566666666666999,0.09555,0.0837,0.083783333333333,5.0
COM6,508,05-Apr-19,2019-04-05 02:00:00,0.14208333333332998,0.12411666666667,0.11065,0.10256666666667,0.094016666666667,0.0813,0.08223333333333299,5.0
COM6,508,05-Apr-19,2019-04-05 03:00:00,0.14008333333332998,0.1194,0.1076,0.10446666666667,0.09128333333333301,0.07995,0.07945,5.0
COM6,508,05-Apr-19,2019-04-05 04:00:00,0.15655,0.1304,0.11813333333333001,0.10981666666666999,0.10121666666667,0.08763333333333298,0.089366666666667,5.0
COM6,508,05-Apr-19,2019-04-05 05:00:00,0.20865,0.17903333333332996,0.16181666666667002,0.15365,0.14113333333332997,0.12456666666666999,0.12718333333333,5.0
COM6,508,05-Apr-19,2019-04-05 06:00:00,0.2001,0.17768333333332997,0.15641666666667,0.15165,0.13885,0.12331666666666999,0.12513333333333002,5.0
COM6,508,05-Apr-19,2019-04-05 07:00:00,0.21899999999999997,0.19338333333332997,0.17696666666667002,0.16795,0.15511666666667,0.13711666666667,0.13961666666667003,5.0
COM6,508,05-Apr-19,2019-04-05 08:00:00,0.2218,0.19716666666667004,0.17841666666667003,0.17096666666667004,0.1565,0.14048333333333,0.14226666666667,5.0
COM6,508,05-Apr-19,2019-04-05 09:00:00,0.30565,0.27761666666667,0.25066666666667003,0.24491666666667003,0.21973333333332998,0.20096666666667004,0.20271666666667004,5.0
COM6,508,05-Apr-19,2019-04-05 10:00:00,0.36706666666667,0.33586666666667,0.30501666666667,0.29846666666667,0.27133333333333,0.24925,0.2512,5.0
COM6,508,05-Apr-19,2019-04-05 11:00:00,0.33868333333333,0.31005,0.27948333333333003,0.27571666666667,0.24793333333332998,0.22656666666667002,0.22835,5.0
COM6,508,05-Apr-19,2019-04-05 12:00:00,0.43608333333333,0.38956666666667,0.3538,0.34133333333333,0.31408333333333,0.28835,0.293,5.0
COM6,508,05-Apr-19,2019-04-05 13:00:00,0.3986,0.361,0.32773333333333,0.31506666666667,0.28876666666667,0.26146666666667,0.26303333333332996,5.0
COM6,508,05-Apr-19,2019-04-05 14:00:00,0.40198333333333003,0.35756666666667,0.32593333333333,0.31096666666667,0.28918333333333,0.25718333333333,0.2632,5.0
COM6,508,05-Apr-19,2019-04-05 15:00:00,0.4049,0.35121666666667,0.31935,0.30338333333333,0.28225,0.24866666666667003,0.25531666666667,5.0
COM6,508,05-Apr-19,2019-04-05 16:00:00,0.30533333333333,0.20135,0.19156666666667002,0.18841666666667004,0.1855,0.17668333333332997,0.18576666666667002,4.6666666666667
COM6,508,05-Apr-19,2019-04-05 17:00:00,0.30671666666666997,0.30576666666667,0.2903,0.28648333333333,0.27735,0.26726666666667004,0.27506666666667,5.0
COM6,508,05-Apr-19,2019-04-05 18:00:00,0.48378333333333,0.46435,0.43646666666667,0.42761666666667,0.41316666666667,0.39701666666667,0.40785,5.0
COM6,508,05-Apr-19,2019-04-05 19:00:00,0.1839,0.17623333333332997,0.16588333333333,0.16153333333332998,0.15561666666667,0.14788333333332998,0.15216666666667,5.0
COM6,508,05-Apr-19,2019-04-05 20:00:00,0.11078333333333,0.10453333333333001,0.098516666666667,0.095383333333333,0.0914,0.08731666666666701,0.088833333333333,5.0
COM6,508,05-Apr-19,2019-04-05 21:00:00,0.11206666666666999,0.10325,0.096383333333333,0.093983333333333,0.09028333333333301,0.08431666666666701,0.08668333333333299,5.0
COM6,508,05-Apr-19,2019-04-05 22:00:00,0.22323333333332998,0.2121,0.20066666666667002,0.19699999999999998,0.19135,0.18533333333332996,0.19131666666667002,5.0
COM6,508,05-Apr-19,2019-04-05 23:00:00,0.23245614035088,0.21821052631579,0.20671929824561,0.20152631578947,0.19582456140351,0.18796491228070003,0.19385964912280998,5.0
