COM6,0508,21-Nov-18,2018-11-21 00:00:00,0.59808474576271,0.59938983050847,0.56966101694915,0.56477966101695,0.54632203389831,0.53332203389831,0.54850847457627,5,0,0,0,0,0,0,0,0,0,0,0,0,0,0,0,0,0,0,0,0,0,0,0,0,0,0,0,0,0,0,0,0,0,0,0,0,0,0,0,0,0,0
COM6,0508,21-Nov-18,2018-11-21 01:00:00,0.56301666666667,0.56446666666667,0.53736666666667,0.5322,0.51545,0.50058333333333,0.51435,5,0,0,0,0,0,0,0,0,0,0,0,0,0,0,0,0,0,0,0,0,0,0,0,0,0,0,0,0,0,0,0,0,0,0,0,0,0,0,0,0,0,0
COM6,0508,21-Nov-18,2018-11-21 02:00:00,0.45895,0.46755,0.44541666666667,0.442,0.42918333333333,0.41755,0.43016666666667,5,0,0,0,0,0,0,0,0,0,0,0,0,0,0,0,0,0,0,0,0,0,0,0,0,0,0,0,0,0,0,0,0,0,0,0,0,0,0,0,0,0,0
COM6,0508,21-Nov-18,2018-11-21 03:00:00,0.61353333333333,0.61271666666667,0.58395,0.57911666666667,0.56258333333333,0.54713333333333,0.56233333333333,5,0,0,0,0,0,0,0,0,0,0,0,0,0,0,0,0,0,0,0,0,0,0,0,0,0,0,0,0,0,0,0,0,0,0,0,0,0,0,0,0,0,0
COM6,0508,21-Nov-18,2018-11-21 04:00:00,0.56156666666667,0.55528333333333,0.52938333333333,0.52501666666667,0.50976666666667,0.4975,0.51213333333333,5,0,0,0,0,0,0,0,0,0,0,0,0,0,0,0,0,0,0,0,0,0,0,0,0,0,0,0,0,0,0,0,0,0,0,0,0,0,0,0,0,0,0
COM6,0508,21-Nov-18,2018-11-21 05:00:00,0.61423333333333,0.61155,0.58308333333333,0.579,0.56165,0.54636666666667,0.56155,5,0,0,0,0,0,0,0,0,0,0,0,0,0,0,0,0,0,0,0,0,0,0,0,0,0,0,0,0,0,0,0,0,0,0,0,0,0,0,0,0,0,0
COM6,0508,21-Nov-18,2018-11-21 06:00:00,1.0140166666667,1.0225166666667,0.98118333333333,0.97818333333333,0.95421666666667,0.93911666666667,0.96841666666667,5,0,0,0,0,0,0,0,0,0,0,0,0,0,0,0,0,0,0,0,0,0,0,0,0,0,0,0,0,0,0,0,0,0,0,0,0,0,0,0,0,0,0
COM6,0508,21-Nov-18,2018-11-21 07:00:00,1.6731333333333,1.6991166666667,1.63555,1.62795,1.5785666666667,1.5230166666667,1.5631333333333,5,0,0,0,0,0,0,0,0,0,0,0,0,0,0,0,0,0,0,0,0,0,0,0,0,0,0,0,0,0,0,0,0,0,0,0,0,0,0,0,0,0,0
COM6,0508,21-Nov-18,2018-11-21 08:00:00,1.6561,1.6508333333333,1.57945,1.5681833333333,1.5187333333333,1.4759833333333,1.5164333333333,5,0,0,0,0,0,0,0,0,0,0,0,0,0,0,0,0,0,0,0,0,0,0,0,0,0,0,0,0,0,0,0,0,0,0,0,0,0,0,0,0,0,0
COM6,0508,21-Nov-18,2018-11-21 09:00:00,1.9378,1.9374333333333,1.8609833333333,1.8522833333333,1.7897666666667,1.73,1.7732333333333,5,0,0,0,0,0,0,0,0,0,0,0,0,0,0,0,0,0,0,0,0,0,0,0,0,0,0,0,0,0,0,0,0,0,0,0,0,0,0,0,0,0,0
COM6,0508,21-Nov-18,2018-11-21 10:00:00,2.7152666666667,2.7170166666667,2.60705,2.5912166666667,2.5094333333333,2.43315,2.4985333333333,5,0,0,0,0,0,0,0,0,0,0,0,0,0,0,0,0,0,0,0,0,0,0,0,0,0,0,0,0,0,0,0,0,0,0,0,0,0,0,0,0,0,0
COM6,0508,21-Nov-18,2018-11-21 11:00:00,2.1774333333333,2.1535833333333,2.0527,2.0295166666667,1.9467333333333,1.8573,1.9029666666667,5,0,0,0,0,0,0,0,0,0,0,0,0,0,0,0,0,0,0,0,0,0,0,0,0,0,0,0,0,0,0,0,0,0,0,0,0,0,0,0,0,0,0
COM6,0508,21-Nov-18,2018-11-21 12:00:00,2.4551166666667,2.4013166666667,2.2785833333333,2.2408833333333,2.1412166666667,2.0305666666667,2.0747166666667,5,0,0,0,0,0,0,0,0,0,0,0,0,0,0,0,0,0,0,0,0,0,0,0,0,0,0,0,0,0,0,0,0,0,0,0,0,0,0,0,0,0,0
COM6,0508,21-Nov-18,2018-11-21 13:00:00,2.7359833333333,2.6686166666667,2.5299333333333,2.49105,2.3782833333333,2.2546333333333,2.30615,5,0,0,0,0,0,0,0,0,0,0,0,0,0,0,0,0,0,0,0,0,0,0,0,0,0,0,0,0,0,0,0,0,0,0,0,0,0,0,0,0,0,0
COM6,0508,21-Nov-18,2018-11-21 14:00:00,2.0652833333333,1.9501,1.82255,1.7683666666667,1.6798833333333,1.5647833333333,1.60205,5,0,0,0,0,0,0,0,0,0,0,0,0,0,0,0,0,0,0,0,0,0,0,0,0,0,0,0,0,0,0,0,0,0,0,0,0,0,0,0,0,0,0
COM6,0508,21-Nov-18,2018-11-21 15:00:00,1.6118833333333,1.5058833333333,1.3982666666667,1.3427833333333,1.2798833333333,1.18735,1.2233333333333,5,0,0,0,0,0,0,0,0,0,0,0,0,0,0,0,0,0,0,0,0,0,0,0,0,0,0,0,0,0,0,0,0,0,0,0,0,0,0,0,0,0,0
COM6,0508,21-Nov-18,2018-11-21 16:00:00,1.8347,1.7378833333333,1.6292833333333,1.5798666666667,1.51275,1.4210833333333,1.46125,5,0,0,0,0,0,0,0,0,0,0,0,0,0,0,0,0,0,0,0,0,0,0,0,0,0,0,0,0,0,0,0,0,0,0,0,0,0,0,0,0,0,0
COM6,0508,21-Nov-18,2018-11-21 17:00:00,1.9597666666667,1.8362166666667,1.7209833333333,1.6667,1.5998333333333,1.5035333333333,1.5443,5,0,0,0,0,0,0,0,0,0,0,0,0,0,0,0,0,0,0,0,0,0,0,0,0,0,0,0,0,0,0,0,0,0,0,0,0,0,0,0,0,0,0
COM6,0508,21-Nov-18,2018-11-21 18:00:00,2.6284833333333,2.4729666666667,2.3280166666667,2.2768333333333,2.17185,2.0522333333333,2.1028166666667,5,0,0,0,0,0,0,0,0,0,0,0,0,0,0,0,0,0,0,0,0,0,0,0,0,0,0,0,0,0,0,0,0,0,0,0,0,0,0,0,0,0,0
COM6,0508,21-Nov-18,2018-11-21 19:00:00,3.5212166666667,2.9562666666667,2.7132,2.6195666666667,2.4591,2.2777833333333,2.3298833333333,5,0,0,0,0,0,0,0,0,0,0,0,0,0,0,0,0,0,0,0,0,0,0,0,0,0,0,0,0,0,0,0,0,0,0,0,0,0,0,0,0,0,0
COM6,0508,21-Nov-18,2018-11-21 20:00:00,5.62915,4.4698,4.0355,3.8344666666667,3.53585,3.19915,3.2486666666667,5,0,0,0,0,0,0,0,0,0,0,0,0,0,0,0,0,0,0,0,0,0,0,0,0,0,0,0,0,0,0,0,0,0,0,0,0,0,0,0,0,0,0
COM6,0508,21-Nov-18,2018-11-21 21:00:00,6.4476333333333,4.9751833333333,4.4557166666667,4.2249,3.87325,3.5007,3.5595166666667,5,0,0,0,0,0,0,0,0,0,0,0,0,0,0,0,0,0,0,0,0,0,0,0,0,0,0,0,0,0,0,0,0,0,0,0,0,0,0,0,0,0,0
COM6,0508,21-Nov-18,2018-11-21 22:00:00,4.5857333333333,3.5514166666667,3.1683,2.9833166666667,2.7319666666667,2.4463,2.4849333333333,4.6666666666667,0,0,0,0,0,0,0,0,0,0,0,0,0,0,0,0,0,0,0,0,0,0,0,0,0,0,0,0,0,0,0,0,0,0,0,0,0,0,0,0,0,0
COM6,0508,21-Nov-18,2018-11-21 23:00:00,2.3283103448276,2.0804137931034,1.9495862068966,1.8971551724138,1.8208275862069,1.7171379310345,1.7636206896552,5,0,0,0,0,0,0,0,0,0,0,0,0,0,0,0,0,0,0,0,0,0,0,0,0,0,0,0,0,0,0,0,0,0,0,0,0,0,0,0,0,0,0
