COM6,508,21-Jun-18,2018-06-21 00:00:00,0.40347457627119,0.32422033898304997,0.28910169491525,0.27525423728814,0.24906779661017,0.21713559322034,0.22013559322034001,5.0
COM6,508,21-Jun-18,2018-06-21 01:00:00,0.3559,0.31221666666667,0.28276666666667,0.26965,0.24645,0.2178,0.2217,5.0
COM6,508,21-Jun-18,2018-06-21 02:00:00,0.6012166666666701,0.5566,0.51216666666667,0.49211666666667,0.45808333333333,0.41206666666666997,0.42125,5.0
COM6,508,21-Jun-18,2018-06-21 03:00:00,0.70521666666667,0.6484,0.5984,0.57988333333333,0.53813333333333,0.48475,0.4935,5.0
COM6,508,21-Jun-18,2018-06-21 04:00:00,0.6519833333333299,0.60325,0.55521666666667,0.5337833333333301,0.49688333333333,0.44298333333333,0.45188333333333003,5.0
COM6,508,21-Jun-18,2018-06-21 05:00:00,1.00515,0.9309666666666699,0.85768333333333,0.8293,0.7706833333333301,0.69568333333333,0.7111666666666699,5.0
COM6,508,21-Jun-18,2018-06-21 06:00:00,1.9560666666667,1.8271833333333,1.6867333333333001,1.6313,1.5187,1.3741,1.40465,5.0
COM6,508,21-Jun-18,2018-06-21 07:00:00,1.4184166666667,1.3747333333333,1.2817666666667,1.24995,1.1708666666667,1.0645333333333,1.0871833333333,5.0
COM6,508,21-Jun-18,2018-06-21 08:00:00,1.275,1.1980833333333,1.1036333333333002,1.0687833333333001,0.99225,0.89583333333333,0.91438333333333,5.0
COM6,508,21-Jun-18,2018-06-21 09:00:00,2.5750666666667,2.4199333333333,2.2267166666667,2.1442,1.9870833333333,1.7884833333333001,1.8242,5.0
COM6,508,21-Jun-18,2018-06-21 10:00:00,1.69585,1.57075,1.4247666666667,1.3643166666667,1.2450333333333001,1.0930166666667,1.1113,5.0
COM6,508,21-Jun-18,2018-06-21 11:00:00,1.7321166666667,1.5419166666667,1.38865,1.3199166666667,1.1972,1.0392833333333,1.0589333333333,5.0
COM6,508,21-Jun-18,2018-06-21 12:00:00,1.1277,0.9966,0.90315,0.85613333333333,0.78283333333333,0.6885,0.69946666666667,5.0
COM6,508,21-Jun-18,2018-06-21 13:00:00,0.4106,0.35441666666667,0.31908333333333,0.29816666666667,0.27773333333333,0.23225,0.23645,5.0
COM6,508,21-Jun-18,2018-06-21 14:00:00,0.33146666666667,0.29346666666667,0.26523333333333,0.24395,0.21905,0.17715,0.18533333333332996,5.0
COM6,508,21-Jun-18,2018-06-21 15:00:00,0.30525,0.26705,0.23288333333332997,0.213,0.1952,0.15573333333332998,0.16286666666667002,5.0
COM6,508,21-Jun-18,2018-06-21 16:00:00,0.36428333333333,0.30666666666667,0.27105,0.24836666666667004,0.22658333333332997,0.18853333333332997,0.19423333333332995,5.0
COM6,508,21-Jun-18,2018-06-21 17:00:00,0.46625,0.39685,0.35095,0.32051666666667,0.29556666666667,0.2507,0.2591,5.0
COM6,508,21-Jun-18,2018-06-21 18:00:00,0.6196833333333299,0.52988333333333,0.47356666666667,0.43866666666667,0.40118333333333,0.3614,0.36891666666667,5.0
COM6,508,21-Jun-18,2018-06-21 19:00:00,0.99165,0.91135,0.82271666666667,0.78158333333333,0.71618333333333,0.6323166666666701,0.64596666666667,5.0
COM6,508,21-Jun-18,2018-06-21 20:00:00,0.51578333333333,0.39236666666666997,0.36141666666667,0.35098333333333,0.34063333333333,0.34171666666667,0.35951666666667,4.6666666666667
COM6,508,21-Jun-18,2018-06-21 21:00:00,0.3572,0.31851666666667,0.29626666666667,0.29103333333333,0.28518333333333,0.29825,0.31168333333333,5.0
COM6,508,21-Jun-18,2018-06-21 22:00:00,0.33105,0.32198333333333,0.30276666666667,0.29881666666667,0.29265,0.30806666666667,0.31976666666667,5.0
COM6,508,21-Jun-18,2018-06-21 23:00:00,0.45638983050846993,0.44532203389831,0.42288135593220005,0.41722033898305,0.40927118644068,0.41283050847458,0.42798305084746,5.0
