COM4,508,23-May-19,2019-05-23 00:00:00,0.043661016949153,0.039389830508475,0.036338983050847005,0.034593220338983,0.030745762711863998,0.029372881355932003,0.029135593220339002,5
COM4,508,23-May-19,2019-05-23 01:00:00,0.041233333333333,0.0394,0.032166666666667,0.03238333333333299,0.029233333333332993,0.025816666666667005,0.026583333333332994,5
COM4,508,23-May-19,2019-05-23 02:00:00,0.057566666666666995,0.049616666666666996,0.047466666666667,0.044133333333333004,0.040216666666667,0.035633333333332996,0.035183333333333,5
COM4,508,23-May-19,2019-05-23 03:00:00,0.055583333333333006,0.05035,0.04378333333333301,0.039833333333333,0.039683333333333,0.0344,0.034983333333333,5
COM4,508,23-May-19,2019-05-23 04:00:00,0.06565,0.053183333333333006,0.048016666666667,0.0464,0.041683333333333,0.03615,0.037366666666667,5
COM4,508,23-May-19,2019-05-23 05:00:00,0.055999999999999994,0.046983333333333,0.041933333333332996,0.039116666666667,0.037583333333333,0.031933333333332994,0.0333,5
COM4,508,23-May-19,2019-05-23 06:00:00,0.056866666666666996,0.051416666666667,0.04975,0.04806666666666699,0.04593333333333301,0.042816666666666996,0.04455,5
COM4,508,23-May-19,2019-05-23 07:00:00,0.083033333333333,0.07955,0.0737,0.0718,0.06711666666666699,0.061216666666666995,0.0621,5
COM4,508,23-May-19,2019-05-23 08:00:00,0.069816666666667,0.064633333333333,0.0587,0.057183333333333,0.053416666666666994,0.050416666666667,0.050616666666667,5
COM4,508,23-May-19,2019-05-23 09:00:00,0.049466666666667,0.04491666666666699,0.042233333333333005,0.040883333333333,0.038283333333333,0.036383333333333,0.036866666666667,5
COM4,508,23-May-19,2019-05-23 10:00:00,0.044000000000000004,0.0433,0.038616666666667,0.03715,0.034316666666667,0.0302,0.03161666666666701,5
COM4,508,23-May-19,2019-05-23 11:00:00,0.053483333333333,0.0449,0.0413,0.040316666666667,0.036133333333333,0.0375,0.038316666666667,5
COM4,508,23-May-19,2019-05-23 12:00:00,0.10193333333333,0.092266666666667,0.083683333333333,0.079966666666667,0.0763,0.07175,0.07335,5
COM4,508,23-May-19,2019-05-23 13:00:00,0.1788,0.16156666666667002,0.14801666666667002,0.14348333333333,0.1338,0.1244,0.12451666666667,5
COM4,508,23-May-19,2019-05-23 14:00:00,0.1559,0.14066666666667002,0.12948333333333,0.12356666666666999,0.11485,0.10286666666666999,0.10433333333333,5
COM4,508,23-May-19,2019-05-23 15:00:00,0.092,0.0811,0.073583333333333,0.070166666666667,0.06545,0.057566666666666995,0.0577,5
COM4,508,23-May-19,2019-05-23 16:00:00,0.10035,0.091433333333333,0.08476666666666702,0.0831,0.07525,0.068866666666667,0.070516666666667,5
COM4,508,23-May-19,2019-05-23 17:00:00,0.14701666666667002,0.14203333333333,0.12966666666666998,0.12875,0.11976666666666999,0.1109,0.11298333333333001,5
COM4,508,23-May-19,2019-05-23 18:00:00,0.05991666666666699,0.0592,0.05368333333333301,0.051066666666666996,0.045733333333333,0.040516666666667,0.042166666666667,5
COM4,508,23-May-19,2019-05-23 19:00:00,0.077483333333333,0.071083333333333,0.064766666666667,0.0644,0.058983333333333006,0.05513333333333301,0.05535,5
COM4,508,23-May-19,2019-05-23 20:00:00,0.075133333333333,0.06836666666666699,0.06306666666666699,0.060816666666667,0.057766666666666994,0.053883333333333006,0.055166666666666996,5
COM4,508,23-May-19,2019-05-23 21:00:00,0.0382,0.037333333333332996,0.034183333333332996,0.03356666666666701,0.030466666666667006,0.029083333333332996,0.0288,5
COM4,508,23-May-19,2019-05-23 22:00:00,0.06715,0.058183333333333004,0.054633333333333006,0.05135,0.05125,0.04675,0.0485,5
COM4,508,23-May-19,2019-05-23 23:00:00,0.028933333333332995,0.022366666666667007,0.01955,0.020083333333333,0.018000000000000002,0.016383333333333,0.01775,5
