COM4,508,03-Aug-19,2019-08-03 00:00:00,0.81406779661017,0.7067627118644101,0.65371186440678,0.6323050847457601,0.59801694915254,0.54798305084746,0.56120338983051,5.0
COM4,508,03-Aug-19,2019-08-03 01:00:00,1.40585,1.3063666666667,1.21995,1.1882,1.1264333333333,1.0310666666666999,1.0560833333333,5.0
COM4,508,03-Aug-19,2019-08-03 02:00:00,1.2297166666666999,1.1326666666667,1.0656666666666998,1.04375,0.99828333333333,0.92561666666667,0.94918333333333,5.0
COM4,508,03-Aug-19,2019-08-03 03:00:00,0.6779333333333301,0.5922,0.54731666666667,0.5294,0.49981666666667,0.45488333333333003,0.46563333333333,5.0
COM4,508,03-Aug-19,2019-08-03 04:00:00,0.6452,0.58155,0.53878333333333,0.52353333333333,0.4943,0.45081666666667,0.46065,5.0
COM4,508,03-Aug-19,2019-08-03 05:00:00,0.68116666666667,0.6097833333333299,0.5665333333333299,0.54806666666667,0.51721666666667,0.4737,0.48356666666667,5.0
COM4,508,03-Aug-19,2019-08-03 06:00:00,1.0866166666666999,1.0045333333333,0.93473333333333,0.91026666666667,0.86188333333333,0.789,0.8079,5.0
COM4,508,03-Aug-19,2019-08-03 07:00:00,0.7166,0.67178333333333,0.63186666666667,0.6186333333333299,0.59145,0.54995,0.5639166666666701,5.0
COM4,508,03-Aug-19,2019-08-03 08:00:00,0.75196666666667,0.69946666666667,0.65085,0.6356,0.60208333333333,0.54858333333333,0.5616166666666701,5.0
COM4,508,03-Aug-19,2019-08-03 09:00:00,0.61435,0.5624,0.5164,0.49701666666667,0.46298333333333,0.41075,0.41748333333333,5.0
COM4,508,03-Aug-19,2019-08-03 10:00:00,0.45353333333333,0.41345,0.37755,0.36275,0.33443333333333003,0.29381666666667,0.29891666666667,5.0
COM4,508,03-Aug-19,2019-08-03 11:00:00,0.49165,0.45298333333333,0.41635,0.40348333333333003,0.37535,0.33696666666666997,0.34173333333333,5.0
COM4,508,03-Aug-19,2019-08-03 12:00:00,0.48356666666667,0.44846666666667,0.41705,0.40745,0.38173333333333,0.34883333333333,0.35616666666667,5.0
COM4,508,03-Aug-19,2019-08-03 13:00:00,0.37381666666667,0.36916666666667,0.35348333333333,0.3504,0.3383,0.31865,0.32701666666667,5.0
COM4,508,03-Aug-19,2019-08-03 14:00:00,0.28046666666667,0.25953333333332995,0.23625,0.226,0.21116666666667003,0.18373333333332997,0.18681666666667004,5.0
COM4,508,03-Aug-19,2019-08-03 15:00:00,0.54276666666667,0.47713333333333,0.43358333333333,0.41181666666667,0.38155,0.3373,0.3444,5.0
COM4,508,03-Aug-19,2019-08-03 16:00:00,0.21323333333332997,0.18471666666667003,0.16715,0.15756666666667002,0.14541666666667002,0.1244,0.12591666666667,5.0
COM4,508,03-Aug-19,2019-08-03 17:00:00,0.11651666666666999,0.10861666666667,0.098716666666667,0.095316666666667,0.08793333333333299,0.0764,0.07855,5.0
COM4,508,03-Aug-19,2019-08-03 18:00:00,0.1208,0.10935,0.099466666666667,0.09346666666666699,0.08628333333333299,0.07468333333333299,0.0757,5.0
COM4,508,03-Aug-19,2019-08-03 19:00:00,0.31788333333333,0.22265,0.18531666666667004,0.16558333333332997,0.14463333333332998,0.11795,0.11973333333333,5.0
COM4,508,03-Aug-19,2019-08-03 20:00:00,2.1656833333333,1.72035,1.51855,1.4131833333333002,1.2831333333333002,1.0863333333333,1.10095,5.0
COM4,508,03-Aug-19,2019-08-03 21:00:00,0.72193333333333,0.58188333333333,0.51576666666667,0.4886,0.44833333333333003,0.3898,0.39668333333333,4.6666666666667
COM4,508,03-Aug-19,2019-08-03 22:00:00,0.74685,0.56321666666667,0.50746666666667,0.48158333333333003,0.45778333333333,0.4204,0.43431666666667,5.0
COM4,508,03-Aug-19,2019-08-03 23:00:00,0.85516666666667,0.6799166666666699,0.6081666666666701,0.57615,0.54173333333333,0.49588333333333,0.50781666666667,5.0
