COM6,508,09-Aug-17,2017-08-09 00:00:00,1.0130169491525,0.9683389830508501,0.9341864406779699,0.93222033898305,0.90627118644068,0.88064406779661,0.90593220338983,5.0
COM6,508,09-Aug-17,2017-08-09 01:00:00,0.85478333333333,0.8109666666666699,0.7829999999999999,0.78536666666667,0.76288333333333,0.7446,0.76608333333333,5.0
COM6,508,09-Aug-17,2017-08-09 02:00:00,0.86668333333333,0.9095,0.927,0.97485,0.99905,1.075,1.1171,5.0
COM6,508,09-Aug-17,2017-08-09 03:00:00,1.2259333333333,1.16885,1.1328166666667,1.13945,1.11255,1.1034,1.1374666666667,5.0
COM6,508,09-Aug-17,2017-08-09 04:00:00,1.0968833333333001,1.01575,0.96705,0.95985,0.92185,0.87868333333333,0.90043333333333,5.0
COM6,508,09-Aug-17,2017-08-09 05:00:00,0.78178333333333,0.68966666666667,0.6422833333333299,0.62295,0.5797833333333299,0.5211,0.53015,5.0
COM6,508,09-Aug-17,2017-08-09 06:00:00,1.1026333333333,1.0215666666667,0.96531666666667,0.94841666666667,0.90103333333333,0.84776666666667,0.8684666666666699,5.0
COM6,508,09-Aug-17,2017-08-09 07:00:00,1.8558166666667,1.8103333333333,1.7384833333333,1.7348166666667,1.67945,1.6451333333333,1.6933333333333,5.0
COM6,508,09-Aug-17,2017-08-09 08:00:00,2.4726666666667003,2.4656833333333,2.3789,2.3903666666667003,2.3251,2.3154666666667003,2.3860333333333,5.0
COM6,508,09-Aug-17,2017-08-09 09:00:00,1.6154333333333,1.6005166666667,1.54425,1.5535,1.5015166666667,1.48365,1.5258,5.0
COM6,508,09-Aug-17,2017-08-09 10:00:00,0.93761666666667,0.83036666666667,0.78353333333333,0.76666666666667,0.71993333333333,0.6498,0.6598333333333299,4.6666666666667
COM6,508,09-Aug-17,2017-08-09 11:00:00,0.8068,0.71115,0.6732,0.66235,0.6330666666666701,0.60013333333333,0.6140666666666701,5.0
COM6,508,09-Aug-17,2017-08-09 12:00:00,0.85125,0.84168333333333,0.79908333333333,0.78863333333333,0.7583,0.72523333333333,0.74345,5.0
COM6,508,09-Aug-17,2017-08-09 13:00:00,0.57726666666667,0.57705,0.55085,0.54513333333333,0.52551666666667,0.49956666666667,0.51178333333333,5.0
COM6,508,09-Aug-17,2017-08-09 14:00:00,0.37446666666667,0.36885,0.35285,0.34881666666667,0.33546666666667,0.31525,0.32278333333333,5.0
COM6,508,09-Aug-17,2017-08-09 15:00:00,0.3156,0.31201666666667,0.29801666666667,0.29401666666667,0.28411666666667,0.2717,0.2796,5.0
COM6,508,09-Aug-17,2017-08-09 16:00:00,0.55835,0.56805,0.54635,0.5427,0.52863333333333,0.51685,0.53358333333333,5.0
COM6,508,09-Aug-17,2017-08-09 17:00:00,0.41222033898305,0.41213559322034,0.3950847457627101,0.39052542372881005,0.37713559322034,0.36577966101695003,0.3756101694915301,5.0
COM6,508,09-Aug-17,2017-08-09 18:00:00,0.26873333333333,0.2602,0.24746666666667003,0.2441,0.23618333333332997,0.22896666666667004,0.23726666666667004,5.0
COM6,508,09-Aug-17,2017-08-09 19:00:00,0.18505,0.17715,0.16873333333332996,0.1668,0.15905,0.15268333333332998,0.157,5.0
COM6,508,09-Aug-17,2017-08-09 20:00:00,0.4005,0.40328333333333,0.38691666666667,0.3831,0.37103333333333,0.36541666666667,0.37573333333333003,5.0
COM6,508,09-Aug-17,2017-08-09 21:00:00,0.24928333333332997,0.2503,0.24106666666667004,0.24046666666667002,0.23301666666667004,0.22776666666667003,0.23455,5.0
COM6,508,09-Aug-17,2017-08-09 22:00:00,0.4297,0.41288333333333,0.39576666666667,0.39215,0.37798333333333,0.3615,0.37011666666667,5.0
COM6,508,09-Aug-17,2017-08-09 23:00:00,0.26936842105263004,0.25775438596491,0.24640350877193,0.24317543859649,0.23417543859648998,0.22268421052632,0.22868421052632001,5.0
