COM4,508,29-Dec-19,2019-12-29 00:00:00,0.912,0.77398305084746,0.69349152542373,0.67657627118644,0.63686440677966,0.5856101694915301,0.60010169491525,5.0
COM4,508,29-Dec-19,2019-12-29 01:00:00,0.46976666666667,0.35016666666667,0.30626666666667,0.27883333333333,0.25993333333332996,0.22481666666667002,0.22918333333332996,5.0
COM4,508,29-Dec-19,2019-12-29 02:00:00,0.36213333333333003,0.26436666666667,0.22973333333332996,0.2092,0.19645,0.16591666666667002,0.17106666666667003,5.0
COM4,508,29-Dec-19,2019-12-29 03:00:00,0.47688333333333,0.26015,0.21693333333332998,0.19035,0.17105,0.1357,0.1396,5.0
COM4,508,29-Dec-19,2019-12-29 04:00:00,0.076466666666667,0.10536666666667,0.096416666666667,0.08676666666666702,0.08198333333333299,0.064883333333333,0.067933333333333,5.0
COM4,508,29-Dec-19,2019-12-29 05:00:00,-0.023966666666667004,0.041533333333333,0.038433333333333,0.03465,0.03403333333333299,0.02535,0.02705,5.0
COM4,508,29-Dec-19,2019-12-29 06:00:00,0.021033333333332998,0.0581,0.05386666666666699,0.047783333333333004,0.04665,0.040999999999999995,0.0412,5.0
COM4,508,29-Dec-19,2019-12-29 07:00:00,0.33265,0.24196666666667002,0.22421666666667003,0.21895,0.21053333333332996,0.1994,0.20833333333332996,4.6666666666667
COM4,508,29-Dec-19,2019-12-29 08:00:00,0.6747,0.51076666666667,0.47636666666667,0.46701666666667,0.44695,0.4252,0.43638333333333,5.0
COM4,508,29-Dec-19,2019-12-29 09:00:00,0.5551833333333299,0.47366666666667,0.43681666666667,0.42603333333333,0.40661666666667,0.38558333333333,0.39541666666666997,5.0
COM4,508,29-Dec-19,2019-12-29 10:00:00,0.29761666666666997,0.30031666666667,0.27985,0.27443333333333,0.26221666666667004,0.2499,0.2564,5.0
COM4,508,29-Dec-19,2019-12-29 11:00:00,0.15748333333332998,0.17301666666667004,0.16271666666667,0.15958333333333,0.15496666666667,0.14876666666667002,0.15295,5.0
COM4,508,29-Dec-19,2019-12-29 12:00:00,0.11435,0.12351666666667,0.1163,0.11253333333333,0.10901666666667,0.10311666666666999,0.10658333333333,5.0
COM4,508,29-Dec-19,2019-12-29 13:00:00,0.24688333333332996,0.23716666666667002,0.22186666666667004,0.21598333333332997,0.21036666666667003,0.19941666666667004,0.20636666666667003,5.0
COM4,508,29-Dec-19,2019-12-29 14:00:00,0.25753333333332995,0.2505,0.23535,0.22998333333332996,0.22358333333332997,0.21195,0.21825,5.0
COM4,508,29-Dec-19,2019-12-29 15:00:00,0.32683333333333,0.30296666666667,0.28316666666667,0.27588333333333,0.26716666666667005,0.25331666666667,0.26063333333332994,5.0
COM4,508,29-Dec-19,2019-12-29 16:00:00,0.39195,0.3539,0.32923333333333,0.32126666666667,0.30861666666667,0.29071666666667,0.29925,5.0
COM4,508,29-Dec-19,2019-12-29 17:00:00,0.40465,0.3533,0.3253,0.3152,0.30233333333333,0.28473333333333,0.29155,5.0
COM4,508,29-Dec-19,2019-12-29 18:00:00,0.4502,0.397,0.36588333333333,0.35576666666667,0.34015,0.31935,0.32788333333333003,5.0
COM4,508,29-Dec-19,2019-12-29 19:00:00,0.64571666666667,0.53025,0.48401666666667,0.4664,0.44306666666667,0.41035,0.41921666666667,5.0
COM4,508,29-Dec-19,2019-12-29 20:00:00,0.75133333333333,0.65955,0.61165,0.5974833333333299,0.5745833333333299,0.54848333333333,0.56411666666667,5.0
COM4,508,29-Dec-19,2019-12-29 21:00:00,0.72671666666667,0.62835,0.5809166666666701,0.5681,0.54496666666667,0.51858333333333,0.53171666666667,5.0
COM4,508,29-Dec-19,2019-12-29 22:00:00,0.9779,0.83161666666667,0.76808333333333,0.74863333333333,0.7147,0.67238333333333,0.68905,5.0
COM4,508,29-Dec-19,2019-12-29 23:00:00,0.94856666666667,0.73271666666667,0.66586666666667,0.6425166666666701,0.60835,0.56326666666667,0.57495,5.0
