COM6,508,06-Nov-18,2018-11-06 00:00:00,0.59776271186441,0.5601355932203399,0.52461016949153,0.51322033898305,0.49430508474576,0.47388135593220004,0.48813559322034,5
COM6,508,06-Nov-18,2018-11-06 01:00:00,0.39453333333333,0.38293333333333,0.36058333333333,0.35375,0.33671666666667,0.32,0.32899999999999996,5
COM6,508,06-Nov-18,2018-11-06 02:00:00,0.34056666666667,0.31795,0.29678333333333,0.2874,0.2749,0.2542,0.2616,5
COM6,508,06-Nov-18,2018-11-06 03:00:00,0.39221666666667,0.38553333333333,0.35805,0.35483333333333,0.33186666666667,0.31171666666667,0.31891666666667,5
COM6,508,06-Nov-18,2018-11-06 04:00:00,0.36716666666666997,0.36363333333333,0.3379,0.3318,0.31028333333333,0.29215,0.29776666666667,5
COM6,508,06-Nov-18,2018-11-06 05:00:00,0.31038333333333,0.29943333333333,0.27653333333333,0.27278333333333,0.25345,0.23600000000000002,0.24145,5
COM6,508,06-Nov-18,2018-11-06 06:00:00,0.60856666666667,0.586,0.54648333333333,0.53828333333333,0.50586666666667,0.46505,0.47426666666667,5
COM6,508,06-Nov-18,2018-11-06 07:00:00,0.79695,0.78328333333333,0.73488333333333,0.72336666666667,0.6876,0.6501166666666701,0.6652166666666701,5
COM6,508,06-Nov-18,2018-11-06 08:00:00,0.38946666666667,0.4077,0.38301666666667,0.37736666666667,0.35761666666666997,0.34028333333333,0.35058333333333,5
COM6,508,06-Nov-18,2018-11-06 09:00:00,0.30551666666667,0.29366666666667,0.27361666666667,0.2671,0.25245,0.2382,0.24388333333332995,5
COM6,508,06-Nov-18,2018-11-06 10:00:00,0.18053333333332997,0.18626666666667002,0.17325,0.17358333333332998,0.15485,0.14538333333332998,0.14701666666667002,5
COM6,508,06-Nov-18,2018-11-06 11:00:00,0.2923,0.28013333333333,0.25726666666667003,0.251,0.23106666666667003,0.21901666666667002,0.22236666666667004,5
COM6,508,06-Nov-18,2018-11-06 12:00:00,0.18685,0.17536666666667003,0.16283333333333,0.16073333333332998,0.14586666666667,0.13553333333333,0.13693333333333,5
COM6,508,06-Nov-18,2018-11-06 13:00:00,0.12203333333333001,0.10448333333333,0.0943,0.08891666666666699,0.08641666666666702,0.07486666666666701,0.076966666666667,5
COM6,508,06-Nov-18,2018-11-06 14:00:00,0.12533333333333,0.1121,0.10258333333333,0.09696666666666699,0.0919,0.082833333333333,0.08476666666666702,5
COM6,508,06-Nov-18,2018-11-06 15:00:00,0.19055,0.15871666666667,0.14086666666667003,0.12886666666667,0.11651666666666999,0.0992,0.10171666666667,5
COM6,508,06-Nov-18,2018-11-06 16:00:00,0.18026666666667004,0.15751666666667002,0.14651666666667001,0.13628333333333,0.13466666666667,0.11985,0.12576666666667,5
COM6,508,06-Nov-18,2018-11-06 17:00:00,0.50706666666667,0.44,0.39899999999999997,0.37586666666667,0.35556666666667,0.32558333333333,0.3358,5
COM6,508,06-Nov-18,2018-11-06 18:00:00,0.37483333333333,0.33803333333333,0.31168333333333,0.30013333333333003,0.28645,0.25536666666667,0.26285,5
COM6,508,06-Nov-18,2018-11-06 19:00:00,0.19665,0.18108333333332996,0.1656,0.1542,0.14881666666667,0.13205,0.13658333333333,5
COM6,508,06-Nov-18,2018-11-06 20:00:00,0.24326666666667005,0.21396666666667002,0.19621666666667004,0.18883333333332997,0.17488333333332998,0.15775,0.16298333333332998,5
COM6,508,06-Nov-18,2018-11-06 21:00:00,0.1727,0.14433333333332998,0.13536666666667,0.12701666666667,0.12736666666667,0.11588333333333001,0.1189,5
COM6,508,06-Nov-18,2018-11-06 22:00:00,0.74845,0.6481166666666701,0.59728333333333,0.56931666666667,0.5443,0.5045333333333301,0.52,5
COM6,508,06-Nov-18,2018-11-06 23:00:00,0.5987966101694899,0.51689830508475,0.46901694915253994,0.45279661016948997,0.42252542372881,0.38299999999999995,0.39166101694915006,5
