COM4,508,10-Dec-19,2019-12-10 00:00:00,0.11877966101694999,0.13254237288136,0.11901694915253999,0.11498305084746001,0.10218644067796999,0.090016949152542,0.090406779661017,5.0
COM4,508,10-Dec-19,2019-12-10 01:00:00,0.14685,0.1585,0.14501666666667,0.14161666666667003,0.12996666666667,0.11395,0.11401666666667,5.0
COM4,508,10-Dec-19,2019-12-10 02:00:00,0.60885,0.54335,0.4961,0.47981666666667,0.44633333333333003,0.40691666666667,0.41381666666667,5.0
COM4,508,10-Dec-19,2019-12-10 03:00:00,2.1996666666667,2.1005,1.9525666666666999,1.9101333333333002,1.806,1.6918,1.7320333333333,5.0
COM4,508,10-Dec-19,2019-12-10 04:00:00,1.0911666666667,0.97265,0.88938333333333,0.86366666666667,0.80695,0.74245,0.75735,5.0
COM4,508,10-Dec-19,2019-12-10 05:00:00,1.2503333333333,1.0954833333333,0.99193333333333,0.94925,0.88468333333333,0.80833333333333,0.8220833333333301,5.0
COM4,508,10-Dec-19,2019-12-10 06:00:00,1.7385333333333,1.5470666666667,1.4039666666667,1.3504833333333,1.2591833333333,1.1556166666667,1.1770333333333,5.0
COM4,508,10-Dec-19,2019-12-10 07:00:00,1.8511166666667,1.68655,1.5408166666667,1.4929166666667,1.39945,1.29535,1.3259166666667,4.6666666666667
COM4,508,10-Dec-19,2019-12-10 08:00:00,1.6994333333333,1.53575,1.44385,1.4153,1.3625833333333,1.28455,1.32085,5.0
COM4,508,10-Dec-19,2019-12-10 09:00:00,1.9495833333333001,1.8880333333333001,1.7887166666667,1.7666333333333,1.7116,1.6394,1.6848166666667,5.0
COM4,508,10-Dec-19,2019-12-10 10:00:00,2.5140166666667003,2.5223166666667,2.3959333333333,2.3694,2.3040166666667004,2.2179,2.2853833333332996,5.0
COM4,508,10-Dec-19,2019-12-10 11:00:00,1.5852666666667,1.6066,1.53645,1.5164833333333,1.4874666666667,1.4308833333333,1.4817666666667,5.0
COM4,508,10-Dec-19,2019-12-10 12:00:00,1.5816,1.5692333333333,1.4964666666667,1.4706333333333002,1.4368,1.3719999999999999,1.4195,5.0
COM4,508,10-Dec-19,2019-12-10 13:00:00,1.2602166666666998,1.22825,1.16885,1.1501833333333,1.12225,1.0688666666667,1.10705,5.0
COM4,508,10-Dec-19,2019-12-10 14:00:00,1.2192333333333,1.1708666666667,1.1124166666667,1.0927166666666999,1.06345,1.0107166666667,1.0467833333333,5.0
COM4,508,10-Dec-19,2019-12-10 15:00:00,1.2526666666667,1.20105,1.1368833333333002,1.1191166666666998,1.0870833333333,1.0367833333333,1.0735666666666999,5.0
COM4,508,10-Dec-19,2019-12-10 16:00:00,1.1104333333333,1.0680333333333,1.0133333333333001,0.99715,0.96841666666667,0.9228,0.95631666666667,5.0
COM4,508,10-Dec-19,2019-12-10 17:00:00,1.325,1.2554,1.1819833333333,1.1645166666667,1.1214833333333,1.0648833333333,1.09865,5.0
COM4,508,10-Dec-19,2019-12-10 18:00:00,1.2987833333333,1.2044333333333002,1.1244333333333,1.10495,1.0506166666666998,0.99038333333333,1.0196833333333,5.0
COM4,508,10-Dec-19,2019-12-10 19:00:00,1.2217166666666999,1.0959999999999999,1.012,0.99401666666667,0.93621666666667,0.88406666666667,0.90708333333333,5.0
COM4,508,10-Dec-19,2019-12-10 20:00:00,0.9176,0.80588333333333,0.73658333333333,0.72638333333333,0.6728666666666699,0.6357333333333299,0.6491666666666701,5.0
COM4,508,10-Dec-19,2019-12-10 21:00:00,1.3838833333333,1.1136333333333,1.00095,0.96693333333333,0.89431666666667,0.8275,0.84435,5.0
COM4,508,10-Dec-19,2019-12-10 22:00:00,1.15765,0.99156666666667,0.90291666666667,0.87688333333333,0.81983333333333,0.76516666666667,0.78166666666667,5.0
COM4,508,10-Dec-19,2019-12-10 23:00:00,1.2120166666667,1.0239,0.93156666666667,0.9015,0.8465,0.7841,0.8023,5.0
