COM4,508,05-Sep-19,2019-09-05 00:00:00,0.22147457627119002,0.19522033898305,0.18188135593220003,0.17722033898304998,0.17038983050847,0.16010169491525,0.16450847457627,5.0
COM4,508,05-Sep-19,2019-09-05 01:00:00,0.20993333333332997,0.18051666666667004,0.16548333333332998,0.16031666666667002,0.15233333333333,0.1418,0.14545,5.0
COM4,508,05-Sep-19,2019-09-05 02:00:00,0.3692,0.3307,0.30811666666667,0.30183333333333,0.28903333333333,0.2766,0.28431666666667,5.0
COM4,508,05-Sep-19,2019-09-05 03:00:00,0.53671666666667,0.51053333333333,0.48438333333333,0.47906666666666997,0.46508333333333,0.4506,0.46306666666667,5.0
COM4,508,05-Sep-19,2019-09-05 04:00:00,0.45358333333333,0.4233,0.39875,0.3934,0.38146666666667,0.36571666666667,0.37638333333333,5.0
COM4,508,05-Sep-19,2019-09-05 05:00:00,0.623,0.5796333333333299,0.54218333333333,0.52958333333333,0.5082,0.4797,0.49368333333333003,5.0
COM4,508,05-Sep-19,2019-09-05 06:00:00,0.93778333333333,0.86998333333333,0.8084,0.78703333333333,0.75143333333333,0.7031333333333301,0.72345,5.0
COM4,508,05-Sep-19,2019-09-05 07:00:00,1.7806,1.6677833333333,1.55125,1.5124833333333,1.4463833333333,1.3687333333333,1.4076,5.0
COM4,508,05-Sep-19,2019-09-05 08:00:00,2.88505,2.73935,2.5565333333332996,2.5028,2.3949,2.2787166666667003,2.3448333333332996,5.0
COM4,508,05-Sep-19,2019-09-05 09:00:00,1.4611333333333,1.3585833333333,1.2602333333333,1.22875,1.1697666666667,1.10075,1.1314166666667,5.0
COM4,508,05-Sep-19,2019-09-05 10:00:00,1.1759166666667,1.0695333333333001,0.98006666666667,0.94661666666667,0.88788333333333,0.8144,0.83253333333333,5.0
COM4,508,05-Sep-19,2019-09-05 11:00:00,1.01095,0.90805,0.8313,0.8022,0.75376666666667,0.69395,0.7098,5.0
COM4,508,05-Sep-19,2019-09-05 12:00:00,0.78013333333333,0.7107,0.65653333333333,0.63953333333333,0.6022,0.5575166666666701,0.57031666666667,5.0
COM4,508,05-Sep-19,2019-09-05 13:00:00,0.6081166666666701,0.52573333333333,0.50461666666667,0.50445,0.5013,0.50458333333333,0.5332,4.3333333333333
COM4,508,05-Sep-19,2019-09-05 14:00:00,0.6241166666666701,0.50551666666667,0.48096666666667,0.4772,0.47373333333333,0.48653333333333,0.50735,5.0
COM4,508,05-Sep-19,2019-09-05 15:00:00,0.39723333333333,0.37223333333333003,0.35078333333333,0.34615,0.33516666666667,0.32246666666667,0.33248333333333,5.0
COM4,508,05-Sep-19,2019-09-05 16:00:00,0.40976666666667,0.43196666666667,0.41236666666667,0.41026666666667,0.40046666666666997,0.38743333333333,0.39935,5.0
COM4,508,05-Sep-19,2019-09-05 17:00:00,0.6015833333333299,0.62171666666667,0.5947,0.59205,0.5788,0.5615166666666701,0.57875,5.0
COM4,508,05-Sep-19,2019-09-05 18:00:00,0.48145,0.50201666666667,0.48148333333333,0.47975,0.47116666666667,0.46028333333333,0.4756,5.0
COM4,508,05-Sep-19,2019-09-05 19:00:00,0.45383333333333,0.48123333333333,0.46653333333333,0.4679,0.46046666666667,0.45146666666667,0.46411666666667,5.0
COM4,508,05-Sep-19,2019-09-05 20:00:00,0.25695,0.26518333333333,0.25861666666667005,0.26026666666667003,0.25868333333333,0.25651666666667006,0.26465,5.0
COM4,508,05-Sep-19,2019-09-05 21:00:00,0.12343333333333001,0.12218333333333001,0.12045,0.12336666666667,0.12303333333333001,0.12195,0.12843333333333,5.0
COM4,508,05-Sep-19,2019-09-05 22:00:00,0.0803,0.08285,0.080433333333333,0.08056666666666701,0.08006666666666701,0.07505,0.077366666666667,5.0
COM4,508,05-Sep-19,2019-09-05 23:00:00,0.08895,0.0905,0.08748333333333298,0.08875,0.08608333333333298,0.08156666666666701,0.08288333333333299,5.0
