COM6,508,28-Feb-18,2018-02-28 00:00:00,0.32437288135593,0.32625423728814,0.30881355932203003,0.30498305084746,0.29535593220339,0.28705084745763,0.29564406779661,5
COM6,508,28-Feb-18,2018-02-28 01:00:00,0.43048333333333,0.41246666666667,0.38831666666667,0.38063333333333,0.36901666666667,0.3592,0.3702,5
COM6,508,28-Feb-18,2018-02-28 02:00:00,0.38956666666667,0.36356666666667,0.33926666666667,0.33095,0.31718333333333,0.3014,0.30996666666667,5
COM6,508,28-Feb-18,2018-02-28 03:00:00,0.27193333333333,0.26806666666667,0.2521,0.24726666666667002,0.23848333333332997,0.22778333333332998,0.23426666666667004,5
COM6,508,28-Feb-18,2018-02-28 04:00:00,0.2431,0.24908333333332996,0.2384,0.23561666666667003,0.2309,0.2306,0.23938333333332998,5
COM6,508,28-Feb-18,2018-02-28 05:00:00,0.2717,0.27781666666667,0.2653,0.26155,0.25538333333332996,0.25105,0.2594,5
COM6,508,28-Feb-18,2018-02-28 06:00:00,0.25811666666667005,0.2496,0.23568333333332997,0.23195,0.22365,0.21635,0.22241666666667004,5
COM6,508,28-Feb-18,2018-02-28 07:00:00,0.57045,0.5837333333333299,0.55978333333333,0.55715,0.5446,0.53446666666667,0.55295,5
COM6,508,28-Feb-18,2018-02-28 08:00:00,0.4254,0.4402,0.42295,0.42101666666667,0.41163333333333,0.40628333333333,0.42025,5
COM6,508,28-Feb-18,2018-02-28 09:00:00,0.61975,0.6421666666666701,0.6166833333333299,0.61485,0.5994833333333299,0.5899666666666701,0.6082,5
COM6,508,28-Feb-18,2018-02-28 10:00:00,0.72253333333333,0.73698333333333,0.71636666666667,0.71671666666667,0.7148,0.72525,0.75703333333333,5
COM6,508,28-Feb-18,2018-02-28 11:00:00,0.26323333333333,0.26725,0.26111666666667005,0.25623333333333,0.25938333333332997,0.25655,0.26899999999999996,5
COM6,508,28-Feb-18,2018-02-28 12:00:00,0.67301666666667,0.68993333333333,0.67426666666667,0.67465,0.68068333333333,0.72305,0.76266666666667,5
COM6,508,28-Feb-18,2018-02-28 13:00:00,0.31901666666667,0.3178,0.3073,0.30571666666666997,0.30261666666667,0.31046666666667,0.32723333333333,5
COM6,508,28-Feb-18,2018-02-28 14:00:00,0.31073333333333003,0.3132,0.30138333333333,0.30051666666667,0.29481666666667,0.2997,0.31295,5
COM6,508,28-Feb-18,2018-02-28 15:00:00,0.26916666666667005,0.26596666666667,0.25635,0.25371666666667003,0.25198333333332995,0.25881666666667,0.27121666666667005,5
COM6,508,28-Feb-18,2018-02-28 16:00:00,0.20501666666667004,0.19995,0.19325,0.18941666666667004,0.19126666666667003,0.19383333333332997,0.2051,5
COM6,508,28-Feb-18,2018-02-28 17:00:00,0.38958333333333,0.3958,0.38406666666667,0.38333333333333003,0.38158333333333,0.38873333333333,0.40653333333333,5
COM6,508,28-Feb-18,2018-02-28 18:00:00,0.30808333333333,0.30913333333333,0.29555,0.29473333333333,0.28665,0.29003333333333,0.30186666666667,5
COM6,508,28-Feb-18,2018-02-28 19:00:00,0.73123333333333,0.5665,0.5206666666666699,0.50648333333333,0.4792,0.46273333333333,0.47451666666667,5
COM6,508,28-Feb-18,2018-02-28 20:00:00,0.8209,0.7314,0.6853,0.6783,0.64568333333333,0.63125,0.64843333333333,5
COM6,508,28-Feb-18,2018-02-28 21:00:00,0.77213333333333,0.6953,0.65071666666667,0.6429333333333299,0.6127833333333299,0.59761666666667,0.6138,5
COM6,508,28-Feb-18,2018-02-28 22:00:00,0.39935,0.41925,0.39743333333333003,0.39535,0.37833333333333,0.37053333333333,0.38176666666667,5
COM6,508,28-Feb-18,2018-02-28 23:00:00,0.6209636363636399,0.6074727272727299,0.57045454545455,0.5637818181818199,0.53816363636364,0.5214545454545501,0.5358727272727299,5
