COM6,508,02-May-18,2018-05-02 00:00:00,0.62881355932203,0.62316949152542,0.5939491525423699,0.58950847457627,0.56925423728814,0.55118644067797,0.56932203389831,5
COM6,508,02-May-18,2018-05-02 01:00:00,0.54516666666667,0.54533333333333,0.52298333333333,0.5182,0.50385,0.48436666666667,0.50093333333333,5
COM6,508,02-May-18,2018-05-02 02:00:00,0.5435,0.54318333333333,0.52071666666667,0.51855,0.50198333333333,0.4791,0.49466666666667,5
COM6,508,02-May-18,2018-05-02 03:00:00,0.59005,0.5747333333333299,0.54843333333333,0.54245,0.52341666666667,0.50041666666667,0.5163,5
COM6,508,02-May-18,2018-05-02 04:00:00,0.65935,0.6623166666666701,0.6351166666666701,0.6360833333333299,0.6160166666666701,0.59265,0.61213333333333,5
COM6,508,02-May-18,2018-05-02 05:00:00,0.9022,0.91758333333333,0.884,0.88533333333333,0.86046666666667,0.83641666666667,0.86598333333333,5
COM6,508,02-May-18,2018-05-02 06:00:00,1.8095833333333,1.8861666666666999,1.8248166666666998,1.8426833333333001,1.7925166666666998,1.7575333333333,1.82045,5
COM6,508,02-May-18,2018-05-02 07:00:00,1.5953166666667,1.6354666666667,1.5635833333333,1.5637166666667,1.5113666666667,1.4669999999999999,1.5187166666667,5
COM6,508,02-May-18,2018-05-02 08:00:00,1.6037333333333001,1.5956666666666999,1.5016333333333,1.4851833333333,1.4182,1.3551833333333,1.3968666666667,5
COM6,508,02-May-18,2018-05-02 09:00:00,0.53126666666667,0.5521333333333299,0.5304,0.52941666666667,0.50933333333333,0.4868,0.50331666666667,5
COM6,508,02-May-18,2018-05-02 10:00:00,0.29238333333333,0.29395,0.2751,0.27311666666667,0.25715,0.24295,0.24845,5
COM6,508,02-May-18,2018-05-02 11:00:00,0.3396,0.34941666666667,0.33458333333333,0.3348,0.31585,0.29868333333333,0.30783333333333,5
COM6,508,02-May-18,2018-05-02 12:00:00,0.32065,0.33406666666667,0.3217,0.321,0.30515,0.28703333333333003,0.29313333333333,5
COM6,508,02-May-18,2018-05-02 13:00:00,0.38656666666667,0.41181666666667,0.40493333333333,0.4113,0.39496666666667,0.37986666666667,0.38786666666666997,5
COM6,508,02-May-18,2018-05-02 14:00:00,0.36256666666667,0.36561666666667,0.35395,0.358,0.34465,0.32598333333333,0.33343333333333003,5
COM6,508,02-May-18,2018-05-02 15:00:00,0.23241666666667002,0.2253,0.2163,0.21156666666667004,0.20383333333332998,0.19053333333332997,0.19666666666667004,5
COM6,508,02-May-18,2018-05-02 16:00:00,0.22946666666667004,0.21925,0.21013333333332998,0.20671666666667002,0.19586666666667002,0.17593333333332997,0.18138333333332995,5
COM6,508,02-May-18,2018-05-02 17:00:00,0.30966666666667,0.28881666666667,0.27306666666667,0.27005,0.25563333333333,0.23255,0.23676666666667004,5
COM6,508,02-May-18,2018-05-02 18:00:00,0.23826666666667004,0.23111666666667002,0.21998333333332998,0.21348333333332997,0.20283333333332998,0.18418333333332998,0.18888333333332996,5
COM6,508,02-May-18,2018-05-02 19:00:00,0.73821666666667,0.66886666666667,0.6310833333333299,0.62165,0.58805,0.54911666666667,0.56355,5
COM6,508,02-May-18,2018-05-02 20:00:00,0.37006666666667,0.33063333333333,0.30718333333333003,0.3,0.28391666666667,0.26,0.26633333333333,5
COM6,508,02-May-18,2018-05-02 21:00:00,0.49866666666667,0.48983333333333,0.46653333333333,0.46866666666667,0.44616666666667,0.42175,0.43191666666667,5
COM6,508,02-May-18,2018-05-02 22:00:00,0.49736666666667,0.5099,0.49625,0.50225,0.48156666666667,0.4592,0.47251666666666997,5
COM6,508,02-May-18,2018-05-02 23:00:00,0.26041666666667,0.25391666666667,0.23891666666667002,0.23573333333332996,0.22308333333332997,0.2017,0.20568333333332997,5
