COM6,508,01-Aug-18,2018-08-01 00:00:00,0.7561864406779699,0.64515254237288,0.5884067796610201,0.56740677966102,0.53420338983051,0.48381355932203,0.49032203389831,5
COM6,508,01-Aug-18,2018-08-01 01:00:00,0.69676666666667,0.60003333333333,0.54913333333333,0.53243333333333,0.49973333333333003,0.45068333333333,0.45735,5
COM6,508,01-Aug-18,2018-08-01 02:00:00,0.91476666666667,0.78053333333333,0.7163,0.69493333333333,0.6592833333333299,0.6190833333333299,0.6314,5
COM6,508,01-Aug-18,2018-08-01 03:00:00,0.7724,0.69488333333333,0.64968333333333,0.63955,0.61125,0.57678333333333,0.5898,5
COM6,508,01-Aug-18,2018-08-01 04:00:00,0.7086,0.62525,0.5795833333333299,0.5654,0.53581666666667,0.4919,0.4992,5
COM6,508,01-Aug-18,2018-08-01 05:00:00,0.74933333333333,0.65978333333333,0.6107333333333299,0.5937,0.56268333333333,0.51701666666667,0.52596666666667,5
COM6,508,01-Aug-18,2018-08-01 06:00:00,1.2699833333333002,1.1871666666667,1.1157166666667,1.0983833333333,1.0556166666667,1.0086833333333,1.0330833333333,5
COM6,508,01-Aug-18,2018-08-01 07:00:00,1.3530833333333,1.3251833333333,1.2747333333333,1.2778333333333,1.2494833333333,1.2254666666667,1.2583166666667,5
COM6,508,01-Aug-18,2018-08-01 08:00:00,1.0849833333333,1.0436833333333,1.0003666666667,1.0027333333333,0.97455,0.94181666666667,0.96491666666667,5
COM6,508,01-Aug-18,2018-08-01 09:00:00,1.3233666666666999,1.2224,1.1436333333333,1.1225333333333,1.0760833333333,1.0170333333333001,1.0394,5
COM6,508,01-Aug-18,2018-08-01 10:00:00,1.2211833333333,1.1053166666667,1.0265166666667,1.00125,0.95141666666667,0.88408333333333,0.90201666666667,5
COM6,508,01-Aug-18,2018-08-01 11:00:00,1.3074833333333,1.1532833333333001,1.0634166666667,1.03115,0.97358333333333,0.88881666666667,0.90566666666667,5
COM6,508,01-Aug-18,2018-08-01 12:00:00,1.90995,1.6058,1.4564,1.3959833333333,1.3038666666667,1.1661166666667,1.1835833333333001,5
COM6,508,01-Aug-18,2018-08-01 13:00:00,1.25285,1.0452666666666999,0.94458333333333,0.90243333333333,0.8409,0.7406,0.75178333333333,5
COM6,508,01-Aug-18,2018-08-01 14:00:00,0.91985,0.7914,0.72435,0.69315,0.64896666666667,0.57426666666667,0.5789,5
COM6,508,01-Aug-18,2018-08-01 15:00:00,0.82,0.69383333333333,0.6323,0.60398333333333,0.56483333333333,0.49525,0.50046666666667,5
COM6,508,01-Aug-18,2018-08-01 16:00:00,1.0063333333333,0.84195,0.76433333333333,0.72938333333333,0.68151666666667,0.6025833333333299,0.6125833333333299,5
COM6,508,01-Aug-18,2018-08-01 17:00:00,0.9715,0.8143,0.73948333333333,0.70251666666667,0.6556166666666701,0.5756333333333299,0.5845666666666701,5
COM6,508,01-Aug-18,2018-08-01 18:00:00,1.0101666666667,0.85685,0.77908333333333,0.7448,0.69405,0.61333333333333,0.62023333333333,5
COM6,508,01-Aug-18,2018-08-01 19:00:00,1.4230833333333,1.2405,1.13755,1.0960833333333,1.0253333333333001,0.91673333333333,0.92986666666667,5
COM6,508,01-Aug-18,2018-08-01 20:00:00,1.2249166666667,1.02725,0.9289,0.8868,0.81876666666667,0.71966666666667,0.72491666666667,5
COM6,508,01-Aug-18,2018-08-01 21:00:00,1.2436166666667,1.0473833333333,0.94668333333333,0.90413333333333,0.83481666666667,0.72855,0.73278333333333,5
COM6,508,01-Aug-18,2018-08-01 22:00:00,1.7047,1.4990833333333,1.3799833333333,1.3375166666667,1.2620666666667,1.15725,1.1776333333333,5
COM6,508,01-Aug-18,2018-08-01 23:00:00,1.5386779661017,1.3561016949153,1.2502033898305,1.2099491525424,1.135186440678,1.0306101694915,1.0443728813559001,5
