COM6,508,04-Nov-18,2018-11-04 00:00:00,0.08806779661017,0.08303389830508501,0.078745762711864,0.07652542372881402,0.075949152542373,0.071033898305085,0.07435593220339,5
COM6,508,04-Nov-18,2018-11-04 01:00:00,0.13263333333333,0.12798333333333,0.12443333333333001,0.1209,0.12268333333333001,0.12051666666666999,0.1255,5
COM6,508,04-Nov-18,2018-11-04 02:00:00,0.17086666666667003,0.13881666666667,0.12966666666666998,0.12366666666666999,0.12171666666667,0.1125,0.11721666666667,5
COM6,508,04-Nov-18,2018-11-04 03:00:00,0.10941666666666999,0.094666666666667,0.08696666666666701,0.0828,0.08035,0.073316666666667,0.07616666666666701,5
COM6,508,04-Nov-18,2018-11-04 04:00:00,0.13936666666667002,0.10715,0.0971,0.091616666666667,0.08675,0.07935,0.08145,5
COM6,508,04-Nov-18,2018-11-04 05:00:00,0.21948333333332998,0.18128333333332997,0.16558333333332997,0.15945,0.15206666666667001,0.1422,0.14583333333332998,5
COM6,508,04-Nov-18,2018-11-04 06:00:00,0.2622,0.20675,0.18196666666667002,0.16983333333332998,0.15485,0.13591666666667,0.1388,5
COM6,508,04-Nov-18,2018-11-04 07:00:00,0.36535,0.31718333333333,0.29141666666667,0.27801666666667,0.26525,0.24888333333332996,0.25591666666667,5
COM6,508,04-Nov-18,2018-11-04 08:00:00,0.41655,0.39625,0.37316666666667,0.3643,0.35038333333333,0.33275,0.34411666666667,5
COM6,508,04-Nov-18,2018-11-04 09:00:00,0.4589,0.45708333333333,0.43488333333333,0.42978333333333,0.41616666666667,0.40268333333333,0.41665,5
COM6,508,04-Nov-18,2018-11-04 10:00:00,0.307,0.29983333333333,0.28446666666667,0.28038333333333,0.26976666666667004,0.25683333333332997,0.26475,5
COM6,508,04-Nov-18,2018-11-04 11:00:00,0.20256666666667003,0.19899999999999998,0.18901666666667002,0.1861,0.17866666666667003,0.17578333333332996,0.18088333333332998,5
COM6,508,04-Nov-18,2018-11-04 12:00:00,0.090083333333333,0.092733333333333,0.089116666666667,0.0886,0.08661666666666701,0.083583333333333,0.08663333333333298,5
COM6,508,04-Nov-18,2018-11-04 13:00:00,0.11800000000000001,0.11858333333333,0.11256666666666999,0.10965,0.10643333333333001,0.099883333333333,0.10308333333333,5
COM6,508,04-Nov-18,2018-11-04 14:00:00,0.15741666666667,0.15573333333332998,0.147,0.14566666666667002,0.13868333333333,0.13123333333333,0.13545,5
COM6,508,04-Nov-18,2018-11-04 15:00:00,0.20775,0.2025,0.1928,0.19058333333332997,0.18083333333332996,0.1685,0.1732,5
COM6,508,04-Nov-18,2018-11-04 16:00:00,0.2391,0.2249,0.21171666666667002,0.20583333333332998,0.19946666666667004,0.19191666666667004,0.19786666666667002,5
COM6,508,04-Nov-18,2018-11-04 17:00:00,0.2778,0.25653333333332995,0.23955,0.23375,0.22338333333332996,0.20818333333332997,0.21521666666667003,5
COM6,508,04-Nov-18,2018-11-04 18:00:00,0.45563333333333,0.44331666666666997,0.42155,0.41555,0.40283333333333,0.38826666666667,0.4006,5
COM6,508,04-Nov-18,2018-11-04 19:00:00,0.6905,0.5948333333333299,0.5542833333333299,0.53703333333333,0.5133,0.47963333333333,0.49348333333333,5
COM6,508,04-Nov-18,2018-11-04 20:00:00,0.72756666666667,0.6131666666666701,0.5685333333333299,0.5520333333333299,0.53058333333333,0.50003333333333,0.51441666666667,5
COM6,508,04-Nov-18,2018-11-04 21:00:00,0.40408333333333,0.35936666666667,0.33633333333333,0.32473333333333,0.3118,0.2921,0.302,5
COM6,508,04-Nov-18,2018-11-04 22:00:00,0.20271666666667004,0.20468333333332997,0.19188333333332996,0.18758333333332997,0.17916666666667003,0.16581666666667003,0.17065,5
COM6,508,04-Nov-18,2018-11-04 23:00:00,0.10262711864407001,0.11145762711864,0.10491525423728999,0.10291525423728999,0.09945762711864399,0.08964406779661,0.09345762711864398,5
