COM4,508,08-Dec-19,2019-12-08 00:00:00,1.0306271186441,0.9603898305084699,0.9045423728813601,0.89113559322034,0.84813559322034,0.7944745762711899,0.81486440677966,5.0
COM4,508,08-Dec-19,2019-12-08 01:00:00,0.85565,0.85118333333333,0.81223333333333,0.80598333333333,0.77538333333333,0.73721666666667,0.75605,5.0
COM4,508,08-Dec-19,2019-12-08 02:00:00,0.53398333333333,0.5764,0.55626666666667,0.5589999999999999,0.54163333333333,0.51871666666667,0.53348333333333,5.0
COM4,508,08-Dec-19,2019-12-08 03:00:00,0.6535166666666701,0.6408333333333299,0.6091166666666701,0.6035333333333299,0.57793333333333,0.54493333333333,0.5595166666666701,5.0
COM4,508,08-Dec-19,2019-12-08 04:00:00,0.6462,0.6401333333333299,0.6086333333333299,0.60255,0.5784333333333299,0.54615,0.5602333333333299,5.0
COM4,508,08-Dec-19,2019-12-08 05:00:00,0.6458333333333299,0.6401833333333299,0.6094833333333299,0.6049833333333299,0.5809,0.54763333333333,0.5627166666666701,5.0
COM4,508,08-Dec-19,2019-12-08 06:00:00,0.10723333333333,0.16071666666667,0.15831666666667002,0.15658333333333,0.14925,0.13678333333333,0.1398,5.0
COM4,508,08-Dec-19,2019-12-08 07:00:00,-0.044616666666667,-0.01125,-0.0076666666666667,-0.0046166666666667,-0.0035333333333333,-0.0024833333333333,-0.0017833333333333,5.0
COM4,508,08-Dec-19,2019-12-08 08:00:00,-0.0050666666666667,0.014366666666667,0.017716666666667002,0.016483333333333,0.017033333333333,0.015716666666667,0.016283333333333,5.0
COM4,508,08-Dec-19,2019-12-08 09:00:00,0.44193333333333,0.38811666666667,0.35201666666667,0.33593333333333003,0.31056666666667,0.2721,0.27778333333333,5.0
COM4,508,08-Dec-19,2019-12-08 10:00:00,0.83308333333333,0.72581666666667,0.6595,0.6267333333333299,0.57545,0.49931666666667,0.50568333333333,5.0
COM4,508,08-Dec-19,2019-12-08 11:00:00,0.5531833333333299,0.49236666666667,0.44933333333333003,0.43191666666667,0.39998333333333,0.35425,0.35933333333333,5.0
COM4,508,08-Dec-19,2019-12-08 12:00:00,0.92656666666667,0.79046666666667,0.71673333333333,0.68216666666667,0.6283666666666701,0.54866666666667,0.5571,5.0
COM4,508,08-Dec-19,2019-12-08 13:00:00,1.1623666666666999,0.9888,0.89851666666667,0.85396666666667,0.78916666666667,0.68456666666667,0.69775,5.0
COM4,508,08-Dec-19,2019-12-08 14:00:00,0.9322,0.76568333333333,0.6874,0.64305,0.59221666666667,0.50323333333333,0.5123,5.0
COM4,508,08-Dec-19,2019-12-08 15:00:00,1.42025,1.22495,1.1170166666666999,1.0579666666667,0.98828333333333,0.8597,0.8785333333333301,5.0
COM4,508,08-Dec-19,2019-12-08 16:00:00,1.3382,1.1167666666667,1.0152,0.95386666666667,0.89175,0.76208333333333,0.78098333333333,5.0
COM4,508,08-Dec-19,2019-12-08 17:00:00,1.0783166666667,0.78098333333333,0.68458333333333,0.6251166666666701,0.57421666666667,0.46798333333333003,0.47771666666667,5.0
COM4,508,08-Dec-19,2019-12-08 18:00:00,0.5630333333333299,0.4601,0.40896666666667,0.37875,0.34695,0.29033333333333,0.29585,5.0
COM4,508,08-Dec-19,2019-12-08 19:00:00,0.44138333333333,0.34198333333333003,0.30086666666667,0.27916666666667,0.25181666666667,0.20898333333332997,0.21341666666667003,5.0
COM4,508,08-Dec-19,2019-12-08 20:00:00,0.53746666666667,0.35703333333333,0.32243333333333,0.30766666666667,0.28631666666667,0.25126666666667,0.2581,4.6666666666667
COM4,508,08-Dec-19,2019-12-08 21:00:00,1.5365,1.2392833333333,1.13775,1.10295,1.0545,0.98803333333333,1.01355,5.0
COM4,508,08-Dec-19,2019-12-08 22:00:00,1.5083666666667,1.3864833333333,1.2891166666667,1.2603333333333,1.2108666666666998,1.1430666666667,1.1744333333333001,5.0
COM4,508,08-Dec-19,2019-12-08 23:00:00,0.79591666666667,0.78071666666667,0.7328,0.72058333333333,0.69358333333333,0.6545,0.672,5.0
