COM6,508,10-Jan-18,2018-01-10 00:00:00,0.7536779661016899,0.73008474576271,0.6971525423728799,0.68989830508475,0.6695762711864399,0.64893220338983,0.6695762711864399,5
COM6,508,10-Jan-18,2018-01-10 01:00:00,0.6321666666666701,0.61085,0.58336666666667,0.5755166666666701,0.5593333333333299,0.5406,0.55793333333333,5
COM6,508,10-Jan-18,2018-01-10 02:00:00,0.29055,0.28161666666667,0.26835,0.26473333333333,0.25425,0.24108333333332996,0.24841666666667003,5
COM6,508,10-Jan-18,2018-01-10 03:00:00,0.21213333333332998,0.2056,0.19503333333332998,0.19175,0.18425,0.17388333333332998,0.17895,5
COM6,508,10-Jan-18,2018-01-10 04:00:00,0.15311666666667,0.15191666666667,0.14606666666667,0.14488333333332998,0.14011666666667003,0.1342,0.13831666666667,5
COM6,508,10-Jan-18,2018-01-10 05:00:00,1.0820666666667,1.0608833333333,1.0151166666667,1.0039833333333001,0.97155,0.93613333333333,0.96568333333333,5
COM6,508,10-Jan-18,2018-01-10 06:00:00,1.1421333333333001,1.13985,1.09825,1.0912666666667,1.0590833333333,1.0256166666667,1.0587333333333,5
COM6,508,10-Jan-18,2018-01-10 07:00:00,0.76018333333333,0.76236666666667,0.73368333333333,0.72863333333333,0.70121666666667,0.67415,0.69325,5
COM6,508,10-Jan-18,2018-01-10 08:00:00,1.0342666666667,1.05475,1.0126666666667,1.0058,0.96795,0.93355,0.95998333333333,5
COM6,508,10-Jan-18,2018-01-10 09:00:00,0.46618333333333,0.47741666666667,0.462,0.46401666666667,0.44698333333333,0.4295,0.4416,5
COM6,508,10-Jan-18,2018-01-10 10:00:00,0.4709,0.47123333333333,0.45358333333333,0.45081666666667,0.43211666666667,0.41526666666667,0.42545,5
COM6,508,10-Jan-18,2018-01-10 11:00:00,0.60228333333333,0.6028166666666701,0.5762833333333299,0.57321666666667,0.54983333333333,0.52855,0.5427,5
COM6,508,10-Jan-18,2018-01-10 12:00:00,0.44818333333333,0.43336666666667,0.41111666666667,0.4044,0.38766666666667,0.36488333333333,0.37721666666667,5
COM6,508,10-Jan-18,2018-01-10 13:00:00,0.36118333333333,0.34301666666666997,0.32226666666667,0.3142,0.30078333333333,0.28666666666667,0.29635,5
COM6,508,10-Jan-18,2018-01-10 14:00:00,0.4151,0.39423333333333,0.37058333333333,0.36131666666667,0.3457,0.32518333333333,0.33575,5
COM6,508,10-Jan-18,2018-01-10 15:00:00,0.33705,0.3202,0.30328333333333,0.29733333333333,0.28471666666667,0.27281666666667004,0.28148333333333003,5
COM6,508,10-Jan-18,2018-01-10 16:00:00,0.672,0.63848333333333,0.6016,0.5876,0.5604166666666701,0.52246666666667,0.5389,5
COM6,508,10-Jan-18,2018-01-10 17:00:00,1.1209,0.98458333333333,0.91466666666667,0.88855,0.83861666666667,0.79338333333333,0.81341666666667,5
COM6,508,10-Jan-18,2018-01-10 18:00:00,1.54135,1.3267666666667,1.2439833333333001,1.2184666666667,1.1464666666667,1.08415,1.1098666666666999,5
COM6,508,10-Jan-18,2018-01-10 19:00:00,1.10235,0.84375,0.76578333333333,0.74155,0.6809333333333301,0.6289666666666701,0.6387,5
COM6,508,10-Jan-18,2018-01-10 20:00:00,0.62438333333333,0.55191666666667,0.50108333333333,0.48411666666666997,0.44328333333333003,0.41200000000000003,0.4185,5
COM6,508,10-Jan-18,2018-01-10 21:00:00,0.6195333333333299,0.52028333333333,0.4677,0.44973333333333,0.41068333333333,0.3759,0.38085,5
COM6,508,10-Jan-18,2018-01-10 22:00:00,0.48608333333333,0.39706666666667,0.35645,0.33933333333333,0.30645,0.2779,0.28135,5
COM6,508,10-Jan-18,2018-01-10 23:00:00,0.31523636363636,0.25269090909091,0.22412727272726998,0.21341818181818,0.19210909090909,0.17172727272726998,0.17356363636364003,5
