COM6,508,18-Oct-17,2017-10-18 00:00:00,1.1984576271186003,1.0866271186440999,1.006593220339,0.97359322033898,0.91494915254237,0.85028813559322,0.87191525423729,5.0
COM6,508,18-Oct-17,2017-10-18 01:00:00,1.5453666666666999,1.4034,1.2998833333333,1.2608,1.1822833333333,1.0957666666666999,1.1211333333333,5.0
COM6,508,18-Oct-17,2017-10-18 02:00:00,1.5157833333333,1.4078333333333,1.3077333333333,1.2734666666667,1.19525,1.1130833333333001,1.1386,5.0
COM6,508,18-Oct-17,2017-10-18 03:00:00,1.1176833333333,1.0456333333333,0.96833333333333,0.93618333333333,0.87783333333333,0.81406666666667,0.83253333333333,5.0
COM6,508,18-Oct-17,2017-10-18 04:00:00,1.1058,1.0087833333333,0.9291,0.89461666666667,0.83258333333333,0.76128333333333,0.77676666666667,5.0
COM6,508,18-Oct-17,2017-10-18 05:00:00,1.8539666666666998,1.6301166666667,1.48665,1.4305833333333,1.3193,1.1958333333333,1.2179166666666998,5.0
COM6,508,18-Oct-17,2017-10-18 06:00:00,3.2888833333333,3.08905,2.8733166666667,2.8118833333332995,2.6317,2.4483666666667,2.5003,5.0
COM6,508,18-Oct-17,2017-10-18 07:00:00,3.6598333333333,3.3575666666667003,3.08465,2.998,2.7819333333332996,2.5717333333332997,2.6239333333332997,5.0
COM6,508,18-Oct-17,2017-10-18 08:00:00,3.9362166666667004,3.5878666666667,3.2764166666667003,3.1621333333333,2.9059166666667005,2.62725,2.6683166666667004,5.0
COM6,508,18-Oct-17,2017-10-18 09:00:00,4.2293166666667,3.7729166666667004,3.4110666666667004,3.2796666666667003,2.9850333333332997,2.6954,2.72995,4.8333333333333
COM6,508,18-Oct-17,2017-10-18 10:00:00,1.9113,1.8022,1.70975,1.68595,1.6291666666667,1.5803666666667,1.6300666666666999,4.8333333333333
COM6,508,18-Oct-17,2017-10-18 11:00:00,1.2322666666667,1.1417333333333,1.0810333333333,1.0668,1.0275,0.99611666666667,1.0253666666666998,5.0
COM6,508,18-Oct-17,2017-10-18 12:00:00,0.92996666666667,0.91365,0.86758333333333,0.85676666666667,0.8278,0.80576666666667,0.82943333333333,5.0
COM6,508,18-Oct-17,2017-10-18 13:00:00,0.83473333333333,0.8458,0.80306666666667,0.79308333333333,0.76693333333333,0.74641666666667,0.7696666666666699,5.0
COM6,508,18-Oct-17,2017-10-18 14:00:00,0.78048333333333,0.78126666666667,0.74031666666667,0.72981666666667,0.70601666666667,0.68615,0.70886666666667,5.0
COM6,508,18-Oct-17,2017-10-18 15:00:00,0.8140333333333301,0.81411666666667,0.7746833333333301,0.7625,0.74066666666667,0.72511666666667,0.7484666666666699,5.0
COM6,508,18-Oct-17,2017-10-18 16:00:00,1.3438333333333001,1.3288333333333,1.27015,1.2587833333333,1.2235166666667,1.20045,1.2378333333333,5.0
COM6,508,18-Oct-17,2017-10-18 17:00:00,1.8221833333333,1.8767333333333,1.8370833333333,1.8565166666667,1.8271166666667,1.8212666666667,1.8786333333333,5.0
COM6,508,18-Oct-17,2017-10-18 18:00:00,2.0246666666667,1.9235833333333001,1.8297166666667,1.8148,1.7588333333333002,1.7187166666667,1.7728,5.0
COM6,508,18-Oct-17,2017-10-18 19:00:00,1.6309833333333001,1.3548,1.2391166666667,1.18935,1.1207166666667,1.0429,1.0711166666667,5.0
COM6,508,18-Oct-17,2017-10-18 20:00:00,1.6845666666666999,1.4861833333333,1.3814166666667,1.34425,1.2815333333333,1.22695,1.2618333333333,5.0
COM6,508,18-Oct-17,2017-10-18 21:00:00,1.4977,1.33405,1.24425,1.21545,1.1535166666667,1.0871166666667,1.1151333333333,5.0
COM6,508,18-Oct-17,2017-10-18 22:00:00,1.6811333333333,1.5275333333333,1.4191666666667,1.3805166666667,1.3061,1.2230166666667,1.2551166666667,5.0
COM6,508,18-Oct-17,2017-10-18 23:00:00,1.1119285714286,1.0106964285714,0.933375,0.90521428571429,0.85610714285714,0.80003571428571,0.82073214285714,5.0
