COM4,508,17-Aug-19,2019-08-17 00:00:00,0.9174406779661,0.85161016949153,0.7921186440678001,0.7727457627118599,0.7384576271186399,0.6925762711864399,0.71215254237288,5
COM4,508,17-Aug-19,2019-08-17 01:00:00,0.7031166666666699,0.63925,0.59013333333333,0.57041666666667,0.54076666666667,0.4951,0.50718333333333,5
COM4,508,17-Aug-19,2019-08-17 02:00:00,0.76026666666667,0.7454,0.71046666666667,0.70826666666667,0.69085,0.67106666666667,0.69196666666667,5
COM4,508,17-Aug-19,2019-08-17 03:00:00,0.73526666666667,0.67433333333333,0.62365,0.6042,0.57393333333333,0.53106666666667,0.54395,5
COM4,508,17-Aug-19,2019-08-17 04:00:00,0.71695,0.63991666666667,0.5834,0.5611833333333299,0.52483333333333,0.47118333333333,0.4816,5
COM4,508,17-Aug-19,2019-08-17 05:00:00,0.5848666666666701,0.51498333333333,0.46663333333333,0.4436,0.41183333333333,0.3635,0.37098333333333,5
COM4,508,17-Aug-19,2019-08-17 06:00:00,0.39143333333333,0.34475,0.30978333333333,0.29143333333333,0.26876666666667004,0.23568333333332997,0.23986666666667003,5
COM4,508,17-Aug-19,2019-08-17 07:00:00,0.90945,0.8409,0.77593333333333,0.75246666666667,0.71031666666667,0.6519,0.66578333333333,5
COM4,508,17-Aug-19,2019-08-17 08:00:00,0.92248333333333,0.8506,0.78136666666667,0.75598333333333,0.71165,0.6503166666666701,0.6653333333333299,5
COM4,508,17-Aug-19,2019-08-17 09:00:00,0.88896666666667,0.8104,0.74018333333333,0.71291666666667,0.66511666666667,0.60133333333333,0.6138,5
COM4,508,17-Aug-19,2019-08-17 10:00:00,0.5920166666666701,0.53885,0.49163333333333,0.47405,0.43991666666667,0.39445,0.4009,5
COM4,508,17-Aug-19,2019-08-17 11:00:00,0.23706666666667003,0.21213333333332998,0.18828333333332997,0.17796666666667002,0.16098333333332998,0.13603333333333,0.13833333333332998,5
COM4,508,17-Aug-19,2019-08-17 12:00:00,0.25718333333333,0.2161,0.1903,0.17711666666667003,0.16146666666667,0.14078333333332999,0.14451666666667,5
COM4,508,17-Aug-19,2019-08-17 13:00:00,0.20648333333332997,0.1749,0.1546,0.14575,0.13271666666667,0.11371666666666999,0.11531666666667,5
COM4,508,17-Aug-19,2019-08-17 14:00:00,0.2175,0.1837,0.16363333333333,0.15348333333332997,0.14128333333332999,0.12376666666667,0.12626666666667,5
COM4,508,17-Aug-19,2019-08-17 15:00:00,0.19163333333332996,0.16161666666667002,0.14455,0.13223333333333,0.1237,0.10553333333333001,0.10811666666667,5
COM4,508,17-Aug-19,2019-08-17 16:00:00,0.1751,0.151,0.13773333333333,0.12826666666667,0.12058333333333,0.10206666666667,0.10371666666667,5
COM4,508,17-Aug-19,2019-08-17 17:00:00,0.23175,0.19661666666667002,0.1764,0.16566666666667001,0.15205,0.13296666666667,0.13636666666667,5
COM4,508,17-Aug-19,2019-08-17 18:00:00,0.17808333333332996,0.1557,0.14086666666667003,0.13215,0.12258333333333,0.10506666666667,0.10693333333333001,5
COM4,508,17-Aug-19,2019-08-17 19:00:00,0.52221666666667,0.44143333333333,0.39465,0.37156666666667,0.34525,0.30371666666667,0.30931666666667,5
COM4,508,17-Aug-19,2019-08-17 20:00:00,0.38068333333333,0.30156666666667,0.26065,0.24021666666667002,0.2179,0.1837,0.18803333333332997,5
COM4,508,17-Aug-19,2019-08-17 21:00:00,0.38045,0.2861,0.24571666666667002,0.22378333333332998,0.2006,0.17205,0.17325,5
COM4,508,17-Aug-19,2019-08-17 22:00:00,1.09005,0.97683333333333,0.89411666666667,0.8561,0.80263333333333,0.7259,0.74218333333333,5
COM4,508,17-Aug-19,2019-08-17 23:00:00,0.60255,0.53058333333333,0.4828,0.46231666666667,0.43078333333333,0.38503333333333,0.39266666666667,5
