COM4,508,04-Nov-19,2019-11-04 00:00:00,0.54818644067797,0.48186440677965997,0.44572881355932,0.43222033898305,0.41105084745763004,0.3858813559322,0.39596610169491997,5
COM4,508,04-Nov-19,2019-11-04 01:00:00,0.36516666666666997,0.36946666666667,0.34576666666667,0.3384,0.32403333333333,0.30763333333333,0.31523333333333,5
COM4,508,04-Nov-19,2019-11-04 02:00:00,0.56395,0.5453,0.5106,0.50208333333333,0.48428333333333,0.46111666666667,0.47343333333333,5
COM4,508,04-Nov-19,2019-11-04 03:00:00,0.46548333333333003,0.45636666666667,0.42735,0.42011666666666997,0.4045,0.38268333333333,0.39323333333333,5
COM4,508,04-Nov-19,2019-11-04 04:00:00,0.54918333333333,0.52845,0.49491666666667,0.48708333333333,0.47068333333333,0.4492,0.46191666666667,5
COM4,508,04-Nov-19,2019-11-04 05:00:00,0.78035,0.72863333333333,0.68276666666667,0.67206666666667,0.64953333333333,0.61785,0.6344166666666701,5
COM4,508,04-Nov-19,2019-11-04 06:00:00,1.2246333333333002,1.2014333333333,1.1388333333333,1.1258,1.0896,1.0363,1.0654833333333,5
COM4,508,04-Nov-19,2019-11-04 07:00:00,2.0248166666667,1.9766666666666999,1.8764333333333,1.8592,1.8052833333333,1.7391666666667,1.7896,5
COM4,508,04-Nov-19,2019-11-04 08:00:00,2.4874666666667005,2.4467,2.3267666666667,2.3110333333332997,2.2416833333332997,2.16255,2.2239166666667,5
COM4,508,04-Nov-19,2019-11-04 09:00:00,2.7464,2.7067666666667,2.5604,2.5316833333332998,2.4431166666667004,2.3471,2.4124333333332997,5
COM4,508,04-Nov-19,2019-11-04 10:00:00,1.5560333333333,1.5640833333333,1.4826666666666999,1.4661666666667,1.40935,1.3422,1.3762333333333001,5
COM4,508,04-Nov-19,2019-11-04 11:00:00,1.2859833333333,1.23555,1.1474,1.1190166666666999,1.0570166666667,0.98478333333333,1.0087333333333,5
COM4,508,04-Nov-19,2019-11-04 12:00:00,0.86826666666667,0.82613333333333,0.7594,0.73516666666667,0.68893333333333,0.6296,0.6457833333333299,5
COM4,508,04-Nov-19,2019-11-04 13:00:00,0.40103333333333,0.39808333333333,0.37058333333333,0.35613333333333,0.34063333333333,0.321,0.33198333333333,5
COM4,508,04-Nov-19,2019-11-04 14:00:00,0.1567,0.19011666666667004,0.1837,0.1822,0.1878,0.19801666666667003,0.20878333333332996,5
COM4,508,04-Nov-19,2019-11-04 15:00:00,0.37775,0.40543333333333,0.38956666666667,0.38705,0.38313333333333,0.38558333333333,0.40026666666667,5
COM4,508,04-Nov-19,2019-11-04 16:00:00,0.7535166666666699,0.77015,0.73003333333333,0.72238333333333,0.70153333333333,0.68603333333333,0.70995,5
COM4,508,04-Nov-19,2019-11-04 17:00:00,0.6422,0.6181,0.57798333333333,0.56598333333333,0.54438333333333,0.52081666666667,0.53461666666667,5
COM4,508,04-Nov-19,2019-11-04 18:00:00,1.4055833333333,1.3152666666667,1.2212666666667,1.1967166666667,1.1410666666667,1.08075,1.1098,5
COM4,508,04-Nov-19,2019-11-04 19:00:00,0.72346666666667,0.66868333333333,0.62161666666667,0.6075833333333299,0.5771,0.54696666666667,0.56183333333333,5
COM4,508,04-Nov-19,2019-11-04 20:00:00,0.53793333333333,0.50361666666667,0.46201666666667,0.4536,0.43068333333333003,0.4081,0.41768333333333,5
COM4,508,04-Nov-19,2019-11-04 21:00:00,0.39473333333333,0.38813333333333,0.36338333333333,0.35756666666667,0.3424,0.32758333333333,0.33576666666667,5
COM4,508,04-Nov-19,2019-11-04 22:00:00,0.5757333333333299,0.5665166666666701,0.5297,0.51925,0.49388333333333,0.46503333333333,0.47666666666667,5
COM4,508,04-Nov-19,2019-11-04 23:00:00,0.73081666666667,0.71581666666667,0.66455,0.6508333333333299,0.61246666666667,0.56116666666667,0.5722833333333299,5
