COM6,508,04-Apr-19,2019-04-04 00:00:00,0.08735593220339,0.07983050847457598,0.07255932203389799,0.073033898305085,0.063813559322034,0.05745762711864401,0.05781355932203401,5
COM6,508,04-Apr-19,2019-04-04 01:00:00,0.095483333333333,0.0875,0.07735,0.07715,0.066816666666667,0.063583333333333,0.061066666666667,5
COM6,508,04-Apr-19,2019-04-04 02:00:00,0.12368333333333001,0.11878333333333001,0.10751666666667,0.10898333333333,0.0961,0.090233333333333,0.09016666666666699,5
COM6,508,04-Apr-19,2019-04-04 03:00:00,0.20848333333332997,0.19663333333332997,0.182,0.18028333333332996,0.16785,0.1595,0.16056666666667002,5
COM6,508,04-Apr-19,2019-04-04 04:00:00,0.22693333333332996,0.21185,0.19676666666667003,0.19463333333332997,0.1831,0.17288333333332997,0.17706666666667004,5
COM6,508,04-Apr-19,2019-04-04 05:00:00,0.42865,0.39968333333333,0.37131666666667,0.36623333333333,0.34725,0.3357,0.34561666666667,5
COM6,508,04-Apr-19,2019-04-04 06:00:00,0.82198333333333,0.78523333333333,0.73126666666667,0.71818333333333,0.6819,0.643,0.6571666666666701,5
COM6,508,04-Apr-19,2019-04-04 07:00:00,1.0087833333333,0.95808333333333,0.89158333333333,0.87528333333333,0.82771666666667,0.77441666666667,0.79203333333333,5
COM6,508,04-Apr-19,2019-04-04 08:00:00,2.15605,2.1073333333333,1.9668666666666998,1.93285,1.8332333333333,1.73455,1.7782333333333,5
COM6,508,04-Apr-19,2019-04-04 09:00:00,0.67306666666667,0.68688333333333,0.64348333333333,0.6343166666666701,0.6006666666666701,0.5598666666666701,0.57075,5
COM6,508,04-Apr-19,2019-04-04 10:00:00,0.5735666666666701,0.56665,0.52758333333333,0.5163,0.4861,0.4534,0.46321666666667,5
COM6,508,04-Apr-19,2019-04-04 11:00:00,0.41513333333333,0.40081666666667,0.37193333333333,0.36165,0.3415,0.31508333333333,0.32256666666667,5
COM6,508,04-Apr-19,2019-04-04 12:00:00,0.28595,0.26815,0.24631666666667004,0.24033333333332996,0.22411666666667004,0.20483333333332998,0.20906666666667004,5
COM6,508,04-Apr-19,2019-04-04 13:00:00,0.30408333333333,0.28645,0.26558333333332995,0.25826666666667003,0.2448,0.22435,0.22996666666667004,5
COM6,508,04-Apr-19,2019-04-04 14:00:00,0.29925,0.25628333333333,0.2393,0.22176666666667003,0.21921666666667003,0.19345,0.2003,5
COM6,508,04-Apr-19,2019-04-04 15:00:00,0.28335,0.23615,0.22008333333332997,0.2,0.20018333333332997,0.16965,0.17996666666667002,5
COM6,508,04-Apr-19,2019-04-04 16:00:00,0.23206666666667003,0.20053333333332996,0.1853,0.16433333333333,0.16985,0.14265,0.15118333333332998,5
COM6,508,04-Apr-19,2019-04-04 17:00:00,0.45848333333333,0.43813333333333,0.41218333333333,0.39565,0.38078333333333003,0.34128333333333,0.35261666666667,5
COM6,508,04-Apr-19,2019-04-04 18:00:00,0.513,0.44581666666666997,0.40758333333333,0.39048333333333,0.36771666666667,0.33051666666667,0.3407,5
COM6,508,04-Apr-19,2019-04-04 19:00:00,0.4847,0.37346666666667,0.33375,0.30855,0.28586666666667,0.24528333333332997,0.24855,5
COM6,508,04-Apr-19,2019-04-04 20:00:00,0.33721666666667,0.256,0.21998333333332998,0.20086666666667002,0.18143333333332998,0.14838333333332998,0.15183333333333,5
COM6,508,04-Apr-19,2019-04-04 21:00:00,0.37641666666667,0.27601666666667,0.23688333333332998,0.21665,0.19143333333332996,0.15711666666667,0.15871666666667,5
COM6,508,04-Apr-19,2019-04-04 22:00:00,0.25516666666667004,0.19326666666667003,0.16893333333332997,0.15345,0.138,0.11595,0.11536666666666999,5
COM6,508,04-Apr-19,2019-04-04 23:00:00,0.20231578947368,0.16645614035088002,0.14671929824560997,0.13884210526316001,0.12691228070175,0.10843859649123,0.11098245614035002,5
