COM6,508,13-Mar-18,2018-03-13 00:00:00,0.6668644067796601,0.62462711864407,0.579,0.56650847457627,0.5302033898305101,0.50547457627119,0.5128644067796599,5.0
COM6,508,13-Mar-18,2018-03-13 01:00:00,1.0922833333333,1.04865,0.98035,0.96403333333333,0.91738333333333,0.87823333333333,0.89926666666667,5.0
COM6,508,13-Mar-18,2018-03-13 02:00:00,1.0008166666667,0.91976666666667,0.85833333333333,0.84778333333333,0.80421666666667,0.76891666666667,0.79031666666667,4.6666666666667
COM6,508,13-Mar-18,2018-03-13 03:00:00,0.79966666666667,0.6477,0.6098166666666701,0.6002166666666701,0.57865,0.56073333333333,0.5780166666666701,5.0
COM6,508,13-Mar-18,2018-03-13 04:00:00,0.54983333333333,0.50091666666667,0.4679,0.46028333333333,0.43968333333333,0.4263,0.43698333333333,5.0
COM6,508,13-Mar-18,2018-03-13 05:00:00,0.8346,0.84055,0.80178333333333,0.8008833333333301,0.77968333333333,0.7738,0.79818333333333,5.0
COM6,508,13-Mar-18,2018-03-13 06:00:00,1.3027,1.32955,1.2728,1.26985,1.2383,1.2260333333333,1.2650833333333,5.0
COM6,508,13-Mar-18,2018-03-13 07:00:00,2.4541833333332996,2.50675,2.4017166666667,2.3954833333332997,2.3350166666667,2.3047166666667,2.3775,5.0
COM6,508,13-Mar-18,2018-03-13 08:00:00,1.5549333333333,1.6022833333333,1.5452666666666999,1.5485333333333,1.5119833333333002,1.4998666666667,1.54605,5.0
COM6,508,13-Mar-18,2018-03-13 09:00:00,3.0283666666667,3.0615166666667,2.9418666666667,2.9406833333332996,2.8693,2.8353833333333,2.9221166666667004,5.0
COM6,508,13-Mar-18,2018-03-13 10:00:00,2.3845333333333,2.3944333333333,2.3013833333332996,2.30085,2.2424,2.2126666666667,2.2816333333333,5.0
COM6,508,13-Mar-18,2018-03-13 11:00:00,1.5493833333333,1.57825,1.5318833333333,1.5461666666667,1.5209333333333002,1.5232333333333001,1.57495,5.0
COM6,508,13-Mar-18,2018-03-13 12:00:00,1.1513166666666999,1.1443,1.1022333333333,1.1051666666667,1.0786166666666999,1.0701166666667,1.1047833333333001,5.0
COM6,508,13-Mar-18,2018-03-13 13:00:00,1.2611333333333001,1.22445,1.1661333333333002,1.1566666666667,1.1214,1.0895833333333,1.1228166666666999,5.0
COM6,508,13-Mar-18,2018-03-13 14:00:00,0.98916666666667,0.96366666666667,0.92073333333333,0.91301666666667,0.88591666666667,0.86271666666667,0.8895,5.0
COM6,508,13-Mar-18,2018-03-13 15:00:00,0.76703333333333,0.7624,0.73071666666667,0.72691666666667,0.70938333333333,0.691,0.71346666666667,5.0
COM6,508,13-Mar-18,2018-03-13 16:00:00,0.7116,0.68425,0.64991666666667,0.6405666666666701,0.6193,0.5898666666666701,0.60861666666667,5.0
COM6,508,13-Mar-18,2018-03-13 17:00:00,0.81395,0.79126666666667,0.7507,0.74065,0.71776666666667,0.69138333333333,0.71395,5.0
COM6,508,13-Mar-18,2018-03-13 18:00:00,0.86973333333333,0.84721666666667,0.8034,0.79106666666667,0.76363333333333,0.72648333333333,0.74961666666667,5.0
COM6,508,13-Mar-18,2018-03-13 19:00:00,0.37103333333333,0.34105,0.31813333333333,0.30648333333333,0.29261666666667,0.26718333333332994,0.27425,5.0
COM6,508,13-Mar-18,2018-03-13 20:00:00,0.29681666666667,0.2831,0.26325,0.25691666666667,0.24036666666667003,0.21886666666667004,0.22526666666667003,5.0
COM6,508,13-Mar-18,2018-03-13 21:00:00,0.25255,0.23333333333332998,0.21803333333332997,0.21205,0.19726666666667003,0.17963333333332998,0.18163333333332995,5.0
COM6,508,13-Mar-18,2018-03-13 22:00:00,0.45336666666666997,0.42191666666667,0.39228333333333,0.38103333333333,0.35873333333333,0.33458333333333,0.34418333333333,5.0
COM6,508,13-Mar-18,2018-03-13 23:00:00,0.60628070175439,0.5503684210526301,0.5109649122807,0.49847368421053,0.46984210526315995,0.4380350877193,0.44768421052632,5.0
