COM4,508,13-Sep-19,2019-09-13 00:00:00,0.29128813559322,0.29379661016949,0.28281355932203,0.28254237288135997,0.27537288135593,0.26550847457626997,0.27166101694915,5.0
COM4,508,13-Sep-19,2019-09-13 01:00:00,0.35635,0.36335,0.35093333333333,0.3522,0.34196666666666997,0.32983333333333,0.33873333333333,5.0
COM4,508,13-Sep-19,2019-09-13 02:00:00,0.38438333333333,0.39583333333333,0.38283333333333003,0.38506666666667,0.37545,0.36421666666667,0.37425,5.0
COM4,508,13-Sep-19,2019-09-13 03:00:00,0.40668333333333,0.41886666666667,0.40641666666667,0.40905,0.40096666666666997,0.39156666666667,0.4028,5.0
COM4,508,13-Sep-19,2019-09-13 04:00:00,0.43365,0.43585,0.4199,0.42135,0.41125,0.39816666666667,0.40943333333333,5.0
COM4,508,13-Sep-19,2019-09-13 05:00:00,1.06875,1.0827,1.0418,1.0412,1.0193833333333,0.99568333333333,1.0277666666667,5.0
COM4,508,13-Sep-19,2019-09-13 06:00:00,1.6202666666667,1.6589166666667,1.5975,1.5999,1.5671333333333,1.5377333333333,1.5878666666666998,5.0
COM4,508,13-Sep-19,2019-09-13 07:00:00,2.53335,2.57945,2.4760666666667004,2.4738166666667003,2.4156333333332998,2.3615666666667003,2.43545,5.0
COM4,508,13-Sep-19,2019-09-13 08:00:00,2.5337333333333,2.5947666666667004,2.4825666666667003,2.4831166666667004,2.4110833333332997,2.3539333333332997,2.42525,5.0
COM4,508,13-Sep-19,2019-09-13 09:00:00,0.029417338709677002,0.012149193548386998,0.010737231182796,0.0083219086021505,0.015697580645161,0.0045033602150538,0.01517002688172,0.10080645161289999
COM6,508,13-Sep-19,2019-09-13 10:00:00,NaN,NaN,NaN,NaN,NaN,NaN,NaN,NaN
COM4,508,13-Sep-19,2019-09-13 11:00:00,0.99768333333333,0.88851666666667,0.843,0.83408333333333,0.81193333333333,0.77618333333333,0.80086666666667,5.0
COM6,508,13-Sep-19,2019-09-13 12:00:00,NaN,NaN,NaN,NaN,NaN,NaN,NaN,NaN
COM6,508,13-Sep-19,2019-09-13 13:00:00,NaN,NaN,NaN,NaN,NaN,NaN,NaN,NaN
COM6,508,13-Sep-19,2019-09-13 14:00:00,NaN,NaN,NaN,NaN,NaN,NaN,NaN,NaN
COM6,508,13-Sep-19,2019-09-13 15:00:00,NaN,NaN,NaN,NaN,NaN,NaN,NaN,NaN
COM4,508,13-Sep-19,2019-09-13 16:00:00,0.48363333333333003,0.4719,0.4481,0.44241666666667,0.4314,0.4126,0.42526666666667,5.0
COM4,508,13-Sep-19,2019-09-13 17:00:00,0.52855,0.52905,0.50681666666667,0.50306666666667,0.49418333333333003,0.4808,0.49658333333333,5.0
COM4,508,13-Sep-19,2019-09-13 18:00:00,0.52965,0.52781666666667,0.50493333333333,0.5014,0.49056666666667,0.4726,0.4869,5.0
COM4,508,13-Sep-19,2019-09-13 19:00:00,0.5347833333333301,0.51013333333333,0.48368333333333,0.47581666666667,0.45991666666666997,0.43116666666667,0.44193333333333,5.0
COM4,508,13-Sep-19,2019-09-13 20:00:00,1.0225333333333,0.99121666666667,0.94325,0.92923333333333,0.89825,0.84085,0.86271666666667,5.0
COM4,508,13-Sep-19,2019-09-13 21:00:00,0.5819666666666701,0.55796666666667,0.53126666666667,0.5236,0.50471666666667,0.47548333333333,0.4884,5.0
COM4,508,13-Sep-19,2019-09-13 22:00:00,0.2958,0.27133333333333,0.2552,0.25106666666667005,0.24165,0.22968333333332996,0.23546666666667004,5.0
COM4,508,13-Sep-19,2019-09-13 23:00:00,1.1814833333333001,0.94233333333333,0.86065,0.82896666666667,0.7888333333333301,0.73453333333333,0.75416666666667,5.0
