COM6,508,11-Mar-19,2019-03-11 00:00:00,0.25728813559322,0.25003389830508,0.23522033898304998,0.23623728813559,0.22303389830507997,0.21008474576270997,0.21433898305085,5
COM6,508,11-Mar-19,2019-03-11 01:00:00,0.1678,0.16806666666667003,0.15803333333333,0.15988333333333,0.14805,0.14505,0.14728333333333,5
COM6,508,11-Mar-19,2019-03-11 02:00:00,0.14303333333333,0.1464,0.13958333333332998,0.14166666666667002,0.13103333333333,0.12731666666667,0.12825,5
COM6,508,11-Mar-19,2019-03-11 03:00:00,0.14026666666667,0.14045,0.13366666666667,0.13401666666667,0.12641666666667,0.11978333333333001,0.12191666666666999,5
COM6,508,11-Mar-19,2019-03-11 04:00:00,0.18343333333332998,0.17436666666667003,0.16343333333333,0.16256666666667002,0.15281666666667001,0.14413333333332998,0.14693333333332997,5
COM6,508,11-Mar-19,2019-03-11 05:00:00,1.0127666666667,0.96565,0.91375,0.9037,0.87211666666667,0.84238333333333,0.86833333333333,5
COM6,508,11-Mar-19,2019-03-11 06:00:00,1.3560833333333,1.2964,1.2276666666667,1.21225,1.1705,1.1255333333333,1.1609666666667,5
COM6,508,11-Mar-19,2019-03-11 07:00:00,1.0012166666667,0.9453,0.88855,0.8716,0.83275,0.78483333333333,0.80573333333333,5
COM6,508,11-Mar-19,2019-03-11 08:00:00,0.95351666666667,0.95391666666667,0.90293333333333,0.88853333333333,0.85178333333333,0.80701666666667,0.8303,5
COM6,508,11-Mar-19,2019-03-11 09:00:00,0.36455,0.4013,0.3811,0.37926666666666997,0.36038333333333,0.34068333333333,0.34735,5
COM6,508,11-Mar-19,2019-03-11 10:00:00,0.44898333333333,0.45716666666667,0.43713333333333,0.43391666666667,0.41321666666667,0.39543333333333003,0.40448333333333003,5
COM6,508,11-Mar-19,2019-03-11 11:00:00,0.52496666666667,0.52353333333333,0.49648333333333,0.49446666666667,0.4709,0.44851666666667,0.45808333333333,5
COM6,508,11-Mar-19,2019-03-11 12:00:00,0.33925,0.3436,0.32815,0.32633333333333,0.31033333333333,0.29158333333333003,0.29661666666666997,5
COM6,508,11-Mar-19,2019-03-11 13:00:00,0.42828333333333,0.4211,0.39996666666666997,0.39591666666666997,0.37799999999999995,0.35638333333333,0.36363333333333,5
COM6,508,11-Mar-19,2019-03-11 14:00:00,0.33811666666667,0.3304,0.31558333333333,0.30835,0.29445,0.27146666666667,0.27798333333333003,5
COM6,508,11-Mar-19,2019-03-11 15:00:00,0.32,0.30106666666667,0.2823,0.27563333333333,0.26288333333332997,0.24055,0.24638333333332996,5
COM6,508,11-Mar-19,2019-03-11 16:00:00,0.31666666666667,0.29588333333333,0.27899999999999997,0.2708,0.25866666666667004,0.24245,0.25035,5
COM6,508,11-Mar-19,2019-03-11 17:00:00,0.37401666666667,0.36281666666667,0.34683333333333,0.34073333333333,0.33096666666667,0.31425,0.32045,5
COM6,508,11-Mar-19,2019-03-11 18:00:00,0.49173333333333,0.48101666666667,0.46016666666667,0.45336666666666997,0.43735,0.41376666666667,0.42516666666666997,5
COM6,508,11-Mar-19,2019-03-11 19:00:00,0.32115,0.30791666666667,0.29325,0.28568333333333,0.27455,0.24963333333332996,0.25703333333332995,5
COM6,508,11-Mar-19,2019-03-11 20:00:00,0.53358333333333,0.46928333333333,0.43708333333333,0.42695,0.40286666666667,0.3754,0.38288333333333,5
COM6,508,11-Mar-19,2019-03-11 21:00:00,0.53216666666667,0.46696666666666997,0.43495,0.42181666666667,0.40053333333333,0.36475,0.37321666666666997,5
COM6,508,11-Mar-19,2019-03-11 22:00:00,0.3849,0.33646666666667,0.30961666666667,0.30288333333333,0.28501666666666997,0.26055,0.26731666666667003,5
COM6,508,11-Mar-19,2019-03-11 23:00:00,0.32455172413793,0.27168965517241,0.24912068965517004,0.23856896551723997,0.22518965517241002,0.20408620689655,0.20944827586207002,5
