COM6,508,18-Apr-19,2019-04-18 00:00:00,0.07701694915254201,0.066779661016949,0.059745762711864,0.056220338983050996,0.053694915254237,0.04713559322033901,0.048305084745763,5
COM6,508,18-Apr-19,2019-04-18 01:00:00,0.091233333333333,0.074916666666667,0.06625,0.061416666666666994,0.055783333333333004,0.049283333333333006,0.049166666666667,5
COM6,508,18-Apr-19,2019-04-18 02:00:00,0.29196666666667,0.27715,0.25836666666667,0.25136666666667,0.23948333333332997,0.22638333333332997,0.23345,5
COM6,508,18-Apr-19,2019-04-18 03:00:00,0.09645,0.08526666666666702,0.077816666666667,0.075883333333333,0.070916666666667,0.06325,0.06445,5
COM6,508,18-Apr-19,2019-04-18 04:00:00,0.23255,0.21221666666667002,0.19496666666667004,0.18896666666667003,0.17776666666667004,0.16373333333332998,0.16685,5
COM6,508,18-Apr-19,2019-04-18 05:00:00,0.6357,0.59303333333333,0.5516166666666701,0.53751666666667,0.51093333333333,0.48021666666667,0.49291666666667,5
COM6,508,18-Apr-19,2019-04-18 06:00:00,1.0105,0.94106666666667,0.87241666666667,0.84748333333333,0.80285,0.75183333333333,0.7711,5
COM6,508,18-Apr-19,2019-04-18 07:00:00,2.5288333333332997,2.4343666666667003,2.2730666666667,2.2241333333332998,2.1165666666667,2.00605,2.06225,5
COM6,508,18-Apr-19,2019-04-18 08:00:00,2.9745166666667004,2.88915,2.7057333333332996,2.6529666666667002,2.52335,2.3897666666667003,2.4523833333333,5
COM6,508,18-Apr-19,2019-04-18 09:00:00,2.3742666666667,2.2394,2.0665666666667,2.0054666666667,1.8874,1.7641666666667,1.8033833333333,5
COM6,508,18-Apr-19,2019-04-18 10:00:00,0.9402,0.87065,0.7911,0.7625,0.7081,0.6473,0.6607,5
COM6,508,18-Apr-19,2019-04-18 11:00:00,0.55575,0.51928333333333,0.47761666666667,0.46373333333333,0.42921666666667,0.39456666666667,0.40203333333333,5
COM6,508,18-Apr-19,2019-04-18 12:00:00,0.58535,0.54943333333333,0.50891666666667,0.49185,0.46306666666667,0.42378333333333,0.43233333333333,5
COM6,508,18-Apr-19,2019-04-18 13:00:00,0.54418333333333,0.5075,0.47038333333333,0.45811666666667,0.42741666666667,0.39248333333333,0.40098333333333,5
COM6,508,18-Apr-19,2019-04-18 14:00:00,0.3156,0.2841,0.262,0.24931666666667004,0.2367,0.21633333333332996,0.2199,5
COM6,508,18-Apr-19,2019-04-18 15:00:00,0.26346666666667,0.23113333333332997,0.20643333333332997,0.19575,0.18246666666667002,0.16348333333332998,0.16818333333332997,5
COM6,508,18-Apr-19,2019-04-18 16:00:00,0.40353333333333,0.34798333333333,0.31708333333333,0.30096666666667,0.28043333333333,0.2517,0.25931666666667,5
COM6,508,18-Apr-19,2019-04-18 17:00:00,0.48698333333333,0.43943333333333,0.3999,0.3809,0.35836666666667,0.31946666666667,0.32841666666667,5
COM6,508,18-Apr-19,2019-04-18 18:00:00,0.54635,0.48915,0.4458,0.4272,0.39695,0.36638333333333,0.37261666666667,5
COM6,508,18-Apr-19,2019-04-18 19:00:00,0.47418333333333,0.41641666666667,0.3763,0.35845,0.33463333333333,0.29958333333333,0.30811666666667,5
COM6,508,18-Apr-19,2019-04-18 20:00:00,0.6328333333333299,0.48103333333333,0.41963333333333,0.38756666666667,0.35328333333333,0.30288333333333,0.30845,5
COM6,508,18-Apr-19,2019-04-18 21:00:00,0.22488333333332997,0.20156666666667003,0.18283333333332996,0.17211666666667003,0.15958333333333,0.14546666666667002,0.14886666666667,5
COM6,508,18-Apr-19,2019-04-18 22:00:00,0.28996666666667,0.24123333333332997,0.21543333333332998,0.20428333333332996,0.1869,0.16848333333332996,0.17348333333332996,5
COM6,508,18-Apr-19,2019-04-18 23:00:00,0.27699999999999997,0.22885964912280998,0.20450877192982,0.19150877192982,0.17870175438595998,0.15840350877193,0.16133333333333,5
