COM6,508,04-Oct-17,2017-10-04 00:00:00,0.20274576271185998,0.17079661016949,0.1585593220339,0.15074576271185997,0.14369491525424,0.122,0.12688135593219999,5.0
COM6,508,04-Oct-17,2017-10-04 01:00:00,0.20446666666667004,0.17595,0.16425,0.15416666666667,0.14713333333332998,0.13143333333333002,0.13411666666667,5.0
COM6,508,04-Oct-17,2017-10-04 02:00:00,0.18566666666667003,0.16658333333332997,0.15105,0.1431,0.13465,0.11503333333333,0.11753333333333,5.0
COM6,508,04-Oct-17,2017-10-04 03:00:00,0.19015,0.1675,0.15458333333333,0.14861666666667,0.13465,0.11643333333333,0.12075,5.0
COM6,508,04-Oct-17,2017-10-04 04:00:00,0.20221666666667004,0.18173333333332997,0.16553333333332998,0.15721666666667,0.14658333333332998,0.1295,0.13085,5.0
COM6,508,04-Oct-17,2017-10-04 05:00:00,0.97036666666667,0.9088,0.84501666666667,0.82465,0.7759,0.73593333333333,0.75863333333333,5.0
COM6,508,04-Oct-17,2017-10-04 06:00:00,2.5760666666667,2.4114666666667004,2.2402833333333,2.1884833333333003,2.07445,1.9922,2.0570333333333,5.0
COM6,508,04-Oct-17,2017-10-04 07:00:00,1.7507,1.6196833333333,1.4867166666667,1.4373,1.3519666666666998,1.27895,1.31885,5.0
COM6,508,04-Oct-17,2017-10-04 08:00:00,0.81455,0.70895,0.6662333333333299,0.6481833333333299,0.6209166666666701,0.58813333333333,0.6105333333333299,4.6666666666667
COM6,508,04-Oct-17,2017-10-04 09:00:00,0.6270666666666701,0.5753833333333299,0.54828333333333,0.54253333333333,0.52485,0.51416666666667,0.52945,5.0
COM6,508,04-Oct-17,2017-10-04 10:00:00,0.32741666666667,0.34756666666667,0.33303333333333,0.3314,0.32215,0.31975,0.3292,5.0
COM6,508,04-Oct-17,2017-10-04 11:00:00,0.20448333333332996,0.2216,0.2108,0.20855,0.19966666666667005,0.1926,0.19693333333332996,5.0
COM6,508,04-Oct-17,2017-10-04 12:00:00,0.1533,0.15548333333332998,0.1466,0.14501666666667,0.13935,0.1337,0.13733333333333,5.0
COM6,508,04-Oct-17,2017-10-04 13:00:00,0.20335,0.19636666666667002,0.18555,0.18236666666667004,0.17588333333332998,0.17188333333332997,0.17785,5.0
COM6,508,04-Oct-17,2017-10-04 14:00:00,0.11925,0.11533333333333,0.1089,0.10755,0.10381666666667,0.10098333333333001,0.10441666666666999,5.0
COM6,508,04-Oct-17,2017-10-04 15:00:00,0.15711666666667,0.15345,0.14561666666667,0.1429,0.13945,0.13385,0.13811666666667002,5.0
COM6,508,04-Oct-17,2017-10-04 16:00:00,0.16718333333333,0.16561666666667002,0.1579,0.15508333333333,0.15155,0.14538333333332998,0.15056666666667,5.0
COM6,508,04-Oct-17,2017-10-04 17:00:00,0.39913333333333,0.41261666666667,0.39803333333333,0.39483333333333,0.38828333333333,0.3847,0.39805,5.0
COM6,508,04-Oct-17,2017-10-04 18:00:00,0.45453333333333,0.4476,0.42553333333333,0.4178,0.40525,0.39278333333333,0.40501666666667,5.0
COM6,508,04-Oct-17,2017-10-04 19:00:00,0.23403333333332996,0.22068333333332996,0.20576666666667004,0.20041666666667002,0.19153333333332997,0.18103333333332997,0.18623333333332998,5.0
COM6,508,04-Oct-17,2017-10-04 20:00:00,0.15425,0.14803333333333,0.13968333333333,0.1369,0.13133333333333,0.12673333333333,0.12946666666667,5.0
COM6,508,04-Oct-17,2017-10-04 21:00:00,0.14925,0.14525,0.1372,0.13523333333333,0.12916666666666998,0.12233333333333,0.12668333333333,5.0
COM6,508,04-Oct-17,2017-10-04 22:00:00,0.10958333333333001,0.10078333333333,0.09443333333333301,0.09125,0.08713333333333298,0.083866666666667,0.08501666666666702,5.0
COM6,508,04-Oct-17,2017-10-04 23:00:00,0.079785714285714,0.075428571428571,0.07085714285714301,0.069535714285714,0.064821428571429,0.060589285714286,0.062321428571429,5.0
