COM4,508,22-Feb-20,2020-02-22 00:00:00,1.3741724137931002,1.0874655172414,0.99075862068966,0.9656551724137901,0.90339655172414,0.8472931034482801,0.86712068965517,5.0
COM4,508,22-Feb-20,2020-02-22 01:00:00,1.2059333333333,0.94468333333333,0.84946666666667,0.83008333333333,0.76301666666667,0.71486666666667,0.72546666666667,5.0
COM4,508,22-Feb-20,2020-02-22 02:00:00,1.2456833333333,1.03795,0.94013333333333,0.92373333333333,0.85418333333333,0.80121666666667,0.81458333333333,5.0
COM4,508,22-Feb-20,2020-02-22 03:00:00,1.08855,0.96791666666667,0.88911666666667,0.8707,0.81376666666667,0.7695,0.7829,5.0
COM4,508,22-Feb-20,2020-02-22 04:00:00,1.1474833333333,1.02615,0.93745,0.92001666666667,0.86011666666667,0.80636666666667,0.823,5.0
COM4,508,22-Feb-20,2020-02-22 05:00:00,1.4143166666667,1.2776666666667,1.1727166666667,1.1436,1.0740833333333,1.0042333333333,1.0234833333333,5.0
COM4,508,22-Feb-20,2020-02-22 06:00:00,1.5181666666667,1.3476833333333,1.2329666666666999,1.2002,1.1278833333333,1.05105,1.0750166666667,5.0
COM4,508,22-Feb-20,2020-02-22 07:00:00,1.4692333333333,1.32795,1.2195833333333002,1.18285,1.1148666666667,1.0366833333333,1.0603666666667,5.0
COM4,508,22-Feb-20,2020-02-22 08:00:00,2.8356,2.5392833333333,2.3245166666667,2.2559333333333,2.1150666666666997,1.9495666666667,1.98715,5.0
COM4,508,22-Feb-20,2020-02-22 09:00:00,3.0737333333333,2.72375,2.4684166666667005,2.3660333333333,2.1917,1.9661666666667,1.9971666666666998,5.0
COM4,508,22-Feb-20,2020-02-22 10:00:00,3.0717,2.6039833333332996,2.3486333333332996,2.2163833333332996,2.0675166666667,1.83,1.8670333333333,5.0
COM4,508,22-Feb-20,2020-02-22 11:00:00,1.6212,1.3593166666667,1.2753666666666998,1.24175,1.20865,1.1471,1.1878333333333,4.6666666666667
COM4,508,22-Feb-20,2020-02-22 12:00:00,0.98478333333333,0.86166666666667,0.80941666666667,0.7921,0.77328333333333,0.73823333333333,0.763,5.0
COM4,508,22-Feb-20,2020-02-22 13:00:00,0.74503333333333,0.73105,0.6867,0.67233333333333,0.6551333333333299,0.62443333333333,0.6451166666666701,5.0
COM4,508,22-Feb-20,2020-02-22 14:00:00,0.83126666666667,0.81668333333333,0.7692,0.75698333333333,0.73721666666667,0.70848333333333,0.7315,5.0
COM4,508,22-Feb-20,2020-02-22 15:00:00,0.36735,0.3821,0.36421666666667,0.3616,0.35486666666667,0.3474,0.35823333333333,5.0
COM4,508,22-Feb-20,2020-02-22 16:00:00,0.3218,0.32531666666667,0.3115,0.30731666666667,0.30125,0.29146666666667,0.30165,5.0
COM4,508,22-Feb-20,2020-02-22 17:00:00,0.33216666666667,0.32821666666667,0.31265,0.308,0.30193333333333,0.29098333333333,0.30045,5.0
COM4,508,22-Feb-20,2020-02-22 18:00:00,0.6193166666666701,0.5887,0.56095,0.55373333333333,0.54096666666667,0.51583333333333,0.53401666666667,5.0
COM4,508,22-Feb-20,2020-02-22 19:00:00,0.9462,0.81586666666667,0.75986666666667,0.74271666666667,0.71488333333333,0.67358333333333,0.69213333333333,5.0
COM4,508,22-Feb-20,2020-02-22 20:00:00,1.4437166666666998,1.1451,1.0542,1.0257833333333,0.98128333333333,0.91828333333333,0.94331666666667,5.0
COM4,508,22-Feb-20,2020-02-22 21:00:00,1.5626333333333,1.1543166666667,1.0508333333333,1.0220666666667,0.9701,0.90743333333333,0.93156666666667,5.0
COM4,508,22-Feb-20,2020-02-22 22:00:00,1.55765,1.21565,1.1149166666666999,1.0874,1.0354,0.98066666666667,1.00585,5.0
COM4,508,22-Feb-20,2020-02-22 23:00:00,0.70256666666667,0.72286666666667,0.67431666666667,0.6692666666666701,0.63645,0.6102166666666701,0.6248833333333299,5.0
