COM4,508,15-Jun-19,2019-06-15 00:00:00,0.15083050847458,0.15057627118644,0.14481355932203,0.14627118644068,0.13977966101695002,0.13915254237288,0.14169491525424,5
COM4,508,15-Jun-19,2019-06-15 01:00:00,0.16948333333332996,0.16298333333332998,0.15415,0.15783333333333,0.14753333333333,0.1485,0.1519,5
COM4,508,15-Jun-19,2019-06-15 02:00:00,0.13298333333333,0.13665,0.12961666666667,0.13321666666667,0.12245,0.12053333333333001,0.12215,5
COM4,508,15-Jun-19,2019-06-15 03:00:00,0.16388333333333,0.1659,0.15711666666667,0.15985,0.14933333333333,0.1454,0.14728333333333,5
COM4,508,15-Jun-19,2019-06-15 04:00:00,0.19666666666667004,0.19695,0.18665,0.18696666666667003,0.17643333333332997,0.17033333333332998,0.17351666666667004,5
COM4,508,15-Jun-19,2019-06-15 05:00:00,0.5005166666666699,0.4874,0.45948333333333,0.4536,0.4325,0.40985,0.41943333333333,5
COM4,508,15-Jun-19,2019-06-15 06:00:00,0.85511666666667,0.84281666666667,0.79761666666667,0.78425,0.75233333333333,0.71595,0.73516666666667,5
COM4,508,15-Jun-19,2019-06-15 07:00:00,1.1902,1.1660833333333,1.1016166666667,1.08245,1.0335333333333,0.97241666666667,0.99688333333333,5
COM4,508,15-Jun-19,2019-06-15 08:00:00,1.1987166666667,1.1778,1.1148166666666999,1.0975,1.04795,0.98261666666667,1.0062833333333001,5
COM4,508,15-Jun-19,2019-06-15 09:00:00,0.94328333333333,0.90131666666667,0.84865,0.83143333333333,0.78833333333333,0.72976666666667,0.74708333333333,5
COM4,508,15-Jun-19,2019-06-15 10:00:00,0.63461666666667,0.6036333333333299,0.56655,0.5518166666666701,0.522,0.47825,0.4883,5
COM4,508,15-Jun-19,2019-06-15 11:00:00,0.48896666666667,0.46305,0.43168333333333003,0.42131666666667,0.39626666666667,0.36361666666667,0.37096666666667,5
COM4,508,15-Jun-19,2019-06-15 12:00:00,0.30906666666667,0.29781666666667,0.2784,0.27198333333332997,0.25915,0.23956666666667004,0.24491666666667003,5
COM4,508,15-Jun-19,2019-06-15 13:00:00,0.23926666666667004,0.22948333333332996,0.21616666666667003,0.21045,0.20043333333332997,0.18575,0.1905,5
COM4,508,15-Jun-19,2019-06-15 14:00:00,0.21531666666667004,0.20236666666667003,0.18675,0.18055,0.16955,0.15443333333332998,0.15843333333332998,5
COM4,508,15-Jun-19,2019-06-15 15:00:00,0.2052,0.18965,0.17546666666667002,0.16745,0.15861666666667001,0.1433,0.14683333333332999,5
COM4,508,15-Jun-19,2019-06-15 16:00:00,0.22125,0.20213333333332997,0.18588333333332996,0.17675,0.16575,0.14741666666667003,0.1512,5
COM4,508,15-Jun-19,2019-06-15 17:00:00,0.18661666666667004,0.16843333333332997,0.1517,0.14283333333332998,0.13111666666667,0.11345,0.11608333333333,5
COM4,508,15-Jun-19,2019-06-15 18:00:00,0.20638333333332998,0.18548333333332997,0.1675,0.15963333333333,0.14633333333332998,0.13053333333333,0.13388333333333,5
COM4,508,15-Jun-19,2019-06-15 19:00:00,0.25626666666667003,0.21913333333332996,0.19575,0.18386666666667004,0.17025,0.15388333333332999,0.1577,5
COM4,508,15-Jun-19,2019-06-15 20:00:00,0.80955,0.69983333333333,0.6270666666666701,0.58613333333333,0.53383333333333,0.4601,0.46653333333333,5
COM4,508,15-Jun-19,2019-06-15 21:00:00,0.49616666666667,0.37758333333333,0.3255,0.29746666666667,0.2662,0.22725,0.23135,5
COM4,508,15-Jun-19,2019-06-15 22:00:00,0.5606166666666701,0.48753333333333,0.43863333333333,0.41343333333333,0.37721666666667,0.32825,0.33283333333333,5
COM4,508,15-Jun-19,2019-06-15 23:00:00,0.33055,0.27265,0.24336666666667003,0.2311,0.21203333333332997,0.19061666666667004,0.19383333333332997,5
