COM4,508,16-Dec-19,2019-12-16 00:00:00,0.19967796610169,0.17576271186441,0.15905084745763,0.15208474576271,0.14164406779660998,0.12852542372880998,0.12905084745763,5
COM4,508,16-Dec-19,2019-12-16 01:00:00,0.18286666666667004,0.1549,0.13706666666667,0.13053333333333,0.11963333333333001,0.10553333333333001,0.10738333333333,5
COM4,508,16-Dec-19,2019-12-16 02:00:00,0.18615,0.16085,0.14563333333332998,0.1395,0.12878333333333,0.1146,0.11713333333333001,5
COM4,508,16-Dec-19,2019-12-16 03:00:00,0.1703,0.15961666666667002,0.14588333333332998,0.13943333333333,0.13048333333333,0.1183,0.11903333333333001,5
COM4,508,16-Dec-19,2019-12-16 04:00:00,0.21195,0.20241666666667002,0.1873,0.18303333333332997,0.17043333333332997,0.15433333333333,0.15721666666667,5
COM4,508,16-Dec-19,2019-12-16 05:00:00,0.19913333333332997,0.17513333333332998,0.15863333333333,0.151,0.14043333333333,0.12543333333333,0.12651666666667,5
COM4,508,16-Dec-19,2019-12-16 06:00:00,0.23236666666667002,0.20848333333332997,0.19031666666667002,0.18403333333332997,0.16975,0.15156666666667,0.1544,5
COM4,508,16-Dec-19,2019-12-16 07:00:00,0.47363333333333,0.41551666666667,0.3777,0.36473333333333,0.33993333333333,0.30771666666666997,0.31436666666667,5
COM4,508,16-Dec-19,2019-12-16 08:00:00,0.5073,0.43638333333333,0.3934,0.37523333333333003,0.34998333333333,0.31608333333333,0.3213,5
COM4,508,16-Dec-19,2019-12-16 09:00:00,0.3274,0.30975,0.28001666666667,0.27028333333333,0.24881666666667004,0.22399999999999998,0.22788333333332997,5
COM4,508,16-Dec-19,2019-12-16 10:00:00,0.32291666666667,0.31735,0.28993333333333,0.2813,0.2618,0.23658333333332998,0.24095,5
COM4,508,16-Dec-19,2019-12-16 11:00:00,0.3718,0.35323333333333,0.32225,0.31198333333333,0.29245,0.26735,0.27363333333332995,5
COM4,508,16-Dec-19,2019-12-16 12:00:00,0.53121666666667,0.52086666666667,0.48648333333333,0.4789,0.45685,0.43905,0.45153333333333,5
COM4,508,16-Dec-19,2019-12-16 13:00:00,0.25515,0.23898333333332997,0.21686666666667004,0.20803333333332996,0.19595,0.17378333333332996,0.1782,5
COM4,508,16-Dec-19,2019-12-16 14:00:00,0.27545,0.25311666666667004,0.22966666666667004,0.22126666666667003,0.2056,0.1834,0.18831666666667002,5
COM4,508,16-Dec-19,2019-12-16 15:00:00,0.22451666666667003,0.20301666666667004,0.1842,0.17495,0.16286666666667002,0.14826666666667002,0.15098333333333,5
COM4,508,16-Dec-19,2019-12-16 16:00:00,0.20085,0.18473333333332997,0.16395,0.15658333333333,0.14608333333332998,0.13018333333333001,0.13275,5
COM4,508,16-Dec-19,2019-12-16 17:00:00,0.52658333333333,0.47553333333333003,0.43526666666667,0.41913333333333,0.39191666666667,0.36251666666667,0.37178333333333,5
COM4,508,16-Dec-19,2019-12-16 18:00:00,0.36365,0.30245,0.26875,0.26066666666667004,0.237,0.21263333333332995,0.21585,5
COM4,508,16-Dec-19,2019-12-16 19:00:00,0.4049,0.33355,0.29818333333333,0.28456666666667,0.26111666666667005,0.23245,0.23638333333332998,5
COM4,508,16-Dec-19,2019-12-16 20:00:00,0.25921666666667004,0.20973333333332997,0.1841,0.17456666666667003,0.15651666666667002,0.13445,0.13446666666666998,5
COM4,508,16-Dec-19,2019-12-16 21:00:00,0.21541666666667003,0.1742,0.15385,0.14271666666667002,0.12796666666667,0.1088,0.11033333333333001,5
COM4,508,16-Dec-19,2019-12-16 22:00:00,0.18055,0.15763333333333,0.13871666666667,0.1316,0.11793333333333,0.10065,0.1024,5
COM4,508,16-Dec-19,2019-12-16 23:00:00,0.11015,0.09836666666666699,0.08723333333333298,0.07981666666666701,0.07361666666666701,0.061,0.06155,5
