COM4,508,08-Jul-19,2019-07-08 00:00:00,0.25589830508475,0.23464406779660998,0.22215254237288,0.21771186440678,0.21913559322034,0.21242372881356,0.22025423728814003,5.0
COM4,508,08-Jul-19,2019-07-08 01:00:00,0.5174,0.49523333333333003,0.47843333333333,0.47443333333333,0.4776,0.47283333333333,0.49266666666667,5.0
COM4,508,08-Jul-19,2019-07-08 02:00:00,0.4013,0.4184,0.42191666666667,0.43711666666667,0.44555,0.44725,0.46423333333333,5.0
COM4,508,08-Jul-19,2019-07-08 03:00:00,0.3438,0.32623333333333,0.31341666666667,0.31453333333333,0.31291666666667,0.29976666666667,0.30926666666667,5.0
COM4,508,08-Jul-19,2019-07-08 04:00:00,0.32228333333333,0.3059,0.29361666666666997,0.29405,0.28983333333333,0.27791666666667,0.2875,5.0
COM4,508,08-Jul-19,2019-07-08 05:00:00,0.53816666666667,0.52788333333333,0.5051,0.50793333333333,0.4979,0.4912,0.50906666666667,5.0
COM4,508,08-Jul-19,2019-07-08 06:00:00,0.52228333333333,0.54876666666667,0.54105,0.5541833333333299,0.55901666666667,0.5695,0.5915333333333299,5.0
COM4,508,08-Jul-19,2019-07-08 07:00:00,1.3841,1.46735,1.4372666666667,1.4690333333333,1.4790666666666998,1.5283666666667,1.594,5.0
COM4,508,08-Jul-19,2019-07-08 08:00:00,0.76248333333333,0.93975,0.97403333333333,1.03925,1.0789166666667,1.1626166666667,1.21925,5.0
COM4,508,08-Jul-19,2019-07-08 09:00:00,0.6531666666666701,0.66001666666667,0.6309666666666701,0.6323,0.6188833333333299,0.60846666666667,0.6294,5.0
COM4,508,08-Jul-19,2019-07-08 10:00:00,0.5712333333333299,0.5598166666666701,0.52651666666667,0.52406666666667,0.50545,0.48526666666667,0.50143333333333,5.0
COM4,508,08-Jul-19,2019-07-08 11:00:00,0.52925,0.52263333333333,0.49398333333333,0.48691666666667,0.47283333333333,0.44878333333333,0.46288333333333,5.0
COM4,508,08-Jul-19,2019-07-08 12:00:00,0.46231666666667,0.44878333333333,0.42406666666667,0.41853333333333,0.40513333333333,0.38396666666667,0.39726666666667,5.0
COM4,508,08-Jul-19,2019-07-08 13:00:00,0.4254,0.40985,0.38736666666666997,0.37956666666667,0.36761666666667,0.34843333333333,0.3573,5.0
COM4,508,08-Jul-19,2019-07-08 14:00:00,0.42105,0.40831666666667,0.38445,0.3798,0.3671,0.34951666666667,0.36465,5.0
COM4,508,08-Jul-19,2019-07-08 15:00:00,0.32316666666667,0.30608333333333,0.28946666666667,0.2844,0.27481666666667004,0.25693333333332996,0.26228333333333,5.0
COM4,508,08-Jul-19,2019-07-08 16:00:00,0.46183333333333,0.44605,0.42156666666667,0.41623333333333,0.4054,0.38573333333333,0.39768333333333,5.0
COM4,508,08-Jul-19,2019-07-08 17:00:00,0.57615,0.5682333333333299,0.5398333333333301,0.53655,0.51958333333333,0.5007,0.5153,5.0
COM4,508,08-Jul-19,2019-07-08 18:00:00,0.4535,0.43883333333333,0.41565,0.41156666666666997,0.39791666666666997,0.37275,0.38256666666667,5.0
COM4,508,08-Jul-19,2019-07-08 19:00:00,0.32553333333333,0.31176666666666997,0.28926666666667,0.2852,0.26923333333333,0.24448333333332997,0.25018333333333,5.0
COM4,508,08-Jul-19,2019-07-08 20:00:00,0.25183333333332997,0.2323,0.21351666666667002,0.20666666666667002,0.19358333333332997,0.171,0.1727,5.0
COM4,508,08-Jul-19,2019-07-08 21:00:00,0.37745,0.30956666666667,0.29086666666667,0.28796666666667,0.27551666666667,0.26076666666667003,0.27065,4.6666666666667
COM4,508,08-Jul-19,2019-07-08 22:00:00,0.18268333333332998,0.16666666666667002,0.15646666666667,0.15505,0.1469,0.13828333333332998,0.14081666666667,5.0
COM4,508,08-Jul-19,2019-07-08 23:00:00,0.57106666666667,0.5736166666666701,0.54625,0.5427,0.5276,0.51476666666667,0.5286,5.0
