COM6,508,18-Dec-17,2017-12-18 00:00:00,0.44406779661017,0.44745762711864,0.42047457627118995,0.41162711864407003,0.39252542372881005,0.37140677966102004,0.38071186440678,5.0
COM6,508,18-Dec-17,2017-12-18 01:00:00,0.5898333333333299,0.51128333333333,0.4752,0.46146666666667,0.4385,0.41185,0.42378333333333,5.0
COM6,508,18-Dec-17,2017-12-18 02:00:00,0.95586666666667,0.8599,0.80245,0.78363333333333,0.74815,0.7104,0.73068333333333,5.0
COM6,508,18-Dec-17,2017-12-18 03:00:00,0.29618333333333,0.3974,0.38443333333333,0.38353333333333,0.37105,0.35638333333333,0.36805,5.0
COM6,508,18-Dec-17,2017-12-18 04:00:00,0.21801666666667002,0.28921666666667,0.27628333333333,0.27421666666667005,0.2613,0.24785,0.2543,5.0
COM6,508,18-Dec-17,2017-12-18 05:00:00,0.5562833333333299,0.52141666666667,0.4837,0.47046666666667,0.44901666666667,0.42415,0.43671666666667,5.0
COM6,508,18-Dec-17,2017-12-18 06:00:00,1.1048666666667,1.0156,0.94878333333333,0.92725,0.88193333333333,0.83475,0.8575,5.0
COM6,508,18-Dec-17,2017-12-18 07:00:00,1.6971666666667,1.4994166666667,1.3914666666667,1.3536,1.2842166666666999,1.2061833333333,1.2397333333333,5.0
COM6,508,18-Dec-17,2017-12-18 08:00:00,2.28305,2.0772833333333,1.9345333333333001,1.8854,1.7906666666667,1.68445,1.7310833333333,5.0
COM6,508,18-Dec-17,2017-12-18 09:00:00,2.2376833333332997,2.03595,1.8939666666666999,1.84855,1.7472166666667,1.6313833333333,1.6729666666667,5.0
COM6,508,18-Dec-17,2017-12-18 10:00:00,2.19075,2.0847833333333,1.94405,1.8986166666667,1.7965833333333001,1.68435,1.7283666666667,5.0
COM6,508,18-Dec-17,2017-12-18 11:00:00,2.428,2.3222666666667005,2.1612166666667,2.1090833333333,1.9953666666667,1.8644833333333,1.9138,5.0
COM6,508,18-Dec-17,2017-12-18 12:00:00,2.1861166666667,2.05935,1.9157333333333,1.85525,1.75535,1.62235,1.6671,5.0
COM6,508,18-Dec-17,2017-12-18 13:00:00,1.61215,1.5302666666667,1.4211833333333002,1.3711,1.3038333333333,1.1990833333333,1.2373166666667,5.0
COM6,508,18-Dec-17,2017-12-18 14:00:00,1.6617166666667,1.5641166666667,1.44355,1.3896833333333,1.3159999999999998,1.2062666666667,1.24305,5.0
COM6,508,18-Dec-17,2017-12-18 15:00:00,1.6169,1.5276833333333,1.4140333333333,1.3608833333333001,1.2832833333333,1.1747666666667,1.2132,5.0
COM6,508,18-Dec-17,2017-12-18 16:00:00,1.87135,1.6991166666667,1.5522833333333002,1.4877,1.3970333333333,1.2717333333333,1.3098166666667,5.0
COM6,508,18-Dec-17,2017-12-18 17:00:00,2.79155,2.4852166666667004,2.2625333333332995,2.1814666666667,2.02835,1.8609,1.9119333333333,5.0
COM6,508,18-Dec-17,2017-12-18 18:00:00,4.1971,3.5963333333332996,3.23945,3.1054833333332996,2.8485833333332997,2.5781,2.6328166666667,4.6666666666667
COM6,508,18-Dec-17,2017-12-18 19:00:00,2.0979,1.8429666666667,1.7253666666667,1.67785,1.6032833333333,1.5197333333333,1.5614333333333001,5.0
COM6,508,18-Dec-17,2017-12-18 20:00:00,1.8407333333333,1.60205,1.5010833333333,1.4635833333333002,1.3965333333333,1.3275,1.36135,5.0
COM6,508,18-Dec-17,2017-12-18 21:00:00,1.8151166666667,1.5844166666667,1.4734,1.4298166666667,1.36045,1.2961166666667,1.3299666666667,5.0
COM6,508,18-Dec-17,2017-12-18 22:00:00,1.2877333333333,1.1529833333333002,1.0717666666666998,1.03745,0.9840000000000001,0.9440666666666699,0.96916666666667,5.0
COM6,508,18-Dec-17,2017-12-18 23:00:00,0.89843636363636,0.85554545454545,0.802,0.7812363636363601,0.74132727272727,0.7097636363636399,0.72772727272727,5.0
