COM6,508,16-Oct-18,2018-10-16 00:00:00,0.11052542372881,0.11820338983051,0.11140677966102,0.11044067796610002,0.10355932203389999,0.098016949152542,0.09894915254237299,5
COM6,508,16-Oct-18,2018-10-16 01:00:00,0.11406666666667,0.1168,0.11056666666666999,0.11081666666666999,0.1031,0.098983333333333,0.10123333333333001,5
COM6,508,16-Oct-18,2018-10-16 02:00:00,0.19908333333332998,0.19825,0.18656666666667004,0.18488333333332996,0.17413333333332998,0.16396666666667,0.16645,5
COM6,508,16-Oct-18,2018-10-16 03:00:00,0.18191666666667003,0.18358333333332996,0.17221666666667004,0.17225,0.16063333333333,0.15223333333332997,0.15428333333333,5
COM6,508,16-Oct-18,2018-10-16 04:00:00,0.28395,0.28385,0.26833333333333,0.26773333333333,0.25353333333332995,0.24291666666667003,0.2481,5
COM6,508,16-Oct-18,2018-10-16 05:00:00,0.49016666666666997,0.48291666666667,0.45653333333333,0.45541666666666997,0.43256666666667,0.41556666666666997,0.42361666666666997,5
COM6,508,16-Oct-18,2018-10-16 06:00:00,0.78213333333333,0.76273333333333,0.72235,0.71596666666667,0.68633333333333,0.6608833333333299,0.67838333333333,5
COM6,508,16-Oct-18,2018-10-16 07:00:00,1.1763333333333001,1.1954833333333001,1.14195,1.1363666666667,1.0962166666667,1.0625333333333,1.0931666666667,5
COM6,508,16-Oct-18,2018-10-16 08:00:00,1.8446333333333,1.8871833333333001,1.8011666666667,1.7851333333333002,1.7253333333333,1.6623166666667,1.7085,5
COM6,508,16-Oct-18,2018-10-16 09:00:00,1.5441833333333002,1.5822166666667,1.51425,1.4974666666667,1.4508666666667,1.38965,1.4287666666667,5
COM6,508,16-Oct-18,2018-10-16 10:00:00,0.99636666666667,1.0355166666667,0.99598333333333,0.99108333333333,0.95936666666667,0.92441666666667,0.94885,5
COM6,508,16-Oct-18,2018-10-16 11:00:00,0.78053333333333,0.78963333333333,0.7515,0.74221666666667,0.71803333333333,0.6829,0.69995,5
COM6,508,16-Oct-18,2018-10-16 12:00:00,0.76353333333333,0.767,0.73331666666667,0.72566666666667,0.6986,0.66255,0.68041666666667,5
COM6,508,16-Oct-18,2018-10-16 13:00:00,0.71695,0.70808333333333,0.6705666666666701,0.66085,0.6337,0.5981,0.61418333333333,5
COM6,508,16-Oct-18,2018-10-16 14:00:00,0.5629666666666701,0.54341666666667,0.51451666666667,0.50068333333333,0.48038333333333,0.45181666666667,0.46501666666667,5
COM6,508,16-Oct-18,2018-10-16 15:00:00,0.64376666666667,0.6351166666666701,0.60728333333333,0.59728333333333,0.5793,0.54738333333333,0.5583,5
COM6,508,16-Oct-18,2018-10-16 16:00:00,0.43578333333333,0.44711666666667,0.43245,0.43058333333333,0.42103333333333,0.40366666666667,0.41576666666667,5
COM6,508,16-Oct-18,2018-10-16 17:00:00,0.44565,0.44533333333333003,0.42938333333333,0.42148333333333,0.40886666666667,0.387,0.39693333333333003,5
COM6,508,16-Oct-18,2018-10-16 18:00:00,0.73683333333333,0.7101833333333301,0.67405,0.6600333333333299,0.6365666666666701,0.58708333333333,0.6029333333333299,5
COM6,508,16-Oct-18,2018-10-16 19:00:00,0.9365,0.84476666666667,0.79708333333333,0.7778,0.74353333333333,0.68256666666667,0.69938333333333,5
COM6,508,16-Oct-18,2018-10-16 20:00:00,0.77546666666667,0.69625,0.65481666666667,0.6320333333333299,0.6051166666666701,0.54555,0.5568,5
COM6,508,16-Oct-18,2018-10-16 21:00:00,0.91393333333333,0.77536666666667,0.7117,0.68511666666667,0.6442333333333299,0.57736666666667,0.5893333333333299,5
COM6,508,16-Oct-18,2018-10-16 22:00:00,0.87175,0.74065,0.6755,0.64335,0.6026833333333299,0.5309,0.5414,5
COM6,508,16-Oct-18,2018-10-16 23:00:00,0.6545932203389799,0.56154237288136,0.51737288135593,0.49138983050846996,0.46420338983051,0.41391525423729,0.42294915254237,5
