COM6,508,05-Mar-19,2019-03-05 00:00:00,0.3944406779661,0.35052542372881,0.31572881355932003,0.3098813559322,0.28742372881356,0.26422033898305,0.26913559322034003,5.0
COM6,508,05-Mar-19,2019-03-05 01:00:00,0.57778333333333,0.51816666666667,0.47841666666667,0.46976666666667,0.43506666666667,0.40318333333333,0.40838333333333,5.0
COM6,508,05-Mar-19,2019-03-05 02:00:00,0.72063333333333,0.6592666666666701,0.6025333333333299,0.59046666666667,0.54365,0.49983333333333,0.50751666666667,5.0
COM6,508,05-Mar-19,2019-03-05 03:00:00,0.71901666666667,0.6562166666666701,0.5993833333333299,0.58618333333333,0.54691666666667,0.5037,0.5116166666666699,5.0
COM6,508,05-Mar-19,2019-03-05 04:00:00,0.5564833333333299,0.49658333333333,0.45266666666667,0.44546666666667,0.41291666666667,0.37711666666667,0.38381666666666997,5.0
COM6,508,05-Mar-19,2019-03-05 05:00:00,0.70361666666667,0.6192,0.57015,0.55105,0.51166666666667,0.46226666666667,0.47083333333333,5.0
COM6,508,05-Mar-19,2019-03-05 06:00:00,1.7133833333333,1.49145,1.3575,1.3169,1.2379333333333,1.1398833333333,1.1642666666666999,5.0
COM6,508,05-Mar-19,2019-03-05 07:00:00,2.8016833333332998,2.5952333333333,2.3989,2.3404,2.2143166666667002,2.0698,2.1245666666667,4.6666666666667
COM6,508,05-Mar-19,2019-03-05 08:00:00,1.5018,1.4208,1.35275,1.33435,1.2942833333333001,1.2364666666667,1.2728166666667,5.0
COM6,508,05-Mar-19,2019-03-05 09:00:00,0.78263333333333,0.78986666666667,0.75203333333333,0.7467,0.72286666666667,0.69936666666667,0.71933333333333,5.0
COM6,508,05-Mar-19,2019-03-05 10:00:00,0.6357333333333299,0.6529,0.6224166666666701,0.6204,0.6014333333333299,0.58503333333333,0.6010166666666701,5.0
COM6,508,05-Mar-19,2019-03-05 11:00:00,0.57003333333333,0.59213333333333,0.5664333333333299,0.5668166666666701,0.54951666666667,0.54015,0.55458333333333,5.0
COM6,508,05-Mar-19,2019-03-05 12:00:00,0.6674333333333299,0.6749,0.64415,0.64395,0.62255,0.60808333333333,0.6241333333333299,5.0
COM6,508,05-Mar-19,2019-03-05 13:00:00,0.6301666666666701,0.6306,0.6028833333333299,0.5974833333333299,0.5853333333333299,0.5701333333333299,0.58895,5.0
COM6,508,05-Mar-19,2019-03-05 14:00:00,0.69788333333333,0.69526666666667,0.66383333333333,0.6556166666666701,0.64243333333333,0.6227833333333299,0.64265,5.0
COM6,508,05-Mar-19,2019-03-05 15:00:00,0.77445,0.76986666666667,0.7363,0.72815,0.71415,0.69135,0.71571666666667,5.0
COM6,508,05-Mar-19,2019-03-05 16:00:00,0.51153333333333,0.503,0.47916666666667,0.47198333333333,0.46318333333333,0.44951666666667,0.46586666666667,5.0
COM6,508,05-Mar-19,2019-03-05 17:00:00,0.2073,0.20600000000000002,0.1973,0.19343333333332996,0.19145,0.18568333333332998,0.19361666666667005,5.0
COM6,508,05-Mar-19,2019-03-05 18:00:00,0.18508333333332996,0.1818,0.17416666666667002,0.17175,0.16723333333333,0.16015,0.1648,5.0
COM6,508,05-Mar-19,2019-03-05 19:00:00,0.29975,0.2861,0.27211666666667006,0.26673333333333,0.25935,0.24723333333332997,0.25485,5.0
COM6,508,05-Mar-19,2019-03-05 20:00:00,0.54145,0.50833333333333,0.47988333333333,0.47133333333333,0.45691666666666997,0.43925,0.45151666666667,5.0
COM6,508,05-Mar-19,2019-03-05 21:00:00,0.50381666666667,0.47501666666667,0.44888333333333,0.44115,0.42768333333333003,0.40945,0.42181666666667,5.0
COM6,508,05-Mar-19,2019-03-05 22:00:00,0.29538333333333,0.27861666666667,0.26463333333332995,0.26221666666667004,0.25238333333332996,0.24006666666667004,0.2472,5.0
COM6,508,05-Mar-19,2019-03-05 23:00:00,0.18137931034482996,0.17846551724138,0.17084482758621,0.16865517241379,0.16355172413792998,0.1555,0.1603275862069,5.0
