COM6,508,01-Sep-18,2018-09-01 00:00:00,1.3251694915253998,1.0074745762711999,0.89493220338983,0.84769491525424,0.78933898305085,0.7045593220339,0.7163050847457599,5.0
COM6,508,01-Sep-18,2018-09-01 01:00:00,1.4859,1.1390166666666999,1.0165333333333,0.96825,0.90585,0.82526666666667,0.84118333333333,5.0
COM6,508,01-Sep-18,2018-09-01 02:00:00,1.6584833333333,1.2953666666666999,1.1702333333333002,1.1303833333333,1.0648,0.9826,1.0038666666667,5.0
COM6,508,01-Sep-18,2018-09-01 03:00:00,1.5725166666666999,1.2318666666667,1.1164666666667,1.0735666666666999,1.0159666666667,0.93765,0.95648333333333,5.0
COM6,508,01-Sep-18,2018-09-01 04:00:00,2.3057333333332997,1.9639166666666998,1.8279666666667,1.8076666666666998,1.7486166666667,1.7055833333333001,1.7590833333333,5.0
COM6,508,01-Sep-18,2018-09-01 05:00:00,1.79755,1.4865166666667,1.37595,1.3483833333333,1.2948333333333,1.2309666666666998,1.264,5.0
COM6,508,01-Sep-18,2018-09-01 06:00:00,1.4233666666667,1.12315,1.0170666666666999,0.98551666666667,0.92845,0.84738333333333,0.86401666666667,5.0
COM6,508,01-Sep-18,2018-09-01 07:00:00,1.6250333333333,1.35045,1.2508833333333,1.2253,1.1768166666667,1.11805,1.14835,4.6666666666667
COM6,508,01-Sep-18,2018-09-01 08:00:00,1.4614166666667,1.2467333333333002,1.1574166666666998,1.1317666666667,1.08515,1.0237333333333,1.0503833333333001,5.0
COM6,508,01-Sep-18,2018-09-01 09:00:00,1.0209,0.88916666666667,0.8172,0.79736666666667,0.75861666666667,0.70881666666667,0.72393333333333,5.0
COM6,508,01-Sep-18,2018-09-01 10:00:00,0.74238333333333,0.6236833333333299,0.5659,0.54846666666667,0.5175,0.47593333333333,0.48421666666667,5.0
COM6,508,01-Sep-18,2018-09-01 11:00:00,0.66583333333333,0.55078333333333,0.49775,0.47946666666667,0.45225,0.41291666666667,0.42056666666667,5.0
COM6,508,01-Sep-18,2018-09-01 12:00:00,0.63205,0.52503333333333,0.47396666666667,0.45541666666666997,0.4302,0.38746666666667,0.3935,5.0
COM6,508,01-Sep-18,2018-09-01 13:00:00,0.69213333333333,0.58426666666667,0.53183333333333,0.5126166666666699,0.48645,0.44208333333333,0.45233333333333,5.0
COM6,508,01-Sep-18,2018-09-01 14:00:00,0.5665666666666701,0.45998333333333,0.41421666666667,0.39556666666667,0.37488333333333,0.33581666666667,0.34293333333333,5.0
COM6,508,01-Sep-18,2018-09-01 15:00:00,0.46936666666667,0.37426666666666997,0.33608333333333,0.31965,0.30281666666667,0.27181666666667004,0.27773333333333,5.0
COM6,508,01-Sep-18,2018-09-01 16:00:00,0.3722,0.29938333333333,0.27008333333332996,0.25605,0.24463333333332996,0.21695,0.22231666666667002,5.0
COM6,508,01-Sep-18,2018-09-01 17:00:00,0.40255,0.32675,0.29563333333333003,0.28333333333333,0.27093333333333,0.2501,0.25766666666667004,5.0
COM6,508,01-Sep-18,2018-09-01 18:00:00,0.44,0.37971666666667,0.35095,0.34006666666667,0.32851666666667,0.31031666666667,0.31966666666667,5.0
COM6,508,01-Sep-18,2018-09-01 19:00:00,0.50058333333333,0.42158333333333,0.38475,0.37083333333333,0.35318333333333,0.32261666666667,0.33056666666667,5.0
COM6,508,01-Sep-18,2018-09-01 20:00:00,0.54886666666667,0.41801666666667,0.36441666666667,0.3418,0.31628333333333003,0.2764,0.28163333333333,5.0
COM6,508,01-Sep-18,2018-09-01 21:00:00,0.51633333333333,0.3892,0.33728333333333,0.31546666666667,0.29015,0.259,0.2634,5.0
COM6,508,01-Sep-18,2018-09-01 22:00:00,0.48351666666667,0.37613333333333,0.33233333333333,0.3144,0.2926,0.26211666666667005,0.26558333333332995,5.0
COM6,508,01-Sep-18,2018-09-01 23:00:00,0.69027118644068,0.5784406779661,0.5268813559322,0.50623728813559,0.48352542372881,0.45371186440678,0.46613559322034004,5.0
