COM6,508,24-Mar-18,2018-03-24 00:00:00,0.20874576271186,0.18789830508474997,0.17293220338982998,0.16832203389831,0.161,0.15149152542373,0.15679661016949,5.0
COM6,508,24-Mar-18,2018-03-24 01:00:00,0.14731666666667,0.1285,0.11721666666667,0.1084,0.1047,0.095166666666667,0.098916666666667,5.0
COM6,508,24-Mar-18,2018-03-24 02:00:00,0.056433333333333,0.0635,0.058566666666666996,0.057483333333333005,0.05235,0.0479,0.047333333333333005,5.0
COM6,508,24-Mar-18,2018-03-24 03:00:00,0.26236666666667,0.24145,0.2213,0.21715,0.20475,0.19745,0.20338333333332997,5.0
COM6,508,24-Mar-18,2018-03-24 04:00:00,0.17466666666667002,0.16071666666667,0.14848333333333,0.14481666666667,0.13748333333333,0.12746666666667,0.1323,5.0
COM6,508,24-Mar-18,2018-03-24 05:00:00,0.05185,0.064283333333333,0.05941666666666699,0.06255,0.05405,0.051133333333333,0.050866666666667,5.0
COM6,508,24-Mar-18,2018-03-24 06:00:00,0.04915,0.06568333333333301,0.059216666666666994,0.06511666666666699,0.050616666666667,0.05685,0.054383333333333006,5.0
COM6,508,24-Mar-18,2018-03-24 07:00:00,0.078633333333333,0.07866666666666701,0.071483333333333,0.07103333333333299,0.0615,0.0602,0.0598,5.0
COM6,508,24-Mar-18,2018-03-24 08:00:00,0.10238333333333001,0.10081666666667,0.090183333333333,0.090933333333333,0.08323333333333299,0.0803,0.08185,5.0
COM6,508,24-Mar-18,2018-03-24 09:00:00,0.10613333333333,0.10556666666667,0.09785,0.09456666666666699,0.08826666666666699,0.083333333333333,0.08411666666666702,5.0
COM6,508,24-Mar-18,2018-03-24 10:00:00,0.096566666666667,0.09446666666666699,0.08681666666666701,0.08731666666666701,0.08106666666666701,0.0788,0.0792,5.0
COM6,508,24-Mar-18,2018-03-24 11:00:00,0.24723333333332997,0.21285,0.19785,0.18805,0.18365,0.18178333333332997,0.18696666666667003,5.0
COM6,508,24-Mar-18,2018-03-24 12:00:00,0.24566666666667003,0.21496666666667003,0.2018,0.18978333333332997,0.18686666666667004,0.16823333333332996,0.17325,5.0
COM6,508,24-Mar-18,2018-03-24 13:00:00,0.1941,0.18623333333332998,0.17341666666667002,0.16531666666667003,0.15801666666667002,0.14048333333333,0.14403333333333,5.0
COM6,508,24-Mar-18,2018-03-24 14:00:00,0.18336666666667004,0.17303333333332996,0.15821666666667,0.15716666666667,0.14256666666667,0.12946666666667,0.13195,5.0
COM6,508,24-Mar-18,2018-03-24 15:00:00,0.23295,0.20565,0.18646666666667003,0.18011666666667003,0.17026666666667004,0.15888333333333,0.16293333333333,5.0
COM6,508,24-Mar-18,2018-03-24 16:00:00,0.13585,0.12706666666667,0.11586666666666999,0.10681666666666999,0.10231666666667,0.08735,0.089266666666667,5.0
COM6,508,24-Mar-18,2018-03-24 17:00:00,0.17183333333332998,0.15438333333333,0.14233333333332998,0.13128333333333,0.1268,0.11683333333333,0.12035,5.0
COM6,508,24-Mar-18,2018-03-24 18:00:00,0.2237,0.20071666666667004,0.18511666666667004,0.17841666666667003,0.16998333333332996,0.15266666666667,0.15683333333333,5.0
COM6,508,24-Mar-18,2018-03-24 19:00:00,0.4435,0.38751666666667,0.35583333333333,0.34593333333333,0.32318333333333,0.29755,0.30246666666667,5.0
COM6,508,24-Mar-18,2018-03-24 20:00:00,0.27641666666667,0.24831666666667004,0.22363333333332996,0.21493333333332998,0.19838333333332997,0.18246666666667002,0.18333333333332996,5.0
COM6,508,24-Mar-18,2018-03-24 21:00:00,0.5273,0.42198333333333,0.37966666666667,0.36838333333333,0.33701666666667,0.30366666666666997,0.30898333333333,5.0
COM6,508,24-Mar-18,2018-03-24 22:00:00,0.6524166666666701,0.53,0.4767,0.4578,0.4223,0.38003333333333,0.38311666666667,5.0
COM6,508,24-Mar-18,2018-03-24 23:00:00,0.45582456140350996,0.33428070175439,0.29985964912281,0.28878947368421004,0.26364912280701996,0.23617543859648998,0.24210526315789002,4.6491228070175
