COM6,508,06-Oct-17,2017-10-06 00:00:00,0.34949152542373,0.32159322033898,0.29230508474576,0.28345762711864003,0.25959322033898,0.23937288135593002,0.24184745762711998,5
COM6,508,06-Oct-17,2017-10-06 01:00:00,0.34693333333333,0.31835,0.2898,0.27931666666667,0.25596666666667,0.23275,0.23675,5
COM6,508,06-Oct-17,2017-10-06 02:00:00,0.284,0.2443,0.22451666666667003,0.21205,0.19761666666667002,0.17595,0.1803,5
COM6,508,06-Oct-17,2017-10-06 03:00:00,0.20831666666667004,0.18598333333332998,0.16751666666667,0.15961666666667002,0.14756666666667,0.12768333333333,0.12708333333333,5
COM6,508,06-Oct-17,2017-10-06 04:00:00,0.25188333333332996,0.23116666666667005,0.21105,0.20238333333332997,0.18691666666667003,0.16873333333332996,0.17221666666667004,5
COM6,508,06-Oct-17,2017-10-06 05:00:00,0.51621666666667,0.47806666666666997,0.44065,0.42735,0.39883333333333,0.36815,0.37683333333333,5
COM6,508,06-Oct-17,2017-10-06 06:00:00,1.2928333333333,1.1998666666667,1.1079333333333001,1.0760333333333,1.01155,0.93255,0.95621666666667,5
COM6,508,06-Oct-17,2017-10-06 07:00:00,0.94301666666667,0.9037166666666699,0.83785,0.81718333333333,0.76691666666667,0.71038333333333,0.7263333333333301,5
COM6,508,06-Oct-17,2017-10-06 08:00:00,1.8670666666667,1.8063166666666999,1.6577333333333,1.6276166666667,1.52225,1.4013166666666999,1.4278,5
COM6,508,06-Oct-17,2017-10-06 09:00:00,0.7411,0.77541666666667,0.73805,0.73461666666667,0.68708333333333,0.6443,0.6532333333333299,5
COM6,508,06-Oct-17,2017-10-06 10:00:00,0.73075,0.74881666666667,0.7124,0.7165,0.66906666666667,0.6323666666666701,0.6423,5
COM6,508,06-Oct-17,2017-10-06 11:00:00,0.5458666666666699,0.5504666666666701,0.5186666666666699,0.51453333333333,0.48155,0.4409,0.44733333333333003,5
COM6,508,06-Oct-17,2017-10-06 12:00:00,0.36168333333333,0.33495,0.30761666666667,0.29991666666667,0.2765,0.25358333333332994,0.25735,5
COM6,508,06-Oct-17,2017-10-06 13:00:00,0.37298333333333,0.33715,0.30228333333333,0.28963333333333,0.25665,0.22256666666667002,0.22605,5
COM6,508,06-Oct-17,2017-10-06 14:00:00,0.47433333333333,0.38353333333333,0.33736666666667,0.312,0.27011666666667006,0.21856666666667005,0.21931666666667002,5
COM6,508,06-Oct-17,2017-10-06 15:00:00,0.3633,0.29171666666667,0.25563333333333,0.23396666666667004,0.21575,0.18276666666667002,0.18793333333332995,5
COM6,508,06-Oct-17,2017-10-06 16:00:00,0.26786666666667003,0.20995,0.18656666666667004,0.17021666666667004,0.1592,0.12788333333333002,0.13263333333333,5
COM6,508,06-Oct-17,2017-10-06 17:00:00,0.2717,0.2161,0.1921,0.17641666666667002,0.1668,0.1487,0.1526,5
COM6,508,06-Oct-17,2017-10-06 18:00:00,0.3721,0.28121666666667,0.24691666666667003,0.2285,0.20951666666667004,0.18586666666667004,0.19063333333332996,5
COM6,508,06-Oct-17,2017-10-06 19:00:00,0.34271666666667,0.289,0.25826666666667003,0.24201666666667004,0.22005,0.19463333333332997,0.19855,5
COM6,508,06-Oct-17,2017-10-06 20:00:00,0.57875,0.42700000000000005,0.37033333333333,0.34723333333333,0.30906666666667,0.26771666666667004,0.271,5
COM6,508,06-Oct-17,2017-10-06 21:00:00,0.93431666666667,0.7444666666666699,0.66135,0.6249833333333299,0.56906666666667,0.50878333333333,0.51745,5
COM6,508,06-Oct-17,2017-10-06 22:00:00,0.45443333333333,0.3546,0.30635,0.28383333333333,0.25135,0.21213333333332998,0.21385,5
COM6,508,06-Oct-17,2017-10-06 23:00:00,0.51473214285714,0.39126785714286,0.34321428571428997,0.31869642857143,0.28300000000000003,0.24278571428571,0.24421428571429,5
