COM4,508,03-Jun-19,2019-06-03 00:00:00,0.17016949152542002,0.15883050847458,0.14579661016949,0.14267796610169,0.13232203389831,0.12142372881355999,0.12445762711864,5
COM4,508,03-Jun-19,2019-06-03 01:00:00,0.11891666666667,0.11668333333333,0.10796666666667,0.10885,0.098183333333333,0.09346666666666699,0.093333333333333,5
COM4,508,03-Jun-19,2019-06-03 02:00:00,0.13088333333333,0.12628333333333,0.11548333333333001,0.11708333333333,0.1065,0.10246666666667,0.10331666666667,5
COM4,508,03-Jun-19,2019-06-03 03:00:00,0.26358333333332995,0.24238333333332998,0.22371666666667003,0.22071666666667003,0.20383333333332998,0.19076666666667003,0.1946,5
COM4,508,03-Jun-19,2019-06-03 04:00:00,0.33628333333333,0.31331666666667,0.29041666666667,0.2849,0.26865,0.25141666666667,0.25608333333332994,5
COM4,508,03-Jun-19,2019-06-03 05:00:00,2.1306833333333,2.1106,1.9956,1.9699166666666998,1.8986833333333,1.8187833333333001,1.8787333333333,5
COM4,508,03-Jun-19,2019-06-03 06:00:00,1.29405,1.2723666666667,1.2006333333333001,1.1828833333333,1.1325333333333,1.07025,1.1012833333333,5
COM4,508,03-Jun-19,2019-06-03 07:00:00,0.479,0.46946666666667,0.43896666666667,0.43051666666667,0.40753333333333003,0.37565,0.3862,5
COM4,508,03-Jun-19,2019-06-03 08:00:00,0.6083166666666701,0.5850666666666701,0.54736666666667,0.53468333333333,0.50923333333333,0.47738333333333,0.49,5
COM4,508,03-Jun-19,2019-06-03 09:00:00,0.64568333333333,0.6222666666666701,0.5779,0.5652833333333299,0.53615,0.4984,0.51306666666667,5
COM4,508,03-Jun-19,2019-06-03 10:00:00,0.377,0.36103333333333,0.33428333333333,0.3254,0.30653333333333,0.2839,0.29083333333333,5
COM4,508,03-Jun-19,2019-06-03 11:00:00,0.30948333333333,0.2879,0.26783333333333,0.25913333333332994,0.24613333333332996,0.22646666666667004,0.2336,5
COM4,508,03-Jun-19,2019-06-03 12:00:00,0.31178333333333,0.29706666666667,0.27995,0.27045,0.25851666666667006,0.23361666666667003,0.23893333333332997,5
COM4,508,03-Jun-19,2019-06-03 13:00:00,0.28503333333333003,0.27278333333333,0.25455,0.24773333333332997,0.23581666666667003,0.21216666666667003,0.21676666666667002,5
COM4,508,03-Jun-19,2019-06-03 14:00:00,0.26695,0.24965,0.23115,0.22345,0.20983333333332996,0.18931666666667002,0.19366666666667004,5
COM4,508,03-Jun-19,2019-06-03 15:00:00,0.22523333333332995,0.2062,0.18855,0.1806,0.16963333333332997,0.14833333333333,0.15426666666667002,5
COM4,508,03-Jun-19,2019-06-03 16:00:00,0.20216666666667002,0.18315,0.16846666666667004,0.16126666666667,0.15268333333332998,0.13981666666667,0.14411666666667,5
COM4,508,03-Jun-19,2019-06-03 17:00:00,0.2624,0.23965,0.22093333333332996,0.21221666666667002,0.20046666666667004,0.18678333333332997,0.19183333333332997,5
COM4,508,03-Jun-19,2019-06-03 18:00:00,0.28156666666667,0.25691666666667,0.23648333333332996,0.2269,0.2146,0.19408333333332997,0.19966666666667005,5
COM4,508,03-Jun-19,2019-06-03 19:00:00,0.30338333333333,0.27883333333333,0.25633333333332997,0.2499,0.23396666666667004,0.21495,0.21973333333332998,5
COM4,508,03-Jun-19,2019-06-03 20:00:00,0.5114,0.48453333333333,0.45428333333333,0.44443333333333,0.426,0.41121666666667,0.4267,5
COM4,508,03-Jun-19,2019-06-03 21:00:00,0.23536666666667003,0.20623333333332997,0.18711666666667004,0.17826666666667004,0.16453333333332998,0.14515,0.14785,5
COM4,508,03-Jun-19,2019-06-03 22:00:00,0.27696666666666997,0.2494,0.22453333333332998,0.214,0.1968,0.1736,0.17588333333332998,5
COM4,508,03-Jun-19,2019-06-03 23:00:00,0.17273333333332996,0.1507,0.13606666666667,0.13005,0.1177,0.10366666666667,0.10621666666667,5
