COM6,0508,05-Feb-19,2019-02-05 00:00:00,0.027322033898305,0.022220338983051,0.021694915254237,0.019322033898305,0.020983050847458,0.016033898305085,0.017016949152542,5,0,0,0,0,0,0,0,0,0,0,0,0,0,0,0,0,0,0,0,0,0,0,0,0,0,0,0,0,0,0,0,0,0,0,0,0,0,0,0,0,0,0
COM6,0508,05-Feb-19,2019-02-05 01:00:00,0.022533333333333,0.020633333333333,0.020033333333333,0.019016666666667,0.0191,0.0185,0.01945,5,0,0,0,0,0,0,0,0,0,0,0,0,0,0,0,0,0,0,0,0,0,0,0,0,0,0,0,0,0,0,0,0,0,0,0,0,0,0,0,0,0,0
COM6,0508,05-Feb-19,2019-02-05 02:00:00,0.08605,0.082483333333333,0.078283333333333,0.0783,0.07505,0.072066666666667,0.073816666666667,5,0,0,0,0,0,0,0,0,0,0,0,0,0,0,0,0,0,0,0,0,0,0,0,0,0,0,0,0,0,0,0,0,0,0,0,0,0,0,0,0,0,0
COM6,0508,05-Feb-19,2019-02-05 03:00:00,0.022916666666667,0.02145,0.020466666666667,0.020033333333333,0.019516666666667,0.018633333333333,0.019183333333333,5,0,0,0,0,0,0,0,0,0,0,0,0,0,0,0,0,0,0,0,0,0,0,0,0,0,0,0,0,0,0,0,0,0,0,0,0,0,0,0,0,0,0
COM6,0508,05-Feb-19,2019-02-05 04:00:00,0.010233333333333,0.01015,0.00995,0.010166666666667,0.0098833333333333,0.0086666666666667,0.0089,5,0,0,0,0,0,0,0,0,0,0,0,0,0,0,0,0,0,0,0,0,0,0,0,0,0,0,0,0,0,0,0,0,0,0,0,0,0,0,0,0,0,0
COM6,0508,05-Feb-19,2019-02-05 05:00:00,0.02315,0.02205,0.021033333333333,0.021383333333333,0.019433333333333,0.01775,0.01825,5,0,0,0,0,0,0,0,0,0,0,0,0,0,0,0,0,0,0,0,0,0,0,0,0,0,0,0,0,0,0,0,0,0,0,0,0,0,0,0,0,0,0
COM6,0508,05-Feb-19,2019-02-05 06:00:00,0.069183333333333,0.06735,0.0645,0.063516666666667,0.06135,0.0579,0.0597,5,0,0,0,0,0,0,0,0,0,0,0,0,0,0,0,0,0,0,0,0,0,0,0,0,0,0,0,0,0,0,0,0,0,0,0,0,0,0,0,0,0,0
COM6,0508,05-Feb-19,2019-02-05 07:00:00,0.083016666666667,0.07925,0.074716666666667,0.0738,0.072283333333333,0.06755,0.070033333333333,5,0,0,0,0,0,0,0,0,0,0,0,0,0,0,0,0,0,0,0,0,0,0,0,0,0,0,0,0,0,0,0,0,0,0,0,0,0,0,0,0,0,0
COM6,0508,05-Feb-19,2019-02-05 08:00:00,0.11046666666667,0.11073333333333,0.105,0.10391666666667,0.1003,0.09705,0.09975,5,0,0,0,0,0,0,0,0,0,0,0,0,0,0,0,0,0,0,0,0,0,0,0,0,0,0,0,0,0,0,0,0,0,0,0,0,0,0,0,0,0,0
COM6,0508,05-Feb-19,2019-02-05 09:00:00,0.098216666666667,0.099066666666667,0.094583333333333,0.093683333333333,0.091166666666667,0.088933333333333,0.092066666666667,5,0,0,0,0,0,0,0,0,0,0,0,0,0,0,0,0,0,0,0,0,0,0,0,0,0,0,0,0,0,0,0,0,0,0,0,0,0,0,0,0,0,0
COM6,0508,05-Feb-19,2019-02-05 10:00:00,0.081583333333333,0.084366666666667,0.08035,0.080016666666667,0.076683333333333,0.076466666666667,0.077683333333333,5,0,0,0,0,0,0,0,0,0,0,0,0,0,0,0,0,0,0,0,0,0,0,0,0,0,0,0,0,0,0,0,0,0,0,0,0,0,0,0,0,0,0
COM6,0508,05-Feb-19,2019-02-05 11:00:00,0.18094545454545,0.13916363636364,0.13187272727273,0.12918181818182,0.12852727272727,0.12409090909091,0.13201818181818,4.3636363636364,0,0,0,0,0,0,0,0,0,0,0,0,0,0,0,0,0,0,0,0,0,0,0,0,0,0,0,0,0,0,0,0,0,0,0,0,0,0,0,0,0,0
COM6,0508,05-Feb-19,2019-02-05 12:00:00,0.31056666666667,0.22891666666667,0.21071666666667,0.20415,0.19455,0.19455,0.20115,5,0,0,0,0,0,0,0,0,0,0,0,0,0,0,0,0,0,0,0,0,0,0,0,0,0,0,0,0,0,0,0,0,0,0,0,0,0,0,0,0,0,0
COM6,0508,05-Feb-19,2019-02-05 13:00:00,0.12365,0.11561666666667,0.10796666666667,0.10633333333333,0.1011,0.0993,0.10111666666667,5,0,0,0,0,0,0,0,0,0,0,0,0,0,0,0,0,0,0,0,0,0,0,0,0,0,0,0,0,0,0,0,0,0,0,0,0,0,0,0,0,0,0
COM6,0508,05-Feb-19,2019-02-05 14:00:00,0.06785,0.071633333333333,0.06895,0.068133333333333,0.0662,0.06145,0.064033333333333,5,0,0,0,0,0,0,0,0,0,0,0,0,0,0,0,0,0,0,0,0,0,0,0,0,0,0,0,0,0,0,0,0,0,0,0,0,0,0,0,0,0,0
COM6,0508,05-Feb-19,2019-02-05 15:00:00,0.16916949152542,0.13740677966102,0.13386440677966,0.1321186440678,0.1318813559322,0.12767796610169,0.13447457627119,4.3220338983051,0,0,0,0,0,0,0,0,0,0,0,0,0,0,0,0,0,0,0,0,0,0,0,0,0,0,0,0,0,0,0,0,0,0,0,0,0,0,0,0,0,0
COM6,0508,05-Feb-19,2019-02-05 16:00:00,0.33053333333333,0.2669,0.2581,0.2559,0.24831666666667,0.24045,0.24893333333333,5,0,0,0,0,0,0,0,0,0,0,0,0,0,0,0,0,0,0,0,0,0,0,0,0,0,0,0,0,0,0,0,0,0,0,0,0,0,0,0,0,0,0
COM6,0508,05-Feb-19,2019-02-05 17:00:00,0.073383333333333,0.061183333333333,0.057983333333333,0.056783333333333,0.055166666666667,0.050733333333333,0.053083333333333,5,0,0,0,0,0,0,0,0,0,0,0,0,0,0,0,0,0,0,0,0,0,0,0,0,0,0,0,0,0,0,0,0,0,0,0,0,0,0,0,0,0,0
COM6,0508,05-Feb-19,2019-02-05 18:00:00,0.12781666666667,0.1285,0.12121666666667,0.11641666666667,0.11353333333333,0.10725,0.11063333333333,5,0,0,0,0,0,0,0,0,0,0,0,0,0,0,0,0,0,0,0,0,0,0,0,0,0,0,0,0,0,0,0,0,0,0,0,0,0,0,0,0,0,0
COM6,0508,05-Feb-19,2019-02-05 19:00:00,0.16055,0.14823333333333,0.138,0.13363333333333,0.12848333333333,0.12066666666667,0.12483333333333,5,0,0,0,0,0,0,0,0,0,0,0,0,0,0,0,0,0,0,0,0,0,0,0,0,0,0,0,0,0,0,0,0,0,0,0,0,0,0,0,0,0,0
COM6,0508,05-Feb-19,2019-02-05 20:00:00,0.24151666666667,0.2248,0.21088333333333,0.20443333333333,0.19785,0.18695,0.19285,5,0,0,0,0,0,0,0,0,0,0,0,0,0,0,0,0,0,0,0,0,0,0,0,0,0,0,0,0,0,0,0,0,0,0,0,0,0,0,0,0,0,0
COM6,0508,05-Feb-19,2019-02-05 21:00:00,0.60168333333333,0.5709,0.53973333333333,0.53268333333333,0.51816666666667,0.50095,0.51675,5,0,0,0,0,0,0,0,0,0,0,0,0,0,0,0,0,0,0,0,0,0,0,0,0,0,0,0,0,0,0,0,0,0,0,0,0,0,0,0,0,0,0
COM6,0508,05-Feb-19,2019-02-05 22:00:00,0.4727,0.4141,0.38536666666667,0.37545,0.36101666666667,0.34256666666667,0.352,5,0,0,0,0,0,0,0,0,0,0,0,0,0,0,0,0,0,0,0,0,0,0,0,0,0,0,0,0,0,0,0,0,0,0,0,0,0,0,0,0,0,0
COM6,0508,05-Feb-19,2019-02-05 23:00:00,0.12220689655172,0.13098275862069,0.127,0.1275,0.12453448275862,0.12256896551724,0.12705172413793,5,0,0,0,0,0,0,0,0,0,0,0,0,0,0,0,0,0,0,0,0,0,0,0,0,0,0,0,0,0,0,0,0,0,0,0,0,0,0,0,0,0,0
