COM6,508,22-Apr-18,2018-04-22 00:00:00,0.64013559322034,0.5204406779660999,0.46301694915254,0.43379661016949,0.40369491525423995,0.36198305084746,0.37,5.0
COM6,508,22-Apr-18,2018-04-22 01:00:00,0.38936666666666997,0.31715,0.28276666666667,0.26623333333333,0.24373333333332997,0.21765,0.22188333333332996,5.0
COM6,508,22-Apr-18,2018-04-22 02:00:00,0.48186666666667,0.35908333333333,0.31055,0.2844,0.25243333333332996,0.2116,0.21391666666667003,5.0
COM6,508,22-Apr-18,2018-04-22 03:00:00,0.23121666666667004,0.20103333333332996,0.18108333333332996,0.1671,0.15651666666667002,0.13373333333333,0.13598333333333001,5.0
COM6,508,22-Apr-18,2018-04-22 04:00:00,0.30438333333333,0.2656,0.23776666666667004,0.22753333333332998,0.20738333333332998,0.18498333333332997,0.18915,5.0
COM6,508,22-Apr-18,2018-04-22 05:00:00,0.29688333333333,0.25758333333332994,0.23176666666667003,0.2198,0.20211666666667003,0.17961666666667003,0.18228333333332997,5.0
COM6,508,22-Apr-18,2018-04-22 06:00:00,0.74551666666667,0.67641666666667,0.6231166666666701,0.6044333333333299,0.56816666666667,0.51785,0.52956666666667,5.0
COM6,508,22-Apr-18,2018-04-22 07:00:00,0.76548333333333,0.68273333333333,0.62261666666667,0.6035,0.5635833333333299,0.51858333333333,0.52766666666667,5.0
COM6,508,22-Apr-18,2018-04-22 08:00:00,0.74791666666667,0.60355,0.55983333333333,0.54528333333333,0.51806666666667,0.48721666666667,0.5026,4.6666666666667
COM6,508,22-Apr-18,2018-04-22 09:00:00,0.52753333333333,0.46195,0.43175,0.42555,0.40685,0.39528333333333,0.40586666666667,5.0
COM6,508,22-Apr-18,2018-04-22 10:00:00,0.33056666666667,0.3243,0.30351666666667,0.2992,0.28545,0.2762,0.28208333333333,5.0
COM6,508,22-Apr-18,2018-04-22 11:00:00,0.35063333333333,0.34265,0.32206666666667,0.3175,0.30473333333333,0.29278333333333,0.29995,5.0
COM6,508,22-Apr-18,2018-04-22 12:00:00,0.215,0.21811666666667004,0.20606666666667003,0.20365,0.19631666666667003,0.18781666666667002,0.1927,5.0
COM6,508,22-Apr-18,2018-04-22 13:00:00,0.097883333333333,0.097166666666667,0.092666666666667,0.090266666666667,0.0874,0.0796,0.08215,5.0
COM6,508,22-Apr-18,2018-04-22 14:00:00,0.08643333333333299,0.08438333333333299,0.080283333333333,0.07765,0.07601666666666701,0.0711,0.07415,5.0
COM6,508,22-Apr-18,2018-04-22 15:00:00,0.10163333333333001,0.0997,0.095016666666667,0.091866666666667,0.091366666666667,0.08736666666666701,0.09203333333333301,5.0
COM6,508,22-Apr-18,2018-04-22 16:00:00,0.14046666666667001,0.1369,0.13065,0.12733333333333,0.12536666666666998,0.1216,0.12535,5.0
COM6,508,22-Apr-18,2018-04-22 17:00:00,0.21175,0.20665,0.19728333333332998,0.19336666666667005,0.19051666666667003,0.18811666666667004,0.19533333333332997,5.0
COM6,508,22-Apr-18,2018-04-22 18:00:00,0.20331666666667003,0.19915,0.19016666666667004,0.18648333333332998,0.1828,0.17975,0.18636666666667004,5.0
COM6,508,22-Apr-18,2018-04-22 19:00:00,0.30038333333333,0.28676666666667,0.2705,0.2659,0.25726666666667003,0.24793333333332998,0.25501666666667006,5.0
COM6,508,22-Apr-18,2018-04-22 20:00:00,0.22523333333332995,0.21408333333332996,0.20185,0.19706666666667003,0.1908,0.18498333333332997,0.19038333333332996,5.0
COM6,508,22-Apr-18,2018-04-22 21:00:00,0.17065,0.16365,0.15473333333332998,0.15273333333332997,0.14735,0.14383333333332998,0.14723333333333,5.0
COM6,508,22-Apr-18,2018-04-22 22:00:00,0.13058333333333,0.12468333333333001,0.11785,0.11521666666666999,0.1111,0.10761666666667,0.11106666666666999,5.0
COM6,508,22-Apr-18,2018-04-22 23:00:00,0.15266071428571,0.14478571428571,0.13639285714286,0.13328571428571,0.12726785714285999,0.11989285714286,0.12232142857143,5.0
