COM6,508,01-Jun-18,2018-06-01 00:00:00,0.21905084745763,0.19628813559322,0.18710169491525003,0.18311864406779996,0.17549152542373,0.16440677966102,0.16883050847457998,5
COM6,508,01-Jun-18,2018-06-01 01:00:00,0.3475,0.32695,0.31086666666667,0.30708333333333,0.29715,0.27851666666667,0.28806666666666997,5
COM6,508,01-Jun-18,2018-06-01 02:00:00,0.24631666666667004,0.21415,0.20181666666667003,0.19555,0.1873,0.17451666666667004,0.18005,5
COM6,508,01-Jun-18,2018-06-01 03:00:00,0.22495,0.21871666666667003,0.21068333333332998,0.21073333333332997,0.205,0.19788333333332997,0.20376666666667004,5
COM6,508,01-Jun-18,2018-06-01 04:00:00,0.073383333333333,0.06895,0.06511666666666699,0.0642,0.06185,0.053783333333333,0.0544,5
COM6,508,01-Jun-18,2018-06-01 05:00:00,0.34516666666667,0.32186666666667,0.30426666666667,0.29971666666667,0.28568333333333,0.27396666666667,0.28265,5
COM6,508,01-Jun-18,2018-06-01 06:00:00,0.46695,0.4361,0.40916666666667,0.40291666666667,0.3843,0.36581666666667,0.37675,5
COM6,508,01-Jun-18,2018-06-01 07:00:00,1.2753,1.24705,1.1870166666667,1.1820166666667,1.1394,1.1045166666667,1.1401333333333001,5
COM6,508,01-Jun-18,2018-06-01 08:00:00,0.66763333333333,0.65876666666667,0.62945,0.6280333333333299,0.6026,0.5780166666666701,0.5935833333333299,5
COM6,508,01-Jun-18,2018-06-01 09:00:00,0.26923333333333,0.2627,0.25128333333333,0.25235,0.23746666666667005,0.22073333333332998,0.22601666666667003,5
COM6,508,01-Jun-18,2018-06-01 10:00:00,0.2648,0.24475,0.2275,0.22331666666667002,0.21048333333332997,0.1927,0.1992,5
COM6,508,01-Jun-18,2018-06-01 11:00:00,0.22348333333332998,0.19746666666667004,0.1831,0.17986666666667003,0.16718333333333,0.15648333333332998,0.16,5
COM6,508,01-Jun-18,2018-06-01 12:00:00,0.2282,0.20413333333332997,0.18886666666667004,0.1852,0.17223333333332996,0.16365,0.1686,5
COM6,508,01-Jun-18,2018-06-01 13:00:00,0.16773333333333,0.14593333333332997,0.13553333333333,0.13138333333333,0.12098333333333,0.10835,0.11131666666666999,5
COM6,508,01-Jun-18,2018-06-01 14:00:00,0.14228333333333,0.11808333333333,0.10781666666666999,0.10186666666666999,0.09865,0.088816666666667,0.092516666666667,5
COM6,508,01-Jun-18,2018-06-01 15:00:00,0.20371666666667004,0.1782,0.16545,0.161,0.15306666666667001,0.14111666666667003,0.14688333333332998,5
COM6,508,01-Jun-18,2018-06-01 16:00:00,0.18911666666667004,0.1647,0.15326666666667002,0.14611666666667,0.14055,0.13101666666667,0.13596666666666998,5
COM6,508,01-Jun-18,2018-06-01 17:00:00,0.37486666666667,0.34173333333333,0.31843333333333,0.31153333333333,0.2964,0.2813,0.29063333333333,5
COM6,508,01-Jun-18,2018-06-01 18:00:00,0.1591,0.13193333333333002,0.12093333333333,0.11518333333333,0.10773333333333,0.09675,0.0998,5
COM6,508,01-Jun-18,2018-06-01 19:00:00,0.39311666666667,0.30213333333333,0.2709,0.25425,0.23385,0.2128,0.21783333333332996,5
COM6,508,01-Jun-18,2018-06-01 20:00:00,0.70546666666667,0.5598666666666701,0.503,0.47455,0.43613333333333,0.39041666666667,0.3982,5
COM6,508,01-Jun-18,2018-06-01 21:00:00,0.51045,0.41968333333333,0.37941666666667,0.36105,0.33168333333333,0.29706666666667,0.30403333333333,5
COM6,508,01-Jun-18,2018-06-01 22:00:00,0.35588333333333,0.27936666666667,0.24756666666667004,0.23198333333332996,0.21205,0.18778333333332997,0.19211666666667004,5
COM6,508,01-Jun-18,2018-06-01 23:00:00,0.23515254237288002,0.19318644067797003,0.17683050847457998,0.16613559322034,0.15072881355932002,0.13296610169492,0.13293220338983,5
