COM6,508,26-Feb-18,2018-02-26 00:00:00,0.60193220338983,0.47410169491525,0.42908474576271005,0.41898305084746,0.39155932203390004,0.37266101694915005,0.38008474576271006,5.0
COM6,508,26-Feb-18,2018-02-26 01:00:00,0.33993333333333,0.31481666666667,0.28576666666667,0.2841,0.26163333333332994,0.25256666666667005,0.25658333333332994,5.0
COM6,508,26-Feb-18,2018-02-26 02:00:00,0.01655,0.061633333333333006,0.059883333333333004,0.06705,0.054916666666666995,0.05395,0.05395,5.0
COM6,508,26-Feb-18,2018-02-26 03:00:00,0.12328333333333001,0.16313333333333,0.1554,0.16501666666667,0.14821666666667002,0.16058333333333,0.16263333333333,5.0
COM6,508,26-Feb-18,2018-02-26 04:00:00,0.023783333333332993,0.059266666666666995,0.054933333333333,0.0604,0.052266666666666996,0.058666666666667,0.056083333333333006,5.0
COM6,508,26-Feb-18,2018-02-26 05:00:00,0.023033333333332996,0.046916666666666995,0.046033333333333,0.04693333333333301,0.041616666666667,0.048816666666666994,0.045416666666666994,5.0
COM6,508,26-Feb-18,2018-02-26 06:00:00,0.10516666666666999,0.13996666666667001,0.1324,0.13743333333333,0.12623333333333,0.12855,0.12991666666666998,5.0
COM6,508,26-Feb-18,2018-02-26 07:00:00,0.18483333333332996,0.20686666666667003,0.19338333333332997,0.19585,0.18048333333332997,0.17398333333332996,0.17586666666667003,5.0
COM6,508,26-Feb-18,2018-02-26 08:00:00,0.14696666666667002,0.16095,0.1509,0.15465,0.14236666666667,0.14093333333333,0.1449,5.0
COM6,508,26-Feb-18,2018-02-26 09:00:00,0.11508333333333,0.12503333333333,0.11811666666666999,0.11725,0.11115,0.1078,0.11016666666667,5.0
COM6,508,26-Feb-18,2018-02-26 10:00:00,0.14988333333332998,0.15148333333333,0.14333333333332998,0.13953333333332998,0.13406666666667,0.12583333333333,0.12991666666666998,5.0
COM6,508,26-Feb-18,2018-02-26 11:00:00,0.2264,0.23218333333332997,0.21841666666667003,0.21896666666667003,0.20783333333332996,0.20445,0.20906666666667004,5.0
COM6,508,26-Feb-18,2018-02-26 12:00:00,0.26628333333333,0.2651,0.2471,0.24103333333332996,0.23308333333332998,0.21788333333332996,0.22465,5.0
COM6,508,26-Feb-18,2018-02-26 13:00:00,0.49461666666667,0.44705,0.41766666666667,0.39846666666667,0.39911666666667,0.3713,0.38795,5.0
COM6,508,26-Feb-18,2018-02-26 14:00:00,0.6271666666666701,0.54643333333333,0.517,0.48671666666667,0.49318333333333003,0.45431666666667,0.4813,5.0
COM6,508,26-Feb-18,2018-02-26 15:00:00,0.34213333333333,0.29478333333333,0.27906666666667,0.26025,0.26168333333333,0.22955,0.24588333333332996,5.0
COM6,508,26-Feb-18,2018-02-26 16:00:00,0.51551666666667,0.48353333333333,0.44928333333333,0.441,0.42761666666667,0.40828333333333,0.42371666666667,4.9166666666667
COM6,508,26-Feb-18,2018-02-26 17:00:00,1.4391,1.3450833333333,1.3006333333333,1.2967333333333,1.2817,1.2926833333333,1.34645,4.75
COM6,508,26-Feb-18,2018-02-26 18:00:00,1.59715,1.48085,1.4136666666667,1.40585,1.3817,1.40815,1.4651666666667,5.0
COM6,508,26-Feb-18,2018-02-26 19:00:00,1.3758833333333,1.2992166666667,1.2256333333333,1.2080666666667,1.168,1.1361166666667,1.1696666666667,5.0
COM6,508,26-Feb-18,2018-02-26 20:00:00,2.3114833333332996,2.1332666666667,2.02605,2.01205,1.9665333333333002,1.99775,2.0750833333333,5.0
COM6,508,26-Feb-18,2018-02-26 21:00:00,1.7117166666666999,1.62375,1.54195,1.5313333333333001,1.4876833333333002,1.49665,1.5497666666667,5.0
COM6,508,26-Feb-18,2018-02-26 22:00:00,0.90958333333333,0.96245,0.9161,0.9157,0.88058333333333,0.86716666666667,0.89156666666667,5.0
COM6,508,26-Feb-18,2018-02-26 23:00:00,1.6890545454545,1.6267272727272999,1.5378181818182,1.5260727272727002,1.4652181818182,1.4299090909091001,1.4709818181818,5.0
