COM4,508,05-Mar-20,2020-03-05 00:00:00,0.17144827586207004,0.19706896551723999,0.1915,0.19281034482759,0.18944827586207003,0.18110344827586,0.18801724137931,5
COM4,508,05-Mar-20,2020-03-05 01:00:00,0.1655,0.18246666666667002,0.17686666666667003,0.18033333333332996,0.1733,0.16931666666667003,0.17341666666667002,5
COM4,508,05-Mar-20,2020-03-05 02:00:00,0.2557,0.26261666666667005,0.25165,0.2529,0.24261666666667003,0.23665,0.24205,5
COM4,508,05-Mar-20,2020-03-05 03:00:00,0.31221666666667,0.31528333333333003,0.29961666666667,0.30231666666667,0.28626666666667,0.27856666666667,0.28418333333333,5
COM4,508,05-Mar-20,2020-03-05 04:00:00,0.39233333333333,0.38636666666667,0.36571666666667,0.36891666666667,0.3488,0.3397,0.34618333333333,5
COM4,508,05-Mar-20,2020-03-05 05:00:00,0.37436666666667,0.36771666666667,0.34845,0.35363333333333,0.33118333333333,0.32341666666667,0.32713333333333,5
COM4,508,05-Mar-20,2020-03-05 06:00:00,0.42391666666667,0.41963333333333,0.39446666666667,0.39585,0.37333333333333,0.35911666666666997,0.36551666666667,5
COM4,508,05-Mar-20,2020-03-05 07:00:00,0.81748333333333,0.80303333333333,0.75881666666667,0.75371666666667,0.71615,0.68065,0.6941,5
COM4,508,05-Mar-20,2020-03-05 08:00:00,0.82631666666667,0.83701666666667,0.79521666666667,0.78966666666667,0.75658333333333,0.7201,0.73658333333333,5
COM4,508,05-Mar-20,2020-03-05 09:00:00,1.7381166666666998,1.7550833333333,1.6811333333333,1.6716,1.6285833333333,1.5822833333333,1.6322833333333,5
COM4,508,05-Mar-20,2020-03-05 10:00:00,1.0853666666667,1.0712833333333,1.02735,1.0075666666667,0.99518333333333,0.953,0.98988333333333,5
COM4,508,05-Mar-20,2020-03-05 11:00:00,0.8815666666666699,0.8664166666666699,0.8279,0.80878333333333,0.79693333333333,0.7584,0.78951666666667,5
COM4,508,05-Mar-20,2020-03-05 12:00:00,0.63175,0.6221166666666701,0.5960166666666701,0.58316666666667,0.57236666666667,0.5399,0.5606,5
COM4,508,05-Mar-20,2020-03-05 13:00:00,0.29153333333333,0.27983333333333,0.26408333333332995,0.25656666666667005,0.25146666666667006,0.22908333333332997,0.24011666666667003,5
COM4,508,05-Mar-20,2020-03-05 14:00:00,0.2687,0.25861666666667005,0.24646666666667003,0.23653333333332996,0.23381666666667003,0.21899999999999997,0.22786666666667002,5
COM4,508,05-Mar-20,2020-03-05 15:00:00,0.39828333333333,0.39388333333333003,0.37683333333333,0.36956666666667,0.36241666666667,0.34666666666667,0.36008333333333,5
COM4,508,05-Mar-20,2020-03-05 16:00:00,0.379,0.37831666666667,0.36333333333333,0.35728333333333,0.35021666666667,0.33268333333333,0.34568333333333,5
COM4,508,05-Mar-20,2020-03-05 17:00:00,0.28395,0.28006666666667,0.2673,0.26146666666667,0.25426666666667,0.23778333333332996,0.24525,5
COM4,508,05-Mar-20,2020-03-05 18:00:00,0.3504,0.34431666666667,0.32791666666667,0.32361666666667,0.312,0.29428333333333,0.3033,5
COM4,508,05-Mar-20,2020-03-05 19:00:00,0.4897,0.45943333333333003,0.43601666666667,0.4266,0.41073333333333,0.38481666666666997,0.39546666666667,5
COM4,508,05-Mar-20,2020-03-05 20:00:00,0.20136666666667002,0.19911666666667002,0.18798333333332998,0.18713333333332996,0.17785,0.1636,0.16745,5
COM4,508,05-Mar-20,2020-03-05 21:00:00,0.22363333333332996,0.20518333333332997,0.1935,0.18863333333332996,0.17725,0.16328333333332998,0.1687,5
COM4,508,05-Mar-20,2020-03-05 22:00:00,1.0385,0.8704,0.81133333333333,0.78583333333333,0.7538,0.70343333333333,0.7242833333333301,5
COM4,508,05-Mar-20,2020-03-05 23:00:00,1.0138666666667,0.69493333333333,0.62723333333333,0.5920166666666701,0.5571833333333299,0.51255,0.52653333333333,5
