COM6,508,24-Apr-18,2018-04-24 00:00:00,0.48015254237287996,0.46722033898305,0.44147457627118997,0.43618644067796997,0.42230508474576006,0.40864406779661,0.42164406779661,5
COM6,508,24-Apr-18,2018-04-24 01:00:00,0.92945,0.9707,0.94043333333333,0.9458,0.93081666666667,0.93168333333333,0.96603333333333,5
COM6,508,24-Apr-18,2018-04-24 02:00:00,0.44101666666667,0.42571666666667,0.40226666666667,0.39626666666667,0.3816,0.36715,0.37738333333333,5
COM6,508,24-Apr-18,2018-04-24 03:00:00,0.34248333333333003,0.3344,0.31535,0.31286666666667,0.29835,0.28156666666667,0.28865,5
COM6,508,24-Apr-18,2018-04-24 04:00:00,0.29388333333333,0.28558333333333,0.27025,0.2661,0.25661666666667005,0.24275,0.24898333333332998,5
COM6,508,24-Apr-18,2018-04-24 05:00:00,0.14073333333333,0.13601666666667,0.1262,0.12436666666667,0.11511666666666999,0.10471666666667,0.10731666666666999,5
COM6,508,24-Apr-18,2018-04-24 06:00:00,0.24923333333332998,0.23918333333332997,0.22356666666667002,0.2206,0.21088333333332998,0.20118333333332997,0.20675,5
COM6,508,24-Apr-18,2018-04-24 07:00:00,0.18608333333332996,0.16631666666667003,0.15408333333333,0.14643333333332997,0.14073333333333,0.12945,0.13348333333333,5
COM6,508,24-Apr-18,2018-04-24 08:00:00,0.26946666666667,0.25145,0.23001666666667003,0.22475,0.21616666666667003,0.19836666666667002,0.20368333333332997,5
COM6,508,24-Apr-18,2018-04-24 09:00:00,0.19408333333332997,0.17946666666667002,0.16615,0.16115,0.15111666666667,0.14356666666667,0.14635,5
COM6,508,24-Apr-18,2018-04-24 10:00:00,0.31821666666667,0.3043,0.28523333333333,0.28163333333333,0.26665,0.25048333333332995,0.2565,5
COM6,508,24-Apr-18,2018-04-24 11:00:00,0.3252,0.30858333333333,0.28748333333333,0.28103333333333,0.26755,0.24966666666667003,0.25606666666667005,5
COM6,508,24-Apr-18,2018-04-24 12:00:00,0.2945,0.27111666666667006,0.25315,0.24716666666667003,0.23551666666667004,0.22058333333332997,0.2261,5
COM6,508,24-Apr-18,2018-04-24 13:00:00,0.30953333333333,0.28443333333333,0.26381666666667003,0.25438333333332996,0.24395,0.22315,0.22916666666667004,5
COM6,508,24-Apr-18,2018-04-24 14:00:00,0.31368333333333,0.28298333333333,0.26336666666667,0.25276666666667,0.24255,0.22193333333332996,0.22988333333332997,5
COM6,508,24-Apr-18,2018-04-24 15:00:00,0.3059,0.27898333333333003,0.2586,0.24758333333332996,0.23923333333332997,0.2191,0.22683333333332997,5
COM6,508,24-Apr-18,2018-04-24 16:00:00,0.34208333333333,0.31925,0.2981,0.28943333333333,0.27686666666667,0.25928333333333,0.26673333333333,5
COM6,508,24-Apr-18,2018-04-24 17:00:00,0.4445,0.43535,0.41208333333333,0.4089,0.39165,0.37173333333333003,0.38158333333333,5
COM6,508,24-Apr-18,2018-04-24 18:00:00,0.41558333333333003,0.40835,0.3864,0.37976666666666997,0.3663,0.33951666666667,0.34976666666667,5
COM6,508,24-Apr-18,2018-04-24 19:00:00,0.2845,0.2633,0.24365,0.23728333333332996,0.2208,0.18735,0.19105,5
COM6,508,24-Apr-18,2018-04-24 20:00:00,0.12428333333333001,0.11288333333333,0.10213333333333001,0.0977,0.089483333333333,0.07823333333333299,0.080533333333333,5
COM6,508,24-Apr-18,2018-04-24 21:00:00,0.11308333333333001,0.097716666666667,0.089933333333333,0.08466666666666701,0.0794,0.069516666666667,0.072266666666667,5
COM6,508,24-Apr-18,2018-04-24 22:00:00,0.10216666666667,0.08938333333333301,0.08025,0.07875,0.0713,0.064916666666667,0.066,5
COM6,508,24-Apr-18,2018-04-24 23:00:00,0.20388333333332997,0.17145,0.1527,0.14316666666667002,0.13435,0.12796666666667,0.12983333333333,5
