COM4,508,27-Apr-19,2019-04-27 00:00:00,0.15623728813558999,0.13794915254237,0.12862711864407,0.12198305084746001,0.12061016949153,0.11059322033898,0.11622033898305001,5
COM4,508,27-Apr-19,2019-04-27 01:00:00,0.12901666666667,0.11491666666667,0.10716666666666999,0.10126666666666999,0.10026666666667,0.09055,0.094583333333333,5
COM4,508,27-Apr-19,2019-04-27 02:00:00,0.15505,0.14623333333333,0.13731666666667,0.13188333333333,0.13046666666667,0.12213333333333,0.12736666666667,5
COM4,508,27-Apr-19,2019-04-27 03:00:00,0.13195,0.12143333333333,0.11358333333333001,0.10868333333333001,0.10598333333333,0.09733333333333301,0.1017,5
COM4,508,27-Apr-19,2019-04-27 04:00:00,0.13551666666667,0.12311666666667,0.11448333333333001,0.10813333333333,0.1053,0.09815,0.10096666666667,5
COM4,508,27-Apr-19,2019-04-27 05:00:00,0.1633,0.14801666666667002,0.138,0.13375,0.12708333333333,0.1164,0.11998333333333,5
COM4,508,27-Apr-19,2019-04-27 06:00:00,0.1917,0.17923333333332997,0.1661,0.1609,0.15331666666667002,0.14258333333332998,0.14598333333333,5
COM4,508,27-Apr-19,2019-04-27 07:00:00,0.17693333333332997,0.16895,0.15858333333333,0.15325,0.1481,0.13966666666667002,0.14308333333332998,5
COM4,508,27-Apr-19,2019-04-27 08:00:00,0.48828333333333,0.47566666666667,0.44945,0.44335,0.42975,0.41398333333333,0.42768333333333003,5
COM4,508,27-Apr-19,2019-04-27 09:00:00,0.45295,0.43615,0.41031666666667,0.40298333333333003,0.3913,0.37448333333333,0.3865,5
COM4,508,27-Apr-19,2019-04-27 10:00:00,0.31961666666667,0.30755,0.28996666666667,0.28358333333333,0.27399999999999997,0.25826666666667003,0.26708333333332995,5
COM4,508,27-Apr-19,2019-04-27 11:00:00,0.2858,0.26575,0.248,0.24153333333332996,0.23315,0.22146666666667003,0.22875,5
COM4,508,27-Apr-19,2019-04-27 12:00:00,0.20925,0.19393333333332996,0.18091666666667003,0.17501666666667004,0.16905,0.15856666666667002,0.16275,5
COM4,508,27-Apr-19,2019-04-27 13:00:00,0.21973333333332998,0.21228333333332997,0.20061666666667002,0.19545,0.19006666666667002,0.18121666666667002,0.18696666666667003,5
COM4,508,27-Apr-19,2019-04-27 14:00:00,0.27443333333333,0.26221666666667004,0.24816666666667003,0.24298333333332997,0.23608333333332998,0.2211,0.2294,5
COM4,508,27-Apr-19,2019-04-27 15:00:00,0.30471666666667,0.2837,0.26725,0.25921666666667004,0.25311666666667004,0.24121666666667002,0.2508,5
COM4,508,27-Apr-19,2019-04-27 16:00:00,0.19748333333332996,0.17998333333332997,0.16806666666667003,0.16203333333332998,0.15763333333333,0.1483,0.15395,5
COM4,508,27-Apr-19,2019-04-27 17:00:00,0.17708333333332996,0.16286666666667002,0.15335,0.14761666666667,0.14348333333333,0.1324,0.1372,5
COM4,508,27-Apr-19,2019-04-27 18:00:00,0.1676,0.1538,0.14338333333332998,0.13688333333333,0.13211666666667,0.11968333333333,0.1236,5
COM4,508,27-Apr-19,2019-04-27 19:00:00,0.57921666666667,0.47913333333333,0.43496666666667,0.41391666666667,0.39065,0.35441666666667,0.3629,5
COM4,508,27-Apr-19,2019-04-27 20:00:00,0.8632,0.78741666666667,0.73971666666667,0.72188333333333,0.69085,0.6416,0.6601333333333299,5
COM4,508,27-Apr-19,2019-04-27 21:00:00,0.80661666666667,0.74623333333333,0.70388333333333,0.69068333333333,0.6641333333333299,0.621,0.63933333333333,5
COM4,508,27-Apr-19,2019-04-27 22:00:00,0.3296,0.27345,0.2487,0.2376,0.22116666666667004,0.2029,0.20725,5
COM4,508,27-Apr-19,2019-04-27 23:00:00,1.2215833333333002,0.6783,0.55675,0.4883,0.42925,0.35381666666667,0.35773333333333,5
