COM6,508,04-Jan-18,2018-01-04 00:00:00,0.6933389830508501,0.6868135593220301,0.6481186440678001,0.63723728813559,0.6122203389830501,0.59071186440678,0.608,5.0
COM6,508,04-Jan-18,2018-01-04 01:00:00,0.6368333333333299,0.6401833333333299,0.6037666666666701,0.5945,0.5713,0.5502833333333299,0.56525,5.0
COM6,508,04-Jan-18,2018-01-04 02:00:00,0.5878166666666701,0.5803,0.546,0.53708333333333,0.51373333333333,0.49403333333333,0.50773333333333,5.0
COM6,508,04-Jan-18,2018-01-04 03:00:00,0.74408333333333,0.71965,0.68161666666667,0.67225,0.64648333333333,0.62695,0.644,5.0
COM6,508,04-Jan-18,2018-01-04 04:00:00,0.65338333333333,0.6140666666666701,0.5789,0.5685833333333299,0.5448,0.52313333333333,0.53756666666667,5.0
COM6,508,04-Jan-18,2018-01-04 05:00:00,1.8471333333333,1.83225,1.77585,1.78745,1.7477166666667,1.7516833333333,1.8088666666667,5.0
COM6,508,04-Jan-18,2018-01-04 06:00:00,1.6471333333333,1.52505,1.44515,1.4255,1.3637,1.3078666666667,1.3417833333333,5.0
COM6,508,04-Jan-18,2018-01-04 07:00:00,2.28265,2.0940666666667,1.98075,1.9540666666667,1.8654,1.79145,1.8376,5.0
COM6,508,04-Jan-18,2018-01-04 08:00:00,3.7239,3.42765,3.24995,3.2173333333332996,3.0760333333333,2.96775,3.0441666666667,5.0
COM6,508,04-Jan-18,2018-01-04 09:00:00,8.1359,7.4766,7.0564166666667,6.96825,6.63115,6.373466666666699,6.5257833333333,5.0
COM6,508,04-Jan-18,2018-01-04 10:00:00,7.726716666666699,7.0951666666666995,6.6728333333333,6.560966666666699,6.1687166666666995,5.79105,5.8996166666667,5.0
COM6,508,04-Jan-18,2018-01-04 11:00:00,5.12035,4.6132833333333,4.2451666666667,4.1008666666667,3.7843333333333,3.4344333333333,3.4774833333333,5.0
COM6,508,04-Jan-18,2018-01-04 12:00:00,3.0264166666667003,2.7547,2.5510666666667,2.4523,2.2853166666667004,2.0754833333333003,2.1164666666667,4.6666666666667
COM6,508,04-Jan-18,2018-01-04 13:00:00,2.0055833333333,1.8354166666667,1.7446166666667,1.7189833333333,1.6687333333333,1.6099833333333,1.6599166666667,5.0
COM6,508,04-Jan-18,2018-01-04 14:00:00,1.8979,1.7704333333333,1.6850333333333,1.6605666666667,1.6136833333333,1.5602333333333,1.61175,5.0
COM6,508,04-Jan-18,2018-01-04 15:00:00,1.6028333333333,1.6139833333333,1.5497666666667,1.5330833333333,1.4966666666667,1.4559333333333,1.5046333333333,5.0
COM6,508,04-Jan-18,2018-01-04 16:00:00,1.7402333333333,1.7909833333333,1.72715,1.7132833333333,1.6740166666667,1.6240833333333,1.6798333333333,5.0
COM6,508,04-Jan-18,2018-01-04 17:00:00,2.3874833333332997,2.3993333333332996,2.3139833333333,2.30225,2.24655,2.1965666666667,2.2721,5.0
COM6,508,04-Jan-18,2018-01-04 18:00:00,2.6723333333332997,2.614,2.5172,2.5034833333332998,2.4272666666667004,2.3673833333333,2.4424,5.0
COM6,508,04-Jan-18,2018-01-04 19:00:00,2.7773833333332996,2.6894333333333,2.5854833333332996,2.5729333333332995,2.4879,2.4243333333333,2.4969666666667,5.0
COM6,508,04-Jan-18,2018-01-04 20:00:00,3.3845833333332997,3.1706,3.0278833333332997,2.9990666666667,2.8814833333333,2.77805,2.8543166666667004,5.0
COM6,508,04-Jan-18,2018-01-04 21:00:00,3.3761166666667,3.0015166666667,2.8309333333332996,2.7770333333333,2.6467166666667,2.5196833333332997,2.5820833333332995,5.0
COM6,508,04-Jan-18,2018-01-04 22:00:00,3.6345333333333,3.2513,3.0576833333332996,2.9903166666667,2.8375,2.6868333333332997,2.7517333333333,5.0
COM6,508,04-Jan-18,2018-01-04 23:00:00,3.7811818181817998,3.2383818181817996,3.0001636363635997,2.9083454545455,2.7355272727273,2.5500181818182,2.6062363636363997,5.0
