COM6,508,20-Jul-18,2018-07-20 00:00:00,0.36054237288136,0.41308474576271004,0.42442372881356,0.44752542372881005,0.45220338983051,0.47157627118643997,0.48744067796609997,5.0
COM6,508,20-Jul-18,2018-07-20 01:00:00,0.39593333333333003,0.3592,0.33315,0.32848333333333,0.30438333333333,0.2788,0.28335,5.0
COM6,508,20-Jul-18,2018-07-20 02:00:00,0.38856666666667,0.2772,0.25335,0.24926666666667002,0.23321666666667004,0.21811666666667004,0.22475,4.6666666666667
COM6,508,20-Jul-18,2018-07-20 03:00:00,0.20296666666667004,0.16481666666667003,0.15028333333333,0.14763333333332998,0.13623333333333001,0.12575,0.12686666666666999,5.0
COM6,508,20-Jul-18,2018-07-20 04:00:00,0.23341666666667002,0.20075,0.18436666666667004,0.1803,0.16908333333332998,0.15805,0.15991666666667,5.0
COM6,508,20-Jul-18,2018-07-20 05:00:00,0.54401666666667,0.51798333333333,0.48866666666666997,0.4819,0.46396666666666997,0.44553333333333,0.45671666666667,5.0
COM6,508,20-Jul-18,2018-07-20 06:00:00,1.1123833333333,1.1118166666667,1.0601333333333,1.0510166666667,1.0232166666667,0.99378333333333,1.0235,5.0
COM6,508,20-Jul-18,2018-07-20 07:00:00,0.70195,0.6922,0.6586166666666701,0.65158333333333,0.6312,0.6036,0.62095,5.0
COM6,508,20-Jul-18,2018-07-20 08:00:00,1.1950833333333,1.2085666666666999,1.15655,1.1484666666667,1.11895,1.0871666666667,1.12095,5.0
COM6,508,20-Jul-18,2018-07-20 09:00:00,0.86268333333333,0.86861666666667,0.83333333333333,0.82853333333333,0.8059999999999999,0.7771,0.7986,5.0
COM6,508,20-Jul-18,2018-07-20 10:00:00,1.0629166666667,1.0600166666667,1.0108833333333,1.0019833333333001,0.97138333333333,0.92531666666667,0.95168333333333,5.0
COM6,508,20-Jul-18,2018-07-20 11:00:00,0.95971666666667,0.9685,0.93118333333333,0.92561666666667,0.90291666666667,0.87915,0.90578333333333,5.0
COM6,508,20-Jul-18,2018-07-20 12:00:00,0.81681666666667,0.82568333333333,0.79631666666667,0.79503333333333,0.77233333333333,0.74473333333333,0.76531666666667,5.0
COM6,508,20-Jul-18,2018-07-20 13:00:00,0.77286666666667,0.7756833333333301,0.743,0.73998333333333,0.71738333333333,0.69046666666667,0.71051666666667,5.0
COM6,508,20-Jul-18,2018-07-20 14:00:00,0.70475,0.74726666666667,0.7367,0.74888333333333,0.73936666666667,0.7298,0.74958333333333,5.0
COM6,508,20-Jul-18,2018-07-20 15:00:00,0.8183,0.84388333333333,0.82546666666667,0.8369,0.82365,0.81006666666667,0.8337,5.0
COM6,508,20-Jul-18,2018-07-20 16:00:00,1.5550666666667,1.58925,1.5277666666667,1.5251166666667,1.4792166666667,1.4247333333333,1.4655333333333,5.0
COM6,508,20-Jul-18,2018-07-20 17:00:00,1.1014666666667,1.0742833333333,1.0183,1.0067166666667,0.96435,0.90276666666667,0.92566666666667,5.0
COM6,508,20-Jul-18,2018-07-20 18:00:00,1.5560166666667,1.5909833333333,1.5347833333333,1.5381166666666999,1.4942166666667,1.4444166666667,1.4847166666667,5.0
COM6,508,20-Jul-18,2018-07-20 19:00:00,0.94626666666667,0.89026666666667,0.83361666666667,0.81928333333333,0.78028333333333,0.7179,0.7336,5.0
COM6,508,20-Jul-18,2018-07-20 20:00:00,0.92683333333333,0.82346666666667,0.75401666666667,0.72173333333333,0.66878333333333,0.5939,0.60308333333333,5.0
COM6,508,20-Jul-18,2018-07-20 21:00:00,1.1554166666666998,1.0016666666667,0.9097833333333301,0.87196666666667,0.80628333333333,0.71025,0.7222833333333301,5.0
COM6,508,20-Jul-18,2018-07-20 22:00:00,0.73871666666667,0.61995,0.5583,0.52961666666667,0.48581666666667,0.4203,0.42471666666667,5.0
COM6,508,20-Jul-18,2018-07-20 23:00:00,0.6732711864406801,0.55691525423729,0.5038813559322001,0.47993220338983,0.44154237288136,0.38710169491525004,0.39201694915254,5.0
