COM4,508,28-May-19,2019-05-28 00:00:00,0.14345762711864002,0.10849152542373,0.09384745762711902,0.08808474576271198,0.078847457627119,0.07035593220339,0.070813559322034,5
COM4,508,28-May-19,2019-05-28 01:00:00,0.0868,0.080616666666667,0.071,0.0726,0.06215,0.058333333333333,0.05735,5
COM4,508,28-May-19,2019-05-28 02:00:00,0.05053333333333301,0.05745,0.05235,0.055,0.045516666666667,0.043016666666666994,0.04195,5
COM4,508,28-May-19,2019-05-28 03:00:00,0.15111666666667,0.14778333333333,0.13683333333333,0.13528333333333,0.12653333333333,0.12145,0.12256666666666999,5
COM4,508,28-May-19,2019-05-28 04:00:00,0.14938333333332998,0.1476,0.13988333333332997,0.14005,0.12971666666667,0.1199,0.12125,5
COM4,508,28-May-19,2019-05-28 05:00:00,0.11095,0.1042,0.0957,0.09371666666666699,0.08771666666666701,0.078783333333333,0.079266666666667,5
COM4,508,28-May-19,2019-05-28 06:00:00,0.1256,0.12051666666666999,0.11185,0.10863333333333,0.10185,0.095416666666667,0.0974,5
COM4,508,28-May-19,2019-05-28 07:00:00,0.21976666666667002,0.20738333333332998,0.19203333333332998,0.18715,0.17741666666667003,0.16365,0.16706666666667,5
COM4,508,28-May-19,2019-05-28 08:00:00,0.35728333333333,0.33856666666667,0.31565,0.30956666666667,0.29388333333333,0.27791666666667,0.28366666666667,5
COM4,508,28-May-19,2019-05-28 09:00:00,0.53973333333333,0.52623333333333,0.498,0.49021666666667,0.46998333333333,0.44731666666666997,0.45851666666667,5
COM4,508,28-May-19,2019-05-28 10:00:00,0.5355,0.53026666666667,0.50195,0.49641666666667,0.47546666666667,0.45153333333333,0.4625,5
COM4,508,28-May-19,2019-05-28 11:00:00,0.48825,0.48815,0.46799999999999997,0.4667,0.45035,0.43308333333333,0.44433333333333,5
COM4,508,28-May-19,2019-05-28 12:00:00,0.35298333333333,0.35216666666667,0.33163333333333,0.32575,0.31321666666667,0.29525,0.30168333333333003,5
COM4,508,28-May-19,2019-05-28 13:00:00,0.20958333333332996,0.20716666666667002,0.19435,0.19036666666667004,0.18046666666667002,0.16661666666667002,0.17033333333332998,5
COM4,508,28-May-19,2019-05-28 14:00:00,0.26408333333332995,0.2603,0.247,0.24358333333332996,0.23163333333332997,0.21535,0.22045,5
COM4,508,28-May-19,2019-05-28 15:00:00,0.44626666666667,0.42921666666667,0.40035,0.39131666666667,0.37278333333333,0.34885,0.35743333333333,5
COM4,508,28-May-19,2019-05-28 16:00:00,0.29821666666667,0.28866666666667,0.2716,0.26465,0.25226666666667,0.23248333333332996,0.23818333333332997,5
COM4,508,28-May-19,2019-05-28 17:00:00,0.3412,0.31928333333333003,0.29571666666667,0.28628333333333,0.2708,0.25028333333332997,0.25656666666667005,5
COM4,508,28-May-19,2019-05-28 18:00:00,0.29783333333333,0.2777,0.25781666666667,0.24853333333332997,0.23593333333332997,0.22108333333332997,0.22693333333332996,5
COM4,508,28-May-19,2019-05-28 19:00:00,1.0502666666667,0.75275,0.6519833333333299,0.6075333333333299,0.55321666666667,0.48386666666667,0.49096666666667,5
COM4,508,28-May-19,2019-05-28 20:00:00,0.11798333333333001,0.12195,0.11378333333333,0.11143333333333001,0.10616666666666999,0.099883333333333,0.10116666666667,5
COM4,508,28-May-19,2019-05-28 21:00:00,0.91626666666667,0.51915,0.42563333333333003,0.38755,0.34561666666667,0.29456666666667,0.2972,5
COM4,508,28-May-19,2019-05-28 22:00:00,0.33555,0.26153333333332995,0.2366,0.22535,0.2106,0.19278333333332998,0.19583333333332997,5
COM4,508,28-May-19,2019-05-28 23:00:00,0.6308,0.58131666666667,0.5361,0.52453333333333,0.49375,0.46303333333333,0.47361666666667,5
