COM4,508,15-May-19,2019-05-15 00:00:00,0.20811864406779998,0.16632203389831,0.15130508474576,0.13628813559322,0.13150847457627,0.10708474576271002,0.11167796610169001,5.0
COM4,508,15-May-19,2019-05-15 01:00:00,0.19456666666667002,0.1566,0.13965,0.12371666666667,0.12158333333333,0.09885,0.1037,5.0
COM4,508,15-May-19,2019-05-15 02:00:00,0.18783333333332997,0.15233333333333,0.13606666666667,0.12113333333333001,0.11581666666667,0.097066666666667,0.09998333333333301,5.0
COM4,508,15-May-19,2019-05-15 03:00:00,0.18665,0.15431666666667002,0.13793333333333,0.12493333333333001,0.12193333333333001,0.10053333333333,0.10476666666666999,5.0
COM4,508,15-May-19,2019-05-15 04:00:00,0.20271666666667004,0.17023333333332996,0.15213333333332998,0.14146666666667002,0.13073333333333,0.11323333333333001,0.11558333333333,5.0
COM4,508,15-May-19,2019-05-15 05:00:00,0.2106,0.18105,0.16433333333333,0.15486666666667,0.14318333333333,0.12548333333333,0.12753333333333,5.0
COM4,508,15-May-19,2019-05-15 06:00:00,0.26011666666667005,0.23218333333332997,0.21083333333332996,0.19923333333332996,0.18726666666667002,0.16775,0.16945,5.0
COM4,508,15-May-19,2019-05-15 07:00:00,0.25893333333332996,0.2339,0.21265,0.20385,0.19028333333332997,0.17123333333332996,0.17396666666667004,5.0
COM4,508,15-May-19,2019-05-15 08:00:00,0.30566666666667,0.27305,0.2503,0.23855,0.22433333333332997,0.20218333333332997,0.2071,5.0
COM4,508,15-May-19,2019-05-15 09:00:00,0.41171666666667,0.38258333333333,0.3494,0.33691666666667,0.31563333333333,0.29166666666667,0.29843333333333,5.0
COM4,508,15-May-19,2019-05-15 10:00:00,0.31831666666666997,0.28643333333333,0.25846666666667,0.2483,0.23125,0.20891666666667003,0.21313333333332996,5.0
COM4,508,15-May-19,2019-05-15 11:00:00,0.30158333333333,0.27193333333333,0.24783333333332996,0.2385,0.22211666666667004,0.19803333333332998,0.20238333333332997,5.0
COM4,508,15-May-19,2019-05-15 12:00:00,0.30725,0.27306666666667,0.2487,0.23543333333332997,0.2217,0.1997,0.20416666666667002,5.0
COM4,508,15-May-19,2019-05-15 13:00:00,0.33806666666667,0.2936,0.26413333333332994,0.2488,0.2343,0.21153333333332996,0.21728333333332997,5.0
COM4,508,15-May-19,2019-05-15 14:00:00,0.3382,0.29223333333333,0.26156666666667006,0.2468,0.22975,0.20991666666667003,0.21501666666667002,5.0
COM4,508,15-May-19,2019-05-15 15:00:00,0.37913333333333,0.33458333333333,0.30213333333333,0.28961666666667,0.26925,0.24668333333332998,0.25018333333333,5.0
COM4,508,15-May-19,2019-05-15 16:00:00,0.42701666666667,0.39198333333333,0.35573333333333,0.34241666666667,0.31696666666667,0.29488333333333,0.30118333333333003,5.0
COM4,508,15-May-19,2019-05-15 17:00:00,0.35893333333333,0.32208333333333,0.29183333333333,0.28215,0.2621,0.2407,0.24365,5.0
COM4,508,15-May-19,2019-05-15 18:00:00,0.31565,0.28125,0.2548,0.2484,0.2263,0.20646666666667005,0.20963333333332998,5.0
COM4,508,15-May-19,2019-05-15 19:00:00,0.2833,0.24781666666667004,0.22435,0.21091666666667003,0.19806666666667003,0.17988333333332998,0.18278333333332997,5.0
COM4,508,15-May-19,2019-05-15 20:00:00,0.28106666666667,0.24928333333332997,0.22786666666667002,0.21783333333332996,0.20323333333332996,0.18336666666667004,0.18628333333332997,5.0
COM4,508,15-May-19,2019-05-15 21:00:00,0.23800000000000002,0.2038,0.18238333333332996,0.1757,0.16116666666667,0.14485,0.14551666666667,5.0
COM4,508,15-May-19,2019-05-15 22:00:00,0.23256666666667003,0.20456666666667003,0.18561666666667004,0.17621666666667002,0.1637,0.14536666666667,0.14806666666667,5.0
COM4,508,15-May-19,2019-05-15 23:00:00,0.22491666666667004,0.15596666666667,0.14425,0.14063333333332997,0.1365,0.12866666666666998,0.13536666666667,4.6666666666667
