COM4,508,14-Feb-20,2020-02-14 00:00:00,0.4776724137931,0.35908620689654996,0.31479310344828004,0.29927586206897,0.26637931034483,0.2383275862069,0.24034482758621,5.0
COM4,508,14-Feb-20,2020-02-14 01:00:00,0.31548333333333,0.23023333333332996,0.19795,0.18963333333332996,0.16611666666667002,0.15143333333332998,0.1493,5.0
COM4,508,14-Feb-20,2020-02-14 02:00:00,0.13276666666667,0.11706666666667,0.10213333333333001,0.097516666666667,0.08528333333333299,0.077283333333333,0.0782,5.0
COM4,508,14-Feb-20,2020-02-14 03:00:00,0.2969,0.22853333333332998,0.20158333333332998,0.18875,0.17026666666667004,0.14925,0.14938333333332998,5.0
COM4,508,14-Feb-20,2020-02-14 04:00:00,0.10216666666667,0.11428333333333,0.1063,0.10445,0.09733333333333301,0.08698333333333298,0.08713333333333298,5.0
COM4,508,14-Feb-20,2020-02-14 05:00:00,0.27121666666667005,0.25175,0.22946666666667004,0.22003333333332997,0.20411666666667003,0.19131666666667002,0.195,5.0
COM4,508,14-Feb-20,2020-02-14 06:00:00,0.52485,0.46951666666666997,0.42731666666667,0.41395,0.38531666666666997,0.3545,0.36181666666667,5.0
COM4,508,14-Feb-20,2020-02-14 07:00:00,1.1652666666667,1.0422,0.95103333333333,0.91451666666667,0.85408333333333,0.79125,0.8064,5.0
COM4,508,14-Feb-20,2020-02-14 08:00:00,0.7194,0.6829833333333301,0.6267833333333299,0.60533333333333,0.56416666666667,0.5167,0.5295,5.0
COM4,508,14-Feb-20,2020-02-14 09:00:00,0.51073333333333,0.50558333333333,0.4617,0.43935,0.41368333333333,0.3779,0.38791666666667,5.0
COM4,508,14-Feb-20,2020-02-14 10:00:00,0.79351666666667,0.69866666666667,0.6465666666666701,0.6002666666666701,0.5830166666666701,0.52351666666667,0.54248333333333,5.0
COM4,508,14-Feb-20,2020-02-14 11:00:00,1.0002666666667,0.85173333333333,0.79831666666667,0.7689,0.75446666666667,0.70988333333333,0.74003333333333,4.6666666666667
COM4,508,14-Feb-20,2020-02-14 12:00:00,0.75605,0.6341166666666701,0.60228333333333,0.59155,0.5825,0.5676,0.58915,5.0
COM4,508,14-Feb-20,2020-02-14 13:00:00,0.44053333333333,0.45906666666667,0.43558333333333,0.42895,0.4214,0.41221666666667,0.42758333333333,5.0
COM4,508,14-Feb-20,2020-02-14 14:00:00,0.32413333333333,0.34228333333333,0.32523333333333,0.31956666666667,0.31351666666667,0.3039,0.31413333333333,5.0
COM4,508,14-Feb-20,2020-02-14 15:00:00,0.32145,0.33066666666667,0.31418333333333,0.30895,0.30308333333333,0.2929,0.30393333333333,5.0
COM4,508,14-Feb-20,2020-02-14 16:00:00,0.40868333333333,0.41615,0.39721666666667,0.3928,0.38656666666667,0.38163333333333,0.3958,5.0
COM4,508,14-Feb-20,2020-02-14 17:00:00,0.5337833333333301,0.53708333333333,0.51173333333333,0.50595,0.49595,0.48466666666667,0.50201666666667,5.0
COM4,508,14-Feb-20,2020-02-14 18:00:00,0.67355,0.61723333333333,0.5800166666666701,0.5666,0.54863333333333,0.52813333333333,0.54528333333333,5.0
COM4,508,14-Feb-20,2020-02-14 19:00:00,0.4619,0.47265,0.45105,0.44511666666667,0.43328333333333,0.42571666666667,0.43868333333333,5.0
COM4,508,14-Feb-20,2020-02-14 20:00:00,0.5797166666666701,0.52245,0.48861666666667,0.47983333333333,0.45846666666667,0.4435,0.45468333333333,5.0
COM4,508,14-Feb-20,2020-02-14 21:00:00,0.5589,0.48826666666667,0.45108333333333,0.44335,0.41843333333333,0.39998333333333,0.4077,5.0
COM4,508,14-Feb-20,2020-02-14 22:00:00,0.5534833333333299,0.44671666666667,0.40728333333333,0.39926666666667,0.37181666666667,0.3567,0.36345,5.0
COM4,508,14-Feb-20,2020-02-14 23:00:00,0.5913333333333299,0.43121666666666997,0.38358333333333,0.3731,0.34546666666667,0.32698333333333,0.33093333333333,5.0
