COM4,508,07-Sep-19,2019-09-07 00:00:00,0.24820338983051002,0.21559322033897999,0.19667796610169,0.19115254237288,0.17937288135593002,0.16318644067797,0.16603389830508,5.0
COM4,508,07-Sep-19,2019-09-07 01:00:00,0.18038333333332998,0.15686666666667,0.14328333333333,0.13683333333333,0.12598333333333,0.11046666666666999,0.11205,5.0
COM4,508,07-Sep-19,2019-09-07 02:00:00,0.18425,0.161,0.14841666666667,0.14211666666667,0.13316666666666999,0.11838333333333001,0.12063333333333001,5.0
COM4,508,07-Sep-19,2019-09-07 03:00:00,0.18486666666667004,0.16381666666667002,0.14863333333332998,0.14601666666667001,0.13511666666667,0.11998333333333,0.12093333333333,5.0
COM4,508,07-Sep-19,2019-09-07 04:00:00,0.23755,0.20781666666667004,0.19101666666667003,0.18741666666667003,0.17413333333332998,0.16028333333332997,0.16378333333332998,5.0
COM4,508,07-Sep-19,2019-09-07 05:00:00,0.20795,0.18365,0.16765,0.16146666666667,0.14983333333333,0.133,0.13533333333333,5.0
COM4,508,07-Sep-19,2019-09-07 06:00:00,0.3139,0.2758,0.2524,0.24433333333332996,0.2276,0.20176666666667004,0.20536666666667003,5.0
COM4,508,07-Sep-19,2019-09-07 07:00:00,0.74368333333333,0.68351666666667,0.62818333333333,0.6117666666666701,0.57283333333333,0.51898333333333,0.5295,5.0
COM4,508,07-Sep-19,2019-09-07 08:00:00,0.69223333333333,0.6449833333333299,0.5930666666666701,0.5792333333333299,0.5378166666666699,0.48403333333333,0.49221666666667,5.0
COM4,508,07-Sep-19,2019-09-07 09:00:00,1.0278,0.95628333333333,0.88411666666667,0.86503333333333,0.81163333333333,0.7422,0.75528333333333,5.0
COM4,508,07-Sep-19,2019-09-07 10:00:00,0.74073333333333,0.69196666666667,0.6388,0.6271666666666701,0.58613333333333,0.53318333333333,0.54155,5.0
COM4,508,07-Sep-19,2019-09-07 11:00:00,0.61871666666667,0.5817833333333299,0.53898333333333,0.53195,0.49698333333333,0.45348333333333,0.46111666666667,5.0
COM4,508,07-Sep-19,2019-09-07 12:00:00,0.41551666666667,0.37945,0.34846666666667,0.33733333333333,0.31561666666667,0.28115,0.28571666666667,5.0
COM4,508,07-Sep-19,2019-09-07 13:00:00,0.40663333333333,0.34718333333333,0.31036666666667,0.29418333333333,0.27215,0.23038333333332997,0.23466666666667002,5.0
COM4,508,07-Sep-19,2019-09-07 14:00:00,0.86923333333333,0.62223333333333,0.53721666666667,0.49975,0.45993333333333003,0.39705,0.40775,4.6666666666667
COM4,508,07-Sep-19,2019-09-07 15:00:00,0.92108333333333,0.6009166666666701,0.51891666666667,0.48695,0.45446666666667,0.40201666666667,0.4098,5.0
COM4,508,07-Sep-19,2019-09-07 16:00:00,0.79448333333333,0.61515,0.54346666666667,0.5157,0.48806666666667,0.44718333333333,0.45731666666667,5.0
COM4,508,07-Sep-19,2019-09-07 17:00:00,0.6919,0.55783333333333,0.49245,0.46673333333333,0.43923333333333,0.39518333333333,0.40371666666667,5.0
COM4,508,07-Sep-19,2019-09-07 18:00:00,0.73313333333333,0.6102,0.54378333333333,0.51588333333333,0.48681666666667,0.44065,0.45101666666667,5.0
COM4,508,07-Sep-19,2019-09-07 19:00:00,0.29825,0.26078333333333,0.23816666666667002,0.22878333333332998,0.21785,0.20061666666667002,0.20525,5.0
COM4,508,07-Sep-19,2019-09-07 20:00:00,0.33603333333333,0.28368333333333,0.25753333333332995,0.24631666666667004,0.23323333333332996,0.21416666666667003,0.21973333333332998,5.0
COM4,508,07-Sep-19,2019-09-07 21:00:00,0.26523333333333,0.22748333333332996,0.20645,0.1993,0.18908333333332997,0.1727,0.17688333333332998,5.0
COM4,508,07-Sep-19,2019-09-07 22:00:00,0.92476666666667,0.87101666666667,0.81488333333333,0.79875,0.77,0.7329,0.75418333333333,5.0
COM4,508,07-Sep-19,2019-09-07 23:00:00,1.3751,1.2854333333333001,1.2110833333333,1.1951833333333,1.1595333333333,1.11095,1.1445,5.0
