COM6,508,23-Sep-18,2018-09-23 00:00:00,0.086338983050847,0.091203389830508,0.08715254237288099,0.082796610169492,0.082983050847458,0.077881355932203,0.081898305084746,5
COM6,508,23-Sep-18,2018-09-23 01:00:00,0.12468333333333001,0.11628333333333,0.10816666666666999,0.10341666666667,0.10058333333333,0.097883333333333,0.10258333333333,5
COM6,508,23-Sep-18,2018-09-23 02:00:00,0.22183333333332997,0.2013,0.18723333333332998,0.18033333333332996,0.17415,0.1656,0.17046666666667004,5
COM6,508,23-Sep-18,2018-09-23 03:00:00,0.18195,0.15965,0.14723333333333,0.13683333333333,0.13021666666667,0.11723333333333001,0.12161666666667,5
COM6,508,23-Sep-18,2018-09-23 04:00:00,0.13795,0.1286,0.12,0.11496666666666999,0.11268333333333,0.10698333333333,0.10978333333333,5
COM6,508,23-Sep-18,2018-09-23 05:00:00,0.20136666666667002,0.1918,0.18248333333332997,0.17881666666667004,0.17678333333332996,0.17335,0.18058333333332996,5
COM6,508,23-Sep-18,2018-09-23 06:00:00,0.15295,0.13803333333332998,0.12833333333333,0.12376666666667,0.11975,0.113,0.1171,5
COM6,508,23-Sep-18,2018-09-23 07:00:00,0.46886666666667,0.4389,0.41441666666667,0.40203333333333,0.39105,0.38288333333333,0.3967,5
COM6,508,23-Sep-18,2018-09-23 08:00:00,0.3781,0.4022,0.38921666666667,0.39375,0.3835,0.37981666666667,0.39163333333333,5
COM6,508,23-Sep-18,2018-09-23 09:00:00,0.15798333333332998,0.15516666666667,0.14361666666667,0.14276666666667,0.13255,0.12668333333333,0.12976666666667,5
COM6,508,23-Sep-18,2018-09-23 10:00:00,0.19218333333332996,0.18421666666667003,0.17106666666667003,0.16983333333332998,0.16141666666667,0.15775,0.16073333333332998,5
COM6,508,23-Sep-18,2018-09-23 11:00:00,0.15886666666667001,0.15798333333332998,0.14985,0.15016666666667,0.14393333333333,0.14215,0.14705,5
COM6,508,23-Sep-18,2018-09-23 12:00:00,0.10733333333333,0.11481666666667,0.11081666666666999,0.11061666666667,0.10911666666667,0.10565,0.1101,5
COM6,508,23-Sep-18,2018-09-23 13:00:00,0.10658333333333,0.11093333333333001,0.10588333333333,0.10653333333333001,0.10408333333333,0.10405,0.10688333333333,5
COM6,508,23-Sep-18,2018-09-23 14:00:00,0.10065,0.10148333333333001,0.0974,0.095866666666667,0.0937,0.08913333333333301,0.092183333333333,5
COM6,508,23-Sep-18,2018-09-23 15:00:00,0.11681666666667,0.11445,0.10868333333333001,0.1072,0.10531666666667,0.10008333333333,0.10451666666666999,5
COM6,508,23-Sep-18,2018-09-23 16:00:00,0.14205,0.13638333333333,0.12865,0.1281,0.12415,0.11926666666666999,0.12508333333333,5
COM6,508,23-Sep-18,2018-09-23 17:00:00,0.3632,0.34855,0.33315,0.32766666666667,0.3197,0.3086,0.31778333333333003,5
COM6,508,23-Sep-18,2018-09-23 18:00:00,0.42273333333333,0.39553333333333,0.37323333333333003,0.366,0.3544,0.33126666666667,0.34263333333333,5
COM6,508,23-Sep-18,2018-09-23 19:00:00,0.26441666666667,0.22296666666667003,0.20438333333332998,0.1954,0.18568333333332998,0.17565,0.1801,5
COM6,508,23-Sep-18,2018-09-23 20:00:00,0.42835,0.41453333333333,0.39318333333333,0.38766666666667,0.3767,0.36081666666667,0.37208333333333,5
COM6,508,23-Sep-18,2018-09-23 21:00:00,0.44036666666667,0.42568333333333,0.40733333333333,0.40316666666667,0.3953,0.3838,0.3972,5
COM6,508,23-Sep-18,2018-09-23 22:00:00,0.52983333333333,0.4965,0.4697,0.46215,0.45201666666667,0.43781666666667,0.45186666666666997,5
COM6,508,23-Sep-18,2018-09-23 23:00:00,0.49484745762712,0.44686440677966,0.41811864406779997,0.40915254237287996,0.39681355932203,0.37574576271186,0.38776271186440997,5
