COM6,508,15-Nov-18,2018-11-15 00:00:00,1.4466271186441002,1.0898305084746,0.99601694915254,0.97042372881356,0.8941864406779699,0.8225593220339,0.83474576271186,5.0
COM6,508,15-Nov-18,2018-11-15 01:00:00,0.7232833333333301,0.56495,0.51411666666667,0.50488333333333,0.46073333333333,0.43236666666667,0.43625,5.0
COM6,508,15-Nov-18,2018-11-15 02:00:00,0.51356666666667,0.47266666666667,0.43305,0.41915,0.38806666666667,0.3602,0.36775,5.0
COM6,508,15-Nov-18,2018-11-15 03:00:00,0.3754,0.38998333333333,0.35713333333333,0.34893333333333,0.32466666666667,0.30168333333333003,0.30535,5.0
COM6,508,15-Nov-18,2018-11-15 04:00:00,0.42863333333333,0.42203333333333,0.38686666666666997,0.37515,0.34985,0.3238,0.33181666666667,5.0
COM6,508,15-Nov-18,2018-11-15 05:00:00,0.695,0.65343333333333,0.6008833333333299,0.5837833333333299,0.5417,0.4978,0.50698333333333,5.0
COM6,508,15-Nov-18,2018-11-15 06:00:00,0.99651666666667,0.94541666666667,0.87241666666667,0.84683333333333,0.79151666666667,0.73476666666667,0.74795,5.0
COM6,508,15-Nov-18,2018-11-15 07:00:00,1.8607333333333,1.7455166666667,1.6107833333333001,1.5635666666666999,1.45105,1.3240166666667,1.3469166666666998,5.0
COM6,508,15-Nov-18,2018-11-15 08:00:00,2.56615,2.299,2.0982333333333,2.0133,1.8426833333333001,1.6457,1.6673666666667,5.0
COM6,508,15-Nov-18,2018-11-15 09:00:00,5.1580333333333,4.6534166666667005,4.2460166666667005,4.0858,3.7598,3.3967333333333,3.4517666666667,5.0
COM6,508,15-Nov-18,2018-11-15 10:00:00,2.81255,2.64145,2.48705,2.4356333333333,2.3503166666667004,2.2407333333332997,2.31045,4.6666666666667
COM6,508,15-Nov-18,2018-11-15 11:00:00,1.6975333333333,1.6689833333333,1.5872666666667,1.5674333333333001,1.5218166666667,1.4691833333333,1.5129166666667,5.0
COM6,508,15-Nov-18,2018-11-15 12:00:00,1.7291833333333,1.7272333333333,1.64735,1.63205,1.5835166666667,1.5320333333333,1.5769833333333,5.0
COM6,508,15-Nov-18,2018-11-15 13:00:00,1.3652166666667,1.3552333333333,1.2914333333333001,1.2778,1.2380666666667,1.1945,1.2317666666667,5.0
COM6,508,15-Nov-18,2018-11-15 14:00:00,1.1662,1.1638333333333,1.1118166666667,1.1025166666667,1.07125,1.0398166666667,1.07325,5.0
COM6,508,15-Nov-18,2018-11-15 15:00:00,1.0851666666667,1.0742,1.0250833333333,1.0121833333333001,0.98288333333333,0.94923333333333,0.98053333333333,5.0
COM6,508,15-Nov-18,2018-11-15 16:00:00,1.1838,1.1704333333333001,1.1219333333333001,1.1118666666666999,1.0850166666667,1.05555,1.0914,5.0
COM6,508,15-Nov-18,2018-11-15 17:00:00,1.5019,1.4994666666667,1.44205,1.4317666666667,1.4002166666667,1.3617,1.4105833333333,5.0
COM6,508,15-Nov-18,2018-11-15 18:00:00,1.5603,1.52815,1.4597333333333,1.4475833333333001,1.4041,1.3567166666666999,1.4031666666667,5.0
COM6,508,15-Nov-18,2018-11-15 19:00:00,1.6544,1.5909166666666998,1.5133666666667,1.4967333333333002,1.4405666666666999,1.3841833333333,1.4281666666667,5.0
COM6,508,15-Nov-18,2018-11-15 20:00:00,1.1271333333333,1.0723,1.0139666666667,1.0008333333333002,0.95886666666667,0.91741666666667,0.94515,5.0
COM6,508,15-Nov-18,2018-11-15 21:00:00,0.80023333333333,0.73705,0.68973333333333,0.68083333333333,0.64565,0.6138333333333299,0.6337833333333299,5.0
COM6,508,15-Nov-18,2018-11-15 22:00:00,0.86841666666667,0.78433333333333,0.7278,0.71336666666667,0.6694333333333299,0.6284,0.6409999999999999,5.0
COM6,508,15-Nov-18,2018-11-15 23:00:00,0.7806034482758599,0.75015517241379,0.7099482758620699,0.7007758620689699,0.66934482758621,0.63674137931034,0.6546034482758599,5.0
