COM4,508,23-Sep-19,2019-09-23 00:00:00,1.0457627118644,0.9969830508474601,0.9238305084745799,0.9005254237288101,0.8561864406779699,0.80045762711864,0.82135593220339,5.0
COM4,508,23-Sep-19,2019-09-23 01:00:00,0.5779166666666701,0.60895,0.5701333333333299,0.5636,0.53736666666667,0.50375,0.51813333333333,5.0
COM4,508,23-Sep-19,2019-09-23 02:00:00,0.5206833333333301,0.51276666666667,0.47591666666667,0.46711666666667,0.44321666666667,0.41148333333333,0.4215,5.0
COM4,508,23-Sep-19,2019-09-23 03:00:00,0.6186,0.5927833333333299,0.5511,0.5394,0.51471666666667,0.4807,0.49285,5.0
COM4,508,23-Sep-19,2019-09-23 04:00:00,0.39906666666667,0.39141666666667,0.36586666666667,0.36118333333333,0.34573333333333,0.32531666666667,0.33331666666667,5.0
COM4,508,23-Sep-19,2019-09-23 05:00:00,1.4633833333333,1.3456666666666999,1.2424,1.2142333333333,1.1575166666667,1.0983333333333,1.1315833333333,5.0
COM4,508,23-Sep-19,2019-09-23 06:00:00,0.90265,0.82338333333333,0.75331666666667,0.73103333333333,0.6894,0.6399333333333299,0.6559333333333299,5.0
COM4,508,23-Sep-19,2019-09-23 07:00:00,3.0539666666667,2.7621333333332996,2.5222666666667,2.44415,2.30805,2.1606166666667,2.2219833333333,5.0
COM4,508,23-Sep-19,2019-09-23 08:00:00,4.1265666666667,3.8091666666667003,3.4796666666667004,3.3698666666667,3.1753,2.9573833333332997,3.0366666666667004,5.0
COM4,508,23-Sep-19,2019-09-23 09:00:00,2.48555,2.2757833333332997,2.0479333333333,1.9678166666666999,1.8304333333333,1.6777333333333,1.71755,5.0
COM4,508,23-Sep-19,2019-09-23 10:00:00,1.3941333333333001,1.3005833333333001,1.1713833333333001,1.1265833333333,1.0414,0.95,0.97148333333333,5.0
COM4,508,23-Sep-19,2019-09-23 11:00:00,0.88376666666667,0.85023333333333,0.76841666666667,0.7408,0.68198333333333,0.61725,0.6291,5.0
COM4,508,23-Sep-19,2019-09-23 12:00:00,0.71213333333333,0.66268333333333,0.59555,0.57298333333333,0.52728333333333,0.47655,0.48721666666667,5.0
COM4,508,23-Sep-19,2019-09-23 13:00:00,0.32145,0.31553333333333,0.28615,0.27328333333333,0.25355,0.21838333333332996,0.22346666666667003,5.0
COM4,508,23-Sep-19,2019-09-23 14:00:00,0.46121666666667,0.42498333333333,0.38698333333333,0.36911666666667,0.34601666666666997,0.31575,0.3231,5.0
COM4,508,23-Sep-19,2019-09-23 15:00:00,0.43521666666666997,0.41293333333333,0.37901666666667,0.35836666666667,0.34093333333333,0.3011,0.31175,5.0
COM4,508,23-Sep-19,2019-09-23 16:00:00,0.37845,0.35306666666666997,0.32028333333333,0.30416666666666997,0.28468333333333,0.2486,0.25496666666667,5.0
COM4,508,23-Sep-19,2019-09-23 17:00:00,0.5155,0.46361666666667,0.41401666666667,0.39138333333333003,0.36581666666667,0.32941666666667,0.33806666666667,5.0
COM4,508,23-Sep-19,2019-09-23 18:00:00,1.1397666666667,1.0291666666666999,0.93978333333333,0.90023333333333,0.84168333333333,0.75076666666667,0.76578333333333,5.0
COM4,508,23-Sep-19,2019-09-23 19:00:00,0.74438333333333,0.6697666666666701,0.6126333333333299,0.59165,0.55283333333333,0.49335,0.50425,5.0
COM4,508,23-Sep-19,2019-09-23 20:00:00,0.30288333333333,0.28408333333333,0.257,0.2473,0.23176666666667003,0.20203333333332996,0.20516666666667002,5.0
COM4,508,23-Sep-19,2019-09-23 21:00:00,0.24256666666667004,0.19521666666667004,0.18018333333332998,0.17411666666667003,0.16421666666667,0.15193333333332998,0.15658333333333,4.6666666666667
COM4,508,23-Sep-19,2019-09-23 22:00:00,0.69288333333333,0.6063833333333299,0.5734333333333299,0.5660000000000001,0.54983333333333,0.5318,0.54811666666667,5.0
COM4,508,23-Sep-19,2019-09-23 23:00:00,0.24356666666667004,0.23958333333332996,0.2261,0.2223,0.21501666666667002,0.20411666666667003,0.21018333333332997,5.0
