COM6,508,18-Sep-17,2017-09-18 00:00:00,0.41913559322034,0.35625423728814,0.33032203389831,0.32252542372881,0.30774576271186,0.29127118644068,0.29932203389830997,5
COM6,508,18-Sep-17,2017-09-18 01:00:00,0.31086666666667,0.25476666666667,0.2331,0.2253,0.2133,0.20135,0.20475,5
COM6,508,18-Sep-17,2017-09-18 02:00:00,0.36108333333333,0.30366666666666997,0.28068333333333,0.27275,0.2591,0.24333333333332996,0.2504,5
COM6,508,18-Sep-17,2017-09-18 03:00:00,0.4255,0.36173333333333,0.33411666666667,0.32426666666667,0.3089,0.2933,0.29945,5
COM6,508,18-Sep-17,2017-09-18 04:00:00,0.42263333333333003,0.36203333333333,0.33616666666667,0.32823333333333,0.31281666666667,0.29698333333333,0.30595,5
COM6,508,18-Sep-17,2017-09-18 05:00:00,0.47071666666667,0.4214,0.39568333333333,0.3887,0.3754,0.3655,0.37638333333333,5
COM6,508,18-Sep-17,2017-09-18 06:00:00,0.68711666666667,0.65068333333333,0.62235,0.62048333333333,0.6067666666666701,0.6098166666666701,0.63238333333333,5
COM6,508,18-Sep-17,2017-09-18 07:00:00,1.3473833333333,1.3687166666666999,1.3251666666667,1.3320666666667,1.3142333333333,1.3414333333333,1.3940000000000001,5
COM6,508,18-Sep-17,2017-09-18 08:00:00,0.34955,0.34985,0.33643333333333003,0.3386,0.32781666666667,0.32641666666667,0.33811666666667,5
COM6,508,18-Sep-17,2017-09-18 09:00:00,0.31148333333333,0.30768333333333,0.29545,0.29708333333333,0.28526666666667,0.2881,0.2957,5
COM6,508,18-Sep-17,2017-09-18 10:00:00,0.41073333333333,0.40721666666667,0.39256666666667,0.39335,0.3856,0.39105,0.40543333333333,5
COM6,508,18-Sep-17,2017-09-18 11:00:00,0.349,0.33763333333333,0.32336666666667,0.32171666666667,0.31471666666667,0.3127,0.32508333333333,5
COM6,508,18-Sep-17,2017-09-18 12:00:00,0.28806666666666997,0.27131666666667004,0.25825,0.25378333333333,0.2465,0.24038333333332998,0.24865,5
COM6,508,18-Sep-17,2017-09-18 13:00:00,0.33885,0.33405,0.3208,0.32131666666666997,0.3137,0.31156666666667,0.32338333333333,5
COM6,508,18-Sep-17,2017-09-18 14:00:00,0.24276666666667004,0.22536666666667002,0.21378333333332997,0.2108,0.20353333333332996,0.1966,0.20276666666667004,5
COM6,508,18-Sep-17,2017-09-18 15:00:00,0.20836666666667003,0.1957,0.18688333333332996,0.18346666666667003,0.17881666666667004,0.17086666666667003,0.17738333333332998,5
COM6,508,18-Sep-17,2017-09-18 16:00:00,0.18753333333332997,0.1738,0.16556666666667003,0.16206666666667002,0.1586,0.15686666666667,0.16378333333332998,5
COM6,508,18-Sep-17,2017-09-18 17:00:00,0.16551666666667,0.15598333333332998,0.14775,0.14593333333332997,0.1416,0.13616666666667,0.1402,5
COM6,508,18-Sep-17,2017-09-18 18:00:00,0.13933333333332998,0.12913333333333,0.1235,0.12153333333333001,0.11721666666667,0.11266666666667,0.11575,5
COM6,508,18-Sep-17,2017-09-18 19:00:00,0.14506666666667,0.13793333333333,0.13018333333333001,0.12918333333333,0.12416666666666999,0.12261666666667,0.1263,5
COM6,508,18-Sep-17,2017-09-18 20:00:00,0.24281666666667004,0.24546666666667002,0.2398,0.24338333333332998,0.24235,0.2606,0.27091666666667,5
COM6,508,18-Sep-17,2017-09-18 21:00:00,0.1923,0.19746666666667004,0.2001,0.20903333333332996,0.21071666666667002,0.21721666666667003,0.2234,5
COM6,508,18-Sep-17,2017-09-18 22:00:00,0.28296666666667,0.24926666666667002,0.23346666666667004,0.22855,0.21935,0.20981666666667004,0.21521666666667003,5
COM6,508,18-Sep-17,2017-09-18 23:00:00,0.23080357142857,0.20766071428571,0.19701785714286,0.19708928571429,0.18966071428571002,0.187875,0.19255357142857,5
