COM6,508,17-Mar-19,2019-03-17 00:00:00,0.26608474576270996,0.26879661016948997,0.25679661016948996,0.25555932203389997,0.24737288135593,0.23620338983051,0.24206779661017,5
COM6,508,17-Mar-19,2019-03-17 01:00:00,0.2438,0.24561666666667004,0.23326666666667004,0.23423333333332996,0.22428333333332998,0.21486666666667004,0.21971666666667003,5
COM6,508,17-Mar-19,2019-03-17 02:00:00,0.19243333333332996,0.19361666666667005,0.18408333333332996,0.18401666666667002,0.17600000000000002,0.16795,0.17166666666667002,5
COM6,508,17-Mar-19,2019-03-17 03:00:00,0.19343333333332996,0.19295,0.1833,0.18295,0.17661666666667003,0.17026666666667004,0.17453333333332996,5
COM6,508,17-Mar-19,2019-03-17 04:00:00,0.38525,0.3779,0.36003333333333,0.35808333333333,0.34698333333333,0.3341,0.34386666666667,5
COM6,508,17-Mar-19,2019-03-17 05:00:00,0.31156666666667,0.29835,0.28125,0.2763,0.26665,0.2517,0.25791666666667,5
COM6,508,17-Mar-19,2019-03-17 06:00:00,0.32961666666667,0.31841666666667,0.30001666666667,0.29523333333333,0.28506666666667,0.26871666666667005,0.27646666666666997,5
COM6,508,17-Mar-19,2019-03-17 07:00:00,0.32746666666667,0.32116666666667,0.30425,0.30098333333333,0.29008333333333003,0.27678333333333,0.28455,5
COM6,508,17-Mar-19,2019-03-17 08:00:00,0.5996666666666701,0.58415,0.5511333333333299,0.54426666666667,0.526,0.49841666666667,0.5126,5
COM6,508,17-Mar-19,2019-03-17 09:00:00,0.5540333333333299,0.54785,0.5203,0.51643333333333,0.50078333333333,0.48235,0.49606666666667,5
COM6,508,17-Mar-19,2019-03-17 10:00:00,0.44486666666667,0.43355,0.4107,0.40665,0.3919,0.37226666666667,0.38221666666667,5
COM6,508,17-Mar-19,2019-03-17 11:00:00,0.363,0.35253333333333,0.33393333333333003,0.33145,0.31946666666667,0.30345,0.31118333333333,5
COM6,508,17-Mar-19,2019-03-17 12:00:00,0.39608333333333,0.38721666666667,0.3684,0.36623333333333,0.35553333333333,0.34181666666667,0.35193333333333,5
COM6,508,17-Mar-19,2019-03-17 13:00:00,0.38668333333333,0.37891666666667,0.36061666666666997,0.3584,0.3474,0.33241666666666997,0.34191666666667,5
COM6,508,17-Mar-19,2019-03-17 14:00:00,0.3768,0.36918333333333003,0.35103333333333,0.349,0.3391,0.32761666666667,0.33663333333333,5
COM6,508,17-Mar-19,2019-03-17 15:00:00,0.35828333333333,0.35476666666667,0.33893333333333,0.33731666666667,0.3296,0.31825,0.3283,5
COM6,508,17-Mar-19,2019-03-17 16:00:00,0.2935,0.29168333333333,0.2804,0.27936666666667,0.27645,0.2727,0.28245,5
COM6,508,17-Mar-19,2019-03-17 17:00:00,0.32928333333333,0.32611666666667,0.31321666666667,0.31175,0.30536666666667,0.29495,0.30445,5
COM6,508,17-Mar-19,2019-03-17 18:00:00,0.18425,0.1836,0.17466666666667002,0.17305,0.17073333333332996,0.16573333333332999,0.17216666666667002,5
COM6,508,17-Mar-19,2019-03-17 19:00:00,0.51853333333333,0.49136666666667,0.46796666666667,0.46261666666667,0.45021666666667,0.43378333333333,0.44781666666666997,5
COM6,508,17-Mar-19,2019-03-17 20:00:00,0.56906666666667,0.51421666666667,0.47926666666667,0.46823333333333,0.44728333333333,0.41386666666667,0.42408333333333,5
COM6,508,17-Mar-19,2019-03-17 21:00:00,0.29006666666666997,0.28856666666666997,0.27288333333333,0.27131666666667004,0.262,0.24773333333332997,0.25555,5
COM6,508,17-Mar-19,2019-03-17 22:00:00,0.37896666666667,0.39158333333333,0.37543333333333,0.37648333333333,0.36748333333333,0.3606,0.37265,5
COM6,508,17-Mar-19,2019-03-17 23:00:00,0.5059649122807,0.46263157894737,0.43691228070175,0.43026315789473996,0.4192456140350901,0.40177192982456,0.41445614035088,5
