COM6,508,23-Dec-19,2019-12-23 00:00:00,NaN,NaN,NaN,NaN,NaN,NaN,NaN,NaN
COM6,508,23-Dec-19,2019-12-23 01:00:00,NaN,NaN,NaN,NaN,NaN,NaN,NaN,NaN
COM6,508,23-Dec-19,2019-12-23 02:00:00,NaN,NaN,NaN,NaN,NaN,NaN,NaN,NaN
COM6,508,23-Dec-19,2019-12-23 03:00:00,NaN,NaN,NaN,NaN,NaN,NaN,NaN,NaN
COM6,508,23-Dec-19,2019-12-23 04:00:00,NaN,NaN,NaN,NaN,NaN,NaN,NaN,NaN
COM6,508,23-Dec-19,2019-12-23 05:00:00,NaN,NaN,NaN,NaN,NaN,NaN,NaN,NaN
COM6,508,23-Dec-19,2019-12-23 06:00:00,NaN,NaN,NaN,NaN,NaN,NaN,NaN,NaN
COM6,508,23-Dec-19,2019-12-23 07:00:00,NaN,NaN,NaN,NaN,NaN,NaN,NaN,NaN
COM4,508,23-Dec-19,2019-12-23 08:00:00,1.0198200000000002,0.9883,0.93842,0.92614,0.89936,0.86826,0.8982600000000001,5.0
COM4,508,23-Dec-19,2019-12-23 09:00:00,1.1348833333333002,1.11875,1.0631333333333,1.0549,1.0202,0.98486666666667,1.0185166666667,5.0
COM4,508,23-Dec-19,2019-12-23 10:00:00,0.08017613903241,0.042614842649131006,0.0342076092062,0.032098637858149,0.039284170972287,0.031088774072334,0.043077031470174,0.9018318459370601
COM4,508,23-Dec-19,2019-12-23 11:00:00,0.13710907335907002,0.04075289575289601,0.042421814671815,0.035398648648649,0.049672779922780005,0.051105212355212,0.06242374517374501,4.213320463320501
COM4,508,23-Dec-19,2019-12-23 12:00:00,0.25961666666667005,0.15743333333332998,0.15658333333333,0.16216666666667,0.1609,0.17241666666667002,0.18076666666667005,5.0
COM4,508,23-Dec-19,2019-12-23 13:00:00,0.09596666666666699,0.13771666666667,0.13425,0.13485,0.13441666666667,0.14053333333332999,0.14526666666667,5.0
COM4,508,23-Dec-19,2019-12-23 14:00:00,0.23683333333332998,0.25761666666667005,0.24685,0.24446666666667002,0.23966666666667003,0.23271666666667004,0.24115,5.0
COM4,508,23-Dec-19,2019-12-23 15:00:00,0.48281666666667,0.49621666666666997,0.47201666666666997,0.46821666666667,0.4571,0.44583333333333003,0.46106666666667,5.0
COM4,508,23-Dec-19,2019-12-23 16:00:00,1.0251,1.0015833333333,0.94486666666667,0.9312,0.90225,0.86336666666667,0.8897,5.0
COM4,508,23-Dec-19,2019-12-23 17:00:00,1.2865666666667,1.1898,1.11175,1.08835,1.0502666666667,0.9969,1.0271166666667,5.0
COM4,508,23-Dec-19,2019-12-23 18:00:00,2.3497333333332997,2.1792,2.0445,2.0049666666667,1.9345,1.8395,1.89375,5.0
COM4,508,23-Dec-19,2019-12-23 19:00:00,2.15185,1.8699166666667,1.7317166666666999,1.68615,1.6102333333333,1.4957666666667,1.5325166666667,5.0
COM4,508,23-Dec-19,2019-12-23 20:00:00,1.5923333333333,1.4469666666667,1.3518833333333,1.3261333333333,1.2733,1.1927333333333001,1.2178,5.0
COM4,508,23-Dec-19,2019-12-23 21:00:00,0.89103333333333,0.90611666666667,0.861,0.8533,0.82505,0.77703333333333,0.79706666666667,5.0
COM4,508,23-Dec-19,2019-12-23 22:00:00,0.23313333333332997,0.30063333333333003,0.29941666666667,0.30143333333333,0.28943333333333,0.27201666666667,0.27711666666667,5.0
COM4,508,23-Dec-19,2019-12-23 23:00:00,0.24685,0.25106666666667005,0.24015,0.23858333333332996,0.22738333333332997,0.21118333333332998,0.21428333333332997,5.0
