COM6,508,08-Jan-18,2018-01-08 00:00:00,0.81405084745763,0.73074576271186,0.6816271186440699,0.6602203389830501,0.6244237288135601,0.56405084745763,0.57923728813559,5.0
COM6,508,08-Jan-18,2018-01-08 01:00:00,0.89528333333333,0.83496666666667,0.78408333333333,0.76465,0.7275,0.6631333333333299,0.68336666666667,5.0
COM6,508,08-Jan-18,2018-01-08 02:00:00,0.80541666666667,0.74191666666667,0.69825,0.6821,0.64648333333333,0.59205,0.6086333333333299,5.0
COM6,508,08-Jan-18,2018-01-08 03:00:00,0.99311666666667,0.90628333333333,0.8473,0.82371666666667,0.78083333333333,0.7131833333333301,0.73318333333333,5.0
COM6,508,08-Jan-18,2018-01-08 04:00:00,1.0737166666667,0.97596666666667,0.91205,0.89325,0.84246666666667,0.7708,0.792,5.0
COM6,508,08-Jan-18,2018-01-08 05:00:00,1.0237,0.91136666666667,0.84873333333333,0.82398333333333,0.77396666666667,0.69981666666667,0.71665,5.0
COM6,508,08-Jan-18,2018-01-08 06:00:00,1.5426333333333,1.3983833333333,1.2946666666667,1.261,1.17505,1.0633,1.0908333333333,5.0
COM6,508,08-Jan-18,2018-01-08 07:00:00,1.8309833333333,1.6980666666667,1.5763,1.5308,1.4295833333333001,1.30115,1.33285,5.0
COM6,508,08-Jan-18,2018-01-08 08:00:00,1.53955,1.4319166666667,1.3309833333333,1.2980166666667,1.2089,1.10145,1.1250833333333001,5.0
COM6,508,08-Jan-18,2018-01-08 09:00:00,2.06925,1.9051,1.79605,1.7622,1.67415,1.56755,1.6129,4.6666666666667
COM6,508,08-Jan-18,2018-01-08 10:00:00,1.9191,1.7816333333333,1.70215,1.6848333333333,1.6392666666667,1.5940166666667,1.6430166666666999,5.0
COM6,508,08-Jan-18,2018-01-08 11:00:00,2.4374666666667,2.4074166666667,2.3186,2.3064666666667004,2.2527,2.2010666666667,2.2714,5.0
COM6,508,08-Jan-18,2018-01-08 12:00:00,2.0848666666667,2.1339,2.0613833333333003,2.0530666666667,2.0010833333333,1.9476333333333,2.0075333333333,5.0
COM6,508,08-Jan-18,2018-01-08 13:00:00,1.0395,1.0974,1.0694333333333002,1.0702333333333,1.0481166666667,1.0227333333333,1.05705,5.0
COM6,508,08-Jan-18,2018-01-08 14:00:00,0.99803333333333,1.00165,0.96078333333333,0.94803333333333,0.92403333333333,0.8944,0.92481666666667,5.0
COM6,508,08-Jan-18,2018-01-08 15:00:00,1.5681333333333,1.5016666666667,1.4417333333333,1.4245333333333001,1.3817166666667,1.3302833333333,1.3755666666667,5.0
COM6,508,08-Jan-18,2018-01-08 16:00:00,1.3859833333333,1.32455,1.27235,1.2575,1.2146,1.16265,1.2006,5.0
COM6,508,08-Jan-18,2018-01-08 17:00:00,1.6309833333333001,1.5094166666667,1.4412166666667,1.4201833333333,1.3648,1.29525,1.3359333333333,5.0
COM6,508,08-Jan-18,2018-01-08 18:00:00,1.5670166666667,1.4249833333333,1.3593333333333,1.3378666666666998,1.2839166666667,1.2167333333333001,1.2545833333333,5.0
COM6,508,08-Jan-18,2018-01-08 19:00:00,1.3908666666667,1.2626666666667,1.1965666666666999,1.1730166666667,1.12225,1.0543666666667,1.0871333333333,5.0
COM6,508,08-Jan-18,2018-01-08 20:00:00,1.8282166666667,1.6259666666666999,1.5295666666667,1.4862,1.4083833333333,1.3104833333333001,1.3480166666667,5.0
COM6,508,08-Jan-18,2018-01-08 21:00:00,2.5902333333332996,2.1837166666667,2.0241166666667,1.9414666666667,1.8104333333333,1.6543833333333,1.6964166666667,5.0
COM6,508,08-Jan-18,2018-01-08 22:00:00,1.2735333333333,1.06835,0.9884,0.9400166666666699,0.87525,0.79121666666667,0.81065,5.0
COM6,508,08-Jan-18,2018-01-08 23:00:00,0.50098181818182,0.42885454545455004,0.39069090909091,0.37525454545455,0.34601818181818,0.30872727272727,0.31356363636364004,5.0
