COM6,508,26-Jun-18,2018-06-26 00:00:00,0.48161016949153007,0.44135593220339,0.41003389830508,0.40071186440678,0.37979661016948996,0.35528813559322,0.36435593220339,5.0
COM6,508,26-Jun-18,2018-06-26 01:00:00,0.45275,0.41538333333333,0.38488333333333,0.37586666666667,0.35533333333333,0.33413333333333,0.34201666666667,5.0
COM6,508,26-Jun-18,2018-06-26 02:00:00,0.54155,0.50096666666667,0.46455,0.45213333333333,0.42716666666666997,0.39721666666667,0.40653333333333,5.0
COM6,508,26-Jun-18,2018-06-26 03:00:00,0.64635,0.6169833333333299,0.57693333333333,0.5661,0.53786666666667,0.50465,0.51681666666667,5.0
COM6,508,26-Jun-18,2018-06-26 04:00:00,0.95986666666667,0.89676666666667,0.83083333333333,0.80853333333333,0.76886666666667,0.7290000000000001,0.75181666666667,5.0
COM6,508,26-Jun-18,2018-06-26 05:00:00,0.50093333333333,0.45366666666667,0.41411666666667,0.39695,0.37321666666666997,0.34653333333333003,0.35556666666667,5.0
COM6,508,26-Jun-18,2018-06-26 06:00:00,1.01605,0.97935,0.91853333333333,0.90266666666667,0.86891666666667,0.84523333333333,0.87231666666667,5.0
COM6,508,26-Jun-18,2018-06-26 07:00:00,2.3757833333333,2.23,2.0516,1.9809166666667,1.8724,1.7568333333333002,1.8076666666666998,5.0
COM6,508,26-Jun-18,2018-06-26 08:00:00,1.2726166666667,1.2012,1.1065166666667,1.0667166666666998,1.0056833333333,0.92561666666667,0.95078333333333,5.0
COM6,508,26-Jun-18,2018-06-26 09:00:00,0.73971666666667,0.6555666666666701,0.5908333333333299,0.56055,0.52006666666667,0.46565,0.47708333333333003,5.0
COM6,508,26-Jun-18,2018-06-26 10:00:00,0.5431,0.4797,0.43496666666667,0.41316666666667,0.3807,0.341,0.34706666666667,5.0
COM6,508,26-Jun-18,2018-06-26 11:00:00,0.4937,0.41758333333333003,0.37211666666667,0.34955,0.31978333333333,0.27338333333333,0.2761,5.0
COM6,508,26-Jun-18,2018-06-26 12:00:00,0.46221666666667,0.39088333333333003,0.34785,0.3254,0.2955,0.2472,0.25108333333333,5.0
COM6,508,26-Jun-18,2018-06-26 13:00:00,0.48355,0.39095,0.34068333333333,0.3132,0.28425,0.23838333333332998,0.2416,5.0
COM6,508,26-Jun-18,2018-06-26 14:00:00,0.51701666666667,0.42056666666667,0.36811666666667,0.33916666666667,0.30671666666666997,0.25503333333332995,0.26031666666667,5.0
COM6,508,26-Jun-18,2018-06-26 15:00:00,0.6687666666666701,0.5529833333333299,0.4902,0.45508333333333,0.41753333333333,0.36466666666666997,0.3724,5.0
COM6,508,26-Jun-18,2018-06-26 16:00:00,0.58441666666667,0.48100000000000004,0.42295,0.39085,0.35676666666667,0.2961,0.30106666666667,5.0
COM6,508,26-Jun-18,2018-06-26 17:00:00,0.6481,0.5373,0.47648333333333,0.44295,0.40493333333333,0.34733333333333,0.35578333333333,5.0
COM6,508,26-Jun-18,2018-06-26 18:00:00,0.6600833333333299,0.55878333333333,0.49758333333333,0.4645,0.42928333333333,0.37505,0.38141666666667,5.0
COM6,508,26-Jun-18,2018-06-26 19:00:00,0.67561666666667,0.57915,0.52225,0.49653333333333,0.46133333333333,0.41478333333333,0.42123333333333,5.0
COM6,508,26-Jun-18,2018-06-26 20:00:00,0.67273333333333,0.53288333333333,0.46056666666667,0.42418333333333,0.38251666666667,0.3207,0.32508333333333,5.0
COM6,508,26-Jun-18,2018-06-26 21:00:00,0.68848333333333,0.5387,0.46263333333333,0.42655,0.38341666666667,0.32933333333333,0.3338,4.8333333333333
COM6,508,26-Jun-18,2018-06-26 22:00:00,1.5427,1.4122833333333,1.3402333333333,1.3224833333333001,1.29275,1.2679166666666999,1.3140666666667,4.8333333333333
COM6,508,26-Jun-18,2018-06-26 23:00:00,0.85996610169492,0.80042372881356,0.7495593220339001,0.73423728813559,0.70822033898305,0.68432203389831,0.70383050847458,5.0
