COM6,508,10-Sep-17,2017-09-10 00:00:00,0.32977966101695,0.30372881355932,0.28879661016949,0.28472881355932,0.27230508474576,0.25316949152542,0.25925423728814,5
COM6,508,10-Sep-17,2017-09-10 01:00:00,0.33268333333333,0.30678333333333,0.29365,0.28961666666667,0.27951666666667,0.26553333333332996,0.27175,5
COM6,508,10-Sep-17,2017-09-10 02:00:00,0.3147,0.29,0.27656666666667,0.27365,0.2637,0.24886666666667004,0.25498333333332995,5
COM6,508,10-Sep-17,2017-09-10 03:00:00,0.29336666666667,0.2703,0.25751666666667006,0.25598333333332995,0.24678333333332997,0.23301666666667004,0.2385,5
COM6,508,10-Sep-17,2017-09-10 04:00:00,0.29011666666667,0.27,0.25823333333333,0.25543333333332996,0.24561666666667004,0.23403333333332996,0.23951666666667004,5
COM6,508,10-Sep-17,2017-09-10 05:00:00,0.29345,0.27248333333332997,0.2599,0.25731666666667,0.24698333333332997,0.23303333333332996,0.23773333333332997,5
COM6,508,10-Sep-17,2017-09-10 06:00:00,0.33465,0.31601666666667,0.30101666666667,0.29746666666667,0.28698333333333,0.27261666666667,0.27931666666667,5
COM6,508,10-Sep-17,2017-09-10 07:00:00,0.4402,0.43248333333333,0.41908333333333003,0.42100000000000004,0.41055,0.40436666666667,0.41616666666667,5
COM6,508,10-Sep-17,2017-09-10 08:00:00,0.80833333333333,0.8130166666666699,0.78808333333333,0.79115,0.77378333333333,0.76806666666667,0.79121666666667,5
COM6,508,10-Sep-17,2017-09-10 09:00:00,0.6299666666666701,0.6324666666666701,0.6179333333333299,0.6248666666666701,0.61428333333333,0.61585,0.63523333333333,5
COM6,508,10-Sep-17,2017-09-10 10:00:00,0.51465,0.50535,0.48873333333333,0.49061666666667,0.4769,0.4653,0.47623333333333,5
COM6,508,10-Sep-17,2017-09-10 11:00:00,0.3389,0.3191,0.30235,0.29758333333333,0.28516666666667,0.26638333333333,0.27248333333332997,5
COM6,508,10-Sep-17,2017-09-10 12:00:00,0.3064,0.28818333333333,0.2749,0.27178333333333,0.25938333333332997,0.24198333333332997,0.24728333333332997,5
COM6,508,10-Sep-17,2017-09-10 13:00:00,0.29433333333333,0.26825,0.25268333333333,0.2461,0.23286666666667002,0.21346666666667002,0.21741666666667003,5
COM6,508,10-Sep-17,2017-09-10 14:00:00,0.29153333333333,0.26731666666667003,0.25375,0.2467,0.23655,0.2155,0.22201666666667003,5
COM6,508,10-Sep-17,2017-09-10 15:00:00,0.30941666666667,0.2937,0.27991666666667,0.27433333333333,0.26455,0.24596666666667003,0.25273333333333,5
COM6,508,10-Sep-17,2017-09-10 16:00:00,0.25166666666667004,0.23381666666667003,0.22351666666667003,0.21848333333332998,0.21048333333332997,0.1941,0.19956666666667003,5
COM6,508,10-Sep-17,2017-09-10 17:00:00,0.25141666666667,0.23686666666667003,0.22533333333332997,0.21871666666667003,0.20936666666667003,0.19203333333332998,0.19763333333332997,5
COM6,508,10-Sep-17,2017-09-10 18:00:00,0.30596666666667,0.28528333333333,0.27175,0.26678333333333,0.25653333333332995,0.24461666666667004,0.25063333333333,5
COM6,508,10-Sep-17,2017-09-10 19:00:00,0.29100000000000004,0.26518333333333,0.24868333333332998,0.24253333333332996,0.23,0.21338333333332996,0.21883333333332997,5
COM6,508,10-Sep-17,2017-09-10 20:00:00,0.45568333333333,0.46136666666667,0.44578333333333,0.44456666666667,0.4273,0.40988333333333,0.42118333333333,5
COM6,508,10-Sep-17,2017-09-10 21:00:00,0.19566666666667004,0.1865,0.17701666666667004,0.17425,0.1644,0.15225,0.15475,5
COM6,508,10-Sep-17,2017-09-10 22:00:00,0.2771,0.26078333333333,0.2489,0.24625,0.23485,0.22315,0.22806666666667003,5
COM6,508,10-Sep-17,2017-09-10 23:00:00,0.22721428571429,0.22008928571428998,0.21035714285714,0.20821428571429,0.19794642857143,0.186625,0.19033928571428999,5
