COM6,508,18-Mar-19,2019-03-18 00:00:00,0.36766101694915004,0.36420338983051004,0.34603389830508,0.34528813559321997,0.33527118644068,0.32247457627119,0.33233898305084997,5
COM6,508,18-Mar-19,2019-03-18 01:00:00,0.44365,0.4539,0.43591666666667,0.43761666666667,0.42638333333333,0.4166,0.42996666666667,5
COM6,508,18-Mar-19,2019-03-18 02:00:00,0.44585,0.44661666666667,0.42593333333333,0.42593333333333,0.41455,0.40386666666667,0.41600000000000004,5
COM6,508,18-Mar-19,2019-03-18 03:00:00,1.0949833333333001,0.74315,0.69025,0.6613166666666701,0.6338,0.6117666666666701,0.6305833333333299,5
COM6,508,18-Mar-19,2019-03-18 04:00:00,0.59803333333333,0.5835833333333299,0.5529999999999999,0.54025,0.51698333333333,0.49335,0.5076,5
COM6,508,18-Mar-19,2019-03-18 05:00:00,0.7155,0.67246666666667,0.6360666666666701,0.6223166666666701,0.5994833333333299,0.57485,0.5916,5
COM6,508,18-Mar-19,2019-03-18 06:00:00,1.2741166666666999,1.2372666666667,1.1718833333333,1.15765,1.1196666666667,1.0806333333333,1.1127666666667,5
COM6,508,18-Mar-19,2019-03-18 07:00:00,1.2827166666667,1.32975,1.26615,1.2582333333333,1.2179333333333,1.1753666666667,1.21255,5
COM6,508,18-Mar-19,2019-03-18 08:00:00,2.3860166666667,2.4422333333333,2.3194,2.3077,2.2307833333333,2.16425,2.2271333333333,5
COM6,508,18-Mar-19,2019-03-18 09:00:00,2.0161166666667,2.0972166666667,1.98705,1.9731166666667,1.8983166666667,1.8334,1.8823,5
COM6,508,18-Mar-19,2019-03-18 10:00:00,0.81885,0.89853333333333,0.85765,0.85606666666667,0.81586666666667,0.77156666666667,0.78895,5
COM6,508,18-Mar-19,2019-03-18 11:00:00,0.85216666666667,0.87311666666667,0.82463333333333,0.81766666666667,0.77593333333333,0.73393333333333,0.74991666666667,5
COM6,508,18-Mar-19,2019-03-18 12:00:00,0.73656666666667,0.7284,0.68141666666667,0.67215,0.632,0.59041666666667,0.60305,5
COM6,508,18-Mar-19,2019-03-18 13:00:00,0.64248333333333,0.62851666666667,0.5842833333333299,0.57408333333333,0.54305,0.50916666666667,0.51973333333333,5
COM6,508,18-Mar-19,2019-03-18 14:00:00,0.3855,0.3804,0.35558333333333003,0.34973333333333,0.33543333333333003,0.31901666666667,0.32986666666666997,5
COM6,508,18-Mar-19,2019-03-18 15:00:00,0.36448333333333,0.35141666666667,0.32523333333333,0.31608333333333,0.29578333333333,0.27178333333333,0.27903333333333,5
COM6,508,18-Mar-19,2019-03-18 16:00:00,0.55696666666667,0.51046666666667,0.47118333333333,0.4571,0.43165,0.39935,0.40458333333333,5
COM6,508,18-Mar-19,2019-03-18 17:00:00,0.34593333333333,0.31628333333333003,0.28958333333333003,0.27638333333333,0.26778333333333,0.25326666666667,0.26166666666667004,5
COM6,508,18-Mar-19,2019-03-18 18:00:00,0.22705,0.21621666666667003,0.19938333333332997,0.19318333333332996,0.18461666666667004,0.17365,0.17808333333332996,5
COM6,508,18-Mar-19,2019-03-18 19:00:00,0.34576666666667,0.31278333333333,0.28518333333333,0.27431666666667004,0.25378333333333,0.22088333333332996,0.2251,5
COM6,508,18-Mar-19,2019-03-18 20:00:00,0.34523333333333,0.31171666666667,0.28113333333333,0.27006666666667,0.2481,0.2163,0.22008333333332997,5
COM6,508,18-Mar-19,2019-03-18 21:00:00,0.3771,0.33985,0.30488333333333,0.297,0.26925,0.23593333333332997,0.23886666666667003,5
COM6,508,18-Mar-19,2019-03-18 22:00:00,0.21295,0.19793333333332996,0.17888333333332998,0.1685,0.15525,0.13386666666667,0.13681666666667,5
COM6,508,18-Mar-19,2019-03-18 23:00:00,0.33036842105263003,0.29438596491228003,0.26722807017544004,0.25538596491228,0.23935087719298,0.2159298245614,0.22373684210526001,5
