COM6,508,14-Mar-19,2019-03-14 00:00:00,0.09633898305084698,0.096118644067797,0.092220338983051,0.09010169491525401,0.087389830508475,0.083305084745763,0.085898305084746,5
COM6,508,14-Mar-19,2019-03-14 01:00:00,0.06275,0.060816666666667,0.0561,0.058233333333333005,0.052466666666666995,0.05015,0.05105,5
COM6,508,14-Mar-19,2019-03-14 02:00:00,0.08448333333333298,0.07895,0.07415,0.07265,0.06835,0.06385,0.064283333333333,5
COM6,508,14-Mar-19,2019-03-14 03:00:00,0.082516666666667,0.07103333333333299,0.065016666666667,0.063416666666667,0.059383333333333004,0.057033333333333006,0.05853333333333301,5
COM6,508,14-Mar-19,2019-03-14 04:00:00,0.08766666666666702,0.08048333333333299,0.07551666666666701,0.074316666666667,0.069833333333333,0.06535,0.06645,5
COM6,508,14-Mar-19,2019-03-14 05:00:00,0.1552,0.14596666666667002,0.13655,0.13388333333333,0.12751666666667,0.11893333333333,0.1223,5
COM6,508,14-Mar-19,2019-03-14 06:00:00,0.31603333333333,0.29053333333333,0.27273333333332994,0.26648333333332996,0.25535,0.2387,0.24603333333332997,5
COM6,508,14-Mar-19,2019-03-14 07:00:00,0.99103333333333,0.9722833333333301,0.92501666666667,0.91343333333333,0.88063333333333,0.84116666666667,0.86611666666667,5
COM6,508,14-Mar-19,2019-03-14 08:00:00,0.5688,0.57735,0.54818333333333,0.54193333333333,0.5237,0.50403333333333,0.51823333333333,5
COM6,508,14-Mar-19,2019-03-14 09:00:00,0.5784,0.5859666666666701,0.55906666666667,0.5552,0.53373333333333,0.5105666666666699,0.52531666666667,5
COM6,508,14-Mar-19,2019-03-14 10:00:00,0.31126666666667,0.31566666666667,0.3004,0.29786666666667,0.28443333333333,0.27093333333333,0.27715,5
COM6,508,14-Mar-19,2019-03-14 11:00:00,0.28493333333333,0.27735,0.26248333333332996,0.25963333333332994,0.24761666666667004,0.23295,0.23971666666667002,5
COM6,508,14-Mar-19,2019-03-14 12:00:00,0.28125,0.27326666666667004,0.25716666666667004,0.25203333333332995,0.24061666666667003,0.22375,0.22845,5
COM6,508,14-Mar-19,2019-03-14 13:00:00,0.2108,0.19963333333332997,0.18786666666667004,0.18378333333332997,0.17373333333332996,0.16301666666667,0.16648333333332999,5
COM6,508,14-Mar-19,2019-03-14 14:00:00,0.17058333333332998,0.15888333333333,0.14768333333332997,0.14291666666667002,0.13543333333333,0.12028333333333001,0.12473333333333,5
COM6,508,14-Mar-19,2019-03-14 15:00:00,0.14045,0.12195,0.11421666666666999,0.10803333333333001,0.1049,0.098816666666667,0.10238333333333001,5
COM6,508,14-Mar-19,2019-03-14 16:00:00,0.14908333333333,0.13803333333332998,0.1281,0.12433333333333,0.11845,0.11105,0.11483333333333001,5
COM6,508,14-Mar-19,2019-03-14 17:00:00,0.18251666666667002,0.1732,0.16205,0.15823333333332998,0.15231666666667001,0.14526666666667,0.14935,5
COM6,508,14-Mar-19,2019-03-14 18:00:00,0.15725,0.1443,0.1347,0.13081666666667,0.1257,0.11838333333333001,0.12300000000000001,5
COM6,508,14-Mar-19,2019-03-14 19:00:00,0.1714,0.14536666666667,0.13363333333333,0.1267,0.12035,0.11141666666667,0.11475,5
COM6,508,14-Mar-19,2019-03-14 20:00:00,0.13218333333333002,0.10535,0.09306666666666699,0.0875,0.079783333333333,0.0697,0.07096666666666701,5
COM6,508,14-Mar-19,2019-03-14 21:00:00,0.1206,0.10051666666667,0.089933333333333,0.085,0.077933333333333,0.066266666666667,0.06798333333333301,5
COM6,508,14-Mar-19,2019-03-14 22:00:00,0.07343333333333299,0.0676,0.060966666666666995,0.058633333333333,0.054066666666667,0.047266666666667,0.048083333333333006,5
COM6,508,14-Mar-19,2019-03-14 23:00:00,0.05396491228070201,0.04364912280701799,0.040982456140350995,0.036070175438596,0.035245614035087997,0.029578947368421,0.031456140350877,5
