COM6,508,07-Nov-18,2018-11-07 00:00:00,0.27732203389831,0.23469491525424,0.21105084745763,0.20542372881356,0.18893220338983,0.16955932203389998,0.17627118644068,5
COM6,508,07-Nov-18,2018-11-07 01:00:00,0.1055,0.10698333333333,0.099683333333333,0.096816666666667,0.091183333333333,0.08205,0.08265,5
COM6,508,07-Nov-18,2018-11-07 02:00:00,1.1870833333333,1.05335,0.96245,0.92775,0.87308333333333,0.80376666666667,0.82268333333333,5
COM6,508,07-Nov-18,2018-11-07 03:00:00,1.0969666666667,0.95428333333333,0.8746,0.84381666666667,0.78903333333333,0.72196666666667,0.73795,5
COM6,508,07-Nov-18,2018-11-07 04:00:00,0.9047333333333301,0.7995,0.7244,0.70015,0.6512833333333299,0.5947166666666701,0.6058666666666701,5
COM6,508,07-Nov-18,2018-11-07 05:00:00,0.67486666666667,0.58736666666667,0.53545,0.51681666666667,0.47916666666667,0.4359,0.4479,5
COM6,508,07-Nov-18,2018-11-07 06:00:00,1.3913833333333,1.2263,1.1150666666667,1.0784666666667,1.0034666666667,0.92023333333333,0.93623333333333,5
COM6,508,07-Nov-18,2018-11-07 07:00:00,1.6357333333333,1.459,1.327,1.2818,1.1956666666667,1.09485,1.1174666666667,5
COM6,508,07-Nov-18,2018-11-07 08:00:00,1.3603833333333,1.2348,1.12165,1.0829833333333,0.99933333333333,0.89881666666667,0.91686666666667,5
COM6,508,07-Nov-18,2018-11-07 09:00:00,2.0835666666667,1.91615,1.7488166666667,1.7064333333333002,1.5777,1.4625833333333,1.4867166666667,5
COM6,508,07-Nov-18,2018-11-07 10:00:00,1.4946,1.3969,1.2685666666667,1.2495,1.13385,1.04115,1.0521833333333002,5
COM6,508,07-Nov-18,2018-11-07 11:00:00,0.34443333333333,0.37225,0.33743333333333003,0.34896666666667,0.30531666666667,0.2896,0.29128333333333,5
COM6,508,07-Nov-18,2018-11-07 12:00:00,0.38816666666667,0.38191666666667,0.34648333333333,0.34281666666667,0.29791666666667,0.28525,0.28035,5
COM6,508,07-Nov-18,2018-11-07 13:00:00,0.267,0.24063333333332998,0.21583333333332996,0.21113333333332998,0.19743333333332996,0.17316666666667002,0.17575,5
COM6,508,07-Nov-18,2018-11-07 14:00:00,0.23848333333332997,0.18851666666667002,0.17408333333332998,0.15475,0.15098333333333,0.12926666666667,0.13833333333332998,5
COM6,508,07-Nov-18,2018-11-07 15:00:00,0.25025,0.20178333333332996,0.18323333333332997,0.16245,0.16058333333333,0.13581666666667,0.1442,5
COM6,508,07-Nov-18,2018-11-07 16:00:00,0.38876666666667,0.3334,0.30611666666667,0.28466666666667,0.28223333333333,0.2549,0.26525,5
COM6,508,07-Nov-18,2018-11-07 17:00:00,0.6235333333333299,0.53518333333333,0.4873,0.46013333333333,0.44033333333333,0.39786666666667,0.41426666666667,5
COM6,508,07-Nov-18,2018-11-07 18:00:00,0.84603333333333,0.73013333333333,0.66975,0.6313,0.60741666666667,0.54578333333333,0.5616333333333299,5
COM6,508,07-Nov-18,2018-11-07 19:00:00,0.5583333333333299,0.49171666666667,0.43866666666667,0.4165,0.38655,0.33701666666667,0.34285,5
COM6,508,07-Nov-18,2018-11-07 20:00:00,0.40826666666667,0.37318333333333,0.33098333333333,0.32026666666667,0.28693333333333,0.25726666666667003,0.2584,5
COM6,508,07-Nov-18,2018-11-07 21:00:00,0.88415,0.72006666666667,0.6339333333333299,0.6189166666666701,0.55195,0.50631666666667,0.51133333333333,5
COM6,508,07-Nov-18,2018-11-07 22:00:00,1.0030166666667,0.80008333333333,0.7242833333333301,0.71615,0.6469,0.5986666666666701,0.59928333333333,5
COM6,508,07-Nov-18,2018-11-07 23:00:00,1.1025593220338998,0.82850847457627,0.72327118644068,0.7064576271186399,0.63340677966102,0.5729152542372901,0.57608474576271,5
