COM4,508,10-Sep-19,2019-09-10 00:00:00,1.3584745762711998,1.0229491525424002,0.9168135593220301,0.8741355932203401,0.8184745762711899,0.73566101694915,0.75030508474576,4.6610169491525
COM4,508,10-Sep-19,2019-09-10 01:00:00,1.5390000000000001,1.1970666666667,1.0880666666667,1.04965,0.99416666666667,0.90651666666667,0.9247,5.0
COM4,508,10-Sep-19,2019-09-10 02:00:00,1.0980166666667,0.9103,0.82616666666667,0.7979999999999999,0.75433333333333,0.6919,0.70565,5.0
COM4,508,10-Sep-19,2019-09-10 03:00:00,0.92048333333333,0.76501666666667,0.6908,0.66511666666667,0.6279,0.57455,0.5851,5.0
COM4,508,10-Sep-19,2019-09-10 04:00:00,1.15745,1.0265166666667,0.94843333333333,0.92515,0.88708333333333,0.8331833333333301,0.85261666666667,5.0
COM4,508,10-Sep-19,2019-09-10 05:00:00,1.1356833333333,0.99195,0.91626666666667,0.89376666666667,0.85576666666667,0.80105,0.82078333333333,5.0
COM4,508,10-Sep-19,2019-09-10 06:00:00,1.2714833333333,1.1376833333333,1.0597666666667,1.0398666666667,0.99921666666667,0.94891666666667,0.97511666666667,5.0
COM4,508,10-Sep-19,2019-09-10 07:00:00,1.04975,1.02505,0.9773166666666699,0.97395,0.95331666666667,0.93806666666667,0.9704,5.0
COM4,508,10-Sep-19,2019-09-10 08:00:00,0.89408333333333,0.88825,0.85108333333333,0.85436666666667,0.8368,0.83503333333333,0.86361666666667,5.0
COM4,508,10-Sep-19,2019-09-10 09:00:00,0.40501666666667,0.40641666666667,0.39171666666667,0.39441666666666997,0.38421666666667,0.38285,0.39593333333333003,5.0
COM4,508,10-Sep-19,2019-09-10 10:00:00,0.17633333333332996,0.1758,0.16966666666667002,0.17058333333332998,0.1665,0.16401666666667,0.16776666666667,5.0
COM4,508,10-Sep-19,2019-09-10 11:00:00,0.22223333333332998,0.21225,0.20361666666667003,0.20105,0.19925,0.19333333333332997,0.20033333333332998,5.0
COM4,508,10-Sep-19,2019-09-10 12:00:00,0.18383333333332996,0.17756666666667004,0.17093333333332997,0.16925,0.16771666666667,0.16525,0.17086666666667003,5.0
COM4,508,10-Sep-19,2019-09-10 13:00:00,0.18778333333332997,0.18106666666667004,0.1754,0.1717,0.17158333333332998,0.16886666666667002,0.17671666666667002,5.0
COM4,508,10-Sep-19,2019-09-10 14:00:00,0.34928333333333,0.37338333333333,0.37288333333333,0.38278333333333,0.38525,0.39635,0.41051666666666997,5.0
COM4,508,10-Sep-19,2019-09-10 15:00:00,0.3465,0.35748333333333,0.35203333333333,0.35761666666666997,0.3563,0.35746666666667,0.37106666666667,5.0
COM4,508,10-Sep-19,2019-09-10 16:00:00,0.29405,0.28948333333333,0.28021666666667,0.28205,0.27778333333333,0.27603333333333,0.28498333333333,5.0
COM4,508,10-Sep-19,2019-09-10 17:00:00,0.22848333333332996,0.2128,0.2021,0.2014,0.19716666666667004,0.19311666666667004,0.20041666666667002,5.0
COM4,508,10-Sep-19,2019-09-10 18:00:00,0.28596666666667,0.27175,0.2587,0.25698333333332996,0.24991666666667003,0.2468,0.25556666666667005,5.0
COM4,508,10-Sep-19,2019-09-10 19:00:00,0.60875,0.6107833333333299,0.59035,0.5936666666666701,0.5834333333333299,0.58221666666667,0.60203333333333,5.0
COM4,508,10-Sep-19,2019-09-10 20:00:00,0.25751666666667006,0.24915,0.23923333333332997,0.23805,0.23293333333332997,0.2263,0.23413333333332997,5.0
COM4,508,10-Sep-19,2019-09-10 21:00:00,0.16473333333332998,0.15181666666667,0.14358333333332998,0.14298333333333,0.13818333333333,0.1318,0.13635,5.0
COM4,508,10-Sep-19,2019-09-10 22:00:00,0.14756666666667,0.13683333333333,0.12971666666667,0.12761666666667,0.12281666666666999,0.11601666666667,0.1189,5.0
COM4,508,10-Sep-19,2019-09-10 23:00:00,0.3211,0.30358333333333,0.28846666666667,0.28705,0.27665,0.26903333333332996,0.27653333333333,5.0
