COM6,508,24-Jun-18,2018-06-24 00:00:00,0.56510169491525,0.44649152542373,0.39489830508475,0.37091525423728994,0.33972881355932,0.29913559322034,0.30474576271186,5
COM6,508,24-Jun-18,2018-06-24 01:00:00,0.3405,0.28208333333333,0.25421666666667003,0.24106666666667004,0.22311666666667004,0.19968333333332997,0.20236666666667003,5
COM6,508,24-Jun-18,2018-06-24 02:00:00,0.20803333333332996,0.1744,0.15845,0.15208333333333,0.1411,0.1243,0.12688333333333002,5
COM6,508,24-Jun-18,2018-06-24 03:00:00,0.27236666666667003,0.24718333333332998,0.23176666666667003,0.22885,0.21906666666667002,0.21076666666667004,0.21538333333332996,5
COM6,508,24-Jun-18,2018-06-24 04:00:00,0.50406666666667,0.46603333333333,0.44193333333333,0.43788333333333,0.42265,0.41316666666667,0.4258,5
COM6,508,24-Jun-18,2018-06-24 05:00:00,0.33045,0.2767,0.24973333333332998,0.2384,0.2251,0.20861666666667003,0.21448333333332997,5
COM6,508,24-Jun-18,2018-06-24 06:00:00,0.1943,0.165,0.15155,0.14478333333333,0.1344,0.12335,0.12566666666667,5
COM6,508,24-Jun-18,2018-06-24 07:00:00,0.55821666666667,0.5603,0.54395,0.54891666666667,0.53895,0.54166666666667,0.55993333333333,5
COM6,508,24-Jun-18,2018-06-24 08:00:00,0.52025,0.45901666666667,0.42368333333333,0.41191666666667,0.39121666666667,0.36858333333333,0.37766666666667,5
COM6,508,24-Jun-18,2018-06-24 09:00:00,0.37911666666667,0.32865,0.29908333333333,0.2908,0.2694,0.244,0.24805,5
COM6,508,24-Jun-18,2018-06-24 10:00:00,0.248,0.21033333333332996,0.18896666666667003,0.1796,0.16478333333332998,0.14351666666667,0.14575,5
COM6,508,24-Jun-18,2018-06-24 11:00:00,0.21805,0.18178333333332997,0.16475,0.15658333333333,0.14415,0.12866666666666998,0.13063333333333,5
COM6,508,24-Jun-18,2018-06-24 12:00:00,0.149,0.1345,0.12441666666666999,0.12051666666666999,0.1117,0.099816666666667,0.1024,5
COM6,508,24-Jun-18,2018-06-24 13:00:00,0.0816,0.074883333333333,0.068983333333333,0.0676,0.064116666666667,0.05615,0.0579,5
COM6,508,24-Jun-18,2018-06-24 14:00:00,0.08641666666666702,0.07551666666666701,0.070833333333333,0.06665,0.06475,0.056683333333333,0.05875,5
COM6,508,24-Jun-18,2018-06-24 15:00:00,0.092833333333333,0.08055,0.076116666666667,0.071,0.06935,0.06278333333333301,0.06465,5
COM6,508,24-Jun-18,2018-06-24 16:00:00,0.070266666666667,0.060266666666666996,0.0549,0.0514,0.0502,0.043433333333333005,0.047033333333333004,5
COM6,508,24-Jun-18,2018-06-24 17:00:00,0.092983333333333,0.07866666666666701,0.072166666666667,0.067466666666667,0.065883333333333,0.060133333333333004,0.062166666666666995,5
COM6,508,24-Jun-18,2018-06-24 18:00:00,0.1696,0.13861666666667002,0.12566666666667,0.11783333333333,0.11155,0.10121666666667,0.10471666666667,5
COM6,508,24-Jun-18,2018-06-24 19:00:00,0.25151666666667005,0.21328333333332997,0.19496666666667004,0.18826666666667002,0.17821666666667002,0.16761666666667002,0.17216666666667002,5
COM6,508,24-Jun-18,2018-06-24 20:00:00,0.22181666666667002,0.19613333333332997,0.18055,0.17525,0.16323333333332998,0.15091666666667,0.1547,5
COM6,508,24-Jun-18,2018-06-24 21:00:00,0.11413333333333,0.10365,0.09471666666666699,0.09325,0.08576666666666702,0.07891666666666701,0.078966666666667,5
COM6,508,24-Jun-18,2018-06-24 22:00:00,0.20213333333332997,0.18196666666667002,0.16935,0.16581666666667003,0.15595,0.15001666666667002,0.15385,5
COM6,508,24-Jun-18,2018-06-24 23:00:00,0.12991525423729,0.12010169491525,0.11013559322034,0.10674576271186,0.10189830508475001,0.093254237288136,0.09547457627118598,5
