COM4,508,10-Oct-19,2019-10-10 00:00:00,0.17201694915254,0.13647457627119,0.12215254237288001,0.11610169491525,0.10754237288136,0.098610169491525,0.099677966101695,5
COM4,508,10-Oct-19,2019-10-10 01:00:00,0.22416666666667004,0.18878333333332997,0.17131666666667003,0.16435,0.15303333333333,0.1411,0.14381666666667,5
COM4,508,10-Oct-19,2019-10-10 02:00:00,0.2,0.17028333333332996,0.15398333333332997,0.14758333333332999,0.13736666666667,0.12321666666667,0.12411666666667,5
COM4,508,10-Oct-19,2019-10-10 03:00:00,0.23451666666667004,0.22881666666667003,0.21438333333332996,0.21288333333332995,0.20298333333332996,0.19685,0.20091666666667002,5
COM4,508,10-Oct-19,2019-10-10 04:00:00,0.2622,0.25296666666667006,0.23698333333332997,0.23718333333332997,0.22553333333332998,0.21856666666667005,0.22548333333332995,5
COM4,508,10-Oct-19,2019-10-10 05:00:00,0.32895,0.30808333333333,0.2875,0.28406666666667,0.26893333333332997,0.25495,0.26108333333332995,5
COM4,508,10-Oct-19,2019-10-10 06:00:00,0.60175,0.56906666666667,0.5317666666666699,0.52463333333333,0.49923333333333003,0.47278333333333,0.48488333333333,5
COM4,508,10-Oct-19,2019-10-10 07:00:00,0.74676666666667,0.7081833333333301,0.6562166666666701,0.6404166666666701,0.60815,0.5752,0.5887,5
COM4,508,10-Oct-19,2019-10-10 08:00:00,0.38245,0.37625,0.34933333333333,0.344,0.32211666666667,0.29488333333333,0.30415,5
COM4,508,10-Oct-19,2019-10-10 09:00:00,0.41363333333333,0.39323333333333,0.35951666666667,0.3506,0.33308333333333,0.31723333333333,0.32413333333333,5
COM4,508,10-Oct-19,2019-10-10 10:00:00,0.45468333333333,0.40833333333333,0.37016666666667,0.35973333333333,0.33576666666667,0.31208333333333,0.32011666666667,5
COM4,508,10-Oct-19,2019-10-10 11:00:00,0.46716666666667,0.38506666666667,0.34308333333333,0.32485,0.2988,0.2684,0.27533333333333,5
COM4,508,10-Oct-19,2019-10-10 12:00:00,0.44921666666667,0.3707,0.32576666666667,0.30885,0.28671666666667,0.25903333333332995,0.26341666666667,5
COM4,508,10-Oct-19,2019-10-10 13:00:00,0.37808333333333,0.30335,0.2667,0.25178333333333,0.2324,0.20606666666667003,0.21093333333332998,5
COM4,508,10-Oct-19,2019-10-10 14:00:00,0.2895,0.23398333333332996,0.20846666666667002,0.19411666666667002,0.1819,0.16418333333333,0.16926666666667003,5
COM4,508,10-Oct-19,2019-10-10 15:00:00,0.21296666666667002,0.1673,0.14693333333332997,0.13658333333333,0.12851666666667,0.11301666666667,0.1156,5
COM4,508,10-Oct-19,2019-10-10 16:00:00,0.24933333333332997,0.20733333333332996,0.18243333333332998,0.17303333333332996,0.15895,0.14055,0.14386666666667,5
COM4,508,10-Oct-19,2019-10-10 17:00:00,0.22275,0.18718333333332998,0.17091666666667002,0.16036666666667002,0.15065,0.1363,0.13871666666667,5
COM4,508,10-Oct-19,2019-10-10 18:00:00,0.28,0.24955,0.2289,0.2239,0.21153333333332996,0.20145,0.20541666666667002,5
COM4,508,10-Oct-19,2019-10-10 19:00:00,0.40838333333333,0.32343333333333,0.28905,0.27383333333333,0.25196666666667006,0.22281666666667002,0.22658333333332997,5
COM4,508,10-Oct-19,2019-10-10 20:00:00,0.25961666666667005,0.1916,0.16661666666667002,0.15675,0.13848333333333,0.11901666666666999,0.11865,5
COM4,508,10-Oct-19,2019-10-10 21:00:00,0.17758333333332996,0.13881666666667,0.12175,0.11471666666666999,0.1021,0.0893,0.089733333333333,5
COM4,508,10-Oct-19,2019-10-10 22:00:00,0.13393333333333002,0.10441666666666999,0.0881,0.08285,0.074216666666667,0.06365,0.062916666666667,5
COM4,508,10-Oct-19,2019-10-10 23:00:00,0.070083333333333,0.05998333333333301,0.0532,0.04735,0.042633333333333,0.03575,0.036333333333333,5
