COM4,508,29-Jul-19,2019-07-29 00:00:00,0.3184406779661,0.29384745762712,0.27306779661017,0.26584745762712,0.25233898305085,0.231,0.23569491525424,5.0
COM4,508,29-Jul-19,2019-07-29 01:00:00,0.26786666666667003,0.24475,0.22813333333332997,0.22236666666667004,0.2117,0.19535,0.20028333333332995,5.0
COM4,508,29-Jul-19,2019-07-29 02:00:00,0.29036666666667,0.26331666666667003,0.24215,0.23385,0.22093333333332996,0.20168333333332997,0.20475,5.0
COM4,508,29-Jul-19,2019-07-29 03:00:00,0.25223333333333,0.23031666666667003,0.21188333333332998,0.20628333333332996,0.19496666666667004,0.1761,0.17931666666667004,5.0
COM4,508,29-Jul-19,2019-07-29 04:00:00,0.50711666666667,0.45796666666667,0.41868333333333,0.40401666666667,0.37836666666667,0.34093333333333,0.34723333333333,5.0
COM4,508,29-Jul-19,2019-07-29 05:00:00,0.70815,0.6456,0.59145,0.56906666666667,0.53333333333333,0.47583333333333,0.48543333333333,5.0
COM4,508,29-Jul-19,2019-07-29 06:00:00,1.5057,1.3951666666667,1.2791333333333001,1.2378,1.16005,1.0474666666666999,1.06725,5.0
COM4,508,29-Jul-19,2019-07-29 07:00:00,1.3532833333333,1.2858,1.1873333333333,1.1523,1.0892833333333,0.99111666666667,1.0115833333333,5.0
COM4,508,29-Jul-19,2019-07-29 08:00:00,0.81315,0.76268333333333,0.69821666666667,0.67648333333333,0.6299833333333299,0.56026666666667,0.56806666666667,5.0
COM4,508,29-Jul-19,2019-07-29 09:00:00,1.19615,1.13565,1.0507,1.02565,0.96761666666667,0.88688333333333,0.90403333333333,5.0
COM4,508,29-Jul-19,2019-07-29 10:00:00,0.74656666666667,0.6754,0.63643333333333,0.62853333333333,0.6065333333333299,0.56988333333333,0.5890166666666701,4.6666666666667
COM4,508,29-Jul-19,2019-07-29 11:00:00,0.65676666666667,0.6426166666666701,0.60733333333333,0.60055,0.57985,0.5518666666666701,0.5663,5.0
COM4,508,29-Jul-19,2019-07-29 12:00:00,0.72885,0.72913333333333,0.69421666666667,0.68828333333333,0.6702666666666701,0.64575,0.66411666666667,5.0
COM4,508,29-Jul-19,2019-07-29 13:00:00,0.53218333333333,0.5357833333333301,0.5129,0.51095,0.49913333333333,0.48031666666667,0.49356666666667,5.0
COM4,508,29-Jul-19,2019-07-29 14:00:00,0.4349,0.43803333333333,0.42068333333333,0.42021666666667,0.4107,0.39631666666667,0.40838333333333,5.0
COM4,508,29-Jul-19,2019-07-29 15:00:00,0.53308333333333,0.54285,0.52276666666667,0.5219,0.51218333333333,0.50076666666667,0.51635,5.0
COM4,508,29-Jul-19,2019-07-29 16:00:00,0.44361666666667,0.45198333333333,0.4358,0.43528333333333,0.42898333333333,0.42085,0.4345,5.0
COM4,508,29-Jul-19,2019-07-29 17:00:00,0.7449,0.78671666666667,0.76526666666667,0.77075,0.76228333333333,0.7554,0.7797333333333301,5.0
COM4,508,29-Jul-19,2019-07-29 18:00:00,0.5023,0.51955,0.50388333333333,0.50633333333333,0.49905,0.49046666666667,0.5063,5.0
COM4,508,29-Jul-19,2019-07-29 19:00:00,0.32221666666667,0.32693333333333,0.3151,0.31686666666667,0.31156666666667,0.30516666666667,0.3162,5.0
COM4,508,29-Jul-19,2019-07-29 20:00:00,0.23615,0.23385,0.22418333333332996,0.22298333333332998,0.21875,0.21403333333332997,0.22116666666667004,5.0
COM4,508,29-Jul-19,2019-07-29 21:00:00,0.16945,0.16295,0.15535,0.15395,0.15045,0.14655,0.15173333333333,5.0
COM4,508,29-Jul-19,2019-07-29 22:00:00,0.1816,0.17206666666667003,0.16288333333333,0.16195,0.15631666666667002,0.15198333333332997,0.1572,5.0
COM4,508,29-Jul-19,2019-07-29 23:00:00,0.16126666666667,0.15191666666667,0.14366666666667002,0.14268333333333,0.1381,0.1344,0.13906666666667,5.0
