COM6,0508,15-Feb-19,2019-02-15 00:00:00,0.10405084745763,0.098,0.089745762711864,0.092372881355932,0.084830508474576,0.077406779661017,0.07835593220339,5,0,0,0,0,0,0,0,0,0,0,0,0,0,0,0,0,0,0,0,0,0,0,0,0,0,0,0,0,0,0,0,0,0,0,0,0,0,0,0,0,0,0
COM6,0508,15-Feb-19,2019-02-15 01:00:00,0.12775,0.12516666666667,0.11668333333333,0.1201,0.109,0.10476666666667,0.10408333333333,5,0,0,0,0,0,0,0,0,0,0,0,0,0,0,0,0,0,0,0,0,0,0,0,0,0,0,0,0,0,0,0,0,0,0,0,0,0,0,0,0,0,0
COM6,0508,15-Feb-19,2019-02-15 02:00:00,0.12815,0.11786666666667,0.10583333333333,0.1058,0.094833333333333,0.086633333333333,0.086166666666667,5,0,0,0,0,0,0,0,0,0,0,0,0,0,0,0,0,0,0,0,0,0,0,0,0,0,0,0,0,0,0,0,0,0,0,0,0,0,0,0,0,0,0
COM6,0508,15-Feb-19,2019-02-15 03:00:00,0.0176,0.020433333333333,0.0184,0.019533333333333,0.013433333333333,0.012183333333333,0.013033333333333,5,0,0,0,0,0,0,0,0,0,0,0,0,0,0,0,0,0,0,0,0,0,0,0,0,0,0,0,0,0,0,0,0,0,0,0,0,0,0,0,0,0,0
COM6,0508,15-Feb-19,2019-02-15 04:00:00,0.077383333333333,0.073866666666667,0.065633333333333,0.068816666666667,0.0625,0.057383333333333,0.060983333333333,5,0,0,0,0,0,0,0,0,0,0,0,0,0,0,0,0,0,0,0,0,0,0,0,0,0,0,0,0,0,0,0,0,0,0,0,0,0,0,0,0,0,0
COM6,0508,15-Feb-19,2019-02-15 05:00:00,0.10823333333333,0.097483333333333,0.090733333333333,0.0885,0.08045,0.074433333333333,0.07325,5,0,0,0,0,0,0,0,0,0,0,0,0,0,0,0,0,0,0,0,0,0,0,0,0,0,0,0,0,0,0,0,0,0,0,0,0,0,0,0,0,0,0
COM6,0508,15-Feb-19,2019-02-15 06:00:00,0.74488333333333,0.63263333333333,0.57521666666667,0.55856666666667,0.52061666666667,0.48478333333333,0.4933,5,0,0,0,0,0,0,0,0,0,0,0,0,0,0,0,0,0,0,0,0,0,0,0,0,0,0,0,0,0,0,0,0,0,0,0,0,0,0,0,0,0,0
COM6,0508,15-Feb-19,2019-02-15 07:00:00,1.1231833333333,1.028,0.93851666666667,0.90921666666667,0.85246666666667,0.7892,0.8077,5,0,0,0,0,0,0,0,0,0,0,0,0,0,0,0,0,0,0,0,0,0,0,0,0,0,0,0,0,0,0,0,0,0,0,0,0,0,0,0,0,0,0
COM6,0508,15-Feb-19,2019-02-15 08:00:00,0.30711666666667,0.31091666666667,0.28301666666667,0.27426666666667,0.25455,0.22918333333333,0.23323333333333,5,0,0,0,0,0,0,0,0,0,0,0,0,0,0,0,0,0,0,0,0,0,0,0,0,0,0,0,0,0,0,0,0,0,0,0,0,0,0,0,0,0,0
COM6,0508,15-Feb-19,2019-02-15 09:00:00,0.099533333333333,0.1135,0.1072,0.10758333333333,0.098216666666667,0.086916666666667,0.089933333333333,5,0,0,0,0,0,0,0,0,0,0,0,0,0,0,0,0,0,0,0,0,0,0,0,0,0,0,0,0,0,0,0,0,0,0,0,0,0,0,0,0,0,0
COM6,0508,15-Feb-19,2019-02-15 10:00:00,0.07585,0.10058333333333,0.09125,0.097233333333333,0.08055,0.0758,0.0725,5,0,0,0,0,0,0,0,0,0,0,0,0,0,0,0,0,0,0,0,0,0,0,0,0,0,0,0,0,0,0,0,0,0,0,0,0,0,0,0,0,0,0
COM6,0508,15-Feb-19,2019-02-15 11:00:00,0.19441666666667,0.1939,0.17858333333333,0.17606666666667,0.16165,0.14621666666667,0.149,5,0,0,0,0,0,0,0,0,0,0,0,0,0,0,0,0,0,0,0,0,0,0,0,0,0,0,0,0,0,0,0,0,0,0,0,0,0,0,0,0,0,0
COM6,0508,15-Feb-19,2019-02-15 12:00:00,0.15375,0.14241666666667,0.12935,0.12406666666667,0.11571666666667,0.10216666666667,0.10461666666667,5,0,0,0,0,0,0,0,0,0,0,0,0,0,0,0,0,0,0,0,0,0,0,0,0,0,0,0,0,0,0,0,0,0,0,0,0,0,0,0,0,0,0
COM6,0508,15-Feb-19,2019-02-15 13:00:00,0.1348,0.12211666666667,0.11251666666667,0.11026666666667,0.10078333333333,0.089433333333333,0.091333333333333,5,0,0,0,0,0,0,0,0,0,0,0,0,0,0,0,0,0,0,0,0,0,0,0,0,0,0,0,0,0,0,0,0,0,0,0,0,0,0,0,0,0,0
COM6,0508,15-Feb-19,2019-02-15 14:00:00,0.18801666666667,0.16911666666667,0.1547,0.14793333333333,0.13785,0.12215,0.12668333333333,5,0,0,0,0,0,0,0,0,0,0,0,0,0,0,0,0,0,0,0,0,0,0,0,0,0,0,0,0,0,0,0,0,0,0,0,0,0,0,0,0,0,0
COM6,0508,15-Feb-19,2019-02-15 15:00:00,0.16083333333333,0.13551666666667,0.12283333333333,0.11023333333333,0.10806666666667,0.09215,0.09755,5,0,0,0,0,0,0,0,0,0,0,0,0,0,0,0,0,0,0,0,0,0,0,0,0,0,0,0,0,0,0,0,0,0,0,0,0,0,0,0,0,0,0
COM6,0508,15-Feb-19,2019-02-15 16:00:00,0.28015,0.24321666666667,0.22161666666667,0.21413333333333,0.20055,0.18991666666667,0.19365,5,0,0,0,0,0,0,0,0,0,0,0,0,0,0,0,0,0,0,0,0,0,0,0,0,0,0,0,0,0,0,0,0,0,0,0,0,0,0,0,0,0,0
COM6,0508,15-Feb-19,2019-02-15 17:00:00,0.16108333333333,0.15601666666667,0.14305,0.1372,0.13215,0.13051666666667,0.13331666666667,5,0,0,0,0,0,0,0,0,0,0,0,0,0,0,0,0,0,0,0,0,0,0,0,0,0,0,0,0,0,0,0,0,0,0,0,0,0,0,0,0,0,0
COM6,0508,15-Feb-19,2019-02-15 18:00:00,0.2621,0.23136666666667,0.21093333333333,0.2055,0.19373333333333,0.17475,0.17658333333333,5,0,0,0,0,0,0,0,0,0,0,0,0,0,0,0,0,0,0,0,0,0,0,0,0,0,0,0,0,0,0,0,0,0,0,0,0,0,0,0,0,0,0
COM6,0508,15-Feb-19,2019-02-15 19:00:00,0.23756666666667,0.22283333333333,0.20313333333333,0.19681666666667,0.18663333333333,0.16978333333333,0.17266666666667,5,0,0,0,0,0,0,0,0,0,0,0,0,0,0,0,0,0,0,0,0,0,0,0,0,0,0,0,0,0,0,0,0,0,0,0,0,0,0,0,0,0,0
COM6,0508,15-Feb-19,2019-02-15 20:00:00,0.23905,0.21901666666667,0.20078333333333,0.19565,0.18525,0.16625,0.17063333333333,5,0,0,0,0,0,0,0,0,0,0,0,0,0,0,0,0,0,0,0,0,0,0,0,0,0,0,0,0,0,0,0,0,0,0,0,0,0,0,0,0,0,0
COM6,0508,15-Feb-19,2019-02-15 21:00:00,0.17668333333333,0.15408333333333,0.14615,0.13373333333333,0.12543333333333,0.11713333333333,0.11871666666667,5,0,0,0,0,0,0,0,0,0,0,0,0,0,0,0,0,0,0,0,0,0,0,0,0,0,0,0,0,0,0,0,0,0,0,0,0,0,0,0,0,0,0
COM6,0508,15-Feb-19,2019-02-15 22:00:00,0.1583,0.15196666666667,0.13275,0.13458333333333,0.12306666666667,0.10818333333333,0.11188333333333,5,0,0,0,0,0,0,0,0,0,0,0,0,0,0,0,0,0,0,0,0,0,0,0,0,0,0,0,0,0,0,0,0,0,0,0,0,0,0,0,0,0,0
COM6,0508,15-Feb-19,2019-02-15 23:00:00,0.34864912280702,0.30168421052632,0.27556140350877,0.26529824561404,0.24926315789474,0.22198245614035,0.22522807017544,5,0,0,0,0,0,0,0,0,0,0,0,0,0,0,0,0,0,0,0,0,0,0,0,0,0,0,0,0,0,0,0,0,0,0,0,0,0,0,0,0,0,0
