COM6,508,03-Dec-17,2017-12-03 00:00:00,2.1657796610169,1.6165084745763,1.4577457627119,1.3684915254237,1.2842711864407,1.1824576271186003,1.2172542372881001,4.6610169491525
COM6,508,03-Dec-17,2017-12-03 01:00:00,1.7346,1.3825833333333,1.2750666666666999,1.2202,1.1587,1.0886166666666999,1.1177333333333002,5.0
COM6,508,03-Dec-17,2017-12-03 02:00:00,1.9348666666667,1.80695,1.70245,1.6593333333333,1.5954333333333,1.53365,1.5784666666667,5.0
COM6,508,03-Dec-17,2017-12-03 03:00:00,1.83735,1.7203166666667,1.6203,1.58405,1.5227166666667,1.46095,1.5046833333333,5.0
COM6,508,03-Dec-17,2017-12-03 04:00:00,2.25255,2.1388166666667,2.0223,1.9856166666667,1.9101833333333,1.8404,1.8975666666667,5.0
COM6,508,03-Dec-17,2017-12-03 05:00:00,1.9187666666667,1.7849833333333,1.67115,1.6281166666667,1.55265,1.4764833333333,1.5191833333333,5.0
COM6,508,03-Dec-17,2017-12-03 06:00:00,-0.0478,0.16675,0.17015,0.18975,0.19425,0.19215,0.19925,5.0
COM6,508,03-Dec-17,2017-12-03 07:00:00,-0.0032333333333333,0.12706666666667,0.12986666666667,0.13778333333332998,0.13078333333333,0.13206666666667,0.1365,5.0
COM6,508,03-Dec-17,2017-12-03 08:00:00,0.24448333333332997,0.2567,0.23906666666667004,0.23235,0.21548333333332997,0.20386666666667003,0.20671666666667002,5.0
COM6,508,03-Dec-17,2017-12-03 09:00:00,0.2332,0.2334,0.2186,0.21323333333332997,0.20018333333332997,0.18675,0.19073333333332998,5.0
COM6,508,03-Dec-17,2017-12-03 10:00:00,0.2651,0.24705,0.22891666666667004,0.2206,0.20636666666667003,0.1915,0.19673333333332996,5.0
COM6,508,03-Dec-17,2017-12-03 11:00:00,0.40136666666667,0.34323333333333,0.3105,0.29271666666667,0.27296666666667,0.25038333333332996,0.25686666666667,5.0
COM6,508,03-Dec-17,2017-12-03 12:00:00,0.30463333333333,0.26755,0.24361666666667003,0.23388333333332997,0.21978333333332997,0.19858333333332998,0.20461666666667003,5.0
COM6,508,03-Dec-17,2017-12-03 13:00:00,0.17043333333332997,0.15926666666667003,0.15093333333332998,0.14638333333332998,0.14233333333332998,0.14426666666667,0.14845,5.0
COM6,508,03-Dec-17,2017-12-03 14:00:00,0.10968333333333001,0.11058333333333001,0.10688333333333,0.10423333333333,0.1015,0.0921,0.0956,5.0
COM6,508,03-Dec-17,2017-12-03 15:00:00,0.05588333333333301,0.059116666666667,0.056233333333333003,0.055016666666667,0.054666666666666995,0.056916666666667,0.05975,5.0
COM6,508,03-Dec-17,2017-12-03 16:00:00,0.04665,0.06048333333333301,0.059583333333333,0.05775,0.057783333333333006,0.0527,0.0551,5.0
COM6,508,03-Dec-17,2017-12-03 17:00:00,0.08681666666666701,0.094166666666667,0.088583333333333,0.0863,0.08543333333333299,0.081266666666667,0.08425,5.0
COM6,508,03-Dec-17,2017-12-03 18:00:00,0.10798333333333,0.10055,0.093416666666667,0.091733333333333,0.0866,0.07071666666666701,0.07386666666666701,5.0
COM6,508,03-Dec-17,2017-12-03 19:00:00,0.082766666666667,0.08388333333333299,0.08033333333333299,0.079266666666667,0.075883333333333,0.07345,0.07595,5.0
COM6,508,03-Dec-17,2017-12-03 20:00:00,0.05928333333333301,0.058683333333333004,0.05506666666666699,0.0566,0.05305,0.05105,0.05311666666666699,5.0
COM6,508,03-Dec-17,2017-12-03 21:00:00,0.03356666666666701,0.03965,0.038616666666667,0.0374,0.0372,0.0345,0.036833333333333,5.0
COM6,508,03-Dec-17,2017-12-03 22:00:00,0.0094333333333333,0.022383333333332995,0.021633333333333,0.022333333333332994,0.022716666666667006,0.030316666666667005,0.031783333333333,5.0
COM6,508,03-Dec-17,2017-12-03 23:00:00,0.019127272727273,0.033036363636363995,0.031836363636363996,0.034709090909091,0.029818181818182004,0.029618181818182,0.029127272727272998,5.0
