COM4,508,15-Feb-20,2020-02-15 00:00:00,0.51072413793103,0.45343103448276,0.42058620689654996,0.41527586206897,0.3945,0.37810344827585995,0.38646551724138,5
COM4,508,15-Feb-20,2020-02-15 01:00:00,0.24998333333332998,0.25163333333333,0.2352,0.23421666666667004,0.22061666666667004,0.20933333333332996,0.21336666666667004,5
COM4,508,15-Feb-20,2020-02-15 02:00:00,0.21118333333332998,0.19921666666667004,0.18613333333332996,0.18226666666667002,0.17413333333332998,0.16476666666667,0.16808333333332998,5
COM4,508,15-Feb-20,2020-02-15 03:00:00,0.1951,0.1957,0.18383333333332996,0.18141666666667003,0.1733,0.16351666666667,0.16783333333332998,5
COM4,508,15-Feb-20,2020-02-15 04:00:00,0.1119,0.11303333333333,0.10605,0.10363333333333001,0.098183333333333,0.09065,0.093633333333333,5
COM4,508,15-Feb-20,2020-02-15 05:00:00,0.09611666666666699,0.099283333333333,0.093133333333333,0.091266666666667,0.08668333333333299,0.07995,0.081533333333333,5
COM4,508,15-Feb-20,2020-02-15 06:00:00,0.20683333333332996,0.19633333333332997,0.18375,0.18005,0.17311666666667003,0.16203333333332998,0.16728333333332998,5
COM4,508,15-Feb-20,2020-02-15 07:00:00,0.56703333333333,0.49756666666667,0.46083333333333,0.44913333333333,0.4277,0.40311666666667,0.41196666666667,5
COM4,508,15-Feb-20,2020-02-15 08:00:00,0.77221666666667,0.67656666666667,0.6279166666666701,0.61161666666667,0.5816833333333299,0.54301666666667,0.5551833333333299,5
COM4,508,15-Feb-20,2020-02-15 09:00:00,1.2924333333333,1.24835,1.18365,1.17185,1.1325166666667,1.0935166666667,1.1256166666667,5
COM4,508,15-Feb-20,2020-02-15 10:00:00,0.91151666666667,0.90161666666667,0.85788333333333,0.85015,0.81981666666667,0.78471666666667,0.80561666666667,5
COM4,508,15-Feb-20,2020-02-15 11:00:00,0.5884333333333299,0.5749666666666701,0.54676666666667,0.53606666666667,0.51945,0.48793333333333,0.5034,5
COM4,508,15-Feb-20,2020-02-15 12:00:00,0.41618333333333,0.3853,0.36676666666667,0.34973333333333,0.34845,0.31778333333333003,0.33311666666667,5
COM4,508,15-Feb-20,2020-02-15 13:00:00,0.46998333333333,0.43271666666666997,0.41103333333333003,0.39136666666666997,0.39061666666667,0.35853333333333,0.37475,5
COM4,508,15-Feb-20,2020-02-15 14:00:00,0.47371666666667,0.44021666666667,0.41595,0.4005,0.39465,0.36465,0.38035,5
COM4,508,15-Feb-20,2020-02-15 15:00:00,0.43528333333333,0.41631666666667,0.3952,0.38686666666666997,0.38021666666667,0.36200000000000004,0.37628333333333003,5
COM4,508,15-Feb-20,2020-02-15 16:00:00,0.34603333333333003,0.3323,0.31466666666667,0.30805,0.30065,0.28621666666667,0.29836666666667,5
COM4,508,15-Feb-20,2020-02-15 17:00:00,0.55458333333333,0.50871666666667,0.483,0.47293333333333,0.45855,0.43445,0.4475,5
COM4,508,15-Feb-20,2020-02-15 18:00:00,0.5858166666666701,0.52038333333333,0.4858,0.47111666666667,0.4555,0.42481666666667,0.43958333333333,5
COM4,508,15-Feb-20,2020-02-15 19:00:00,0.78311666666667,0.6637166666666701,0.6139166666666701,0.5946,0.5655333333333299,0.5242,0.54051666666667,5
COM4,508,15-Feb-20,2020-02-15 20:00:00,1.1784833333333,0.9378,0.85895,0.82835,0.78313333333333,0.71773333333333,0.73636666666667,5
COM4,508,15-Feb-20,2020-02-15 21:00:00,0.6286333333333299,0.5529,0.5111,0.5008,0.47455,0.44233333333333,0.45405,5
COM4,508,15-Feb-20,2020-02-15 22:00:00,0.72636666666667,0.6419,0.59356666666667,0.58065,0.5488,0.51078333333333,0.52348333333333,5
COM4,508,15-Feb-20,2020-02-15 23:00:00,0.63485,0.56473333333333,0.52228333333333,0.51231666666667,0.48163333333333,0.44848333333333,0.45811666666667,5
