COM4,508,13-May-19,2019-05-13 00:00:00,0.24057627118643998,0.18138983050847002,0.16252542372881,0.15445762711864003,0.14345762711864002,0.12925423728814,0.13064406779661,5
COM4,508,13-May-19,2019-05-13 01:00:00,0.18991666666667004,0.16516666666667001,0.1522,0.14795,0.1385,0.12776666666667,0.12968333333333001,5
COM4,508,13-May-19,2019-05-13 02:00:00,0.20791666666667002,0.18375,0.17071666666667004,0.16751666666667,0.15868333333332998,0.15098333333333,0.15338333333332999,5
COM4,508,13-May-19,2019-05-13 03:00:00,0.18748333333332998,0.16931666666667003,0.1592,0.15643333333332998,0.14975,0.14075,0.14361666666667,5
COM4,508,13-May-19,2019-05-13 04:00:00,0.22226666666667003,0.20421666666667004,0.19156666666667002,0.18865,0.18098333333332997,0.16963333333332997,0.17351666666667004,5
COM4,508,13-May-19,2019-05-13 05:00:00,0.67648333333333,0.6687666666666701,0.6354666666666701,0.62995,0.6128166666666701,0.59398333333333,0.61223333333333,5
COM4,508,13-May-19,2019-05-13 06:00:00,0.83638333333333,0.81933333333333,0.7736,0.76306666666667,0.74133333333333,0.71446666666667,0.73583333333333,5
COM4,508,13-May-19,2019-05-13 07:00:00,0.5978666666666701,0.6034,0.5743833333333299,0.56835,0.5519833333333299,0.52738333333333,0.54281666666667,5
COM4,508,13-May-19,2019-05-13 08:00:00,1.0587333333333,1.0801,1.03245,1.0291833333333,1.0059166666666999,0.98321666666667,1.0152,5
COM4,508,13-May-19,2019-05-13 09:00:00,1.0999166666667,1.1271333333333,1.0791,1.0775166666667,1.0529333333333,1.02605,1.0583,5
COM4,508,13-May-19,2019-05-13 10:00:00,0.96371666666667,0.97983333333333,0.93733333333333,0.93473333333333,0.91323333333333,0.88923333333333,0.91756666666667,5
COM4,508,13-May-19,2019-05-13 11:00:00,0.54706666666667,0.54946666666667,0.52451666666667,0.52121666666667,0.50785,0.49325,0.51015,5
COM4,508,13-May-19,2019-05-13 12:00:00,0.30771666666666997,0.30346666666667,0.28741666666667,0.28471666666667,0.27661666666667,0.26503333333332996,0.27363333333332995,5
COM4,508,13-May-19,2019-05-13 13:00:00,0.25353333333332995,0.24796666666667003,0.2344,0.23113333333332997,0.22361666666667004,0.21291666666667003,0.21868333333332995,5
COM4,508,13-May-19,2019-05-13 14:00:00,0.22298333333332998,0.2126,0.20055,0.19608333333332997,0.1901,0.17878333333332996,0.18385,5
COM4,508,13-May-19,2019-05-13 15:00:00,0.21403333333332997,0.204,0.19125,0.18726666666667002,0.18018333333332998,0.16543333333333,0.17055,5
COM4,508,13-May-19,2019-05-13 16:00:00,0.20199999999999999,0.18801666666667002,0.17683333333332996,0.1711,0.16731666666667,0.15686666666667,0.1616,5
COM4,508,13-May-19,2019-05-13 17:00:00,0.22201666666667003,0.21593333333332998,0.2018,0.19908333333332998,0.19035,0.17865,0.18335,5
COM4,508,13-May-19,2019-05-13 18:00:00,0.249,0.23801666666667004,0.22473333333332995,0.22101666666667003,0.21203333333332997,0.20328333333332996,0.20831666666667004,5
COM4,508,13-May-19,2019-05-13 19:00:00,0.54425,0.5519,0.52998333333333,0.531,0.52011666666667,0.51255,0.52808333333333,5
COM4,508,13-May-19,2019-05-13 20:00:00,0.5151,0.51001666666667,0.48555,0.48356666666667,0.46848333333333003,0.44885,0.46076666666667,5
COM4,508,13-May-19,2019-05-13 21:00:00,0.3216,0.30183333333333,0.28406666666667,0.28008333333333,0.26753333333332996,0.25325,0.26,5
COM4,508,13-May-19,2019-05-13 22:00:00,0.52303333333333,0.5644,0.56068333333333,0.5772833333333299,0.5719,0.57798333333333,0.5934833333333299,5
COM4,508,13-May-19,2019-05-13 23:00:00,0.9779,1.03555,1.0161166666666999,1.0354666666666998,1.0263833333333001,1.0255166666667,1.0573666666666999,5
