COM4,508,31-Oct-19,2019-10-31 00:00:00,0.7963898305084699,0.69279661016949,0.64406779661017,0.6315762711864399,0.6066271186440699,0.58264406779661,0.59898305084746,5.0
COM4,508,31-Oct-19,2019-10-31 01:00:00,0.6357,0.5706833333333299,0.53126666666667,0.52341666666667,0.50093333333333,0.48083333333333,0.49471666666666997,5.0
COM4,508,31-Oct-19,2019-10-31 02:00:00,0.47785,0.46365,0.43323333333333003,0.42765,0.40998333333333,0.39501666666667,0.40643333333333,5.0
COM4,508,31-Oct-19,2019-10-31 03:00:00,0.2406,0.25851666666667006,0.24258333333332996,0.2405,0.23185,0.22425,0.23008333333332998,5.0
COM4,508,31-Oct-19,2019-10-31 04:00:00,0.45291666666667,0.43041666666667,0.40106666666667,0.39381666666667,0.37808333333333,0.36378333333333,0.37308333333333,5.0
COM4,508,31-Oct-19,2019-10-31 05:00:00,0.73473333333333,0.70618333333333,0.6615166666666701,0.64995,0.6232,0.5943333333333299,0.61195,5.0
COM4,508,31-Oct-19,2019-10-31 06:00:00,0.95166666666667,0.93213333333333,0.87463333333333,0.8627,0.82638333333333,0.78723333333333,0.80886666666667,5.0
COM4,508,31-Oct-19,2019-10-31 07:00:00,1.0988666666667,1.0851833333333,1.0208833333333,1.0094666666667,0.96713333333333,0.92318333333333,0.94843333333333,5.0
COM4,508,31-Oct-19,2019-10-31 08:00:00,0.90183333333333,0.9472,0.90095,0.89646666666667,0.85931666666667,0.82125,0.84406666666667,5.0
COM4,508,31-Oct-19,2019-10-31 09:00:00,0.60715,0.65373333333333,0.6217333333333299,0.6158666666666701,0.5924333333333299,0.5653,0.5816833333333299,5.0
COM4,508,31-Oct-19,2019-10-31 10:00:00,0.67585,0.70775,0.6727,0.6680833333333299,0.64258333333333,0.61646666666667,0.63553333333333,5.0
COM4,508,31-Oct-19,2019-10-31 11:00:00,0.77785,0.78755,0.74535,0.73896666666667,0.70723333333333,0.68231666666667,0.70165,5.0
COM4,508,31-Oct-19,2019-10-31 12:00:00,0.79775,0.78945,0.74578333333333,0.73511666666667,0.7061333333333301,0.6752,0.69663333333333,5.0
COM4,508,31-Oct-19,2019-10-31 13:00:00,0.8448,0.82683333333333,0.77715,0.76443333333333,0.73293333333333,0.69988333333333,0.7218,5.0
COM4,508,31-Oct-19,2019-10-31 14:00:00,0.94213333333333,0.91098333333333,0.85786666666667,0.84053333333333,0.80721666666667,0.77115,0.79438333333333,5.0
COM4,508,31-Oct-19,2019-10-31 15:00:00,0.6747,0.66553333333333,0.6288333333333299,0.62025,0.59805,0.5746666666666701,0.5937333333333299,5.0
COM4,508,31-Oct-19,2019-10-31 16:00:00,0.68101666666667,0.6666,0.6269333333333299,0.6170333333333299,0.5944333333333299,0.5709166666666701,0.58815,5.0
COM4,508,31-Oct-19,2019-10-31 17:00:00,1.2737,1.1723333333333001,1.09425,1.0706666666667,1.02195,0.9716,0.99853333333333,5.0
COM4,508,31-Oct-19,2019-10-31 18:00:00,4.40785,3.3143833333333,2.99045,2.8619833333332996,2.6528666666667005,2.3840666666667003,2.4296833333333,5.0
COM4,508,31-Oct-19,2019-10-31 19:00:00,5.987816666666699,4.4102,3.9710333333333,3.7887,3.5020333333332996,3.1557333333332998,3.2139666666667,5.0
COM4,508,31-Oct-19,2019-10-31 20:00:00,6.0227666666666995,3.6139,3.0822833333333,2.8233833333333,2.5213666666667,2.1608333333333,2.1854166666667,5.0
COM4,508,31-Oct-19,2019-10-31 21:00:00,3.7065333333333,2.2736333333333,1.9423833333333,1.7918666666667,1.6183833333333,1.41295,1.43885,4.6666666666667
COM4,508,31-Oct-19,2019-10-31 22:00:00,1.3493833333333,0.95276666666667,0.84755,0.80495,0.75788333333333,0.69121666666667,0.70741666666667,5.0
COM4,508,31-Oct-19,2019-10-31 23:00:00,1.3975,1.2313666666667,1.1388666666667,1.10595,1.05705,0.97955,1.0027166666667,5.0
