COM6,508,05-Dec-17,2017-12-05 00:00:00,0.10133898305085001,0.10464406779661,0.09262711864406802,0.08664406779660999,0.07698305084745799,0.070694915254237,0.070423728813559,5.0
COM6,508,05-Dec-17,2017-12-05 01:00:00,0.28315,0.1787,0.15073333333333,0.14061666666667003,0.1252,0.11,0.11103333333333,5.0
COM6,508,05-Dec-17,2017-12-05 02:00:00,0.071133333333333,0.071633333333333,0.0624,0.0581,0.05166666666666699,0.045566666666667,0.045466666666666995,5.0
COM6,508,05-Dec-17,2017-12-05 03:00:00,0.17926666666667004,0.1754,0.15866666666667,0.1553,0.14133333333332998,0.13015,0.13228333333333,5.0
COM6,508,05-Dec-17,2017-12-05 04:00:00,0.17816666666667003,0.13313333333333,0.1164,0.1077,0.09683333333333301,0.08506666666666701,0.08591666666666702,5.0
COM6,508,05-Dec-17,2017-12-05 05:00:00,0.32388333333333,0.28193333333333,0.25491666666667,0.24435,0.22621666666667004,0.20651666666667004,0.21015,5.0
COM6,508,05-Dec-17,2017-12-05 06:00:00,0.80385,0.65135,0.5810666666666701,0.55701666666667,0.51333333333333,0.4697,0.47988333333333,5.0
COM6,508,05-Dec-17,2017-12-05 07:00:00,1.1714833333333001,1.0373666666666999,0.94866666666667,0.92111666666667,0.85973333333333,0.80248333333333,0.82025,5.0
COM6,508,05-Dec-17,2017-12-05 08:00:00,1.5454333333333001,1.4697833333333001,1.3532333333333,1.3106833333333001,1.22205,1.1273833333333,1.15065,5.0
COM6,508,05-Dec-17,2017-12-05 09:00:00,2.4201833333333,2.3327166666667,2.14665,2.0886833333333,1.9588666666666998,1.8475666666666999,1.8897,5.0
COM6,508,05-Dec-17,2017-12-05 10:00:00,0.97898333333333,1.0002166666666998,0.91866666666667,0.89108333333333,0.83346666666667,0.7726833333333301,0.78791666666667,5.0
COM6,508,05-Dec-17,2017-12-05 11:00:00,1.2314833333333,1.2067666666666998,1.11525,1.0741166666667,1.0121833333333001,0.93061666666667,0.95388333333333,5.0
COM6,508,05-Dec-17,2017-12-05 12:00:00,0.3417,0.37983333333333,0.35753333333333,0.34241666666667,0.33186666666667,0.29308333333333003,0.30538333333333,5.0
COM6,508,05-Dec-17,2017-12-05 13:00:00,0.29435,0.28645,0.27323333333332994,0.25168333333333,0.25691666666667,0.2231,0.23813333333332998,5.0
COM6,508,05-Dec-17,2017-12-05 14:00:00,0.6370666666666701,0.58755,0.54385,0.51281666666667,0.5004833333333301,0.4472,0.46796666666667,5.0
COM6,508,05-Dec-17,2017-12-05 15:00:00,0.61175,0.55263333333333,0.51215,0.48006666666666997,0.4681,0.4093,0.42671666666667,5.0
COM6,508,05-Dec-17,2017-12-05 16:00:00,0.89605,0.79168333333333,0.72188333333333,0.68271666666667,0.64771666666667,0.58483333333333,0.6035833333333299,5.0
COM6,508,05-Dec-17,2017-12-05 17:00:00,1.1153166666667,0.9964,0.93258333333333,0.91371666666667,0.8789,0.838,0.86826666666667,4.6666666666667
COM6,508,05-Dec-17,2017-12-05 18:00:00,1.1321,0.88616666666667,0.82031666666667,0.79623333333333,0.76096666666667,0.72543333333333,0.74615,5.0
COM6,508,05-Dec-17,2017-12-05 19:00:00,0.99925,0.7411,0.67333333333333,0.64645,0.6127833333333299,0.57911666666667,0.59498333333333,5.0
COM6,508,05-Dec-17,2017-12-05 20:00:00,0.74575,0.6409999999999999,0.58903333333333,0.5664666666666701,0.53731666666667,0.50691666666667,0.51986666666667,5.0
COM6,508,05-Dec-17,2017-12-05 21:00:00,1.1415666666667,0.97363333333333,0.89035,0.8519,0.8027,0.74001666666667,0.75633333333333,5.0
COM6,508,05-Dec-17,2017-12-05 22:00:00,0.82158333333333,0.80776666666667,0.75801666666667,0.7387,0.7071333333333301,0.6692666666666701,0.68713333333333,5.0
COM6,508,05-Dec-17,2017-12-05 23:00:00,0.67232727272727,0.6406,0.59927272727273,0.58250909090909,0.556,0.52856363636364,0.54198181818182,5.0
