COM6,508,15-May-18,2018-05-15 00:00:00,0.47613559322034,0.47344067796609995,0.45289830508475,0.45030508474576003,0.43338983050846996,0.41798305084746,0.43030508474576,5
COM6,508,15-May-18,2018-05-15 01:00:00,0.36398333333333,0.35713333333333,0.33808333333333,0.33365,0.31703333333333,0.30335,0.31151666666667,5
COM6,508,15-May-18,2018-05-15 02:00:00,0.24396666666667002,0.24,0.22395,0.22233333333332997,0.21016666666667003,0.20018333333332997,0.20535,5
COM6,508,15-May-18,2018-05-15 03:00:00,0.13798333333333,0.13028333333333,0.12175,0.12045,0.1115,0.10481666666667,0.10783333333333,5
COM6,508,15-May-18,2018-05-15 04:00:00,0.18371666666667003,0.1706,0.15903333333332997,0.15483333333333,0.14495,0.13695,0.14075,5
COM6,508,15-May-18,2018-05-15 05:00:00,0.40315,0.375,0.34845,0.3398,0.32138333333333,0.3022,0.31013333333333,5
COM6,508,15-May-18,2018-05-15 06:00:00,0.49598333333333,0.47473333333333,0.44495,0.43341666666667,0.41165,0.39225,0.40283333333333,5
COM6,508,15-May-18,2018-05-15 07:00:00,0.79625,0.79448333333333,0.75418333333333,0.74728333333333,0.71125,0.682,0.70325,5
COM6,508,15-May-18,2018-05-15 08:00:00,1.01945,1.0462666666667,1.0080666666667,1.0118,0.97063333333333,0.94573333333333,0.9722666666666699,5
COM6,508,15-May-18,2018-05-15 09:00:00,0.94976666666667,0.97373333333333,0.9384,0.94218333333333,0.90796666666667,0.88818333333333,0.91345,5
COM6,508,15-May-18,2018-05-15 10:00:00,0.4473,0.44086666666667,0.41275,0.40643333333333,0.38201666666667,0.36165,0.36881666666667,5
COM6,508,15-May-18,2018-05-15 11:00:00,0.40528333333333,0.38223333333333,0.3534,0.34368333333333,0.32085,0.29581666666667,0.30428333333333,5
COM6,508,15-May-18,2018-05-15 12:00:00,0.42083333333333,0.39553333333333,0.36791666666667,0.35666666666667,0.3333,0.30781666666667,0.31415,5
COM6,508,15-May-18,2018-05-15 13:00:00,0.5574666666666701,0.5275,0.49228333333333,0.47955,0.45166666666667,0.42316666666667,0.4336,5
COM6,508,15-May-18,2018-05-15 14:00:00,0.5468833333333301,0.52081666666667,0.49121666666667,0.47885,0.4516,0.42033333333333,0.43091666666667,5
COM6,508,15-May-18,2018-05-15 15:00:00,0.49068333333333003,0.45735,0.42301666666667,0.40706666666667,0.38515,0.34796666666667,0.35775,5
COM6,508,15-May-18,2018-05-15 16:00:00,0.6183,0.5702333333333299,0.5264,0.5075666666666699,0.47656666666666997,0.4389,0.45138333333333003,5
COM6,508,15-May-18,2018-05-15 17:00:00,0.6058666666666701,0.5644,0.52431666666667,0.50606666666667,0.47846666666667,0.44288333333333,0.4562,5
COM6,508,15-May-18,2018-05-15 18:00:00,0.43893333333333,0.41406666666666997,0.38516666666667,0.37463333333333,0.35296666666667,0.32883333333333,0.3354,5
COM6,508,15-May-18,2018-05-15 19:00:00,0.29745,0.28208333333333,0.26373333333333,0.25721666666667004,0.2388,0.22178333333332997,0.22558333333332997,5
COM6,508,15-May-18,2018-05-15 20:00:00,0.28093333333333,0.25915,0.2387,0.23101666666667003,0.21375,0.18906666666667002,0.1937,5
COM6,508,15-May-18,2018-05-15 21:00:00,0.31093333333333,0.27201666666667,0.24641666666667003,0.23466666666667002,0.21616666666667003,0.19376666666667003,0.19725,5
COM6,508,15-May-18,2018-05-15 22:00:00,0.75618333333333,0.69555,0.64181666666667,0.6219333333333299,0.58015,0.53853333333333,0.55225,5
COM6,508,15-May-18,2018-05-15 23:00:00,0.40531666666667,0.35395,0.32406666666667,0.31041666666667,0.2862,0.25966666666667004,0.26546666666667,5
