COM6,0508,13-Jan-19,2019-01-13 00:00:00,0.25127118644068,0.26489830508475,0.25738983050847,0.25894915254237,0.25366101694915,0.24981355932203,0.25801694915254,4.8,0,0,0,0,0,0,0,0,0,0,0,0,0,0,0,0,0,0,0,0,0,0,0,0,0,0,0,0,0,0,0,0,0,0,0,0,0,0,0,0,0,0
COM6,0508,13-Jan-19,2019-01-13 01:00:00,0.24943333333333,0.25955,0.25151666666667,0.2529,0.24573333333333,0.24068333333333,0.24726666666667,4.8,0,0,0,0,0,0,0,0,0,0,0,0,0,0,0,0,0,0,0,0,0,0,0,0,0,0,0,0,0,0,0,0,0,0,0,0,0,0,0,0,0,0
COM6,0508,13-Jan-19,2019-01-13 02:00:00,0.22165,0.22968333333333,0.22173333333333,0.2229,0.2168,0.21156666666667,0.2186,4.8,0,0,0,0,0,0,0,0,0,0,0,0,0,0,0,0,0,0,0,0,0,0,0,0,0,0,0,0,0,0,0,0,0,0,0,0,0,0,0,0,0,0
COM6,0508,13-Jan-19,2019-01-13 03:00:00,0.21931666666667,0.22645,0.21871666666667,0.22055,0.21288333333333,0.20883333333333,0.21373333333333,4.8,0,0,0,0,0,0,0,0,0,0,0,0,0,0,0,0,0,0,0,0,0,0,0,0,0,0,0,0,0,0,0,0,0,0,0,0,0,0,0,0,0,0
COM6,0508,13-Jan-19,2019-01-13 04:00:00,0.23573333333333,0.2414,0.23343333333333,0.23458333333333,0.22685,0.22451666666667,0.23053333333333,4.8,0,0,0,0,0,0,0,0,0,0,0,0,0,0,0,0,0,0,0,0,0,0,0,0,0,0,0,0,0,0,0,0,0,0,0,0,0,0,0,0,0,0
COM6,0508,13-Jan-19,2019-01-13 05:00:00,0.25248333333333,0.25583333333333,0.2463,0.24726666666667,0.23815,0.23135,0.23795,4.8,0,0,0,0,0,0,0,0,0,0,0,0,0,0,0,0,0,0,0,0,0,0,0,0,0,0,0,0,0,0,0,0,0,0,0,0,0,0,0,0,0,0
COM6,0508,13-Jan-19,2019-01-13 06:00:00,0.26355,0.26518333333333,0.25466666666667,0.257,0.24571666666667,0.23956666666667,0.24515,4.8,0,0,0,0,0,0,0,0,0,0,0,0,0,0,0,0,0,0,0,0,0,0,0,0,0,0,0,0,0,0,0,0,0,0,0,0,0,0,0,0,0,0
COM6,0508,13-Jan-19,2019-01-13 07:00:00,0.23823333333333,0.23716666666667,0.22756666666667,0.22605,0.2195,0.21336666666667,0.21858333333333,4.8,0,0,0,0,0,0,0,0,0,0,0,0,0,0,0,0,0,0,0,0,0,0,0,0,0,0,0,0,0,0,0,0,0,0,0,0,0,0,0,0,0,0
COM6,0508,13-Jan-19,2019-01-13 08:00:00,0.23493333333333,0.2356,0.22546666666667,0.22543333333333,0.21653333333333,0.20855,0.21456666666667,4.8,0,0,0,0,0,0,0,0,0,0,0,0,0,0,0,0,0,0,0,0,0,0,0,0,0,0,0,0,0,0,0,0,0,0,0,0,0,0,0,0,0,0
COM6,0508,13-Jan-19,2019-01-13 09:00:00,0.26225,0.26048333333333,0.2505,0.24911666666667,0.23951666666667,0.23101666666667,0.23688333333333,4.8,0,0,0,0,0,0,0,0,0,0,0,0,0,0,0,0,0,0,0,0,0,0,0,0,0,0,0,0,0,0,0,0,0,0,0,0,0,0,0,0,0,0
COM6,0508,13-Jan-19,2019-01-13 10:00:00,0.25333333333333,0.25043333333333,0.2406,0.23846666666667,0.23106666666667,0.22111666666667,0.2275,4.8,0,0,0,0,0,0,0,0,0,0,0,0,0,0,0,0,0,0,0,0,0,0,0,0,0,0,0,0,0,0,0,0,0,0,0,0,0,0,0,0,0,0
COM6,0508,13-Jan-19,2019-01-13 11:00:00,0.27201666666667,0.26986666666667,0.25836666666667,0.25746666666667,0.24716666666667,0.23768333333333,0.2434,4.8,0,0,0,0,0,0,0,0,0,0,0,0,0,0,0,0,0,0,0,0,0,0,0,0,0,0,0,0,0,0,0,0,0,0,0,0,0,0,0,0,0,0
COM6,0508,13-Jan-19,2019-01-13 12:00:00,0.25431666666667,0.25401666666667,0.24376666666667,0.24066666666667,0.23583333333333,0.22763333333333,0.23553333333333,4.8,0,0,0,0,0,0,0,0,0,0,0,0,0,0,0,0,0,0,0,0,0,0,0,0,0,0,0,0,0,0,0,0,0,0,0,0,0,0,0,0,0,0
COM6,0508,13-Jan-19,2019-01-13 13:00:00,0.27931666666667,0.2793,0.26971666666667,0.26655,0.2589,0.24715,0.25491666666667,4.8,0,0,0,0,0,0,0,0,0,0,0,0,0,0,0,0,0,0,0,0,0,0,0,0,0,0,0,0,0,0,0,0,0,0,0,0,0,0,0,0,0,0
COM6,0508,13-Jan-19,2019-01-13 14:00:00,0.26386666666667,0.26431666666667,0.25435,0.25263333333333,0.2453,0.23288333333333,0.2401,4.8,0,0,0,0,0,0,0,0,0,0,0,0,0,0,0,0,0,0,0,0,0,0,0,0,0,0,0,0,0,0,0,0,0,0,0,0,0,0,0,0,0,0
COM6,0508,13-Jan-19,2019-01-13 15:00:00,0.25776666666667,0.26048333333333,0.25118333333333,0.24885,0.2419,0.23178333333333,0.23885,4.8,0,0,0,0,0,0,0,0,0,0,0,0,0,0,0,0,0,0,0,0,0,0,0,0,0,0,0,0,0,0,0,0,0,0,0,0,0,0,0,0,0,0
COM6,0508,13-Jan-19,2019-01-13 16:00:00,0.26375,0.26318333333333,0.25273333333333,0.25128333333333,0.24191666666667,0.23286666666667,0.23953333333333,4.77,0,0,0,0,0,0,0,0,0,0,0,0,0,0,0,0,0,0,0,0,0,0,0,0,0,0,0,0,0,0,0,0,0,0,0,0,0,0,0,0,0,0
COM6,0508,13-Jan-19,2019-01-13 17:00:00,0.19578333333333,0.19875,0.19198333333333,0.19105,0.18506666666667,0.183,0.18943333333333,4.7366666666667,0,0,0,0,0,0,0,0,0,0,0,0,0,0,0,0,0,0,0,0,0,0,0,0,0,0,0,0,0,0,0,0,0,0,0,0,0,0,0,0,0,0
COM6,0508,13-Jan-19,2019-01-13 18:00:00,0.26043333333333,0.25878333333333,0.24763333333333,0.24555,0.23678333333333,0.22775,0.23518333333333,4.7016666666667,0,0,0,0,0,0,0,0,0,0,0,0,0,0,0,0,0,0,0,0,0,0,0,0,0,0,0,0,0,0,0,0,0,0,0,0,0,0,0,0,0,0
COM6,0508,13-Jan-19,2019-01-13 19:00:00,0.34678333333333,0.33765,0.3222,0.32038333333333,0.3087,0.29711666666667,0.30423333333333,4.7,0,0,0,0,0,0,0,0,0,0,0,0,0,0,0,0,0,0,0,0,0,0,0,0,0,0,0,0,0,0,0,0,0,0,0,0,0,0,0,0,0,0
COM6,0508,13-Jan-19,2019-01-13 20:00:00,0.30435,0.30283333333333,0.2921,0.28871666666667,0.27925,0.26796666666667,0.27633333333333,4.7,0,0,0,0,0,0,0,0,0,0,0,0,0,0,0,0,0,0,0,0,0,0,0,0,0,0,0,0,0,0,0,0,0,0,0,0,0,0,0,0,0,0
COM6,0508,13-Jan-19,2019-01-13 21:00:00,0.33703333333333,0.33251666666667,0.31883333333333,0.31621666666667,0.30378333333333,0.28966666666667,0.29616666666667,4.7,0,0,0,0,0,0,0,0,0,0,0,0,0,0,0,0,0,0,0,0,0,0,0,0,0,0,0,0,0,0,0,0,0,0,0,0,0,0,0,0,0,0
COM6,0508,13-Jan-19,2019-01-13 22:00:00,0.32153333333333,0.31723333333333,0.3035,0.30103333333333,0.29085,0.27831666666667,0.2858,4.7,0,0,0,0,0,0,0,0,0,0,0,0,0,0,0,0,0,0,0,0,0,0,0,0,0,0,0,0,0,0,0,0,0,0,0,0,0,0,0,0,0,0
COM6,0508,13-Jan-19,2019-01-13 23:00:00,0.31914035087719,0.31487719298246,0.30191228070175,0.2990350877193,0.2880701754386,0.27471929824561,0.28278947368421,4.7,0,0,0,0,0,0,0,0,0,0,0,0,0,0,0,0,0,0,0,0,0,0,0,0,0,0,0,0,0,0,0,0,0,0,0,0,0,0,0,0,0,0
