COM4,508,22-Nov-19,2019-11-22 00:00:00,0.33006779661017,0.32259322033897997,0.28966101694915003,0.28096610169492,0.25332203389831,0.22952542372881,0.23152542372881,5.0
COM4,508,22-Nov-19,2019-11-22 01:00:00,0.2503,0.2827,0.26076666666667003,0.25913333333332994,0.23405,0.2157,0.21533333333332996,5.0
COM4,508,22-Nov-19,2019-11-22 02:00:00,0.38233333333333,0.38638333333333,0.3581,0.3566,0.32731666666667,0.30601666666667,0.30805,5.0
COM4,508,22-Nov-19,2019-11-22 03:00:00,0.96585,0.89265,0.82458333333333,0.81105,0.76281666666667,0.72156666666667,0.73565,5.0
COM4,508,22-Nov-19,2019-11-22 04:00:00,0.98806666666667,0.89271666666667,0.82098333333333,0.79765,0.7509999999999999,0.69678333333333,0.71136666666667,5.0
COM4,508,22-Nov-19,2019-11-22 05:00:00,1.1178,0.9986,0.91386666666667,0.88405,0.83373333333333,0.77065,0.78948333333333,5.0
COM4,508,22-Nov-19,2019-11-22 06:00:00,1.9030333333333,1.6981,1.5525333333333,1.5005166666667,1.4129833333333,1.3098166666667,1.34095,5.0
COM4,508,22-Nov-19,2019-11-22 07:00:00,2.4762,2.1912,1.99025,1.91975,1.8021,1.66255,1.6985333333333001,5.0
COM4,508,22-Nov-19,2019-11-22 08:00:00,2.5839833333332995,2.2938666666667,2.0922,2.0148333333333,1.8863,1.73205,1.7698666666667,5.0
COM4,508,22-Nov-19,2019-11-22 09:00:00,2.5752333333333,2.3049,2.0992,2.02075,1.9016,1.74485,1.7846166666667,4.6666666666667
COM4,508,22-Nov-19,2019-11-22 10:00:00,1.3354666666666999,1.1935666666667,1.1257666666666999,1.1064,1.0754666666666999,1.0261833333333001,1.05905,5.0
COM4,508,22-Nov-19,2019-11-22 11:00:00,0.66306666666667,0.6508833333333299,0.6204166666666701,0.6140166666666701,0.5966,0.57716666666667,0.5947666666666701,5.0
COM4,508,22-Nov-19,2019-11-22 12:00:00,0.47323333333333,0.49683333333333,0.47723333333333,0.47341666666667,0.46336666666667,0.4438,0.45806666666667,5.0
COM4,508,22-Nov-19,2019-11-22 13:00:00,0.29041666666667,0.30395,0.29213333333333,0.28906666666666997,0.28328333333333,0.2716,0.27941666666667,5.0
COM4,508,22-Nov-19,2019-11-22 14:00:00,0.21121666666667002,0.21506666666667004,0.20616666666667002,0.2047,0.19898333333332996,0.19046666666667003,0.19583333333332997,5.0
COM4,508,22-Nov-19,2019-11-22 15:00:00,0.19141666666667004,0.1838,0.17438333333332998,0.17155,0.16783333333332998,0.15891666666667,0.16456666666667003,5.0
COM4,508,22-Nov-19,2019-11-22 16:00:00,0.22185,0.21411666666667004,0.2042,0.20006666666667003,0.1964,0.18695,0.19376666666667003,5.0
COM4,508,22-Nov-19,2019-11-22 17:00:00,0.24276666666667004,0.23951666666667004,0.2273,0.22536666666667002,0.21778333333332997,0.2089,0.21515,5.0
COM4,508,22-Nov-19,2019-11-22 18:00:00,0.52158333333333,0.46925,0.43918333333333,0.42901666666667,0.4133,0.3899,0.39966666666667,5.0
COM4,508,22-Nov-19,2019-11-22 19:00:00,0.63591666666667,0.542,0.50113333333333,0.48518333333333,0.46526666666667,0.4338,0.446,5.0
COM4,508,22-Nov-19,2019-11-22 20:00:00,1.1262166666667,0.88495,0.80476666666667,0.76165,0.71805,0.6479,0.6632833333333299,5.0
COM4,508,22-Nov-19,2019-11-22 21:00:00,0.72636666666667,0.57505,0.51926666666667,0.49091666666667,0.45986666666667,0.41191666666667,0.42121666666667,5.0
COM4,508,22-Nov-19,2019-11-22 22:00:00,0.4272,0.37845,0.34223333333333,0.32195,0.3012,0.2689,0.27593333333333003,5.0
COM4,508,22-Nov-19,2019-11-22 23:00:00,0.50085,0.46445,0.42696666666667,0.40635,0.3826,0.33686666666667,0.34395,5.0
