COM6,508,03-Oct-18,2018-10-03 00:00:00,NaN,NaN,NaN,NaN,NaN,NaN,NaN,NaN
COM6,508,03-Oct-18,2018-10-03 01:00:00,NaN,NaN,NaN,NaN,NaN,NaN,NaN,NaN
COM6,508,03-Oct-18,2018-10-03 02:00:00,NaN,NaN,NaN,NaN,NaN,NaN,NaN,NaN
COM6,508,03-Oct-18,2018-10-03 03:00:00,NaN,NaN,NaN,NaN,NaN,NaN,NaN,NaN
COM6,508,03-Oct-18,2018-10-03 04:00:00,NaN,NaN,NaN,NaN,NaN,NaN,NaN,NaN
COM6,508,03-Oct-18,2018-10-03 05:00:00,NaN,NaN,NaN,NaN,NaN,NaN,NaN,NaN
COM6,508,03-Oct-18,2018-10-03 06:00:00,NaN,NaN,NaN,NaN,NaN,NaN,NaN,NaN
COM6,508,03-Oct-18,2018-10-03 07:00:00,NaN,NaN,NaN,NaN,NaN,NaN,NaN,NaN
COM6,508,03-Oct-18,2018-10-03 08:00:00,NaN,NaN,NaN,NaN,NaN,NaN,NaN,NaN
COM6,508,03-Oct-18,2018-10-03 09:00:00,NaN,NaN,NaN,NaN,NaN,NaN,NaN,NaN
COM6,508,03-Oct-18,2018-10-03 10:00:00,0.33783333333333,0.35086666666667,0.3378,0.34013333333333,0.32581666666667,0.31625,0.32373333333333,5
COM6,508,03-Oct-18,2018-10-03 11:00:00,0.2333,0.24753333333332997,0.23708333333332998,0.23938333333332998,0.22766666666667004,0.21365,0.21646666666667003,5
COM6,508,03-Oct-18,2018-10-03 12:00:00,0.6255833333333299,0.6042166666666701,0.5685333333333299,0.56135,0.53535,0.51406666666667,0.52775,5
COM6,508,03-Oct-18,2018-10-03 13:00:00,0.5913,0.5616333333333299,0.5263,0.51543333333333,0.49603333333333,0.47665,0.48798333333333,5
COM6,508,03-Oct-18,2018-10-03 14:00:00,0.64186666666667,0.6095833333333299,0.5717666666666701,0.56185,0.5388166666666699,0.51821666666667,0.53285,5
COM6,508,03-Oct-18,2018-10-03 15:00:00,0.68865,0.6626166666666701,0.62338333333333,0.61625,0.59221666666667,0.57006666666667,0.58636666666667,5
COM6,508,03-Oct-18,2018-10-03 16:00:00,0.86365,0.85681666666667,0.81785,0.81123333333333,0.78593333333333,0.76393333333333,0.78708333333333,5
COM6,508,03-Oct-18,2018-10-03 17:00:00,1.1787166666667,1.1740333333333,1.1193333333333,1.1144166666667,1.0757166666667,1.0419833333333,1.0704833333333001,5
COM6,508,03-Oct-18,2018-10-03 18:00:00,0.90831666666667,0.89611666666667,0.84801666666667,0.83953333333333,0.80873333333333,0.76951666666667,0.7926,5
COM6,508,03-Oct-18,2018-10-03 19:00:00,0.5236666666666699,0.49795,0.46366666666667,0.45291666666667,0.43105,0.40401666666667,0.41556666666666997,5
COM6,508,03-Oct-18,2018-10-03 20:00:00,0.74458333333333,0.7041166666666699,0.6618,0.64968333333333,0.62115,0.59126666666667,0.6055333333333299,5
COM6,508,03-Oct-18,2018-10-03 21:00:00,0.6147,0.6455666666666701,0.63065,0.63995,0.6258833333333299,0.62455,0.64433333333333,5
COM6,508,03-Oct-18,2018-10-03 22:00:00,0.4757,0.48955,0.47121666666667,0.47563333333333,0.46311666666667,0.4545,0.46813333333333,5
COM6,508,03-Oct-18,2018-10-03 23:00:00,0.73476271186441,0.7384067796610201,0.70793220338983,0.70766101694915,0.6865423728813601,0.66579661016949,0.68701694915254,5
