COM6,508,02-Apr-18,2018-04-02 00:00:00,0.29530508474576,0.27288135593220003,0.25579661016948996,0.24974576271185997,0.23796610169492002,0.22520338983051003,0.23077966101695002,5
COM6,508,02-Apr-18,2018-04-02 01:00:00,0.29068333333333,0.29363333333333,0.27626666666667,0.26891666666667,0.25978333333333,0.24468333333332998,0.2516,5
COM6,508,02-Apr-18,2018-04-02 02:00:00,0.34803333333333003,0.35076666666667,0.33115,0.32368333333333,0.31226666666666997,0.29401666666667,0.30255,5
COM6,508,02-Apr-18,2018-04-02 03:00:00,0.28800000000000003,0.28766666666667,0.2732,0.2676,0.26,0.24566666666667003,0.25263333333333,5
COM6,508,02-Apr-18,2018-04-02 04:00:00,0.19065,0.18788333333332996,0.1787,0.17491666666667002,0.16835,0.1614,0.16585,5
COM6,508,02-Apr-18,2018-04-02 05:00:00,0.5704,0.56185,0.53255,0.5235,0.50771666666667,0.4879,0.50235,5
COM6,508,02-Apr-18,2018-04-02 06:00:00,0.56945,0.5562833333333299,0.52838333333333,0.51921666666667,0.50356666666667,0.48395,0.49925,5
COM6,508,02-Apr-18,2018-04-02 07:00:00,0.32065,0.31583333333333,0.29978333333333,0.29481666666667,0.28575,0.27511666666667,0.28295,5
COM6,508,02-Apr-18,2018-04-02 08:00:00,0.40578333333333,0.38498333333333,0.36175,0.35295,0.33985,0.32323333333333,0.3317,5
COM6,508,02-Apr-18,2018-04-02 09:00:00,0.28773333333333,0.28796666666667,0.27435,0.27008333333332996,0.26028333333333,0.24485,0.25285,5
COM6,508,02-Apr-18,2018-04-02 10:00:00,0.97698333333333,0.9921,0.94755,0.93916666666667,0.9156,0.8976,0.9271,5
COM6,508,02-Apr-18,2018-04-02 11:00:00,0.75103333333333,0.76726666666667,0.73578333333333,0.73091666666667,0.71366666666667,0.69875,0.722,5
COM6,508,02-Apr-18,2018-04-02 12:00:00,0.27773333333333,0.27536666666667,0.26308333333332995,0.25891666666667,0.25206666666667005,0.24863333333332996,0.25528333333333,5
COM6,508,02-Apr-18,2018-04-02 13:00:00,0.31218333333333,0.32415,0.31308333333333,0.31298333333333,0.30606666666667,0.29813333333333003,0.3084,5
COM6,508,02-Apr-18,2018-04-02 14:00:00,0.31895,0.3273,0.3139,0.31146666666667,0.30578333333333,0.30405,0.31391666666667,5
COM6,508,02-Apr-18,2018-04-02 15:00:00,0.19213333333332996,0.19913333333332997,0.19118333333332996,0.18995,0.1858,0.18258333333332996,0.18856666666667002,5
COM6,508,02-Apr-18,2018-04-02 16:00:00,0.10891666666666999,0.11358333333333001,0.10873333333333,0.10763333333333,0.10555,0.09935,0.10278333333333001,5
COM6,508,02-Apr-18,2018-04-02 17:00:00,0.17741666666667003,0.18166666666667003,0.17583333333332996,0.17465,0.17103333333332996,0.16608333333332997,0.1719,5
COM6,508,02-Apr-18,2018-04-02 18:00:00,0.26056666666667005,0.26085,0.25215,0.25158333333333,0.24701666666667002,0.23188333333332997,0.2417,5
COM6,508,02-Apr-18,2018-04-02 19:00:00,0.1635,0.15366666666667,0.14471666666667002,0.14246666666667002,0.1348,0.12648333333333,0.13056666666667,5
COM6,508,02-Apr-18,2018-04-02 20:00:00,0.12276666666667,0.12788333333333002,0.12185,0.12233333333333,0.1159,0.11388333333333,0.11576666666667,5
COM6,508,02-Apr-18,2018-04-02 21:00:00,0.18076666666667005,0.19116666666667004,0.18265,0.18738333333332996,0.1784,0.18651666666667002,0.19148333333332998,5
COM6,508,02-Apr-18,2018-04-02 22:00:00,0.0828,0.0871,0.08066666666666701,0.08521666666666701,0.073066666666667,0.071483333333333,0.07096666666666701,5
COM6,508,02-Apr-18,2018-04-02 23:00:00,0.054947368421053,0.055842105263158,0.051456140350877,0.054614035087719004,0.04749122807017501,0.05207017543859599,0.05140350877193,5
