COM6,508,23-Oct-17,2017-10-23 00:00:00,0.37786440677966,0.3754406779661,0.35579661016949,0.35267796610169,0.33803389830508,0.32694915254237,0.33574576271186,5
COM6,508,23-Oct-17,2017-10-23 01:00:00,0.33596666666667,0.33481666666667,0.31728333333333003,0.31458333333333,0.30275,0.29316666666667,0.30113333333333,5
COM6,508,23-Oct-17,2017-10-23 02:00:00,0.29343333333333,0.28958333333333003,0.27483333333333,0.27186666666667003,0.26116666666667004,0.2545,0.26145,5
COM6,508,23-Oct-17,2017-10-23 03:00:00,0.3855,0.38283333333333003,0.36325,0.35968333333333,0.34676666666667,0.33776666666667,0.3466,5
COM6,508,23-Oct-17,2017-10-23 04:00:00,0.45971666666667,0.45,0.42541666666667,0.42155,0.40645,0.39541666666666997,0.40693333333333,5
COM6,508,23-Oct-17,2017-10-23 05:00:00,1.1638666666667,1.18555,1.1346666666667,1.13305,1.1041333333333,1.0965666666667,1.1327166666667,5
COM6,508,23-Oct-17,2017-10-23 06:00:00,1.1169166666666999,1.1135666666667,1.05665,1.04835,1.0128333333333,0.98693333333333,1.01605,5
COM6,508,23-Oct-17,2017-10-23 07:00:00,2.20815,2.2323833333332996,2.1325166666667,2.1276666666667,2.0641166666667,2.0329333333333,2.0948666666666997,5
COM6,508,23-Oct-17,2017-10-23 08:00:00,1.2638,1.3203,1.2683166666666998,1.2675166666667,1.2274666666667,1.2054666666667,1.2394833333333,5
COM6,508,23-Oct-17,2017-10-23 09:00:00,1.3233333333333,1.3988333333333,1.34755,1.35725,1.3109333333333,1.2969333333333,1.3311833333333,5
COM6,508,23-Oct-17,2017-10-23 10:00:00,0.39813333333333,0.43668333333333,0.41991666666667,0.42595,0.40506666666667,0.3994,0.40885,5
COM6,508,23-Oct-17,2017-10-23 11:00:00,0.33978333333333,0.36105,0.34673333333333,0.34965,0.33446666666667,0.3233,0.3295,5
COM6,508,23-Oct-17,2017-10-23 12:00:00,0.18236666666667004,0.19173333333332998,0.18318333333332998,0.1844,0.17658333333332996,0.17086666666667003,0.17753333333332996,5
COM6,508,23-Oct-17,2017-10-23 13:00:00,0.19836666666667002,0.2021,0.19161666666667004,0.18906666666667002,0.18,0.17385,0.17756666666667004,5
COM6,508,23-Oct-17,2017-10-23 14:00:00,0.23931666666667004,0.23455,0.22201666666667003,0.21868333333332995,0.21021666666667002,0.20506666666667003,0.2122,5
COM6,508,23-Oct-17,2017-10-23 15:00:00,0.32651666666667,0.3267,0.3096,0.30736666666667,0.29768333333333,0.29086666666667,0.2995,5
COM6,508,23-Oct-17,2017-10-23 16:00:00,0.5754333333333299,0.58395,0.55505,0.55116666666667,0.53473333333333,0.5291,0.54653333333333,5
COM6,508,23-Oct-17,2017-10-23 17:00:00,0.42100000000000004,0.42225,0.40085,0.39681666666667,0.38261666666667,0.37306666666667,0.38193333333333,5
COM6,508,23-Oct-17,2017-10-23 18:00:00,0.7806,0.74405,0.70348333333333,0.69575,0.6664,0.6341833333333299,0.6525666666666701,5
COM6,508,23-Oct-17,2017-10-23 19:00:00,0.46543333333333,0.42335,0.39451666666667,0.3838,0.3644,0.34123333333333,0.35075,5
COM6,508,23-Oct-17,2017-10-23 20:00:00,0.40943333333333,0.3728,0.3445,0.33596666666667,0.31616666666667,0.29011666666667,0.29558333333333,5
COM6,508,23-Oct-17,2017-10-23 21:00:00,0.28198333333333003,0.25073333333333,0.22881666666667003,0.22036666666667004,0.20603333333332996,0.19078333333332997,0.1951,5
COM6,508,23-Oct-17,2017-10-23 22:00:00,0.19535,0.17331666666667003,0.1594,0.15393333333332998,0.14486666666667,0.13131666666667,0.13566666666667,5
COM6,508,23-Oct-17,2017-10-23 23:00:00,0.43846428571428997,0.32307142857143,0.28651785714286,0.265625,0.24285714285714,0.21785714285714,0.21982142857143,5
