COM6,508,02-Jun-18,2018-06-02 00:00:00,0.19728813559322,0.16694915254237,0.15120338983051,0.14566101694915,0.1318813559322,0.12067796610169,0.12184745762712,5
COM6,508,02-Jun-18,2018-06-02 01:00:00,0.18165,0.16165,0.14543333333333,0.14055,0.12671666666667,0.1139,0.11453333333333,5
COM6,508,02-Jun-18,2018-06-02 02:00:00,0.30295,0.28053333333333,0.26043333333333,0.25533333333333,0.2374,0.22148333333333,0.22481666666667,5
COM6,508,02-Jun-18,2018-06-02 03:00:00,0.20786666666667,0.18641666666667,0.16933333333333,0.16561666666667,0.15168333333333,0.14196666666667,0.14573333333333,5
COM6,508,02-Jun-18,2018-06-02 04:00:00,0.1643,0.14101666666667,0.12861666666667,0.12408333333333,0.11191666666667,0.098066666666667,0.099983333333333,5
COM6,508,02-Jun-18,2018-06-02 05:00:00,0.37115,0.32691666666667,0.30081666666667,0.2906,0.27155,0.2496,0.25548333333333,5
COM6,508,02-Jun-18,2018-06-02 06:00:00,1.1725166666667,1.0712333333333,0.99361666666667,0.97401666666667,0.92003333333333,0.86966666666667,0.89541666666667,5
COM6,508,02-Jun-18,2018-06-02 07:00:00,1.7153166666667,1.6135,1.5141,1.4916666666667,1.4170166666667,1.3511333333333,1.3897666666667,5
COM6,508,02-Jun-18,2018-06-02 08:00:00,1.4680333333333,1.3950333333333,1.3059,1.2938166666667,1.229,1.1714333333333,1.2033833333333,5
COM6,508,02-Jun-18,2018-06-02 09:00:00,0.77475,0.71828333333333,0.67021666666667,0.65991666666667,0.62085,0.58541666666667,0.59896666666667,5
COM6,508,02-Jun-18,2018-06-02 10:00:00,0.47341666666667,0.41961666666667,0.3831,0.37451666666667,0.34746666666667,0.3231,0.33008333333333,5
COM6,508,02-Jun-18,2018-06-02 11:00:00,0.36541666666667,0.31936666666667,0.29126666666667,0.2817,0.2574,0.23201666666667,0.23611666666667,5
COM6,508,02-Jun-18,2018-06-02 12:00:00,0.35803333333333,0.31608333333333,0.28933333333333,0.2783,0.26148333333333,0.23446666666667,0.2413,5
COM6,508,02-Jun-18,2018-06-02 13:00:00,0.31413333333333,0.27061666666667,0.24678333333333,0.23358333333333,0.2198,0.19725,0.20013333333333,5
COM6,508,02-Jun-18,2018-06-02 14:00:00,0.26446666666667,0.22231666666667,0.20315,0.1922,0.18013333333333,0.15676666666667,0.16215,5
COM6,508,02-Jun-18,2018-06-02 15:00:00,0.34646666666667,0.29528333333333,0.26636666666667,0.25568333333333,0.2407,0.21136666666667,0.21693333333333,5
COM6,508,02-Jun-18,2018-06-02 16:00:00,0.30701666666667,0.2665,0.24763333333333,0.23491666666667,0.22316666666667,0.20368333333333,0.20753333333333,5
COM6,508,02-Jun-18,2018-06-02 17:00:00,0.02915,0.025866666666667,0.026033333333333,0.022933333333333,0.021433333333333,0.017166666666667,0.0193,0.5
COM6,508,02-Jun-18,2018-06-02 18:00:00,NaN,NaN,NaN,NaN,NaN,NaN,NaN,0
COM6,508,02-Jun-18,2018-06-02 19:00:00,NaN,NaN,NaN,NaN,NaN,NaN,NaN,0
COM6,508,02-Jun-18,2018-06-02 20:00:00,NaN,NaN,NaN,NaN,NaN,NaN,NaN,0
COM6,508,02-Jun-18,2018-06-02 21:00:00,NaN,NaN,NaN,NaN,NaN,NaN,NaN,0
COM6,508,02-Jun-18,2018-06-02 22:00:00,NaN,NaN,NaN,NaN,NaN,NaN,NaN,0
COM6,508,02-Jun-18,2018-06-02 23:00:00,NaN,NaN,NaN,NaN,NaN,NaN,NaN,0
