COM6,508,28-Aug-18,2018-08-28 00:00:00,0.12183050847457999,0.11593220338983,0.10928813559322,0.10857627118644,0.10544067796610002,0.10205084745763,0.10544067796610002,5
COM6,508,28-Aug-18,2018-08-28 01:00:00,0.1138,0.10553333333333001,0.10033333333333,0.099183333333333,0.095566666666667,0.091266666666667,0.0937,5
COM6,508,28-Aug-18,2018-08-28 02:00:00,0.14913333333332998,0.14183333333332998,0.13426666666667,0.13251666666667,0.12913333333333,0.12505,0.12931666666667,5
COM6,508,28-Aug-18,2018-08-28 03:00:00,0.14908333333333,0.1365,0.1284,0.12555,0.12186666666667,0.11595,0.11883333333333,5
COM6,508,28-Aug-18,2018-08-28 04:00:00,0.25705,0.25928333333333,0.24878333333332997,0.24715,0.24265,0.23695,0.245,5
COM6,508,28-Aug-18,2018-08-28 05:00:00,0.46648333333333003,0.47816666666667,0.46176666666667,0.46295,0.45708333333333,0.45181666666667,0.46801666666666997,5
COM6,508,28-Aug-18,2018-08-28 06:00:00,0.85931666666667,0.90206666666667,0.87721666666667,0.88126666666667,0.87546666666667,0.8746,0.90805,5
COM6,508,28-Aug-18,2018-08-28 07:00:00,1.0718666666667,1.1456,1.11805,1.1304166666667,1.1244833333333,1.1315833333333,1.1749333333333,5
COM6,508,28-Aug-18,2018-08-28 08:00:00,0.95696666666667,1.0240333333333,1.0000166666666999,1.0148333333333,1.0082166666666998,1.0232166666667,1.0616,5
COM6,508,28-Aug-18,2018-08-28 09:00:00,0.49403333333333,0.51733333333333,0.50288333333333,0.50973333333333,0.50186666666667,0.50455,0.52263333333333,5
COM6,508,28-Aug-18,2018-08-28 10:00:00,0.18045,0.18413333333332996,0.1775,0.18108333333332996,0.17451666666667004,0.16918333333332997,0.17335,5
COM6,508,28-Aug-18,2018-08-28 11:00:00,0.21861666666667004,0.21761666666667004,0.20903333333332996,0.20855,0.20381666666667003,0.19496666666667004,0.20178333333332996,5
COM6,508,28-Aug-18,2018-08-28 12:00:00,0.19328333333332998,0.17883333333332996,0.16781666666667003,0.1668,0.16141666666667,0.15653333333333,0.16186666666667002,5
COM6,508,28-Aug-18,2018-08-28 13:00:00,0.20403333333332996,0.1832,0.17193333333332997,0.17028333333332996,0.16628333333332998,0.16346666666667,0.17136666666667003,5
COM6,508,28-Aug-18,2018-08-28 14:00:00,0.15805,0.13351666666667,0.12321666666667,0.11795,0.1149,0.10538333333333001,0.11053333333333,5
COM6,508,28-Aug-18,2018-08-28 15:00:00,0.22943333333332996,0.19415,0.17923333333332997,0.17176666666667004,0.1674,0.16163333333333,0.16651666666667,5
COM6,508,28-Aug-18,2018-08-28 16:00:00,0.2345,0.20105,0.187,0.17793333333332997,0.17435,0.15698333333332998,0.16253333333332998,5
COM6,508,28-Aug-18,2018-08-28 17:00:00,0.22105,0.19376666666667003,0.18043333333332998,0.17466666666667002,0.17013333333332997,0.15948333333332998,0.1655,5
COM6,508,28-Aug-18,2018-08-28 18:00:00,0.31875,0.2925,0.27618333333333,0.27093333333333,0.26695,0.26015,0.2696,5
COM6,508,28-Aug-18,2018-08-28 19:00:00,0.37376666666667,0.35388333333333,0.33631666666667,0.33171666666667,0.32501666666667,0.31375,0.32391666666667,5
COM6,508,28-Aug-18,2018-08-28 20:00:00,0.29873333333333,0.27161666666667006,0.25493333333332996,0.25243333333332996,0.24201666666667004,0.23325,0.2403,5
COM6,508,28-Aug-18,2018-08-28 21:00:00,0.27681666666667,0.25415,0.23791666666667002,0.23465,0.22683333333332997,0.21531666666667004,0.21998333333332998,5
COM6,508,28-Aug-18,2018-08-28 22:00:00,0.20276666666667004,0.17843333333332997,0.165,0.16206666666667002,0.15181666666667,0.13946666666667001,0.14266666666667002,5
COM6,508,28-Aug-18,2018-08-28 23:00:00,0.22950847457627,0.20105084745763,0.18630508474576,0.18194915254236999,0.17374576271185999,0.16272881355932,0.16699999999999998,5
