COM6,508,09-Apr-19,2019-04-09 00:00:00,1.0282881355931999,0.96815254237288,0.90791525423729,0.88298305084746,0.8498983050847501,0.78864406779661,0.8121864406779699,5
COM6,508,09-Apr-19,2019-04-09 01:00:00,0.6508833333333299,0.6241666666666701,0.58405,0.5647666666666701,0.54511666666667,0.48781666666667,0.50373333333333,5
COM6,508,09-Apr-19,2019-04-09 02:00:00,0.22151666666667003,0.21128333333332996,0.19585,0.18501666666667002,0.17758333333332996,0.15483333333333,0.16018333333332999,5
COM6,508,09-Apr-19,2019-04-09 03:00:00,0.16801666666667003,0.1627,0.1488,0.14291666666667002,0.1364,0.11996666666667,0.12423333333333,5
COM6,508,09-Apr-19,2019-04-09 04:00:00,0.17108333333332998,0.15745,0.1483,0.13946666666667001,0.1322,0.11645,0.12196666666667,5
COM6,508,09-Apr-19,2019-04-09 05:00:00,0.68245,0.6318333333333299,0.58726666666667,0.5715833333333299,0.54665,0.51801666666667,0.52793333333333,5
COM6,508,09-Apr-19,2019-04-09 06:00:00,1.3196333333333001,1.2545833333333,1.1671833333333002,1.1433666666667,1.0932333333333,1.0385333333333,1.0717666666666998,5
COM6,508,09-Apr-19,2019-04-09 07:00:00,1.9650333333333,1.8495333333333,1.7187666666666999,1.6887166666667,1.6160666666666998,1.5308166666667,1.5778333333333001,5
COM6,508,09-Apr-19,2019-04-09 08:00:00,1.45355,1.3651666666667,1.2628666666666999,1.2316,1.1704,1.1073,1.1376333333333,5
COM6,508,09-Apr-19,2019-04-09 09:00:00,1.93035,1.8753833333333,1.7584833333333,1.7342833333333,1.6570833333333002,1.5620166666667,1.6038333333333001,5
COM6,508,09-Apr-19,2019-04-09 10:00:00,1.1513833333333001,1.0950833333333,1.0202,1.0024666666667,0.94998333333333,0.87565,0.89371666666667,5
COM6,508,09-Apr-19,2019-04-09 11:00:00,0.9813666666666699,0.9312,0.8765,0.86358333333333,0.8255,0.76668333333333,0.7816,5
COM6,508,09-Apr-19,2019-04-09 12:00:00,0.50843333333333,0.4885,0.46348333333333,0.45506666666667,0.43656666666667,0.4003,0.41206666666666997,5
COM6,508,09-Apr-19,2019-04-09 13:00:00,0.33361666666667,0.33715,0.31196666666667,0.30618333333333003,0.29381666666667,0.27401666666667,0.28345,5
COM6,508,09-Apr-19,2019-04-09 14:00:00,0.08231666666666701,0.1018,0.0957,0.09845,0.09085,0.082866666666667,0.08623333333333298,5
COM6,508,09-Apr-19,2019-04-09 15:00:00,0.33501666666667,0.3224,0.2952,0.2883,0.27853333333333,0.26881666666667003,0.2764,5
COM6,508,09-Apr-19,2019-04-09 16:00:00,0.32626666666667,0.3152,0.29261666666667,0.28543333333333,0.27195,0.25335,0.26148333333332996,5
COM6,508,09-Apr-19,2019-04-09 17:00:00,0.2402,0.24018333333332997,0.22158333333332997,0.22401666666667003,0.20771666666667002,0.19473333333332996,0.2015,5
COM6,508,09-Apr-19,2019-04-09 18:00:00,0.29263333333333,0.28155,0.26293333333332997,0.25526666666667003,0.24523333333332997,0.23041666666667004,0.23486666666667003,5
COM6,508,09-Apr-19,2019-04-09 19:00:00,0.33783333333333,0.31056666666667,0.28205,0.27718333333333,0.25986666666667,0.23695,0.24591666666667003,5
COM6,508,09-Apr-19,2019-04-09 20:00:00,0.3294,0.29565,0.26943333333332997,0.2645,0.24676666666667002,0.23035,0.23555,5
COM6,508,09-Apr-19,2019-04-09 21:00:00,0.44308333333333,0.41856666666667,0.3884,0.38011666666667,0.36085,0.3333,0.34218333333333,5
COM6,508,09-Apr-19,2019-04-09 22:00:00,0.34548333333333,0.3409,0.32016666666667,0.30885,0.2942,0.27316666666667005,0.27756666666667,5
COM6,508,09-Apr-19,2019-04-09 23:00:00,0.16917543859648998,0.16082456140351,0.14724561403509,0.14696491228070002,0.13510526315788998,0.11878947368421001,0.12592982456139998,5
