COM4,508,05-May-19,2019-05-05 00:00:00,0.35686440677965997,0.27461016949153,0.24383050847458,0.22601694915254,0.21113559322034,0.19189830508474998,0.19559322033898,5
COM4,508,05-May-19,2019-05-05 01:00:00,0.35178333333333,0.27276666666667004,0.24395,0.23033333333332998,0.2185,0.20908333333332996,0.21545,5
COM4,508,05-May-19,2019-05-05 02:00:00,0.35325,0.26051666666667,0.2293,0.21366666666667003,0.2004,0.18076666666667005,0.18416666666667003,5
COM4,508,05-May-19,2019-05-05 03:00:00,0.2892,0.2568,0.23621666666667004,0.22751666666667003,0.2168,0.20383333333332998,0.2095,5
COM4,508,05-May-19,2019-05-05 04:00:00,0.37896666666667,0.345,0.3196,0.30938333333333,0.29723333333333,0.28293333333333,0.29091666666667,5
COM4,508,05-May-19,2019-05-05 05:00:00,0.3953,0.3672,0.34295,0.33363333333333,0.32198333333333,0.30708333333333,0.31571666666667,5
COM4,508,05-May-19,2019-05-05 06:00:00,0.38703333333333,0.371,0.34936666666667,0.34343333333333,0.33305,0.32388333333333,0.33361666666667,5
COM4,508,05-May-19,2019-05-05 07:00:00,0.42671666666667,0.41438333333333,0.3898,0.38415,0.37245,0.35926666666667,0.3703,5
COM4,508,05-May-19,2019-05-05 08:00:00,0.41696666666667,0.40803333333333003,0.38528333333333,0.3804,0.37021666666666997,0.35918333333333,0.36958333333333,5
COM4,508,05-May-19,2019-05-05 09:00:00,0.27686666666667,0.26951666666667,0.25448333333332995,0.25135,0.24365,0.23481666666667003,0.24173333333332997,5
COM4,508,05-May-19,2019-05-05 10:00:00,0.1933,0.18635,0.17505,0.1726,0.16628333333332998,0.15848333333332998,0.16306666666667002,5
COM4,508,05-May-19,2019-05-05 11:00:00,0.16578333333332998,0.15871666666667,0.14865,0.1461,0.14193333333333,0.13508333333333,0.13845,5
COM4,508,05-May-19,2019-05-05 12:00:00,0.15046666666667002,0.13935,0.12981666666667,0.12511666666666998,0.12176666666666999,0.11295,0.11651666666666999,5
COM4,508,05-May-19,2019-05-05 13:00:00,0.14978333333333,0.13366666666667,0.12263333333333,0.1177,0.11341666666667,0.10233333333333,0.10458333333333,5
COM4,508,05-May-19,2019-05-05 14:00:00,0.15043333333332998,0.13095,0.11956666666667,0.11451666666667,0.11026666666667,0.10035,0.1047,5
COM4,508,05-May-19,2019-05-05 15:00:00,0.14286666666667,0.12493333333333001,0.1142,0.10928333333333,0.10623333333333,0.10013333333333001,0.10326666666666999,5
COM4,508,05-May-19,2019-05-05 16:00:00,0.18866666666667004,0.16891666666667005,0.15655,0.15,0.14731666666667,0.14481666666667,0.15031666666667,5
COM4,508,05-May-19,2019-05-05 17:00:00,0.18456666666667004,0.1706,0.15961666666667002,0.15543333333332998,0.15181666666667,0.14395,0.1496,5
COM4,508,05-May-19,2019-05-05 18:00:00,0.84846666666667,0.92755,0.91816666666667,0.93665,0.94171666666667,0.9742,1.0136833333333,5
COM4,508,05-May-19,2019-05-05 19:00:00,0.13233333333333,0.1376,0.13366666666667,0.13496666666666998,0.13275,0.12788333333333002,0.13151666666667,5
COM4,508,05-May-19,2019-05-05 20:00:00,0.17178333333332996,0.16271666666667,0.15286666666667,0.15088333333332998,0.14683333333332999,0.14505,0.14935,5
COM4,508,05-May-19,2019-05-05 21:00:00,0.2089,0.20125,0.19075,0.18956666666667002,0.1828,0.17905,0.183,5
COM4,508,05-May-19,2019-05-05 22:00:00,0.15795,0.14845,0.13961666666667003,0.1379,0.13256666666667,0.12591666666667,0.12936666666667,5
COM4,508,05-May-19,2019-05-05 23:00:00,0.19316666666667004,0.17681666666667004,0.16603333333332998,0.16146666666667,0.15568333333332998,0.14553333333333,0.14875,5
