COM4,508,19-Jan-20,2020-01-19 00:00:00,0.5956271186440699,0.53025423728814,0.47420338983051,0.45583050847458007,0.42294915254237,0.38922033898305,0.39422033898305,5.0
COM4,508,19-Jan-20,2020-01-19 01:00:00,0.21796666666667003,0.33015,0.30353333333333,0.29761666666666997,0.27976666666667,0.26961666666667006,0.27626666666667,5.0
COM4,508,19-Jan-20,2020-01-19 02:00:00,0.17498333333332997,0.24101666666667004,0.22,0.2117,0.1998,0.18643333333332998,0.18985,5.0
COM4,508,19-Jan-20,2020-01-19 03:00:00,0.54466666666667,0.45656666666667,0.40981666666667,0.39523333333333,0.36785,0.33591666666666997,0.34275,5.0
COM4,508,19-Jan-20,2020-01-19 04:00:00,0.8414,0.68315,0.6153666666666701,0.58793333333333,0.54448333333333,0.49588333333333,0.50608333333333,5.0
COM4,508,19-Jan-20,2020-01-19 05:00:00,0.7585666666666699,0.6624,0.6017166666666701,0.58,0.53953333333333,0.49713333333333,0.50621666666667,5.0
COM4,508,19-Jan-20,2020-01-19 06:00:00,0.96795,0.8501,0.77386666666667,0.74388333333333,0.6922,0.6329,0.6427833333333299,5.0
COM4,508,19-Jan-20,2020-01-19 07:00:00,0.68621666666667,0.6103166666666701,0.54975,0.52856666666667,0.4908,0.44856666666667,0.4582,5.0
COM4,508,19-Jan-20,2020-01-19 08:00:00,0.623,0.63166666666667,0.5842,0.56701666666667,0.52616666666667,0.47906666666666997,0.48426666666667,5.0
COM4,508,19-Jan-20,2020-01-19 09:00:00,1.2732666666666999,1.24075,1.14645,1.1112166666667,1.0328,0.94015,0.95491666666667,5.0
COM4,508,19-Jan-20,2020-01-19 10:00:00,1.34045,1.2731833333333,1.1671166666666999,1.1259,1.0417,0.93621666666667,0.94736666666667,5.0
COM4,508,19-Jan-20,2020-01-19 11:00:00,1.0637666666667,0.90605,0.84655,0.82086666666667,0.7853,0.72798333333333,0.75128333333333,4.6666666666667
COM4,508,19-Jan-20,2020-01-19 12:00:00,0.93785,0.76738333333333,0.7192666666666699,0.70275,0.68708333333333,0.6566666666666701,0.67905,5.0
COM4,508,19-Jan-20,2020-01-19 13:00:00,0.78706666666667,0.76278333333333,0.72151666666667,0.70821666666667,0.6972,0.67265,0.6976,5.0
COM4,508,19-Jan-20,2020-01-19 14:00:00,0.50988333333333,0.50313333333333,0.47515,0.46521666666667,0.45735,0.43815,0.4541,5.0
COM4,508,19-Jan-20,2020-01-19 15:00:00,0.4434,0.44205,0.41958333333333003,0.41225,0.40618333333333,0.3942,0.4086,5.0
COM4,508,19-Jan-20,2020-01-19 16:00:00,0.42113333333333003,0.40891666666667,0.38751666666667,0.37945,0.37325,0.35898333333333,0.37191666666667,5.0
COM4,508,19-Jan-20,2020-01-19 17:00:00,0.49356666666667,0.4713,0.44321666666667,0.43441666666667,0.4221,0.40518333333333,0.4189,5.0
COM4,508,19-Jan-20,2020-01-19 18:00:00,0.84016666666667,0.75573333333333,0.70645,0.69521666666667,0.6659833333333299,0.63485,0.6509,5.0
COM4,508,19-Jan-20,2020-01-19 19:00:00,1.8733666666667,1.49475,1.3706333333333,1.3293166666667,1.2596666666667,1.1764,1.2035833333333001,5.0
COM4,508,19-Jan-20,2020-01-19 20:00:00,1.7972166666667,1.4279166666667,1.3180333333333,1.2881666666667,1.2237333333333,1.1612833333333001,1.1892666666667,5.0
COM4,508,19-Jan-20,2020-01-19 21:00:00,1.6968666666667,1.3025166666666999,1.19205,1.1556333333333,1.0905,1.0245166666667,1.0479333333333,5.0
COM4,508,19-Jan-20,2020-01-19 22:00:00,0.93281666666667,0.7696333333333301,0.7026,0.68265,0.64448333333333,0.6024333333333299,0.61433333333333,5.0
COM4,508,19-Jan-20,2020-01-19 23:00:00,0.64433333333333,0.58108333333333,0.53318333333333,0.51888333333333,0.48931666666667,0.45815,0.46838333333333,5.0
