COM6,508,06-Sep-18,2018-09-06 00:00:00,0.42379661016949,0.37305084745763006,0.34572881355931995,0.33905084745763003,0.32123728813559005,0.29850847457627,0.30442372881356,5
COM6,508,06-Sep-18,2018-09-06 01:00:00,0.42963333333333,0.37293333333333,0.34223333333333,0.33501666666667,0.31268333333333,0.28731666666667,0.2895,5
COM6,508,06-Sep-18,2018-09-06 02:00:00,0.5755833333333299,0.5237,0.48383333333333,0.47753333333333,0.45015,0.42305,0.43171666666666997,5
COM6,508,06-Sep-18,2018-09-06 03:00:00,0.43593333333333,0.37418333333333,0.34066666666667,0.3272,0.30463333333333,0.27435,0.2778,5
COM6,508,06-Sep-18,2018-09-06 04:00:00,0.40611666666667,0.35766666666667,0.3317,0.32506666666667,0.30871666666666997,0.28781666666667,0.29073333333333,5
COM6,508,06-Sep-18,2018-09-06 05:00:00,0.57285,0.5346,0.5035333333333301,0.49738333333333,0.47983333333333,0.46041666666666997,0.47196666666667,5
COM6,508,06-Sep-18,2018-09-06 06:00:00,0.72785,0.68046666666667,0.6401,0.63275,0.60928333333333,0.5842833333333299,0.5984333333333299,5
COM6,508,06-Sep-18,2018-09-06 07:00:00,0.9805,0.96765,0.9198,0.91988333333333,0.89118333333333,0.87021666666667,0.89278333333333,5
COM6,508,06-Sep-18,2018-09-06 08:00:00,1.84405,1.8790833333333001,1.7907666666667,1.7969166666667,1.7506833333333,1.7449333333333001,1.7983333333333,5
COM6,508,06-Sep-18,2018-09-06 09:00:00,1.1065,1.08745,1.0260833333333002,1.02185,0.98185,0.95235,0.97745,5
COM6,508,06-Sep-18,2018-09-06 10:00:00,1.2529666666666999,1.1837,1.097,1.0791833333333,1.0250166666667,0.97181666666667,0.99318333333333,5
COM6,508,06-Sep-18,2018-09-06 11:00:00,0.93443333333333,0.84521666666667,0.77288333333333,0.74916666666667,0.70276666666667,0.64558333333333,0.65581666666667,5
COM6,508,06-Sep-18,2018-09-06 12:00:00,0.92195,0.8271,0.7555,0.73175,0.68758333333333,0.62918333333333,0.64058333333333,5
COM6,508,06-Sep-18,2018-09-06 13:00:00,0.89573333333333,0.8031,0.7353,0.71045,0.6653,0.60303333333333,0.61456666666667,5
COM6,508,06-Sep-18,2018-09-06 14:00:00,0.73871666666667,0.6335166666666701,0.57231666666667,0.54426666666667,0.50623333333333,0.4447,0.45158333333333,5
COM6,508,06-Sep-18,2018-09-06 15:00:00,0.7329,0.6218333333333299,0.56015,0.52808333333333,0.4918,0.43416666666667,0.44005,5
COM6,508,06-Sep-18,2018-09-06 16:00:00,0.72721666666667,0.6177333333333299,0.55375,0.52565,0.48903333333333,0.42461666666667,0.43145,5
COM6,508,06-Sep-18,2018-09-06 17:00:00,0.46646666666666997,0.39348333333333,0.3558,0.33876666666667,0.31378333333333003,0.26946666666667,0.27136666666667003,5
COM6,508,06-Sep-18,2018-09-06 18:00:00,0.47783333333333,0.40745,0.36446666666667,0.34741666666667,0.32045,0.27843333333333,0.281,5
COM6,508,06-Sep-18,2018-09-06 19:00:00,0.4971,0.42378333333333,0.38046666666667,0.36276666666667,0.33083333333333,0.28648333333333,0.28688333333333,5
COM6,508,06-Sep-18,2018-09-06 20:00:00,0.47441666666667,0.40188333333333,0.35873333333333,0.34368333333333,0.31198333333333,0.26995,0.27076666666667004,5
COM6,508,06-Sep-18,2018-09-06 21:00:00,0.48696666666667,0.41701666666667,0.37425,0.35935,0.3287,0.29143333333333,0.29261666666667,5
COM6,508,06-Sep-18,2018-09-06 22:00:00,0.82218333333333,0.75745,0.70725,0.69976666666667,0.66578333333333,0.6432166666666701,0.6526,5
COM6,508,06-Sep-18,2018-09-06 23:00:00,0.53184745762712,0.47847457627119,0.44201694915254,0.43149152542373004,0.40393220338983,0.37037288135593,0.37445762711864,5
