COM4,508,30-Dec-19,2019-12-30 00:00:00,0.69228813559322,0.5756610169491501,0.52540677966102,0.5094406779660999,0.48218644067796995,0.44820338983051,0.45862711864407,5
COM4,508,30-Dec-19,2019-12-30 01:00:00,0.74611666666667,0.6220833333333299,0.5675,0.55115,0.52051666666667,0.48258333333333,0.49245,5
COM4,508,30-Dec-19,2019-12-30 02:00:00,0.6342,0.53258333333333,0.4868,0.47378333333333,0.44685,0.41488333333333,0.42191666666667,5
COM4,508,30-Dec-19,2019-12-30 03:00:00,0.64243333333333,0.5603833333333299,0.51535,0.50271666666667,0.47600000000000003,0.44718333333333,0.45701666666667,5
COM4,508,30-Dec-19,2019-12-30 04:00:00,0.84791666666667,0.75238333333333,0.69415,0.67996666666667,0.64945,0.6179166666666701,0.63291666666667,5
COM4,508,30-Dec-19,2019-12-30 05:00:00,0.70381666666667,0.5546166666666701,0.49948333333333,0.4818,0.45056666666667,0.415,0.4243,5
COM4,508,30-Dec-19,2019-12-30 06:00:00,0.54338333333333,0.45253333333333,0.40748333333333,0.39225,0.369,0.34216666666667,0.3489,5
COM4,508,30-Dec-19,2019-12-30 07:00:00,0.56188333333333,0.53121666666667,0.49328333333333,0.48433333333333,0.46511666666667,0.44348333333333,0.45565,5
COM4,508,30-Dec-19,2019-12-30 08:00:00,0.43325,0.47266666666667,0.44838333333333,0.4448,0.42921666666667,0.41116666666667,0.4226,5
COM4,508,30-Dec-19,2019-12-30 09:00:00,0.79415,0.78625,0.74075,0.73166666666667,0.70241666666667,0.67058333333333,0.68813333333333,5
COM4,508,30-Dec-19,2019-12-30 10:00:00,0.94371666666667,0.94018333333333,0.88698333333333,0.8782,0.84603333333333,0.80993333333333,0.83203333333333,5
COM4,508,30-Dec-19,2019-12-30 11:00:00,0.5126,0.53148333333333,0.50248333333333,0.4977,0.47756666666666997,0.45586666666667,0.46605,5
COM4,508,30-Dec-19,2019-12-30 12:00:00,0.45888333333333,0.47773333333333,0.45618333333333,0.45328333333333,0.43591666666667,0.41741666666667,0.4286,5
COM4,508,30-Dec-19,2019-12-30 13:00:00,0.43988333333333,0.4475,0.42235,0.41991666666667,0.4,0.37785,0.3875,5
COM4,508,30-Dec-19,2019-12-30 14:00:00,0.42856666666667,0.42716666666666997,0.40361666666667,0.3973,0.37835,0.35578333333333,0.36293333333333,5
COM4,508,30-Dec-19,2019-12-30 15:00:00,0.5544166666666701,0.54585,0.51226666666667,0.5057,0.48361666666666997,0.45415,0.46641666666667,5
COM4,508,30-Dec-19,2019-12-30 16:00:00,0.503,0.4885,0.46128333333333,0.45425,0.43426666666667,0.40695,0.41733333333333,5
COM4,508,30-Dec-19,2019-12-30 17:00:00,0.42221666666667,0.41123333333333,0.38398333333333,0.37793333333333,0.3598,0.33695,0.34508333333333,5
COM4,508,30-Dec-19,2019-12-30 18:00:00,0.32156666666667,0.31401666666667,0.29626666666667,0.2908,0.27858333333333,0.26221666666667004,0.2694,5
COM4,508,30-Dec-19,2019-12-30 19:00:00,0.34936666666667,0.3329,0.30871666666666997,0.30221666666667,0.28653333333333003,0.26416666666667005,0.26946666666667,5
COM4,508,30-Dec-19,2019-12-30 20:00:00,0.17751666666667004,0.1742,0.16236666666667002,0.16048333333332998,0.15005,0.1376,0.14285,5
COM4,508,30-Dec-19,2019-12-30 21:00:00,0.34823333333333,0.3033,0.27696666666666997,0.26698333333332996,0.25181666666667,0.22998333333332996,0.23536666666667003,5
COM4,508,30-Dec-19,2019-12-30 22:00:00,0.45116666666667,0.36658333333333,0.32996666666667,0.31663333333333,0.29535,0.26785,0.27168333333332995,5
COM4,508,30-Dec-19,2019-12-30 23:00:00,0.27233333333333,0.24201666666667004,0.22431666666667002,0.21673333333332997,0.20416666666667002,0.18525,0.19013333333332996,5
