COM6,508,02-Feb-18,2018-02-02 00:00:00,1.5393559322033998,1.2453898305085,1.1369830508475,1.1089152542373,1.0284406779661,0.94805084745763,0.97157627118644,5.0
COM6,508,02-Feb-18,2018-02-02 01:00:00,1.4500333333333,1.1743166666667,1.0925666666667,1.0640333333333,1.0130166666667,0.9625,0.98985,4.5833333333333
COM6,508,02-Feb-18,2018-02-02 02:00:00,1.41345,1.1643666666666999,1.0899,1.0660833333333,1.0264833333333,0.98358333333333,1.0125,5.0
COM6,508,02-Feb-18,2018-02-02 03:00:00,1.1732166666666999,1.0669,0.99686666666667,0.97523333333333,0.93723333333333,0.8997,0.92578333333333,5.0
COM6,508,02-Feb-18,2018-02-02 04:00:00,0.70965,0.7077,0.6681833333333299,0.65806666666667,0.6365,0.6156833333333299,0.6349333333333299,5.0
COM6,508,02-Feb-18,2018-02-02 05:00:00,0.20515,0.24533333333332996,0.23268333333332997,0.23048333333332996,0.22181666666667002,0.21525,0.2215,5.0
COM6,508,02-Feb-18,2018-02-02 06:00:00,0.45495,0.47965,0.45783333333333,0.45395,0.43863333333333,0.4287,0.44115,5.0
COM6,508,02-Feb-18,2018-02-02 07:00:00,2.5910333333332995,2.63065,2.5299833333332997,2.5257833333332997,2.4598166666667,2.41715,2.495,5.0
COM6,508,02-Feb-18,2018-02-02 08:00:00,2.77565,2.717,2.5961833333332995,2.58445,2.4959166666667003,2.4234166666667,2.4958,5.0
COM6,508,02-Feb-18,2018-02-02 09:00:00,3.4737666666667004,3.3737,3.2179666666667,3.2017666666667,3.0831666666667004,2.9821,3.0667166666667,5.0
COM6,508,02-Feb-18,2018-02-02 10:00:00,3.8489,3.7370833333333,3.55985,3.5424166666667003,3.4008333333332996,3.2713333333333,3.3632,5.0
COM6,508,02-Feb-18,2018-02-02 11:00:00,4.0684666666667,3.8798833333332996,3.6529333333332996,3.60635,3.43585,3.2722,3.3603833333332997,5.0
COM6,508,02-Feb-18,2018-02-02 12:00:00,3.09385,2.9579833333332997,2.7724333333332996,2.7293333333332996,2.5827333333333,2.4271666666667002,2.4870166666667,5.0
COM6,508,02-Feb-18,2018-02-02 13:00:00,2.3666833333332997,2.27275,2.1272666666667,2.09165,1.9706666666666999,1.8464666666667,1.8901166666667,5.0
COM6,508,02-Feb-18,2018-02-02 14:00:00,1.5035166666667,1.4585166666667,1.3643833333333,1.3406833333333001,1.2642333333333,1.1891166666667,1.21935,5.0
COM6,508,02-Feb-18,2018-02-02 15:00:00,0.87571666666667,0.86603333333333,0.81455,0.80071666666667,0.75743333333333,0.7192333333333301,0.73703333333333,5.0
COM6,508,02-Feb-18,2018-02-02 16:00:00,0.4437,0.47396666666667,0.44958333333333,0.4525,0.43405,0.42531666666667,0.439,5.0
COM6,508,02-Feb-18,2018-02-02 17:00:00,0.36298333333333,0.36836666666667,0.35195,0.3494,0.3342,0.32031666666666997,0.32923333333333,5.0
COM6,508,02-Feb-18,2018-02-02 18:00:00,0.79961666666667,0.69585,0.64471666666667,0.62405,0.58798333333333,0.54051666666667,0.5533166666666701,5.0
COM6,508,02-Feb-18,2018-02-02 19:00:00,0.31225,0.28963333333333,0.27063333333332995,0.26105,0.24503333333332997,0.22043333333332996,0.22576666666667003,5.0
COM6,508,02-Feb-18,2018-02-02 20:00:00,0.35218333333333,0.32233333333333003,0.29663333333333003,0.2903,0.26901666666667,0.24468333333332998,0.24895,5.0
COM6,508,02-Feb-18,2018-02-02 21:00:00,0.82095,0.74345,0.68166666666667,0.65848333333333,0.61556666666667,0.56298333333333,0.57421666666667,5.0
COM6,508,02-Feb-18,2018-02-02 22:00:00,0.3987,0.33671666666667,0.30595,0.29213333333333,0.27118333333332995,0.24613333333332996,0.25096666666667006,5.0
COM6,508,02-Feb-18,2018-02-02 23:00:00,0.59623636363636,0.48114545454545,0.43694545454545,0.41578181818182,0.38676363636364,0.34696363636363997,0.35258181818182,5.0
