COM4,509,20-Feb-20,2020-02-20 00:00:00,0.78763333333333,0.6517,0.5987166666666701,0.58126666666667,0.55201666666667,0.51228333333333,0.52666666666667,5
COM4,509,20-Feb-20,2020-02-20 01:00:00,0.68875,0.5904333333333299,0.5436,0.52815,0.50188333333333,0.46045,0.47468333333333,5
COM4,509,20-Feb-20,2020-02-20 02:00:00,0.72471666666667,0.6162166666666701,0.5644666666666701,0.5474,0.51818333333333,0.47451666666667,0.48586666666667,5
COM4,509,20-Feb-20,2020-02-20 03:00:00,0.30343333333333,0.27833333333333,0.25533333333332997,0.24736666666667004,0.23286666666667002,0.21026666666667004,0.21608333333332996,5
COM4,509,20-Feb-20,2020-02-20 04:00:00,0.24723333333332997,0.24741666666667003,0.22748333333332996,0.21996666666667003,0.209,0.1889,0.19423333333332995,5
COM4,509,20-Feb-20,2020-02-20 05:00:00,0.11856666666667,0.1407,0.13141666666666998,0.128,0.12033333333333,0.10881666666666999,0.11116666666667,5
COM4,509,20-Feb-20,2020-02-20 06:00:00,0.34093333333333,0.28821666666667,0.2617,0.2513,0.23508333333332998,0.21113333333332998,0.21703333333332997,5
COM4,509,20-Feb-20,2020-02-20 07:00:00,0.49986666666667,0.41691666666667,0.37785,0.36518333333333003,0.34553333333333003,0.31326666666666997,0.32103333333333,5
COM4,509,20-Feb-20,2020-02-20 08:00:00,0.49215,0.42565,0.38765,0.37328333333333,0.35115,0.31861666666667,0.3267,5
COM4,509,20-Feb-20,2020-02-20 09:00:00,0.36636666666667,0.35166666666667,0.32878333333333,0.32185,0.30705,0.28601666666666997,0.29516666666667,5
COM4,509,20-Feb-20,2020-02-20 10:00:00,0.23153333333332995,0.23095,0.214,0.20758333333332996,0.19796666666667004,0.18363333333332996,0.18915,5
COM4,509,20-Feb-20,2020-02-20 11:00:00,0.41845,0.39383333333333,0.36328333333333,0.35535,0.33836666666667,0.30711666666667,0.31698333333333,5
COM4,509,20-Feb-20,2020-02-20 12:00:00,0.36505,0.33846666666666997,0.31451666666667,0.3037,0.28896666666667,0.2678,0.27425,5
COM4,509,20-Feb-20,2020-02-20 13:00:00,0.27865,0.26278333333333,0.24236666666667003,0.23416666666667002,0.22246666666667003,0.20485,0.21125,5
COM4,509,20-Feb-20,2020-02-20 14:00:00,0.2032,0.20178333333332996,0.18781666666667002,0.18475,0.1742,0.15898333333332998,0.1623,5
COM4,509,20-Feb-20,2020-02-20 15:00:00,0.17298333333332996,0.1769,0.1636,0.16006666666667002,0.15088333333332998,0.13658333333333,0.14093333333333,5
COM4,509,20-Feb-20,2020-02-20 16:00:00,0.16576666666667,0.16703333333332998,0.15566666666667,0.15078333333333,0.14401666666667,0.13003333333333,0.13396666666666998,5
COM4,509,20-Feb-20,2020-02-20 17:00:00,0.3803,0.3612,0.33611666666667,0.33118333333333,0.31546666666667,0.29986666666667,0.3073,5
COM4,509,20-Feb-20,2020-02-20 18:00:00,0.50736666666667,0.42405,0.38973333333333,0.37636666666667,0.35525,0.32528333333333,0.33395,5
COM4,509,20-Feb-20,2020-02-20 19:00:00,2.2170333333333,1.3484333333333,1.1691666666667,1.1064333333333,1.0284333333333,0.90988333333333,0.92728333333333,5
COM4,509,20-Feb-20,2020-02-20 20:00:00,0.90961666666667,0.86873333333333,0.79641666666667,0.76896666666667,0.7217,0.6491666666666701,0.6669,5
COM4,509,20-Feb-20,2020-02-20 21:00:00,0.4873,0.41975,0.37268333333333,0.35386666666667,0.32476666666667,0.27993333333333,0.28395,5
COM4,509,20-Feb-20,2020-02-20 22:00:00,0.7041,0.55678333333333,0.49795,0.47193333333333,0.43885,0.38746666666667,0.396,5
COM4,509,20-Feb-20,2020-02-20 23:00:00,0.6505762711864399,0.50635593220339,0.45166101694915006,0.43027118644068,0.40016949152542,0.35488135593220005,0.36252542372881,5
