COM4,0509,2017-12-27,2017-12-27 00:00:00,NaN,NaN,NaN,NaN,NaN,NaN,NaN,NaN
COM4,0509,2017-12-27,2017-12-27 01:00:00,NaN,NaN,NaN,NaN,NaN,NaN,NaN,NaN
COM4,0509,2017-12-27,2017-12-27 02:00:00,NaN,NaN,NaN,NaN,NaN,NaN,NaN,NaN
COM4,0509,2017-12-27,2017-12-27 03:00:00,NaN,NaN,NaN,NaN,NaN,NaN,NaN,NaN
COM4,0509,2017-12-27,2017-12-27 04:00:00,NaN,NaN,NaN,NaN,NaN,NaN,NaN,NaN
COM4,0509,2017-12-27,2017-12-27 05:00:00,NaN,NaN,NaN,NaN,NaN,NaN,NaN,NaN
COM4,0509,2017-12-27,2017-12-27 06:00:00,NaN,NaN,NaN,NaN,NaN,NaN,NaN,NaN
COM4,0509,2017-12-27,2017-12-27 07:00:00,NaN,NaN,NaN,NaN,NaN,NaN,NaN,NaN
COM4,0509,2017-12-27,2017-12-27 08:00:00,NaN,NaN,NaN,NaN,NaN,NaN,NaN,NaN
COM4,0509,2017-12-27,2017-12-27 09:00:00,NaN,NaN,NaN,NaN,NaN,NaN,NaN,NaN
COM4,0509,2017-12-27,2017-12-27 10:00:00,NaN,NaN,NaN,NaN,NaN,NaN,NaN,NaN
COM4,0509,2017-12-27,2017-12-27 11:00:00,NaN,NaN,NaN,NaN,NaN,NaN,NaN,NaN
COM4,0509,2017-12-27,2017-12-27 12:00:00,NaN,NaN,NaN,NaN,NaN,NaN,NaN,NaN
COM4,0509,2017-12-27,2017-12-27 13:00:00,NaN,NaN,NaN,NaN,NaN,NaN,NaN,NaN
COM4,0509,2017-12-27,2017-12-27 14:00:00,NaN,NaN,NaN,NaN,NaN,NaN,NaN,NaN
COM4,0509,2017-12-27,2017-12-27 15:00:00,NaN,NaN,NaN,NaN,NaN,NaN,NaN,NaN
COM4,0509,2017-12-27,2017-12-27 16:00:00,NaN,NaN,NaN,NaN,NaN,NaN,NaN,NaN
COM4,0509,2017-12-27,2017-12-27 17:00:00,NaN,NaN,NaN,NaN,NaN,NaN,NaN,NaN
COM4,0509,2017-12-27,2017-12-27 18:00:00,NaN,NaN,NaN,NaN,NaN,NaN,NaN,NaN
COM4,0509,2017-12-27,2017-12-27 19:00:00,NaN,NaN,NaN,NaN,NaN,NaN,NaN,NaN
COM4,0509,2017-12-27,2017-12-27 20:00:00,NaN,NaN,NaN,NaN,NaN,NaN,NaN,NaN
COM4,0509,2017-12-27,2017-12-27 21:00:00,NaN,NaN,NaN,NaN,NaN,NaN,NaN,NaN
COM4,0509,2017-12-27,2017-12-27 22:00:00,NaN,NaN,NaN,NaN,NaN,NaN,NaN,NaN
COM4,0509,2017-12-27,2017-12-27 23:00:00,NaN,NaN,NaN,NaN,NaN,NaN,NaN,NaN
