COM4,509,15-Apr-19,2019-04-15 00:00:00,0.036833333333333,0.040816666666667,0.0386,0.035283333333333,0.033633333333332995,0.03085,0.030966666666667007,5.0
COM4,509,15-Apr-19,2019-04-15 01:00:00,0.03585,0.036583333333333,0.031066666666667006,0.03333333333333299,0.029033333333332995,0.027133333333332996,0.026966666666667007,5.0
COM4,509,15-Apr-19,2019-04-15 02:00:00,0.033133333333332994,0.036133333333333,0.036366666666667,0.0324,0.0342,0.028616666666667005,0.028333333333332995,5.0
COM4,509,15-Apr-19,2019-04-15 03:00:00,0.010033333333333,0.01075,0.011616666666667,0.012533333333332999,0.0103,0.0083166666666667,0.0090666666666667,5.0
COM4,509,15-Apr-19,2019-04-15 04:00:00,0.0010166666666667,0.0060666666666667,0.00335,0.00475,0.0055166666666667,0.00325,0.00295,5.0
COM4,509,15-Apr-19,2019-04-15 05:00:00,-0.00235,0.00635,0.0090666666666667,0.0068,0.0090833333333333,0.0085,0.0103,5.0
COM4,509,15-Apr-19,2019-04-15 06:00:00,0.0262,0.03378333333333299,0.03258333333333299,0.0332,0.033933333333332996,0.03085,0.031233333333332995,5.0
COM4,509,15-Apr-19,2019-04-15 07:00:00,0.016383333333333,0.02255,0.02385,0.0232,0.023033333333332996,0.021033333333332998,0.0224,5.0
COM4,509,15-Apr-19,2019-04-15 08:00:00,0.04755,0.05248333333333301,0.04805,0.04795,0.045583333333333004,0.046233333333333,0.04735,5.0
COM4,509,15-Apr-19,2019-04-15 09:00:00,0.0844,0.0814,0.0755,0.07476666666666701,0.07015,0.0692,0.07071666666666701,5.0
COM4,509,15-Apr-19,2019-04-15 10:00:00,0.060183333333333006,0.06915,0.062266666666667,0.059216666666666994,0.0574,0.05595,0.05565,5.0
COM4,509,15-Apr-19,2019-04-15 11:00:00,0.06618333333333301,0.065133333333333,0.062466666666666996,0.060383333333333004,0.056366666666666995,0.0547,0.054383333333333006,5.0
COM4,509,15-Apr-19,2019-04-15 12:00:00,0.042166666666667,0.050683333333333004,0.04475,0.04715,0.04425,0.042883333333333,0.043333333333333,5.0
COM4,509,15-Apr-19,2019-04-15 13:00:00,0.055266666666667,0.05815,0.054233333333333,0.05191666666666699,0.0508,0.04775,0.0474,5.0
COM4,509,15-Apr-19,2019-04-15 14:00:00,0.06211666666666699,0.057916666666667,0.055866666666666995,0.053516666666667,0.049483333333333004,0.047466666666667,0.049133333333333,5.0
COM4,509,15-Apr-19,2019-04-15 15:00:00,0.07311666666666701,0.07633333333333299,0.070083333333333,0.0677,0.063833333333333,0.055933333333333,0.05755,5.0
COM4,509,15-Apr-19,2019-04-15 16:00:00,0.06518333333333301,0.066733333333333,0.060883333333333005,0.06145,0.057466666666667,0.053133333333333005,0.054133333333333006,5.0
COM4,509,15-Apr-19,2019-04-15 17:00:00,0.05955,0.058666666666667,0.05411666666666699,0.05075,0.04883333333333301,0.044683333333333006,0.046416666666666995,4.998333333333299
COM4,509,15-Apr-19,2019-04-15 18:00:00,0.045516666666667,0.042066666666666995,0.0414,0.0398,0.0371,0.033283333333333,0.03335,4.9433333333333
COM4,509,15-Apr-19,2019-04-15 19:00:00,0.0449,0.04725,0.04295,0.0427,0.041716666666667,0.04075,0.040716666666667,4.9
COM4,509,15-Apr-19,2019-04-15 20:00:00,0.0464,0.041516666666667,0.041066666666667,0.0387,0.036633333333333,0.03426666666666701,0.034733333333333,4.9
COM4,509,15-Apr-19,2019-04-15 21:00:00,0.0302,0.024216666666667004,0.02275,0.021983333333333,0.021983333333333,0.017566666666667,0.020483333333333,4.9
COM4,509,15-Apr-19,2019-04-15 22:00:00,0.064416666666667,0.05465,0.047433333333333,0.04585,0.043616666666667,0.039983333333333,0.039616666666667,4.9
COM4,509,15-Apr-19,2019-04-15 23:00:00,0.12061016949153,0.09377966101694901,0.08644067796610201,0.080745762711864,0.074949152542373,0.067016949152542,0.06908474576271201,4.9
