COM4,0509,04-Jan-19,2019-01-04 00:00:00,4.34395,3.26575,2.9062,2.7762833333333,2.6196833333333,2.4029333333333,2.4624166666667,4.9483333333333,0,0,0,0,0,0,0,0,0,0,0,0,0,0,0,0,0,0,0,0,0,0,0,0,0,0,0,0,0,0,0,0,0,0,0,0,0,0,0,0,0,0
COM4,0509,04-Jan-19,2019-01-04 01:00:00,3.9514333333333,2.9860166666667,2.6649666666667,2.5392833333333,2.3927666666667,2.1854666666667,2.2402666666667,4.9,0,0,0,0,0,0,0,0,0,0,0,0,0,0,0,0,0,0,0,0,0,0,0,0,0,0,0,0,0,0,0,0,0,0,0,0,0,0,0,0,0,0
COM4,0509,04-Jan-19,2019-01-04 02:00:00,4.1269333333333,3.0420166666667,2.7238666666667,2.6169,2.4819166666667,2.3238333333333,2.3939666666667,4.6116666666667,0,0,0,0,0,0,0,0,0,0,0,0,0,0,0,0,0,0,0,0,0,0,0,0,0,0,0,0,0,0,0,0,0,0,0,0,0,0,0,0,0,0
COM4,0509,04-Jan-19,2019-01-04 03:00:00,2.6629166666667,1.9739,1.78575,1.72805,1.6493333333333,1.57265,1.6183166666667,5,0,0,0,0,0,0,0,0,0,0,0,0,0,0,0,0,0,0,0,0,0,0,0,0,0,0,0,0,0,0,0,0,0,0,0,0,0,0,0,0,0,0
COM4,0509,04-Jan-19,2019-01-04 04:00:00,1.2409666666667,1.1309,1.0562666666667,1.0364833333333,0.99593333333333,0.95753333333333,0.98413333333333,5,0,0,0,0,0,0,0,0,0,0,0,0,0,0,0,0,0,0,0,0,0,0,0,0,0,0,0,0,0,0,0,0,0,0,0,0,0,0,0,0,0,0
COM4,0509,04-Jan-19,2019-01-04 05:00:00,1.1377833333333,1.1047666666667,1.0442,1.0298666666667,0.9937,0.95463333333333,0.98228333333333,5,0,0,0,0,0,0,0,0,0,0,0,0,0,0,0,0,0,0,0,0,0,0,0,0,0,0,0,0,0,0,0,0,0,0,0,0,0,0,0,0,0,0
COM4,0509,04-Jan-19,2019-01-04 06:00:00,1.5310666666667,1.2888333333333,1.1884666666667,1.16255,1.1155333333333,1.0731333333333,1.10435,5,0,0,0,0,0,0,0,0,0,0,0,0,0,0,0,0,0,0,0,0,0,0,0,0,0,0,0,0,0,0,0,0,0,0,0,0,0,0,0,0,0,0
COM4,0509,04-Jan-19,2019-01-04 07:00:00,1.7582666666667,1.4958833333333,1.3878833333333,1.3653,1.3170666666667,1.26865,1.3067,5,0,0,0,0,0,0,0,0,0,0,0,0,0,0,0,0,0,0,0,0,0,0,0,0,0,0,0,0,0,0,0,0,0,0,0,0,0,0,0,0,0,0
COM4,0509,04-Jan-19,2019-01-04 08:00:00,2.1606166666667,1.9297666666667,1.81745,1.8044666666667,1.7586833333333,1.7341833333333,1.7911666666667,5,0,0,0,0,0,0,0,0,0,0,0,0,0,0,0,0,0,0,0,0,0,0,0,0,0,0,0,0,0,0,0,0,0,0,0,0,0,0,0,0,0,0
COM4,0509,04-Jan-19,2019-01-04 09:00:00,2.3577833333333,2.1695666666667,2.0245833333333,1.9866,1.9169666666667,1.8568166666667,1.9117666666667,5,0,0,0,0,0,0,0,0,0,0,0,0,0,0,0,0,0,0,0,0,0,0,0,0,0,0,0,0,0,0,0,0,0,0,0,0,0,0,0,0,0,0
COM4,0509,04-Jan-19,2019-01-04 10:00:00,1.9551666666667,1.7474,1.5806833333333,1.5124333333333,1.4308833333333,1.3363666666667,1.3717,5,0,0,0,0,0,0,0,0,0,0,0,0,0,0,0,0,0,0,0,0,0,0,0,0,0,0,0,0,0,0,0,0,0,0,0,0,0,0,0,0,0,0
COM4,0509,04-Jan-19,2019-01-04 11:00:00,1.3909166666667,1.2979166666667,1.20225,1.1707333333333,1.1185333333333,1.0494333333333,1.07675,5,0,0,0,0,0,0,0,0,0,0,0,0,0,0,0,0,0,0,0,0,0,0,0,0,0,0,0,0,0,0,0,0,0,0,0,0,0,0,0,0,0,0
COM4,0509,04-Jan-19,2019-01-04 12:00:00,1.5921166666667,1.4951166666667,1.38975,1.3571166666667,1.3062333333333,1.24075,1.2755333333333,5,0,0,0,0,0,0,0,0,0,0,0,0,0,0,0,0,0,0,0,0,0,0,0,0,0,0,0,0,0,0,0,0,0,0,0,0,0,0,0,0,0,0
COM4,0509,04-Jan-19,2019-01-04 13:00:00,1.5205333333333,1.41035,1.3166833333333,1.2901833333333,1.2457166666667,1.1868833333333,1.2213333333333,5,0,0,0,0,0,0,0,0,0,0,0,0,0,0,0,0,0,0,0,0,0,0,0,0,0,0,0,0,0,0,0,0,0,0,0,0,0,0,0,0,0,0
COM4,0509,04-Jan-19,2019-01-04 14:00:00,1.4030833333333,1.3167666666667,1.2357833333333,1.2136666666667,1.1743666666667,1.123,1.1557333333333,5,0,0,0,0,0,0,0,0,0,0,0,0,0,0,0,0,0,0,0,0,0,0,0,0,0,0,0,0,0,0,0,0,0,0,0,0,0,0,0,0,0,0
COM4,0509,04-Jan-19,2019-01-04 15:00:00,1.4347,1.3154666666667,1.2195166666667,1.1890833333333,1.14195,1.0802333333333,1.1065,4.905,0,0,0,0,0,0,0,0,0,0,0,0,0,0,0,0,0,0,0,0,0,0,0,0,0,0,0,0,0,0,0,0,0,0,0,0,0,0,0,0,0,0
COM4,0509,04-Jan-19,2019-01-04 16:00:00,1.4239833333333,1.3159833333333,1.2204333333333,1.1913666666667,1.1482333333333,1.0892833333333,1.1183833333333,4.9,0,0,0,0,0,0,0,0,0,0,0,0,0,0,0,0,0,0,0,0,0,0,0,0,0,0,0,0,0,0,0,0,0,0,0,0,0,0,0,0,0,0
COM4,0509,04-Jan-19,2019-01-04 17:00:00,1.71835,1.5453333333333,1.4294,1.3985666666667,1.3429333333333,1.2679833333333,1.2983833333333,4.8983333333333,0,0,0,0,0,0,0,0,0,0,0,0,0,0,0,0,0,0,0,0,0,0,0,0,0,0,0,0,0,0,0,0,0,0,0,0,0,0,0,0,0,0
COM4,0509,04-Jan-19,2019-01-04 18:00:00,2.1760333333333,1.9118,1.7585,1.7144333333333,1.6508833333333,1.57155,1.6106,4.8066666666667,0,0,0,0,0,0,0,0,0,0,0,0,0,0,0,0,0,0,0,0,0,0,0,0,0,0,0,0,0,0,0,0,0,0,0,0,0,0,0,0,0,0
COM4,0509,04-Jan-19,2019-01-04 19:00:00,2.5635333333333,2.1343833333333,1.9367833333333,1.8658,1.78495,1.6842833333333,1.72765,4.8,0,0,0,0,0,0,0,0,0,0,0,0,0,0,0,0,0,0,0,0,0,0,0,0,0,0,0,0,0,0,0,0,0,0,0,0,0,0,0,0,0,0
COM4,0509,04-Jan-19,2019-01-04 20:00:00,3.4356666666667,2.8248166666667,2.5551,2.4546333333333,2.3452,2.2043333333333,2.2549333333333,4.8,0,0,0,0,0,0,0,0,0,0,0,0,0,0,0,0,0,0,0,0,0,0,0,0,0,0,0,0,0,0,0,0,0,0,0,0,0,0,0,0,0,0
COM4,0509,04-Jan-19,2019-01-04 21:00:00,2.60805,2.1827333333333,1.9822333333333,1.9115166666667,1.8234,1.7063666666667,1.7454166666667,4.7683333333333,0,0,0,0,0,0,0,0,0,0,0,0,0,0,0,0,0,0,0,0,0,0,0,0,0,0,0,0,0,0,0,0,0,0,0,0,0,0,0,0,0,0
COM4,0509,04-Jan-19,2019-01-04 22:00:00,2.7332166666667,2.2053,1.9932666666667,1.9085833333333,1.8211,1.70405,1.7406,4.7,0,0,0,0,0,0,0,0,0,0,0,0,0,0,0,0,0,0,0,0,0,0,0,0,0,0,0,0,0,0,0,0,0,0,0,0,0,0,0,0,0,0
COM4,0509,04-Jan-19,2019-01-04 23:00:00,2.7359333333333,2.23555,2.0254833333333,1.9438333333333,1.8601666666667,1.7612666666667,1.8035,4.7,0,0,0,0,0,0,0,0,0,0,0,0,0,0,0,0,0,0,0,0,0,0,0,0,0,0,0,0,0,0,0,0,0,0,0,0,0,0,0,0,0,0
