COM4,509,05-Mar-20,2020-03-05 00:00:00,0.73115,0.6811,0.63415,0.61538333333333,0.5858666666666701,0.53868333333333,0.5511333333333299,5.0
COM4,509,05-Mar-20,2020-03-05 01:00:00,0.19496666666667004,0.15053333333333,0.13496666666666998,0.1247,0.11573333333333001,0.10501666666666999,0.10915,5.0
COM4,509,05-Mar-20,2020-03-05 02:00:00,0.88143333333333,0.74276666666667,0.66816666666667,0.6334666666666701,0.59545,0.5367833333333301,0.54895,5.0
COM4,509,05-Mar-20,2020-03-05 03:00:00,0.65768333333333,0.57383333333333,0.52448333333333,0.50246666666667,0.47206666666667,0.4253,0.43515,5.0
COM4,509,05-Mar-20,2020-03-05 04:00:00,0.94138333333333,0.75978333333333,0.67935,0.6446833333333299,0.60605,0.5468833333333301,0.55855,5.0
COM4,509,05-Mar-20,2020-03-05 05:00:00,0.65191666666667,0.5668166666666701,0.51853333333333,0.49901666666667,0.46781666666667,0.42701666666667,0.43528333333333,5.0
COM4,509,05-Mar-20,2020-03-05 06:00:00,0.4731,0.32033333333333003,0.2816,0.25473333333333,0.23233333333332998,0.20343333333332997,0.20828333333332996,5.0
COM4,509,05-Mar-20,2020-03-05 07:00:00,0.55495,0.44973333333333,0.39873333333333,0.36635,0.33868333333333,0.29761666666666997,0.30438333333333,5.0
COM4,509,05-Mar-20,2020-03-05 08:00:00,0.35483333333333,0.34313333333333,0.31498333333333,0.2987,0.27828333333333,0.24863333333332996,0.25398333333332995,5.0
COM4,509,05-Mar-20,2020-03-05 09:00:00,0.68678333333333,0.6449333333333299,0.59345,0.5669666666666701,0.53633333333333,0.49361666666667,0.50751666666667,5.0
COM4,509,05-Mar-20,2020-03-05 10:00:00,0.26095,0.28816666666667,0.27,0.25965,0.2466,0.22206666666667002,0.22778333333332998,5.0
COM4,509,05-Mar-20,2020-03-05 11:00:00,0.4111,0.39105,0.3573,0.33893333333333,0.31656666666667,0.27888333333333,0.28468333333333,5.0
COM4,509,05-Mar-20,2020-03-05 12:00:00,0.47495,0.48016666666667,0.4542,0.43988333333333,0.42211666666666997,0.38495,0.3941,5.0
COM4,509,05-Mar-20,2020-03-05 13:00:00,0.6285,0.61351666666667,0.5778,0.56583333333333,0.54273333333333,0.49805,0.5091,5.0
COM4,509,05-Mar-20,2020-03-05 14:00:00,0.77526666666667,0.72925,0.6905,0.68028333333333,0.65558333333333,0.6099833333333299,0.62343333333333,5.0
COM4,509,05-Mar-20,2020-03-05 15:00:00,0.76033333333333,0.70961666666667,0.6679,0.6551,0.6326333333333299,0.58845,0.6028833333333299,5.0
COM4,509,05-Mar-20,2020-03-05 16:00:00,0.37826666666666997,0.39126666666667,0.37568333333333,0.36936666666667,0.35576666666667,0.33155,0.33838333333333,5.0
COM4,509,05-Mar-20,2020-03-05 17:00:00,0.4326,0.40928333333333,0.37451666666667,0.36193333333333,0.34258333333333,0.31323333333333003,0.32185,5.0
COM4,509,05-Mar-20,2020-03-05 18:00:00,0.77171666666667,0.65801666666667,0.5950166666666701,0.5646666666666701,0.53055,0.47853333333333,0.48988333333333,5.0
COM4,509,05-Mar-20,2020-03-05 19:00:00,1.51265,1.17675,1.0508166666667,0.99161666666667,0.9258833333333301,0.83238333333333,0.8517,5.0
COM4,509,05-Mar-20,2020-03-05 20:00:00,1.89405,1.4000166666667,1.2260166666666998,1.1475666666667,1.0613833333333,0.94223333333333,0.96096666666667,5.0
COM4,509,05-Mar-20,2020-03-05 21:00:00,1.0256,0.80763333333333,0.72735,0.68916666666667,0.64353333333333,0.57725,0.59103333333333,4.6666666666667
COM4,509,05-Mar-20,2020-03-05 22:00:00,0.78395,0.5989166666666701,0.55535,0.5388166666666699,0.51415,0.48881666666667,0.50181666666667,5.0
COM4,509,05-Mar-20,2020-03-05 23:00:00,1.1872711864407,0.9356949152542401,0.85501694915254,0.8291694915254201,0.78789830508475,0.7376779661016899,0.75506779661017,5.0
