COM4,509,26-May-19,2019-05-26 00:00:00,0.045916666666666994,0.041466666666667,0.037883333333333,0.037366666666667,0.03545,0.032666666666667,0.034466666666667,5
COM4,509,26-May-19,2019-05-26 01:00:00,0.05475,0.046666666666666995,0.0423,0.040583333333333,0.038166666666667,0.036733333333333,0.036266666666667,5
COM4,509,26-May-19,2019-05-26 02:00:00,0.10093333333333,0.07845,0.0688,0.065233333333333,0.06085,0.0564,0.058366666666667,5
COM4,509,26-May-19,2019-05-26 03:00:00,0.10603333333333001,0.07625,0.06655,0.060616666666667,0.056333333333333006,0.05121666666666699,0.05198333333333301,5
COM4,509,26-May-19,2019-05-26 04:00:00,0.077866666666667,0.059366666666667,0.0507,0.0475,0.04325,0.039433333333333,0.041016666666667,5
COM4,509,26-May-19,2019-05-26 05:00:00,0.0689,0.05445,0.048116666666666995,0.046166666666666994,0.04255,0.03935,0.039283333333333,5
COM4,509,26-May-19,2019-05-26 06:00:00,0.067683333333333,0.053483333333333,0.04731666666666699,0.044333333333333,0.04115,0.038866666666667,0.03925,5
COM4,509,26-May-19,2019-05-26 07:00:00,0.060266666666666996,0.051933333333333005,0.0474,0.04561666666666699,0.042816666666666996,0.0403,0.041466666666667,5
COM4,509,26-May-19,2019-05-26 08:00:00,0.05538333333333301,0.051933333333333005,0.04825,0.047933333333333,0.0459,0.043333333333333,0.0442,5
COM4,509,26-May-19,2019-05-26 09:00:00,0.045466666666666995,0.044716666666666995,0.042616666666667,0.042316666666666995,0.041066666666667,0.038816666666667,0.039583333333333,5
COM4,509,26-May-19,2019-05-26 10:00:00,0.044183333333333005,0.042566666666666995,0.04095,0.0409,0.03965,0.037566666666667,0.03905,5
COM4,509,26-May-19,2019-05-26 11:00:00,0.047083333333333005,0.044433333333333005,0.0427,0.04215,0.04065,0.038566666666667,0.039433333333333,5
COM4,509,26-May-19,2019-05-26 12:00:00,0.058933333333333005,0.05245,0.0506,0.0507,0.05025,0.04636666666666699,0.048966666666667,5
COM4,509,26-May-19,2019-05-26 13:00:00,0.0479,0.045883333333333005,0.045283333333333,0.043633333333333,0.043383333333333,0.036266666666667,0.0384,5
COM4,509,26-May-19,2019-05-26 14:00:00,0.038083333333333,0.038516666666667,0.0364,0.0361,0.035966666666667,0.034416666666667,0.036383333333333,5
COM4,509,26-May-19,2019-05-26 15:00:00,0.033166666666667004,0.0348,0.032616666666667,0.032283333333333,0.030633333333332995,0.03025,0.031233333333332995,5
COM4,509,26-May-19,2019-05-26 16:00:00,0.038666666666667,0.039416666666667,0.036000000000000004,0.0355,0.0348,0.0323,0.03355,5
COM4,509,26-May-19,2019-05-26 17:00:00,0.05285,0.05096666666666699,0.0477,0.04735,0.044016666666666995,0.042433333333333004,0.0429,5
COM4,509,26-May-19,2019-05-26 18:00:00,0.064916666666667,0.0653,0.059433333333333005,0.058816666666666996,0.055733333333333,0.054266666666667,0.05368333333333301,5
COM4,509,26-May-19,2019-05-26 19:00:00,0.24978333333332997,0.22946666666667004,0.2134,0.20785,0.19815,0.18681666666667004,0.1914,5
COM4,509,26-May-19,2019-05-26 20:00:00,0.5874333333333299,0.47596666666667,0.43006666666667,0.4089,0.38376666666667,0.35651666666667,0.3652,5
COM4,509,26-May-19,2019-05-26 21:00:00,0.59021666666667,0.47361666666667,0.42483333333333,0.40108333333333,0.37235,0.33971666666667,0.34725,5
COM4,509,26-May-19,2019-05-26 22:00:00,0.3921,0.32008333333333,0.28743333333333,0.27085,0.2519,0.22898333333332996,0.23456666666667003,5
COM4,509,26-May-19,2019-05-26 23:00:00,0.31093333333333,0.265,0.23881666666667004,0.2269,0.21161666666667003,0.19143333333332996,0.19496666666667004,5
