COM4,509,30-Apr-19,2019-04-30 00:00:00,0.09636666666666699,0.06568333333333301,0.05685,0.051933333333333005,0.046,0.037283333333333,0.036416666666667,4.8
COM4,509,30-Apr-19,2019-04-30 01:00:00,0.07826666666666701,0.055866666666666995,0.049233333333333004,0.042683333333333004,0.039833333333333,0.028466666666667004,0.029883333333332995,4.8
COM4,509,30-Apr-19,2019-04-30 02:00:00,0.05683333333333301,0.052183333333333005,0.040066666666667,0.037166666666667,0.03161666666666701,0.0242,0.024683333333332995,4.8
COM4,509,30-Apr-19,2019-04-30 03:00:00,0.051333333333333,0.041933333333332996,0.037466666666667,0.0337,0.0299,0.022583333333332994,0.022166666666667004,4.8
COM4,509,30-Apr-19,2019-04-30 04:00:00,0.05613333333333301,0.04665,0.037966666666667,0.0342,0.0321,0.024233333333332996,0.0249,4.8
COM4,509,30-Apr-19,2019-04-30 05:00:00,0.0591,0.0533,0.045583333333333004,0.040666666666667003,0.036966666666667,0.030366666666667003,0.0312,4.8
COM4,509,30-Apr-19,2019-04-30 06:00:00,0.1092,0.08783333333333299,0.07461666666666701,0.072333333333333,0.06275,0.0573,0.05708333333333301,4.8
COM4,509,30-Apr-19,2019-04-30 07:00:00,0.1027,0.0734,0.06445,0.058183333333333004,0.05545,0.04415,0.04568333333333301,4.8
COM4,509,30-Apr-19,2019-04-30 08:00:00,0.11701666666666999,0.08618333333333299,0.075166666666667,0.0691,0.061216666666666995,0.050866666666667,0.05343333333333301,4.8
COM4,509,30-Apr-19,2019-04-30 09:00:00,0.11141666666667,0.08255,0.0725,0.06515,0.061733333333333,0.047283333333333004,0.049533333333333006,4.8
COM4,509,30-Apr-19,2019-04-30 10:00:00,0.088816666666667,0.0707,0.059516666666666995,0.05515,0.047466666666667,0.039333333333333,0.038983333333333,4.8
COM4,509,30-Apr-19,2019-04-30 11:00:00,0.075816666666667,0.064516666666667,0.053983333333333,0.049116666666666996,0.044883333333333005,0.0353,0.035516666666667,4.8
COM4,509,30-Apr-19,2019-04-30 12:00:00,0.071383333333333,0.061716666666666996,0.0529,0.048183333333333,0.042616666666667,0.037033333333333,0.0367,4.8
COM4,509,30-Apr-19,2019-04-30 13:00:00,0.08626666666666702,0.068283333333333,0.058233333333333005,0.05225,0.046833333333333005,0.043716666666666994,0.0418,4.8
COM4,509,30-Apr-19,2019-04-30 14:00:00,0.0818,0.061183333333333006,0.052783333333333,0.050266666666666994,0.043766666666666995,0.038866666666667,0.038516666666667,4.8
COM4,509,30-Apr-19,2019-04-30 15:00:00,0.093016666666667,0.06888333333333299,0.059366666666667,0.05385,0.048466666666667,0.041133333333333,0.041466666666667,4.8
COM4,509,30-Apr-19,2019-04-30 16:00:00,0.1114,0.083833333333333,0.07651666666666701,0.069833333333333,0.06256666666666699,0.0567,0.05695,4.8
COM4,509,30-Apr-19,2019-04-30 17:00:00,0.064266666666667,0.051616666666667,0.042683333333333004,0.0416,0.037283333333333,0.030366666666667003,0.031416666666667,4.8
COM4,509,30-Apr-19,2019-04-30 18:00:00,0.072816666666667,0.061983333333333,0.05455,0.052266666666666996,0.048016666666667,0.041633333333333,0.041016666666667,4.8
COM4,509,30-Apr-19,2019-04-30 19:00:00,0.067283333333333,0.056716666666667,0.04925,0.043883333333333004,0.039366666666667,0.032233333333332996,0.0325,4.8
COM4,509,30-Apr-19,2019-04-30 20:00:00,0.0642,0.04876666666666699,0.0429,0.0409,0.035566666666667,0.029533333333332995,0.028966666666667005,4.8
COM4,509,30-Apr-19,2019-04-30 21:00:00,0.065416666666667,0.049,0.042866666666667,0.038,0.035533333333333,0.029116666666667006,0.029866666666667006,4.8
COM4,509,30-Apr-19,2019-04-30 22:00:00,0.081783333333333,0.067916666666667,0.059333333333333,0.054733333333333,0.048916666666667,0.041583333333333,0.040133333333333,4.8
COM4,509,30-Apr-19,2019-04-30 23:00:00,0.078203389830508,0.06172881355932199,0.05288135593220299,0.05006779661016901,0.042932203389830996,0.036576271186441,0.036847457627118996,4.8
