COM4,509,30-Dec-19,2019-12-30 00:00:00,0.9762,0.72251666666667,0.64171666666667,0.60913333333333,0.5657166666666701,0.5016,0.51118333333333,5.0
COM4,509,30-Dec-19,2019-12-30 01:00:00,0.53736666666667,0.45138333333333003,0.40835,0.3904,0.366,0.32508333333333,0.33281666666667,5.0
COM4,509,30-Dec-19,2019-12-30 02:00:00,0.6015833333333299,0.51311666666667,0.4684,0.4513,0.42246666666667,0.37891666666667,0.38636666666667,5.0
COM4,509,30-Dec-19,2019-12-30 03:00:00,0.50121666666667,0.44018333333333,0.39848333333333,0.38243333333333,0.36005,0.32031666666666997,0.3269,5.0
COM4,509,30-Dec-19,2019-12-30 04:00:00,0.51726666666667,0.43831666666667,0.39943333333333003,0.38345,0.35871666666667,0.31843333333333,0.32515,5.0
COM4,509,30-Dec-19,2019-12-30 05:00:00,0.6371333333333299,0.5065333333333301,0.45111666666667,0.43076666666667,0.39961666666667,0.35333333333333,0.36006666666667,5.0
COM4,509,30-Dec-19,2019-12-30 06:00:00,0.78296666666667,0.65081666666667,0.5895833333333299,0.56611666666667,0.53085,0.4755,0.48508333333333,5.0
COM4,509,30-Dec-19,2019-12-30 07:00:00,1.35315,1.1252,1.0215,0.98795,0.93358333333333,0.85288333333333,0.875,5.0
COM4,509,30-Dec-19,2019-12-30 08:00:00,1.2704333333333,1.0815,0.98603333333333,0.95208333333333,0.90075,0.82283333333333,0.84336666666667,5.0
COM4,509,30-Dec-19,2019-12-30 09:00:00,1.01495,0.86413333333333,0.78433333333333,0.75536666666667,0.70961666666667,0.6352166666666701,0.6485166666666701,5.0
COM4,509,30-Dec-19,2019-12-30 10:00:00,0.99441666666667,0.8634,0.79331666666667,0.76698333333333,0.72675,0.6581,0.67468333333333,5.0
COM4,509,30-Dec-19,2019-12-30 11:00:00,0.91983333333333,0.81251666666667,0.75163333333333,0.73558333333333,0.69836666666667,0.63576666666667,0.65075,5.0
COM4,509,30-Dec-19,2019-12-30 12:00:00,0.9618,0.8297,0.76578333333333,0.74396666666667,0.70691666666667,0.6458333333333299,0.66258333333333,5.0
COM4,509,30-Dec-19,2019-12-30 13:00:00,1.0604833333333001,0.9324,0.86321666666667,0.8415,0.80433333333333,0.73451666666667,0.75396666666667,5.0
COM4,509,30-Dec-19,2019-12-30 14:00:00,0.78133333333333,0.68316666666667,0.62828333333333,0.6116333333333299,0.58221666666667,0.52703333333333,0.54176666666667,5.0
COM4,509,30-Dec-19,2019-12-30 15:00:00,0.76086666666667,0.6758,0.62951666666667,0.6152,0.5877,0.54058333333333,0.55635,5.0
COM4,509,30-Dec-19,2019-12-30 16:00:00,0.83738333333333,0.74368333333333,0.68716666666667,0.67113333333333,0.6454,0.5942166666666701,0.61125,5.0
COM4,509,30-Dec-19,2019-12-30 17:00:00,1.0396166666667,0.90745,0.83391666666667,0.81445,0.77721666666667,0.7192333333333301,0.74031666666667,5.0
COM4,509,30-Dec-19,2019-12-30 18:00:00,1.8632333333333,1.66435,1.5307333333333,1.4981666666667,1.43155,1.3286166666666999,1.3702166666667,5.0
COM4,509,30-Dec-19,2019-12-30 19:00:00,1.5694666666666999,1.4101833333333,1.3023833333333001,1.2763333333333,1.2207333333333001,1.1398666666667,1.1730833333333,5.0
COM4,509,30-Dec-19,2019-12-30 20:00:00,1.2704833333333,1.1351666666667,1.0447666666667,1.0183833333333001,0.9727,0.90221666666667,0.92823333333333,5.0
COM4,509,30-Dec-19,2019-12-30 21:00:00,0.82156666666667,0.72508333333333,0.6669833333333299,0.6515666666666701,0.6169,0.56568333333333,0.5848666666666701,4.6666666666667
COM4,509,30-Dec-19,2019-12-30 22:00:00,0.88683333333333,0.72408333333333,0.67375,0.6609333333333299,0.63165,0.5951666666666701,0.6104333333333299,5.0
COM4,509,30-Dec-19,2019-12-30 23:00:00,1.2852833333333,1.1025666666667,1.03035,1.01335,0.97083333333333,0.9138,0.93513333333333,5.0
