COM4,509,04-May-19,2019-05-04 00:00:00,0.23615,0.20476666666667004,0.18636666666667004,0.17966666666667003,0.16926666666667003,0.15601666666667002,0.15945,5
COM4,509,04-May-19,2019-05-04 01:00:00,0.22353333333332998,0.17836666666667003,0.15916666666667,0.15135,0.14118333333333,0.12845,0.1319,5
COM4,509,04-May-19,2019-05-04 02:00:00,0.20408333333332998,0.15786666666667,0.1402,0.132,0.12278333333333001,0.11163333333333,0.11275,5
COM4,509,04-May-19,2019-05-04 03:00:00,0.1806,0.14166666666667002,0.12558333333333,0.11848333333333,0.11046666666666999,0.099183333333333,0.102,5
COM4,509,04-May-19,2019-05-04 04:00:00,0.14785,0.126,0.11421666666666999,0.1093,0.10258333333333,0.094616666666667,0.09585,5
COM4,509,04-May-19,2019-05-04 05:00:00,0.16043333333332999,0.13563333333333,0.12268333333333001,0.11928333333333001,0.11143333333333001,0.10223333333333001,0.10481666666667,5
COM4,509,04-May-19,2019-05-04 06:00:00,0.16346666666667,0.14731666666667,0.13525,0.13191666666666998,0.12598333333333,0.11946666666667,0.12206666666667,5
COM4,509,04-May-19,2019-05-04 07:00:00,0.16541666666667001,0.13855,0.12583333333333,0.12128333333333001,0.11445,0.10736666666667,0.10958333333333001,5
COM4,509,04-May-19,2019-05-04 08:00:00,0.12823333333333,0.11538333333333001,0.10626666666666999,0.10353333333333001,0.098716666666667,0.09038333333333301,0.094116666666667,5
COM4,509,04-May-19,2019-05-04 09:00:00,0.11976666666666999,0.11153333333333,0.10408333333333,0.10203333333333,0.09833333333333301,0.0916,0.09418333333333301,5
COM4,509,04-May-19,2019-05-04 10:00:00,0.10773333333333,0.099966666666667,0.0953,0.092633333333333,0.08913333333333301,0.082766666666667,0.08641666666666702,5
COM4,509,04-May-19,2019-05-04 11:00:00,0.11483333333333001,0.10348333333333,0.097916666666667,0.09546666666666699,0.093666666666667,0.08543333333333299,0.090333333333333,5
COM4,509,04-May-19,2019-05-04 12:00:00,0.11653333333333,0.1096,0.10446666666667,0.10315,0.09958333333333301,0.09300000000000001,0.0957,5
COM4,509,04-May-19,2019-05-04 13:00:00,0.09131666666666699,0.090116666666667,0.08488333333333299,0.082833333333333,0.079783333333333,0.0733,0.075533333333333,5
COM4,509,04-May-19,2019-05-04 14:00:00,0.07751666666666701,0.07685,0.072566666666667,0.071233333333333,0.067683333333333,0.063783333333333,0.06511666666666699,5
COM4,509,04-May-19,2019-05-04 15:00:00,0.082366666666667,0.0754,0.06885,0.0676,0.063333333333333,0.05758333333333301,0.05845,5
COM4,509,04-May-19,2019-05-04 16:00:00,0.090216666666667,0.078116666666667,0.07038333333333299,0.067183333333333,0.0627,0.057616666666666996,0.05765,5
COM4,509,04-May-19,2019-05-04 17:00:00,0.20491666666667002,0.13891666666667002,0.11541666666667,0.10191666666667,0.08900000000000001,0.074066666666667,0.074916666666667,5
COM4,509,04-May-19,2019-05-04 18:00:00,0.1953,0.14086666666667003,0.11688333333333001,0.10578333333333001,0.09278333333333301,0.080616666666667,0.079366666666667,5
COM4,509,04-May-19,2019-05-04 19:00:00,0.18235,0.15443333333332998,0.13616666666667,0.1284,0.11725,0.10525,0.10491666666666999,5
COM4,509,04-May-19,2019-05-04 20:00:00,0.26026666666667003,0.222,0.19933333333332998,0.19058333333332997,0.17578333333332996,0.15921666666667,0.1615,5
COM4,509,04-May-19,2019-05-04 21:00:00,0.27156666666667,0.22345,0.19928333333332998,0.18703333333332997,0.17526666666667004,0.15525,0.15968333333332999,5
COM4,509,04-May-19,2019-05-04 22:00:00,0.35643333333333,0.26831666666667003,0.23558333333332998,0.21728333333332997,0.19821666666667004,0.17321666666667004,0.1769,5
COM4,509,04-May-19,2019-05-04 23:00:00,0.36554237288136,0.29294915254237,0.262,0.24398305084746,0.22593220338983,0.20250847457627,0.20796610169492002,5
