COM4,509,10-May-19,2019-05-10 00:00:00,0.03233333333333299,0.0268,0.024716666666667005,0.022116666666667006,0.019883333333333,0.016366666666667,0.0164,4.9
COM4,509,10-May-19,2019-05-10 01:00:00,0.03075,0.024616666666667005,0.0214,0.02215,0.01985,0.017383333333333,0.016633333333333,4.895
COM4,509,10-May-19,2019-05-10 02:00:00,0.0274,0.024066666666667007,0.020966666666667,0.019333333333333,0.01695,0.01475,0.015183333333333,4.9
COM4,509,10-May-19,2019-05-10 03:00:00,0.030433333333332997,0.0247,0.021816666666667,0.021216666666667,0.0196,0.016783333333333,0.017083333333333,4.8883333333333
COM4,509,10-May-19,2019-05-10 04:00:00,0.046266666666667,0.04295,0.0382,0.0364,0.03378333333333299,0.0309,0.031033333333332996,4.87
COM4,509,10-May-19,2019-05-10 05:00:00,0.0728,0.067733333333333,0.061766666666667,0.0613,0.0581,0.05595,0.057033333333333006,4.8633333333332995
COM4,509,10-May-19,2019-05-10 06:00:00,0.094616666666667,0.0844,0.079533333333333,0.077233333333333,0.0733,0.071383333333333,0.07361666666666701,4.8966666666667
COM4,509,10-May-19,2019-05-10 07:00:00,0.06761666666666699,0.058133333333333,0.0545,0.051616666666667,0.051416666666667,0.046866666666666994,0.048116666666666995,4.8916666666667
COM4,509,10-May-19,2019-05-10 08:00:00,0.061983333333333,0.051166666666667,0.048433333333333,0.0479,0.045466666666666995,0.040516666666667,0.042983333333333006,4.875
COM4,509,10-May-19,2019-05-10 09:00:00,0.061916666666666995,0.049183333333333,0.045316666666667,0.041733333333333,0.042316666666666995,0.0354,0.0377,4.8033333333333
COM4,509,10-May-19,2019-05-10 10:00:00,0.058416666666667,0.04838333333333301,0.04445,0.0424,0.039883333333333,0.03356666666666701,0.03545,4.8
COM4,509,10-May-19,2019-05-10 11:00:00,0.0552,0.04775,0.0456,0.040983333333333,0.038416666666667,0.03435,0.035483333333333,4.8
COM4,509,10-May-19,2019-05-10 12:00:00,0.056233333333333003,0.045266666666666996,0.039483333333333,0.038983333333333,0.037000000000000005,0.031116666666667004,0.03225,4.8
COM4,509,10-May-19,2019-05-10 13:00:00,0.06475,0.0472,0.045033333333333,0.040433333333333,0.038616666666667,0.032266666666667006,0.0341,4.8
COM4,509,10-May-19,2019-05-10 14:00:00,0.26085,0.23111666666667002,0.21171666666667002,0.20515,0.19533333333332997,0.17505,0.18071666666667002,4.8
COM4,509,10-May-19,2019-05-10 15:00:00,0.34828333333333,0.31248333333333,0.29315,0.28233333333333,0.27181666666667004,0.2438,0.25236666666667,4.8
COM4,509,10-May-19,2019-05-10 16:00:00,0.27811666666667,0.2593,0.23875,0.23305,0.22183333333332997,0.20096666666667004,0.20476666666667004,4.8
COM4,509,10-May-19,2019-05-10 17:00:00,0.20556666666667003,0.19288333333332996,0.1775,0.17115,0.1595,0.14405,0.14563333333332998,4.8
COM4,509,10-May-19,2019-05-10 18:00:00,0.13863333333333,0.14586666666667,0.12946666666667,0.12683333333333,0.11608333333333,0.11056666666666999,0.107,4.8
COM4,509,10-May-19,2019-05-10 19:00:00,0.13796666666667,0.13586666666667,0.12145,0.11896666666667,0.10643333333333001,0.099183333333333,0.09575,4.8
COM4,509,10-May-19,2019-05-10 20:00:00,0.2102,0.1727,0.15018333333332998,0.1424,0.12936666666667,0.11506666666667,0.11458333333333001,4.8
COM4,509,10-May-19,2019-05-10 21:00:00,0.26978333333333,0.20198333333332996,0.17835,0.16448333333332998,0.15336666666667,0.13065,0.13376666666667,4.8
COM4,509,10-May-19,2019-05-10 22:00:00,0.42441666666667,0.31715,0.27933333333333,0.259,0.23896666666667002,0.21033333333332996,0.21405,4.8
COM4,509,10-May-19,2019-05-10 23:00:00,0.42889830508474996,0.33191525423729,0.29718644067796995,0.27847457627119,0.25744067796610004,0.22937288135593,0.23311864406779997,4.8
