COM4,509,26-Sep-18,2018-09-26 00:00:00,0.32723728813559005,0.31061016949153003,0.28716949152542,0.27961016949153,0.26567796610169003,0.25496610169492,0.26223728813559,5
COM4,509,26-Sep-18,2018-09-26 01:00:00,0.29548333333333,0.2825,0.2614,0.25386666666667,0.24253333333332996,0.2333,0.23915,5
COM4,509,26-Sep-18,2018-09-26 02:00:00,0.2752,0.26081666666667,0.24288333333332998,0.23600000000000002,0.22495,0.21326666666667002,0.21875,5
COM4,509,26-Sep-18,2018-09-26 03:00:00,0.22406666666667002,0.21188333333332998,0.19773333333332996,0.19186666666667004,0.18321666666667002,0.1778,0.18348333333332997,5
COM4,509,26-Sep-18,2018-09-26 04:00:00,0.28142372881356,0.27754237288135997,0.26211864406779994,0.25852542372881,0.24872881355932,0.24086440677965998,0.24828813559322,5
COM4,509,26-Sep-18,2018-09-26 05:00:00,0.32498333333333,0.32263333333333,0.30646666666667,0.3038,0.29378333333333,0.28605,0.2949,5
COM4,509,26-Sep-18,2018-09-26 06:00:00,1.1477333333333,1.1770166666667,1.1283666666667,1.1288166666666999,1.1008,1.0961833333333,1.1311,5
COM4,509,26-Sep-18,2018-09-26 07:00:00,0.6502166666666701,0.6801,0.6540833333333299,0.6554166666666701,0.6389833333333299,0.6385166666666701,0.65848333333333,5
COM4,509,26-Sep-18,2018-09-26 08:00:00,0.3008,0.31745,0.30648333333333,0.30628333333333,0.29865,0.29271666666667,0.30211666666667,5
COM4,509,26-Sep-18,2018-09-26 09:00:00,0.1624,0.16283333333333,0.15538333333333,0.15428333333333,0.1495,0.1419,0.14676666666667001,5
COM4,509,26-Sep-18,2018-09-26 10:00:00,0.14776666666667002,0.14856666666667,0.14151666666667,0.14036666666667003,0.13628333333333,0.13556666666667,0.13921666666667,5
COM4,509,26-Sep-18,2018-09-26 11:00:00,0.11413333333333,0.1122,0.10636666666667,0.10526666666666999,0.10263333333333001,0.10056666666667,0.10400000000000001,5
COM4,509,26-Sep-18,2018-09-26 12:00:00,0.0998,0.09296666666666699,0.0888,0.08775,0.083866666666667,0.07285,0.07643333333333299,5
COM4,509,26-Sep-18,2018-09-26 13:00:00,0.13136666666667,0.12131666666667,0.11493333333333,0.1125,0.11025,0.10856666666666999,0.11391666666667,5
COM4,509,26-Sep-18,2018-09-26 14:00:00,0.12988333333333,0.12535,0.11901666666666999,0.11691666666667,0.11333333333333001,0.1085,0.11263333333333,5
COM4,509,26-Sep-18,2018-09-26 15:00:00,0.11588333333333001,0.11135,0.10408333333333,0.10371666666667,0.098033333333333,0.0899,0.0925,5
COM4,509,26-Sep-18,2018-09-26 16:00:00,0.12305,0.1166,0.10971666666667,0.10821666666667,0.10493333333333,0.1035,0.1065,5
COM4,509,26-Sep-18,2018-09-26 17:00:00,0.3197,0.3203,0.3046,0.30293333333333,0.29613333333333003,0.3016,0.31165,5
COM4,509,26-Sep-18,2018-09-26 18:00:00,0.6494,0.6251333333333299,0.5911166666666701,0.5853,0.5638166666666701,0.54973333333333,0.5652833333333299,5
COM4,509,26-Sep-18,2018-09-26 19:00:00,0.32653333333333,0.31183333333333,0.29131666666667,0.28443333333333,0.27156666666667,0.25795,0.26428333333333,5
COM4,509,26-Sep-18,2018-09-26 20:00:00,0.20586666666667003,0.1893,0.17475,0.17086666666667003,0.16393333333333,0.16086666666667002,0.16516666666667001,5
COM4,509,26-Sep-18,2018-09-26 21:00:00,0.5126166666666699,0.36415,0.28278333333333,0.2397,0.21121666666667002,0.19718333333332996,0.20255,5
COM4,509,26-Sep-18,2018-09-26 22:00:00,0.21738333333332996,0.19231666666667002,0.17555,0.16731666666667,0.15805,0.1467,0.15046666666667002,5
COM4,509,26-Sep-18,2018-09-26 23:00:00,0.36378333333333,0.28566666666667,0.23916666666667002,0.21523333333332997,0.19613333333332997,0.18811666666667004,0.19233333333332997,5
