COM4,0509,17-Dec-18,2018-12-17 00:00:00,1.8157288135593,1.5146440677966,1.3793559322034,1.3316101694915,1.2583220338983,1.1281186440678,1.1409491525424,5,0,0,0,0,0,0,0,0,0,0,0,0,0,0,0,0,0,0,0,0,0,0,0,0,0,0,0,0,0,0,0,0,0,0,0,0,0,0,0,0,0,0
COM4,0509,17-Dec-18,2018-12-17 01:00:00,1.9866666666667,1.7007,1.5634666666667,1.5159,1.4373,1.2799,1.2931,5,0,0,0,0,0,0,0,0,0,0,0,0,0,0,0,0,0,0,0,0,0,0,0,0,0,0,0,0,0,0,0,0,0,0,0,0,0,0,0,0,0,0
COM4,0509,17-Dec-18,2018-12-17 02:00:00,1.90175,1.5773166666667,1.4384666666667,1.3852166666667,1.3059833333333,1.1482333333333,1.1552166666667,5,0,0,0,0,0,0,0,0,0,0,0,0,0,0,0,0,0,0,0,0,0,0,0,0,0,0,0,0,0,0,0,0,0,0,0,0,0,0,0,0,0,0
COM4,0509,17-Dec-18,2018-12-17 03:00:00,1.67295,1.4375833333333,1.3140166666667,1.2642333333333,1.1934833333333,1.0455833333333,1.04925,5,0,0,0,0,0,0,0,0,0,0,0,0,0,0,0,0,0,0,0,0,0,0,0,0,0,0,0,0,0,0,0,0,0,0,0,0,0,0,0,0,0,0
COM4,0509,17-Dec-18,2018-12-17 04:00:00,1.81455,1.5032833333333,1.3615166666667,1.3055166666667,1.2275833333333,1.0785333333333,1.0797166666667,5,0,0,0,0,0,0,0,0,0,0,0,0,0,0,0,0,0,0,0,0,0,0,0,0,0,0,0,0,0,0,0,0,0,0,0,0,0,0,0,0,0,0
COM4,0509,17-Dec-18,2018-12-17 05:00:00,1.9554666666667,1.6102666666667,1.4537,1.3856,1.3013833333333,1.1503166666667,1.1471833333333,5,0,0,0,0,0,0,0,0,0,0,0,0,0,0,0,0,0,0,0,0,0,0,0,0,0,0,0,0,0,0,0,0,0,0,0,0,0,0,0,0,0,0
COM4,0509,17-Dec-18,2018-12-17 06:00:00,2.2456166666667,1.8455166666667,1.66735,1.5949833333333,1.5010333333333,1.3512,1.3441333333333,5,0,0,0,0,0,0,0,0,0,0,0,0,0,0,0,0,0,0,0,0,0,0,0,0,0,0,0,0,0,0,0,0,0,0,0,0,0,0,0,0,0,0
COM4,0509,17-Dec-18,2018-12-17 07:00:00,3.0472166666667,2.5566666666667,2.3259333333333,2.2314,2.10625,1.9298833333333,1.9161,5,0,0,0,0,0,0,0,0,0,0,0,0,0,0,0,0,0,0,0,0,0,0,0,0,0,0,0,0,0,0,0,0,0,0,0,0,0,0,0,0,0,0
COM4,0509,17-Dec-18,2018-12-17 08:00:00,3.8675,3.246,2.87595,2.6959666666667,2.52035,2.2966333333333,2.2634166666667,5,0,0,0,0,0,0,0,0,0,0,0,0,0,0,0,0,0,0,0,0,0,0,0,0,0,0,0,0,0,0,0,0,0,0,0,0,0,0,0,0,0,0
COM4,0509,17-Dec-18,2018-12-17 09:00:00,3.8626833333333,3.31355,2.9555166666667,2.772,2.58535,2.3685166666667,2.3729166666667,5,0,0,0,0,0,0,0,0,0,0,0,0,0,0,0,0,0,0,0,0,0,0,0,0,0,0,0,0,0,0,0,0,0,0,0,0,0,0,0,0,0,0
COM4,0509,17-Dec-18,2018-12-17 10:00:00,4.1156333333333,3.5248,3.1204,2.9139,2.7208333333333,2.48705,2.5512166666667,5,0,0,0,0,0,0,0,0,0,0,0,0,0,0,0,0,0,0,0,0,0,0,0,0,0,0,0,0,0,0,0,0,0,0,0,0,0,0,0,0,0,0
COM4,0509,17-Dec-18,2018-12-17 11:00:00,2.6746833333333,2.4618333333333,2.2388166666667,2.1242,1.9969,1.8172166666667,1.8598833333333,5,0,0,0,0,0,0,0,0,0,0,0,0,0,0,0,0,0,0,0,0,0,0,0,0,0,0,0,0,0,0,0,0,0,0,0,0,0,0,0,0,0,0
COM4,0509,17-Dec-18,2018-12-17 12:00:00,4.0208,3.5699166666667,3.2154333333333,3.0327333333333,2.8544833333333,2.63445,2.7100333333333,4.9933333333333,0,0,0,0,0,0,0,0,0,0,0,0,0,0,0,0,0,0,0,0,0,0,0,0,0,0,0,0,0,0,0,0,0,0,0,0,0,0,0,0,0,0
COM4,0509,17-Dec-18,2018-12-17 13:00:00,3.76205,3.3489333333333,3.0314166666667,2.8759,2.7154,2.52925,2.60125,4.6033333333333,0,0,0,0,0,0,0,0,0,0,0,0,0,0,0,0,0,0,0,0,0,0,0,0,0,0,0,0,0,0,0,0,0,0,0,0,0,0,0,0,0,0
COM4,0509,17-Dec-18,2018-12-17 14:00:00,0.80913793103448,0.71140229885057,0.6592183908046,0.64489655172414,0.61471264367816,0.5855632183908,0.60814942528736,2.5287356321839,0,0,0,0,0,0,0,0,0,0,0,0,0,0,0,0,0,0,0,0,0,0,0,0,0,0,0,0,0,0,0,0,0,0,0,0,0,0,0,0,0,0
COM4,0509,17-Dec-18,2018-12-17 15:00:00,3.3873166666667,3.2244833333333,3.0053,2.9287,2.8127666666667,2.7332666666667,2.8164166666667,5,0,0,0,0,0,0,0,0,0,0,0,0,0,0,0,0,0,0,0,0,0,0,0,0,0,0,0,0,0,0,0,0,0,0,0,0,0,0,0,0,0,0
COM4,0509,17-Dec-18,2018-12-17 16:00:00,2.5150666666667,2.5252833333333,2.4061166666667,2.3892666666667,2.31815,2.2894,2.3631166666667,5,0,0,0,0,0,0,0,0,0,0,0,0,0,0,0,0,0,0,0,0,0,0,0,0,0,0,0,0,0,0,0,0,0,0,0,0,0,0,0,0,0,0
COM4,0509,17-Dec-18,2018-12-17 17:00:00,1.69325,1.6768833333333,1.6005333333333,1.5899166666667,1.5389,1.501,1.5458,5,0,0,0,0,0,0,0,0,0,0,0,0,0,0,0,0,0,0,0,0,0,0,0,0,0,0,0,0,0,0,0,0,0,0,0,0,0,0,0,0,0,0
COM4,0509,17-Dec-18,2018-12-17 18:00:00,1.5529833333333,1.55375,1.4855333333333,1.4769666666667,1.4318333333333,1.3969666666667,1.4394,5,0,0,0,0,0,0,0,0,0,0,0,0,0,0,0,0,0,0,0,0,0,0,0,0,0,0,0,0,0,0,0,0,0,0,0,0,0,0,0,0,0,0
COM4,0509,17-Dec-18,2018-12-17 19:00:00,1.3932333333333,1.33735,1.26825,1.2575833333333,1.2142,1.1781833333333,1.21375,5,0,0,0,0,0,0,0,0,0,0,0,0,0,0,0,0,0,0,0,0,0,0,0,0,0,0,0,0,0,0,0,0,0,0,0,0,0,0,0,0,0,0
COM4,0509,17-Dec-18,2018-12-17 20:00:00,3.2715333333333,2.7122333333333,2.47945,2.40125,2.2665666666667,2.09005,2.13655,5,0,0,0,0,0,0,0,0,0,0,0,0,0,0,0,0,0,0,0,0,0,0,0,0,0,0,0,0,0,0,0,0,0,0,0,0,0,0,0,0,0,0
COM4,0509,17-Dec-18,2018-12-17 21:00:00,0.8089,0.84301666666667,0.79923333333333,0.78646666666667,0.7553,0.73055,0.75296666666667,5,0,0,0,0,0,0,0,0,0,0,0,0,0,0,0,0,0,0,0,0,0,0,0,0,0,0,0,0,0,0,0,0,0,0,0,0,0,0,0,0,0,0
COM4,0509,17-Dec-18,2018-12-17 22:00:00,1.74065,1.5256,1.4062166666667,1.3638833333333,1.2932,1.2134833333333,1.2463333333333,5,0,0,0,0,0,0,0,0,0,0,0,0,0,0,0,0,0,0,0,0,0,0,0,0,0,0,0,0,0,0,0,0,0,0,0,0,0,0,0,0,0,0
COM4,0509,17-Dec-18,2018-12-17 23:00:00,2.3711166666667,2.0551166666667,1.8024166666667,1.6720666666667,1.5558666666667,1.44285,1.4808666666667,5,0,0,0,0,0,0,0,0,0,0,0,0,0,0,0,0,0,0,0,0,0,0,0,0,0,0,0,0,0,0,0,0,0,0,0,0,0,0,0,0,0,0
