COM4,509,11-Sep-19,2019-09-11 00:00:00,0.18708333333332997,0.16161666666667002,0.14865,0.14531666666667,0.13695,0.12613333333333002,0.12855,5
COM4,509,11-Sep-19,2019-09-11 01:00:00,0.16476666666667,0.13925,0.12721666666667,0.12648333333333,0.11771666666667,0.10691666666666999,0.10895,5
COM4,509,11-Sep-19,2019-09-11 02:00:00,0.15145,0.1257,0.11503333333333,0.10973333333333,0.10475,0.094583333333333,0.096633333333333,5
COM4,509,11-Sep-19,2019-09-11 03:00:00,0.12865,0.1047,0.094666666666667,0.09135,0.0845,0.07343333333333299,0.074283333333333,5
COM4,509,11-Sep-19,2019-09-11 04:00:00,0.0831,0.067033333333333,0.0598,0.05626666666666699,0.052616666666667,0.043683333333333005,0.0456,5
COM4,509,11-Sep-19,2019-09-11 05:00:00,0.10881666666666999,0.089466666666667,0.077966666666667,0.074333333333333,0.0677,0.059883333333333004,0.061566666666667,5
COM4,509,11-Sep-19,2019-09-11 06:00:00,0.13661666666667,0.11618333333333,0.10300000000000001,0.09645,0.09003333333333301,0.08173333333333299,0.083266666666667,5
COM4,509,11-Sep-19,2019-09-11 07:00:00,0.13811666666667002,0.12198333333333,0.111,0.10808333333333,0.10136666666666999,0.09375,0.095383333333333,5
COM4,509,11-Sep-19,2019-09-11 08:00:00,0.13988333333332997,0.13081666666667,0.1215,0.1188,0.11371666666666999,0.10603333333333001,0.10946666666667,5
COM4,509,11-Sep-19,2019-09-11 09:00:00,0.1325,0.12346666666667,0.11463333333333,0.11311666666666999,0.10748333333333,0.10206666666667,0.10365,5
COM4,509,11-Sep-19,2019-09-11 10:00:00,0.14291666666667002,0.13568333333333,0.1271,0.12731666666667,0.12008333333333,0.1151,0.1173,5
COM4,509,11-Sep-19,2019-09-11 11:00:00,0.16438333333333,0.1439,0.13535,0.13226666666667,0.12723333333333,0.11866666666667,0.12228333333333001,5
COM4,509,11-Sep-19,2019-09-11 12:00:00,0.15326666666667002,0.12818333333333,0.12153333333333001,0.11773333333333001,0.1136,0.1007,0.10565,5
COM4,509,11-Sep-19,2019-09-11 13:00:00,0.1452,0.11941666666666999,0.11155,0.10751666666667,0.10278333333333001,0.08845,0.0926,5
COM4,509,11-Sep-19,2019-09-11 14:00:00,0.14725,0.12395,0.11515,0.11081666666666999,0.1065,0.09185,0.094883333333333,5
COM4,509,11-Sep-19,2019-09-11 15:00:00,0.1367,0.1204,0.1115,0.10826666666667,0.1023,0.0902,0.092666666666667,5
COM4,509,11-Sep-19,2019-09-11 16:00:00,0.14978333333333,0.13636666666667,0.12706666666667,0.12445,0.11831666666667,0.1074,0.11035,5
COM4,509,11-Sep-19,2019-09-11 17:00:00,0.22798333333332996,0.22583333333332997,0.21475,0.21435,0.20571666666667004,0.19416666666667004,0.19963333333332997,5
COM4,509,11-Sep-19,2019-09-11 18:00:00,0.21065,0.20855,0.19581666666667003,0.19468333333332996,0.18426666666667002,0.17291666666667002,0.17675,5
COM4,509,11-Sep-19,2019-09-11 19:00:00,0.22433333333332997,0.21406666666667004,0.19975,0.19725,0.18751666666667002,0.17593333333332997,0.17938333333332998,5
COM4,509,11-Sep-19,2019-09-11 20:00:00,0.20085,0.18735,0.17468333333332997,0.17235,0.16313333333333,0.15196666666667002,0.15356666666667002,5
COM4,509,11-Sep-19,2019-09-11 21:00:00,0.1626,0.15108333333333,0.14026666666667,0.13746666666667,0.13016666666666998,0.11765,0.12138333333333,5
COM4,509,11-Sep-19,2019-09-11 22:00:00,0.14638333333332998,0.13181666666667,0.12293333333333001,0.12023333333333,0.113,0.10261666666666999,0.10343333333333,5
COM4,509,11-Sep-19,2019-09-11 23:00:00,0.15478333333333,0.14001666666667,0.13045,0.12773333333333,0.12091666666666999,0.1093,0.11261666666667,5
