COM4,0509,20-Feb-19,2019-02-20 00:00:00,1.0378474576271,0.62908474576271,0.48235593220339,0.39132203389831,0.33603389830508,0.27127118644068,0.25798305084746,4.9,0,0,0,0,0,0,0,0,0,0,0,0,0,0,0,0,0,0,0,0,0,0,0,0,0,0,0,0,0,0,0,0,0,0,0,0,0,0,0,0,0,0
COM4,0509,20-Feb-19,2019-02-20 01:00:00,0.58795,0.3527,0.27161666666667,0.22735,0.19185,0.14996666666667,0.15021666666667,4.9,0,0,0,0,0,0,0,0,0,0,0,0,0,0,0,0,0,0,0,0,0,0,0,0,0,0,0,0,0,0,0,0,0,0,0,0,0,0,0,0,0,0
COM4,0509,20-Feb-19,2019-02-20 02:00:00,0.17420338983051,0.12257627118644,0.098,0.08535593220339,0.076661016949153,0.061661016949153,0.054593220338983,4.9,0,0,0,0,0,0,0,0,0,0,0,0,0,0,0,0,0,0,0,0,0,0,0,0,0,0,0,0,0,0,0,0,0,0,0,0,0,0,0,0,0,0
COM4,0509,20-Feb-19,2019-02-20 03:00:00,0.14121666666667,0.12285,0.098483333333333,0.089733333333333,0.0779,0.05655,0.055883333333333,4.9,0,0,0,0,0,0,0,0,0,0,0,0,0,0,0,0,0,0,0,0,0,0,0,0,0,0,0,0,0,0,0,0,0,0,0,0,0,0,0,0,0,0
COM4,0509,20-Feb-19,2019-02-20 04:00:00,0.21893103448276,0.18425862068966,0.15836206896552,0.14834482758621,0.12322413793103,0.10165517241379,0.10877586206897,4.9,0,0,0,0,0,0,0,0,0,0,0,0,0,0,0,0,0,0,0,0,0,0,0,0,0,0,0,0,0,0,0,0,0,0,0,0,0,0,0,0,0,0
COM4,0509,20-Feb-19,2019-02-20 05:00:00,0.21732203389831,0.17789830508475,0.14983050847458,0.13932203389831,0.12266101694915,0.098016949152542,0.092491525423729,4.9,0,0,0,0,0,0,0,0,0,0,0,0,0,0,0,0,0,0,0,0,0,0,0,0,0,0,0,0,0,0,0,0,0,0,0,0,0,0,0,0,0,0
COM4,0509,20-Feb-19,2019-02-20 06:00:00,0.33377966101695,0.26469491525424,0.21532203389831,0.20101694915254,0.17476271186441,0.15347457627119,0.14940677966102,4.9,0,0,0,0,0,0,0,0,0,0,0,0,0,0,0,0,0,0,0,0,0,0,0,0,0,0,0,0,0,0,0,0,0,0,0,0,0,0,0,0,0,0
COM4,0509,20-Feb-19,2019-02-20 07:00:00,0.57886206896552,0.43406896551724,0.35989655172414,0.32998275862069,0.28853448275862,0.25231034482759,0.25491379310345,4.9,0,0,0,0,0,0,0,0,0,0,0,0,0,0,0,0,0,0,0,0,0,0,0,0,0,0,0,0,0,0,0,0,0,0,0,0,0,0,0,0,0,0
COM4,0509,20-Feb-19,2019-02-20 08:00:00,0.66898305084746,0.46474576271186,0.3864406779661,0.34006779661017,0.29415254237288,0.25501694915254,0.26169491525424,4.9,0,0,0,0,0,0,0,0,0,0,0,0,0,0,0,0,0,0,0,0,0,0,0,0,0,0,0,0,0,0,0,0,0,0,0,0,0,0,0,0,0,0
COM4,0509,20-Feb-19,2019-02-20 09:00:00,0.73123333333333,0.5408,0.44305,0.40183333333333,0.35588333333333,0.30153333333333,0.30496666666667,4.9,0,0,0,0,0,0,0,0,0,0,0,0,0,0,0,0,0,0,0,0,0,0,0,0,0,0,0,0,0,0,0,0,0,0,0,0,0,0,0,0,0,0
COM4,0509,20-Feb-19,2019-02-20 10:00:00,0.46671186440678,0.34733898305085,0.28589830508475,0.25493220338983,0.23374576271186,0.19366101694915,0.19196610169492,4.9,0,0,0,0,0,0,0,0,0,0,0,0,0,0,0,0,0,0,0,0,0,0,0,0,0,0,0,0,0,0,0,0,0,0,0,0,0,0,0,0,0,0
COM4,0509,20-Feb-19,2019-02-20 11:00:00,0.35312280701754,0.28191228070175,0.23270175438596,0.21843859649123,0.18559649122807,0.17691228070175,0.17822807017544,4.9,0,0,0,0,0,0,0,0,0,0,0,0,0,0,0,0,0,0,0,0,0,0,0,0,0,0,0,0,0,0,0,0,0,0,0,0,0,0,0,0,0,0
COM4,0509,20-Feb-19,2019-02-20 12:00:00,0.27831666666667,0.22538333333333,0.18926666666667,0.16771666666667,0.14958333333333,0.12821666666667,0.12633333333333,4.9,0,0,0,0,0,0,0,0,0,0,0,0,0,0,0,0,0,0,0,0,0,0,0,0,0,0,0,0,0,0,0,0,0,0,0,0,0,0,0,0,0,0
COM4,0509,20-Feb-19,2019-02-20 13:00:00,0.31541379310345,0.25712068965517,0.2015,0.19524137931034,0.15687931034483,0.13018965517241,0.12627586206897,4.9,0,0,0,0,0,0,0,0,0,0,0,0,0,0,0,0,0,0,0,0,0,0,0,0,0,0,0,0,0,0,0,0,0,0,0,0,0,0,0,0,0,0
COM4,0509,20-Feb-19,2019-02-20 14:00:00,0.46213793103448,0.36672413793103,0.3183275862069,0.28174137931034,0.25222413793103,0.1963275862069,0.19698275862069,4.9,0,0,0,0,0,0,0,0,0,0,0,0,0,0,0,0,0,0,0,0,0,0,0,0,0,0,0,0,0,0,0,0,0,0,0,0,0,0,0,0,0,0
COM4,0509,20-Feb-19,2019-02-20 15:00:00,0.89883333333333,0.70123333333333,0.60655,0.5521,0.50126666666667,0.4316,0.43813333333333,4.9,0,0,0,0,0,0,0,0,0,0,0,0,0,0,0,0,0,0,0,0,0,0,0,0,0,0,0,0,0,0,0,0,0,0,0,0,0,0,0,0,0,0
COM4,0509,20-Feb-19,2019-02-20 16:00:00,0.6801186440678,0.50616949152542,0.42996610169492,0.38620338983051,0.34896610169492,0.27747457627119,0.27861016949153,4.9,0,0,0,0,0,0,0,0,0,0,0,0,0,0,0,0,0,0,0,0,0,0,0,0,0,0,0,0,0,0,0,0,0,0,0,0,0,0,0,0,0,0
COM4,0509,20-Feb-19,2019-02-20 17:00:00,0.77458333333333,0.55143333333333,0.47145,0.42505,0.38306666666667,0.31128333333333,0.31935,4.9,0,0,0,0,0,0,0,0,0,0,0,0,0,0,0,0,0,0,0,0,0,0,0,0,0,0,0,0,0,0,0,0,0,0,0,0,0,0,0,0,0,0
COM4,0509,20-Feb-19,2019-02-20 18:00:00,1.2098070175439,0.85605263157895,0.74431578947368,0.66177192982456,0.60464912280702,0.49536842105263,0.50698245614035,4.9,0,0,0,0,0,0,0,0,0,0,0,0,0,0,0,0,0,0,0,0,0,0,0,0,0,0,0,0,0,0,0,0,0,0,0,0,0,0,0,0,0,0
COM4,0509,20-Feb-19,2019-02-20 19:00:00,0.76348333333333,0.52583333333333,0.45126666666667,0.40415,0.35898333333333,0.29056666666667,0.29831666666667,4.9,0,0,0,0,0,0,0,0,0,0,0,0,0,0,0,0,0,0,0,0,0,0,0,0,0,0,0,0,0,0,0,0,0,0,0,0,0,0,0,0,0,0
COM4,0509,20-Feb-19,2019-02-20 20:00:00,1.2766206896552,0.7673275862069,0.60431034482759,0.53501724137931,0.46912068965517,0.36220689655172,0.35963793103448,4.9,0,0,0,0,0,0,0,0,0,0,0,0,0,0,0,0,0,0,0,0,0,0,0,0,0,0,0,0,0,0,0,0,0,0,0,0,0,0,0,0,0,0
COM4,0509,20-Feb-19,2019-02-20 21:00:00,1.4007118644068,0.96586440677966,0.80461016949153,0.71730508474576,0.63857627118644,0.53662711864407,0.53623728813559,4.9,0,0,0,0,0,0,0,0,0,0,0,0,0,0,0,0,0,0,0,0,0,0,0,0,0,0,0,0,0,0,0,0,0,0,0,0,0,0,0,0,0,0
COM4,0509,20-Feb-19,2019-02-20 22:00:00,1.2347586206897,0.85768965517241,0.71806896551724,0.64625862068966,0.56574137931034,0.45939655172414,0.47251724137931,4.9,0,0,0,0,0,0,0,0,0,0,0,0,0,0,0,0,0,0,0,0,0,0,0,0,0,0,0,0,0,0,0,0,0,0,0,0,0,0,0,0,0,0
COM4,0509,20-Feb-19,2019-02-20 23:00:00,1.3277796610169,0.84635593220339,0.69874576271186,0.62223728813559,0.54205084745763,0.43074576271186,0.43284745762712,4.8796610169492,0,0,0,0,0,0,0,0,0,0,0,0,0,0,0,0,0,0,0,0,0,0,0,0,0,0,0,0,0,0,0,0,0,0,0,0,0,0,0,0,0,0
