COM4,509,20-May-19,2019-05-20 00:00:00,0.02015,0.020683333333333,0.020616666666667,0.020683333333333,0.0187,0.01795,0.019766666666667,5
COM4,509,20-May-19,2019-05-20 01:00:00,0.021283333333332998,0.023716666666667004,0.0211,0.0205,0.020816666666667,0.0197,0.0191,5
COM4,509,20-May-19,2019-05-20 02:00:00,0.03206666666666701,0.032366666666667,0.03095,0.031283333333333,0.0295,0.028933333333332995,0.029283333333332995,5
COM4,509,20-May-19,2019-05-20 03:00:00,0.025566666666667005,0.026316666666667005,0.0254,0.025666666666667004,0.024866666666667005,0.022266666666667004,0.0251,5
COM4,509,20-May-19,2019-05-20 04:00:00,0.023616666666667004,0.025416666666667004,0.023733333333332995,0.022283333333332996,0.022766666666667004,0.021533333333333,0.020616666666667,5
COM4,509,20-May-19,2019-05-20 05:00:00,0.038566666666667,0.040233333333332996,0.037866666666667,0.039066666666667,0.03725,0.036116666666667,0.036733333333333,5
COM4,509,20-May-19,2019-05-20 06:00:00,0.072333333333333,0.073083333333333,0.0694,0.06915,0.06715,0.065533333333333,0.068033333333333,5
COM4,509,20-May-19,2019-05-20 07:00:00,0.069733333333333,0.070183333333333,0.06705,0.06536666666666699,0.063516666666667,0.061983333333333,0.063116666666667,5
COM4,509,20-May-19,2019-05-20 08:00:00,0.050833333333333,0.051733333333333006,0.049883333333333,0.049783333333333006,0.04731666666666699,0.04586666666666699,0.04785,5
COM4,509,20-May-19,2019-05-20 09:00:00,0.055666666666666996,0.0562,0.052066666666667,0.05295,0.05195,0.05185,0.051583333333333,5
COM4,509,20-May-19,2019-05-20 10:00:00,0.10371666666667,0.095833333333333,0.07776666666666701,0.0792,0.083833333333333,0.068183333333333,0.071433333333333,5
COM4,509,20-May-19,2019-05-20 11:00:00,0.0769,0.07096666666666701,0.062516666666667,0.062133333333333006,0.065666666666667,0.056066666666666994,0.05845,5
COM4,509,20-May-19,2019-05-20 12:00:00,0.0626,0.0595,0.0556,0.054733333333333,0.05266666666666699,0.04788333333333301,0.04908333333333301,5
COM4,509,20-May-19,2019-05-20 13:00:00,0.07,0.067633333333333,0.063916666666667,0.063,0.06253333333333301,0.05875,0.060183333333333006,5
COM4,509,20-May-19,2019-05-20 14:00:00,0.076383333333333,0.07111666666666701,0.065033333333333,0.06235,0.062066666666667,0.057483333333333005,0.0596,5
COM4,509,20-May-19,2019-05-20 15:00:00,0.07055,0.065033333333333,0.060666666666666993,0.060383333333333004,0.058083333333333,0.0521,0.054066666666667,5
COM4,509,20-May-19,2019-05-20 16:00:00,0.06505,0.05845,0.056033333333333005,0.05361666666666699,0.0517,0.047033333333333004,0.0496,5
COM4,509,20-May-19,2019-05-20 17:00:00,0.05355,0.05216666666666699,0.0482,0.047833333333333006,0.0459,0.0433,0.044333333333333,5
COM4,509,20-May-19,2019-05-20 18:00:00,0.038066666666667,0.040766666666667,0.0373,0.037883333333333,0.035666666666667,0.0356,0.034833333333333,5
COM4,509,20-May-19,2019-05-20 19:00:00,0.02055,0.031316666666667006,0.0294,0.0295,0.0267,0.028333333333332995,0.027083333333332994,5
COM4,509,20-May-19,2019-05-20 20:00:00,0.016966666666667,0.017183333333333,0.015883333333333,0.017133333333333,0.015416666666667,0.016966666666667,0.016466666666667,5
COM4,509,20-May-19,2019-05-20 21:00:00,0.020683333333333,0.0153,0.013766666666667,0.012966666666667001,0.013166666666667,0.011383333333332999,0.01245,5
COM4,509,20-May-19,2019-05-20 22:00:00,0.019233333333333,0.014266666666667,0.014783333333333,0.01475,0.014516666666667,0.0114,0.012933333333333,5
COM4,509,20-May-19,2019-05-20 23:00:00,0.028474576271186002,0.026254237288136,0.023983050847457995,0.023491525423729,0.022372881355932,0.019491525423729,0.020305084745763,5
