COM4,509,05-Aug-19,2019-08-05 00:00:00,0.17425,0.14511666666667,0.12758333333333,0.11706666666667,0.10635,0.08573333333333298,0.087,5
COM4,509,05-Aug-19,2019-08-05 01:00:00,0.13733333333333,0.11786666666666999,0.10511666666667,0.097633333333333,0.08786666666666701,0.072333333333333,0.073666666666667,5
COM4,509,05-Aug-19,2019-08-05 02:00:00,0.13505,0.11576666666667,0.10465,0.099066666666667,0.090716666666667,0.076566666666667,0.077033333333333,5
COM4,509,05-Aug-19,2019-08-05 03:00:00,0.14276666666667,0.12116666666666999,0.1111,0.10336666666666999,0.09761666666666699,0.081933333333333,0.0842,5
COM4,509,05-Aug-19,2019-08-05 04:00:00,0.1332,0.11626666666666999,0.1037,0.099016666666667,0.09053333333333301,0.07766666666666701,0.078366666666667,5
COM4,509,05-Aug-19,2019-08-05 05:00:00,0.19883333333332998,0.16001666666667003,0.1426,0.1341,0.1231,0.10088333333333001,0.1037,5
COM4,509,05-Aug-19,2019-08-05 06:00:00,0.25808333333332995,0.21465,0.1947,0.17995,0.16625,0.13991666666667002,0.14248333333333,5
COM4,509,05-Aug-19,2019-08-05 07:00:00,0.3408,0.304,0.27445,0.26071666666667004,0.23948333333332997,0.2068,0.21033333333332996,5
COM4,509,05-Aug-19,2019-08-05 08:00:00,0.29078333333333,0.26213333333332994,0.24128333333332996,0.22893333333332996,0.21101666666667004,0.183,0.18486666666667004,5
COM4,509,05-Aug-19,2019-08-05 09:00:00,0.1944,0.17985,0.16376666666667,0.15683333333333,0.1471,0.12886666666667,0.13113333333333,5
COM4,509,05-Aug-19,2019-08-05 10:00:00,0.14038333333332997,0.13178333333333,0.12338333333333,0.1196,0.11315,0.10051666666667,0.10188333333333001,5
COM4,509,05-Aug-19,2019-08-05 11:00:00,0.10148333333333001,0.09595,0.09145,0.088566666666667,0.08531666666666701,0.07725,0.07958333333333299,5
COM4,509,05-Aug-19,2019-08-05 12:00:00,0.10693333333333001,0.1083,0.10048333333333001,0.10103333333333,0.0936,0.08775,0.08773333333333298,5
COM4,509,05-Aug-19,2019-08-05 13:00:00,0.24825,0.23215,0.21155,0.20318333333332997,0.18518333333332998,0.154,0.15286666666667,5
COM4,509,05-Aug-19,2019-08-05 14:00:00,0.15205,0.14361666666667,0.13525,0.13175,0.12243333333333001,0.11095,0.11135,5
COM4,509,05-Aug-19,2019-08-05 15:00:00,0.17433333333332998,0.20073333333332996,0.19843333333332996,0.20621666666667005,0.20451666666667004,0.21388333333332996,0.22013333333332996,5
COM4,509,05-Aug-19,2019-08-05 16:00:00,0.22995,0.20963333333332998,0.19303333333332998,0.18531666666667004,0.17361666666667003,0.1532,0.15581666666667002,5
COM4,509,05-Aug-19,2019-08-05 17:00:00,0.22225,0.19343333333332996,0.16763333333333,0.16018333333332999,0.1435,0.12058333333333,0.12025,5
COM4,509,05-Aug-19,2019-08-05 18:00:00,0.3145,0.26048333333332996,0.22638333333332997,0.20846666666667002,0.18503333333332997,0.15438333333333,0.15213333333332998,5
COM4,509,05-Aug-19,2019-08-05 19:00:00,0.38555,0.31081666666667,0.27038333333333,0.2494,0.22318333333332996,0.18531666666667004,0.18443333333332998,5
COM4,509,05-Aug-19,2019-08-05 20:00:00,0.46293333333333003,0.34723333333333,0.30125,0.27398333333332997,0.24408333333332996,0.19365,0.19725,5
COM4,509,05-Aug-19,2019-08-05 21:00:00,0.66906666666667,0.48813333333333003,0.42141666666667,0.37648333333333,0.33761666666667,0.26795,0.27088333333333,5
COM4,509,05-Aug-19,2019-08-05 22:00:00,0.657,0.51503333333333,0.44896666666667,0.41258333333333,0.36795,0.29953333333333,0.30405,5
COM4,509,05-Aug-19,2019-08-05 23:00:00,0.6906101694915301,0.55252542372881,0.48876271186440995,0.45203389830508,0.41277966101695,0.34042372881356003,0.34498305084746,5
