COM4,509,26-Jul-19,2019-07-26 00:00:00,0.20986666666667003,0.2003,0.18988333333332996,0.18771666666667003,0.18043333333332998,0.16951666666667004,0.17418333333332997,5
COM4,509,26-Jul-19,2019-07-26 01:00:00,0.2125,0.20753333333332996,0.19823333333332996,0.19655,0.1897,0.18038333333332998,0.18533333333332996,5
COM4,509,26-Jul-19,2019-07-26 02:00:00,0.2241,0.22085,0.21123333333332997,0.21061666666667003,0.20366666666667002,0.19433333333332997,0.19953333333332998,5
COM4,509,26-Jul-19,2019-07-26 03:00:00,0.2459,0.2359,0.22676666666667003,0.2236,0.21601666666667002,0.20635,0.21273333333332997,5
COM4,509,26-Jul-19,2019-07-26 04:00:00,0.26386666666667,0.24936666666667004,0.23906666666667004,0.23376666666667004,0.22455,0.21391666666667003,0.22108333333332997,5
COM4,509,26-Jul-19,2019-07-26 05:00:00,0.25228333333333,0.23998333333332997,0.23011666666667002,0.22305,0.21475,0.20403333333332996,0.21063333333332998,5
COM4,509,26-Jul-19,2019-07-26 06:00:00,0.27931666666667,0.27581666666667,0.26475,0.2593,0.25035,0.2401,0.24693333333332998,5
COM4,509,26-Jul-19,2019-07-26 07:00:00,0.28021666666667,0.28658333333333,0.2754,0.27383333333333,0.26375,0.2561,0.26168333333333,5
COM4,509,26-Jul-19,2019-07-26 08:00:00,0.35506666666666997,0.36398333333333,0.34996666666667,0.34831666666667,0.33799999999999997,0.32768333333333,0.33695,5
COM4,509,26-Jul-19,2019-07-26 09:00:00,0.32935,0.34046666666666997,0.3266,0.32696666666667,0.317,0.30643333333333,0.31405,5
COM4,509,26-Jul-19,2019-07-26 10:00:00,0.38093333333333,0.40093333333333003,0.38811666666667,0.3908,0.38078333333333003,0.37326666666667,0.38275,5
COM4,509,26-Jul-19,2019-07-26 11:00:00,0.5089,0.5402,0.52473333333333,0.52945,0.5164,0.50565,0.51865,5
COM4,509,26-Jul-19,2019-07-26 12:00:00,0.41731666666667,0.44266666666667,0.4311,0.435,0.4258,0.41755,0.42833333333333,5
COM4,509,26-Jul-19,2019-07-26 13:00:00,0.35465,0.38055,0.37218333333333,0.37771666666667,0.36996666666667,0.35943333333333,0.3688,5
COM4,509,26-Jul-19,2019-07-26 14:00:00,0.24828333333332997,0.26471666666667004,0.25903333333332995,0.26383333333333,0.25916666666667004,0.25848333333332996,0.2663,5
COM4,509,26-Jul-19,2019-07-26 15:00:00,0.15715,0.1734,0.17243333333332997,0.17591666666667002,0.17403333333332996,0.1699,0.175,5
COM4,509,26-Jul-19,2019-07-26 16:00:00,0.11665,0.12803333333333,0.1254,0.12881666666667,0.12743333333333,0.1251,0.12773333333333,5
COM4,509,26-Jul-19,2019-07-26 17:00:00,0.13013333333333,0.13805,0.13523333333333,0.13785,0.13551666666667,0.1387,0.1433,5
COM4,509,26-Jul-19,2019-07-26 18:00:00,0.13361666666667,0.14516666666667002,0.14133333333332998,0.1433,0.14001666666667,0.1381,0.14158333333332998,5
COM4,509,26-Jul-19,2019-07-26 19:00:00,0.16471666666667,0.17523333333332997,0.1711,0.17366666666667002,0.17026666666667004,0.1671,0.17068333333332997,5
COM4,509,26-Jul-19,2019-07-26 20:00:00,0.24678333333332997,0.25201666666667005,0.24451666666667002,0.24446666666667002,0.23918333333332997,0.23053333333332998,0.23795,5
COM4,509,26-Jul-19,2019-07-26 21:00:00,0.2984,0.30171666666667,0.29163333333333,0.29078333333333,0.28253333333333003,0.2695,0.27666666666667,5
COM4,509,26-Jul-19,2019-07-26 22:00:00,0.2252,0.22808333333332997,0.2208,0.22076666666667003,0.2146,0.20613333333332998,0.21283333333332996,5
COM4,509,26-Jul-19,2019-07-26 23:00:00,0.16577966101695002,0.16955932203389998,0.16523728813559,0.16537288135592998,0.16215254237288,0.15532203389830998,0.16116949152542,5
