COM4,509,01-Feb-20,2020-02-01 00:00:00,1.3843333333333,1.0887666666667,0.9969,0.95715,0.90483333333333,0.83651666666667,0.85706666666667,5.0
COM4,509,01-Feb-20,2020-02-01 01:00:00,1.3676333333333,1.1339,1.05105,1.0039166666666999,0.94733333333333,0.87078333333333,0.89318333333333,5.0
COM4,509,01-Feb-20,2020-02-01 02:00:00,1.3193833333333,1.2359666666667,1.1634333333333,1.1276333333333,1.0724166666666999,0.99543333333333,1.0228,5.0
COM4,509,01-Feb-20,2020-02-01 03:00:00,1.2980333333333,1.1825,1.1010833333333,1.0666666666667,1.0132333333333001,0.93493333333333,0.95726666666667,5.0
COM4,509,01-Feb-20,2020-02-01 04:00:00,1.2477,1.0963,1.0186666666667,0.98053333333333,0.92856666666667,0.85046666666667,0.8703,5.0
COM4,509,01-Feb-20,2020-02-01 05:00:00,1.31365,1.1428333333333,1.0565,1.0190833333333,0.96303333333333,0.8776,0.89876666666667,5.0
COM4,509,01-Feb-20,2020-02-01 06:00:00,1.4475,1.23025,1.1321333333333001,1.09105,1.03105,0.9381,0.96105,5.0
COM4,509,01-Feb-20,2020-02-01 07:00:00,1.7355333333333,1.4541,1.3317666666666998,1.2807833333333,1.21145,1.1083666666667,1.1362333333333001,5.0
COM4,509,01-Feb-20,2020-02-01 08:00:00,2.4772833333333,2.0593833333333,1.867,1.7866666666667,1.6728,1.4992,1.5301166666666999,5.0
COM4,509,01-Feb-20,2020-02-01 09:00:00,1.2791333333333001,1.15105,1.0577333333333,1.0224166666666998,0.96186666666667,0.86251666666667,0.88346666666667,5.0
COM4,509,01-Feb-20,2020-02-01 10:00:00,1.30795,1.2324833333333,1.1481333333333001,1.1207666666667,1.0632666666666999,0.9757,0.9983,5.0
COM4,509,01-Feb-20,2020-02-01 11:00:00,0.38493333333333,0.41363333333333,0.38908333333333,0.3808,0.36131666666667,0.32853333333333,0.33813333333333,5.0
COM4,509,01-Feb-20,2020-02-01 12:00:00,0.73698333333333,0.68976666666667,0.6329333333333299,0.61056666666667,0.57526666666667,0.51788333333333,0.52938333333333,5.0
COM4,509,01-Feb-20,2020-02-01 13:00:00,0.93226666666667,0.86815,0.8019166666666699,0.7817666666666699,0.74065,0.67301666666667,0.68843333333333,5.0
COM4,509,01-Feb-20,2020-02-01 14:00:00,0.65501666666667,0.6224166666666701,0.58403333333333,0.56488333333333,0.53533333333333,0.48655,0.49813333333333,5.0
COM4,509,01-Feb-20,2020-02-01 15:00:00,1.01045,0.9263,0.85578333333333,0.83531666666667,0.79405,0.72108333333333,0.73813333333333,5.0
COM4,509,01-Feb-20,2020-02-01 16:00:00,0.63843333333333,0.59441666666667,0.5488,0.53685,0.5083,0.46256666666667,0.47318333333333,5.0
COM4,509,01-Feb-20,2020-02-01 17:00:00,0.5844833333333299,0.53831666666667,0.49268333333333003,0.47958333333333003,0.45041666666667,0.40635,0.41286666666667,5.0
COM4,509,01-Feb-20,2020-02-01 18:00:00,0.80603333333333,0.693,0.6570833333333299,0.65135,0.6322,0.6126,0.6335166666666701,4.6666666666667
COM4,509,01-Feb-20,2020-02-01 19:00:00,1.6482333333333001,1.2397166666666999,1.1183166666667,1.0768833333333,1.0187166666667,0.95075,0.97363333333333,5.0
COM4,509,01-Feb-20,2020-02-01 20:00:00,1.0489666666667,0.89236666666667,0.81793333333333,0.7928,0.75265,0.70381666666667,0.72118333333333,5.0
COM4,509,01-Feb-20,2020-02-01 21:00:00,1.4809833333333,1.2627666666667,1.1486333333333,1.10765,1.0428666666667,0.95146666666667,0.97168333333333,5.0
COM4,509,01-Feb-20,2020-02-01 22:00:00,1.9363,1.75175,1.6274166666667,1.5902333333333,1.5201833333333001,1.4393833333333002,1.4775833333333002,5.0
COM4,509,01-Feb-20,2020-02-01 23:00:00,2.0648474576271,1.8617966101695,1.7390508474576003,1.7107457627118998,1.6451525423728999,1.5726949152541998,1.6161864406779998,5.0
