COM4,509,21-Apr-19,2019-04-21 00:00:00,0.0619,0.0656,0.06421666666666699,0.065133333333333,0.06465,0.064383333333333,0.065266666666667,5
COM4,509,21-Apr-19,2019-04-21 01:00:00,0.059633333333333004,0.06168333333333301,0.060683333333333006,0.0622,0.060466666666666995,0.06143333333333301,0.062833333333333,5
COM4,509,21-Apr-19,2019-04-21 02:00:00,0.06023333333333301,0.06245,0.060566666666667,0.061733333333333,0.061766666666667,0.061133333333333005,0.063166666666667,5
COM4,509,21-Apr-19,2019-04-21 03:00:00,0.055583333333333006,0.05765,0.05708333333333301,0.058183333333333004,0.05695,0.05676666666666699,0.057816666666666995,5
COM4,509,21-Apr-19,2019-04-21 04:00:00,0.055733333333333,0.056883333333333,0.055466666666667,0.056883333333333,0.056383333333333,0.055233333333333,0.056933333333333,5
COM4,509,21-Apr-19,2019-04-21 05:00:00,0.05683333333333301,0.058416666666667,0.057666666666667,0.057533333333333006,0.05685,0.056183333333333,0.0568,5
COM4,509,21-Apr-19,2019-04-21 06:00:00,0.053633333333333005,0.054633333333333006,0.053033333333333,0.054166666666666995,0.05361666666666699,0.052116666666667,0.05411666666666699,5
COM4,509,21-Apr-19,2019-04-21 07:00:00,0.04705,0.049816666666666995,0.049133333333333,0.0497,0.04825,0.04675,0.0484,5
COM4,509,21-Apr-19,2019-04-21 08:00:00,0.035133333333333,0.038016666666667,0.036733333333333,0.037933333333333,0.035866666666667,0.03555,0.03585,5
COM4,509,21-Apr-19,2019-04-21 09:00:00,0.024466666666667004,0.030483333333332994,0.03055,0.030783333333332996,0.031266666666667005,0.0314,0.03208333333333299,5
COM4,509,21-Apr-19,2019-04-21 10:00:00,0.0184,0.022666666666667005,0.02275,0.023483333333332995,0.023966666666667004,0.0247,0.024733333333332996,5
COM4,509,21-Apr-19,2019-04-21 11:00:00,0.015533333333333,0.0192,0.0203,0.02205,0.021283333333332998,0.020916666666667,0.021933333333333,5
COM4,509,21-Apr-19,2019-04-21 12:00:00,0.016,0.021483333333333,0.021233333333333,0.0207,0.021433333333333,0.021783333333333,0.02195,5
COM4,509,21-Apr-19,2019-04-21 13:00:00,0.0198,0.0246,0.023983333333332996,0.026333333333332994,0.025216666666667005,0.025933333333332996,0.026266666666667004,5
COM4,509,21-Apr-19,2019-04-21 14:00:00,0.0221,0.026683333333332997,0.026383333333332995,0.027516666666667005,0.02785,0.02745,0.028216666666667004,5
COM4,509,21-Apr-19,2019-04-21 15:00:00,0.0216,0.0254,0.025816666666667005,0.025566666666667005,0.025866666666667006,0.025166666666667004,0.025966666666667006,5
COM4,509,21-Apr-19,2019-04-21 16:00:00,0.022233333333332994,0.02495,0.024316666666667004,0.0256,0.024466666666667004,0.024883333333332994,0.025233333333332993,5
COM4,509,21-Apr-19,2019-04-21 17:00:00,0.0217,0.023733333333332995,0.0228,0.023383333333332996,0.023333333333332994,0.022333333333332994,0.023266666666667005,5
COM4,509,21-Apr-19,2019-04-21 18:00:00,0.02525,0.025866666666667006,0.025433333333332996,0.025416666666667004,0.0259,0.024616666666667005,0.0259,5
COM4,509,21-Apr-19,2019-04-21 19:00:00,0.031783333333333,0.031933333333332994,0.03136666666666701,0.03145,0.030066666666667005,0.029233333333332993,0.030183333333332996,5
COM4,509,21-Apr-19,2019-04-21 20:00:00,0.0373,0.036733333333333,0.034366666666667,0.03415,0.0336,0.03233333333333299,0.032366666666667,5
COM4,509,21-Apr-19,2019-04-21 21:00:00,0.0368,0.036066666666667004,0.035066666666667,0.033983333333333,0.03383333333333299,0.03213333333333299,0.0339,5
COM4,509,21-Apr-19,2019-04-21 22:00:00,0.035233333333333,0.034316666666667,0.034,0.033283333333333,0.033366666666667,0.0316,0.03231666666666701,5
COM4,509,21-Apr-19,2019-04-21 23:00:00,0.034,0.035627118644068,0.033762711864407005,0.03364406779661,0.031762711864407,0.032220338983051,0.032305084745763,5
