COM4,509,01-Nov-19,2019-11-01 00:00:00,1.0847833333333001,0.6904,0.58516666666667,0.53216666666667,0.47901666666667,0.39888333333333,0.3838,5.0
COM4,509,01-Nov-19,2019-11-01 01:00:00,0.78448333333333,0.56593333333333,0.48545,0.44208333333333,0.40936666666667,0.3563,0.34168333333333,5.0
COM4,509,01-Nov-19,2019-11-01 02:00:00,0.6148166666666701,0.47356666666667,0.40728333333333,0.37495,0.34115,0.30288333333333,0.28968333333333,5.0
COM4,509,01-Nov-19,2019-11-01 03:00:00,1.2159166666666998,0.88833333333333,0.76898333333333,0.71131666666667,0.6534,0.5701,0.54931666666667,5.0
COM4,509,01-Nov-19,2019-11-01 04:00:00,1.1920666666667,0.90851666666667,0.80136666666667,0.75123333333333,0.6890166666666699,0.59835,0.58326666666667,5.0
COM4,509,01-Nov-19,2019-11-01 05:00:00,0.94723333333333,0.72546666666667,0.6404166666666701,0.59655,0.5561833333333299,0.49671666666666997,0.49256666666667,5.0
COM4,509,01-Nov-19,2019-11-01 06:00:00,2.0064166666667,1.42745,1.2505333333333,1.1711666666667,1.0958166666667,0.99653333333333,0.99993333333333,5.0
COM4,509,01-Nov-19,2019-11-01 07:00:00,2.9566,2.3627166666667003,2.1257833333333003,2.03115,1.9311333333333,1.8254833333333,1.86995,5.0
COM4,509,01-Nov-19,2019-11-01 08:00:00,1.90955,1.54135,1.3822166666667,1.31955,1.2461,1.1495833333333,1.1865166666667,4.6666666666667
COM4,509,01-Nov-19,2019-11-01 09:00:00,0.97663333333333,0.80495,0.73193333333333,0.70785,0.67241666666667,0.6360833333333299,0.6533,5.0
COM4,509,01-Nov-19,2019-11-01 10:00:00,0.58383333333333,0.50466666666667,0.46591666666667,0.45605,0.43501666666667,0.41456666666666997,0.42568333333333,5.0
COM4,509,01-Nov-19,2019-11-01 11:00:00,0.43418333333333,0.39361666666667,0.36628333333333,0.35838333333333,0.34426666666667,0.3288,0.3374,5.0
COM4,509,01-Nov-19,2019-11-01 12:00:00,0.33613333333333,0.30838333333333,0.2867,0.28078333333333,0.26946666666667,0.25433333333332997,0.26168333333333,5.0
COM4,509,01-Nov-19,2019-11-01 13:00:00,0.26313333333332994,0.24438333333332996,0.22723333333332996,0.22321666666667003,0.21406666666667004,0.2036,0.20906666666667004,5.0
COM4,509,01-Nov-19,2019-11-01 14:00:00,0.18113333333332995,0.16699999999999998,0.15553333333333,0.15251666666667002,0.14666666666667003,0.14138333333332997,0.14613333333332998,5.0
COM4,509,01-Nov-19,2019-11-01 15:00:00,0.14826666666667002,0.13478333333333,0.12541666666667,0.1222,0.11713333333333001,0.11011666666667,0.11345,5.0
COM4,509,01-Nov-19,2019-11-01 16:00:00,0.21536666666667004,0.2005,0.18636666666667004,0.18318333333332998,0.17638333333332998,0.17401666666667004,0.17948333333332997,5.0
COM4,509,01-Nov-19,2019-11-01 17:00:00,0.42165,0.3807,0.3531,0.34496666666667,0.32956666666667,0.31223333333333003,0.32036666666667,5.0
COM4,509,01-Nov-19,2019-11-01 18:00:00,0.93518333333333,0.83295,0.77685,0.76315,0.73451666666667,0.7089,0.72853333333333,5.0
COM4,509,01-Nov-19,2019-11-01 19:00:00,1.1381,1.0492,0.98898333333333,0.97638333333333,0.93463333333333,0.85968333333333,0.87076666666667,5.0
COM4,509,01-Nov-19,2019-11-01 20:00:00,0.98378333333333,0.67546666666667,0.5917333333333299,0.56011666666667,0.52446666666667,0.47818333333333,0.48536666666667,5.0
COM4,509,01-Nov-19,2019-11-01 21:00:00,0.6691333333333299,0.54411666666667,0.49573333333333003,0.47843333333333,0.45235,0.41663333333333,0.4234,5.0
COM4,509,01-Nov-19,2019-11-01 22:00:00,0.75386666666667,0.59646666666667,0.54271666666667,0.5192,0.49016666666666997,0.44936666666666997,0.4553,5.0
COM4,509,01-Nov-19,2019-11-01 23:00:00,0.75233333333333,0.56805,0.5071,0.48031666666667,0.44866666666667,0.40328333333333,0.40841666666667,5.0
