COM4,509,28-Aug-19,2019-08-28 00:00:00,0.22585,0.19183333333332997,0.17111666666667003,0.16133333333333,0.14743333333332997,0.12958333333333,0.13068333333333002,5
COM4,509,28-Aug-19,2019-08-28 01:00:00,0.19298333333332998,0.16811666666667002,0.1529,0.14428333333333,0.13233333333333,0.11696666666667,0.11781666666667,5
COM4,509,28-Aug-19,2019-08-28 02:00:00,0.19916666666667004,0.17441666666667002,0.16046666666667,0.14911666666667,0.13656666666667,0.12058333333333,0.12155,5
COM4,509,28-Aug-19,2019-08-28 03:00:00,0.15981666666667002,0.14218333333333,0.1306,0.12248333333333,0.11265,0.098533333333333,0.10025,5
COM4,509,28-Aug-19,2019-08-28 04:00:00,0.15898333333332998,0.14151666666667,0.1271,0.12011666666667,0.1108,0.09596666666666699,0.09683333333333301,5
COM4,509,28-Aug-19,2019-08-28 05:00:00,0.19471666666667004,0.17338333333332998,0.15716666666667,0.1493,0.13696666666666998,0.11988333333333001,0.12163333333333,5
COM4,509,28-Aug-19,2019-08-28 06:00:00,0.43506666666667,0.40555,0.37028333333333,0.35600000000000004,0.33348333333333,0.30315,0.30931666666667,5
COM4,509,28-Aug-19,2019-08-28 07:00:00,0.40146666666666997,0.3719,0.34046666666666997,0.3271,0.30568333333333003,0.27628333333333,0.2823,5
COM4,509,28-Aug-19,2019-08-28 08:00:00,0.37723333333333,0.3533,0.32326666666667,0.31233333333333,0.29113333333333,0.26303333333332996,0.26733333333333,5
COM4,509,28-Aug-19,2019-08-28 09:00:00,0.33158333333333,0.3061,0.28028333333333,0.26796666666667,0.25313333333333,0.22513333333332997,0.22971666666667004,5
COM4,509,28-Aug-19,2019-08-28 10:00:00,0.30148333333333,0.25913333333332994,0.24055,0.23053333333332998,0.21898333333332998,0.19171666666667003,0.19805,5
COM4,509,28-Aug-19,2019-08-28 11:00:00,0.2006,0.18485,0.17573333333332997,0.17156666666667003,0.16441666666667,0.14756666666667,0.15218333333332998,5
COM4,509,28-Aug-19,2019-08-28 12:00:00,0.19576666666667003,0.17888333333332998,0.16551666666667,0.15778333333333,0.15101666666667002,0.1324,0.13563333333333,5
COM4,509,28-Aug-19,2019-08-28 13:00:00,0.17901666666667004,0.16995,0.15446666666667,0.14978333333333,0.1387,0.1234,0.12636666666666999,5
COM4,509,28-Aug-19,2019-08-28 14:00:00,0.12695,0.12315,0.1125,0.1085,0.10295,0.093083333333333,0.094516666666667,5
COM4,509,28-Aug-19,2019-08-28 15:00:00,0.09081666666666699,0.08913333333333301,0.080683333333333,0.078933333333333,0.073566666666667,0.064766666666667,0.06421666666666699,5
COM4,509,28-Aug-19,2019-08-28 16:00:00,0.08736666666666701,0.078316666666667,0.07011666666666701,0.06625,0.06143333333333301,0.054533333333333,0.0554,5
COM4,509,28-Aug-19,2019-08-28 17:00:00,0.1217,0.10083333333333,0.08745,0.08055,0.07355,0.062366666666666994,0.06256666666666699,5
COM4,509,28-Aug-19,2019-08-28 18:00:00,0.2564,0.22585,0.1998,0.19123333333332998,0.17508333333332995,0.15298333333332997,0.15536666666667,5
COM4,509,28-Aug-19,2019-08-28 19:00:00,0.35603333333333,0.32799999999999996,0.2965,0.28426666666667,0.2643,0.2375,0.2408,5
COM4,509,28-Aug-19,2019-08-28 20:00:00,0.3308,0.2938,0.2696,0.25525,0.24021666666667002,0.20966666666667003,0.21516666666667003,5
COM4,509,28-Aug-19,2019-08-28 21:00:00,0.27831666666667,0.24225,0.21936666666667004,0.20843333333332997,0.19473333333332996,0.17045,0.17481666666667003,5
COM4,509,28-Aug-19,2019-08-28 22:00:00,0.33223333333333,0.28403333333333003,0.25988333333332997,0.24528333333332997,0.23143333333332997,0.20255,0.20911666666667003,5
COM4,509,28-Aug-19,2019-08-28 23:00:00,0.35978333333333,0.31635,0.28633333333333,0.27188333333333,0.25445,0.2247,0.22871666666667004,5
