COM4,509,09-Dec-19,2019-12-09 00:00:00,0.31221666666667,0.30055,0.27786666666667,0.26575,0.24941666666667003,0.2284,0.23323333333332996,5
COM4,509,09-Dec-19,2019-12-09 01:00:00,0.07683333333333299,0.13085,0.12115,0.11613333333333001,0.10613333333333,0.093483333333333,0.095833333333333,5
COM4,509,09-Dec-19,2019-12-09 02:00:00,0.0033166666666667,0.05925,0.057483333333333005,0.054533333333333,0.051016666666666995,0.0449,0.044933333333333006,5
COM4,509,09-Dec-19,2019-12-09 03:00:00,0.066683333333333,0.098566666666667,0.09328333333333301,0.091183333333333,0.08748333333333298,0.07766666666666701,0.0805,5
COM4,509,09-Dec-19,2019-12-09 04:00:00,0.067233333333333,0.08628333333333299,0.083166666666667,0.081,0.075383333333333,0.06875,0.069166666666667,5
COM4,509,09-Dec-19,2019-12-09 05:00:00,0.23611666666667003,0.2161,0.19746666666667004,0.19146666666667003,0.18096666666667002,0.16711666666667002,0.17143333333332997,5
COM4,509,09-Dec-19,2019-12-09 06:00:00,0.42423333333333,0.36061666666666997,0.32983333333333,0.31733333333333,0.2988,0.2753,0.2823,5
COM4,509,09-Dec-19,2019-12-09 07:00:00,0.74675,0.64115,0.58416666666667,0.5633333333333299,0.52881666666667,0.4887,0.49933333333333,5
COM4,509,09-Dec-19,2019-12-09 08:00:00,0.94536666666667,0.83,0.76228333333333,0.73651666666667,0.69566666666667,0.6430333333333299,0.65905,5
COM4,509,09-Dec-19,2019-12-09 09:00:00,0.41898333333333,0.42441666666667,0.39623333333333,0.38683333333333003,0.36868333333333003,0.34451666666666997,0.35305,5
COM4,509,09-Dec-19,2019-12-09 10:00:00,0.8765333333333301,0.81723333333333,0.75598333333333,0.73433333333333,0.69786666666667,0.65196666666667,0.6697666666666701,5
COM4,509,09-Dec-19,2019-12-09 11:00:00,0.74595,0.71791666666667,0.67295,0.6602666666666701,0.6282,0.58751666666667,0.60275,5
COM4,509,09-Dec-19,2019-12-09 12:00:00,0.2662,0.27636666666667,0.26091666666667,0.25268333333333,0.24285,0.22395,0.2301,5
COM4,509,09-Dec-19,2019-12-09 13:00:00,0.18805,0.19195,0.18211666666667004,0.1777,0.16953333333332996,0.15215,0.15596666666667,5
COM4,509,09-Dec-19,2019-12-09 14:00:00,0.29535,0.28726666666667,0.26925,0.26426666666667004,0.25126666666667,0.22975,0.23513333333332997,5
COM4,509,09-Dec-19,2019-12-09 15:00:00,0.41393333333333,0.3924,0.36721666666667,0.35856666666667,0.34031666666667,0.31463333333333,0.3224,5
COM4,509,09-Dec-19,2019-12-09 16:00:00,0.45356666666667,0.39853333333333,0.36426666666667,0.35125,0.33041666666666997,0.30318333333333003,0.31076666666667,5
COM4,509,09-Dec-19,2019-12-09 17:00:00,0.6366333333333299,0.54898333333333,0.50446666666667,0.48838333333333,0.46176666666667,0.42861666666667,0.43825,5
COM4,509,09-Dec-19,2019-12-09 18:00:00,0.97198333333333,0.81761666666667,0.7466,0.72043333333333,0.67935,0.62561666666667,0.64055,5
COM4,509,09-Dec-19,2019-12-09 19:00:00,1.3500166666667,1.0127333333333,0.90555,0.8599,0.80245,0.72938333333333,0.74626666666667,5
COM4,509,09-Dec-19,2019-12-09 20:00:00,1.3257333333333001,0.94965,0.84151666666667,0.79331666666667,0.73378333333333,0.65105,0.66458333333333,5
COM4,509,09-Dec-19,2019-12-09 21:00:00,0.71325,0.52415,0.4546,0.42221666666667,0.38193333333333,0.32905,0.33371666666667,5
COM4,509,09-Dec-19,2019-12-09 22:00:00,1.1641166666667,0.95366666666667,0.85453333333333,0.81243333333333,0.75538333333333,0.68033333333333,0.69521666666667,5
COM4,509,09-Dec-19,2019-12-09 23:00:00,1.1792833333333002,0.88815,0.78705,0.74286666666667,0.68895,0.61308333333333,0.6259166666666701,5
