COM4,509,31-Oct-19,2019-10-31 00:00:00,0.66473333333333,0.48200000000000004,0.4292,0.40616666666667,0.3784,0.33275,0.3328,5
COM4,509,31-Oct-19,2019-10-31 01:00:00,0.68911666666667,0.48651666666667,0.42758333333333,0.39835,0.36698333333333,0.32103333333333,0.3179,5
COM4,509,31-Oct-19,2019-10-31 02:00:00,0.6225,0.44923333333333,0.39341666666666997,0.36515,0.33555,0.28951666666667,0.28975,5
COM4,509,31-Oct-19,2019-10-31 03:00:00,0.39476666666667,0.33715,0.29991666666667,0.28058333333333,0.2612,0.22623333333332996,0.22418333333332996,5
COM4,509,31-Oct-19,2019-10-31 04:00:00,0.37345,0.33905,0.30615,0.29125,0.27083333333333,0.23975,0.23805,5
COM4,509,31-Oct-19,2019-10-31 05:00:00,0.6341166666666701,0.49703333333333,0.4431,0.41903333333333,0.3909,0.35031666666667,0.349,5
COM4,509,31-Oct-19,2019-10-31 06:00:00,1.7192166666667,1.2814666666666998,1.14255,1.0848666666667,1.0164,0.8962,0.89298333333333,5
COM4,509,31-Oct-19,2019-10-31 07:00:00,1.1875666666667,1.041,0.95951666666667,0.92708333333333,0.88313333333333,0.7967,0.7922,5
COM4,509,31-Oct-19,2019-10-31 08:00:00,1.1935833333333001,1.1327166666667,1.05305,1.0229833333333,0.9732666666666699,0.86171666666667,0.85618333333333,5
COM4,509,31-Oct-19,2019-10-31 09:00:00,0.3163,0.3662,0.33321666666667,0.31623333333333,0.29286666666667,0.24043333333332997,0.2373,5
COM4,509,31-Oct-19,2019-10-31 10:00:00,0.22973333333332996,0.2663,0.247,0.2332,0.21846666666667003,0.18198333333332997,0.1791,5
COM4,509,31-Oct-19,2019-10-31 11:00:00,0.28633333333333,0.30726666666667,0.28395,0.26888333333333,0.2557,0.21903333333332997,0.21866666666667003,5
COM4,509,31-Oct-19,2019-10-31 12:00:00,0.28958333333333003,0.29866666666667,0.27558333333333,0.26981666666667004,0.25285,0.21861666666667004,0.2163,5
COM4,509,31-Oct-19,2019-10-31 13:00:00,0.21693333333332998,0.24038333333332998,0.22608333333332997,0.21898333333332998,0.20641666666667002,0.17451666666667004,0.17251666666667004,5
COM4,509,31-Oct-19,2019-10-31 14:00:00,0.1979,0.21875,0.20346666666667004,0.20033333333332998,0.19288333333332996,0.18426666666667002,0.1817,5
COM4,509,31-Oct-19,2019-10-31 15:00:00,0.28938333333333,0.2821,0.26208333333332995,0.25238333333332996,0.24053333333332996,0.21611666666667004,0.21328333333332997,5
COM4,509,31-Oct-19,2019-10-31 16:00:00,0.23341666666667002,0.2399,0.22245,0.21611666666667004,0.20861666666667003,0.19356666666667002,0.19215,5
COM4,509,31-Oct-19,2019-10-31 17:00:00,0.75928333333333,0.69016666666667,0.63561666666667,0.62175,0.59456666666667,0.5505333333333299,0.54275,5
COM4,509,31-Oct-19,2019-10-31 18:00:00,0.38611666666667,0.35633333333333,0.33031666666667,0.32156666666667,0.30836666666667,0.28353333333333003,0.27686666666667,5
COM4,509,31-Oct-19,2019-10-31 19:00:00,1.5932166666667,1.0173333333333001,0.87496666666667,0.81295,0.74871666666667,0.64648333333333,0.6344666666666701,5
COM4,509,31-Oct-19,2019-10-31 20:00:00,2.2720666666667,1.5289666666667,1.3179166666667,1.2275,1.13105,0.98635,0.95793333333333,5
COM4,509,31-Oct-19,2019-10-31 21:00:00,2.9792666666667,1.8106666666667,1.5638833333333,1.4496166666666999,1.3381,1.1522833333333,1.1160666666666998,5
COM4,509,31-Oct-19,2019-10-31 22:00:00,0.9622,0.57745,0.4973,0.45816666666667,0.41553333333333,0.34793333333333,0.33728333333333,5
COM4,509,31-Oct-19,2019-10-31 23:00:00,1.1397333333333,0.7975,0.68983333333333,0.6402666666666701,0.5955333333333299,0.52363333333333,0.5029,5
