COM4,509,02-Jun-19,2019-06-02 00:00:00,0.23193333333332997,0.19706666666667003,0.18276666666667002,0.17555,0.16855,0.14983333333333,0.1575,5
COM4,509,02-Jun-19,2019-06-02 01:00:00,0.17565,0.1508,0.14013333333332997,0.13681666666667,0.13101666666667,0.11611666666666999,0.12271666666667,5
COM4,509,02-Jun-19,2019-06-02 02:00:00,0.14481666666667,0.12611666666666999,0.11741666666667,0.11341666666667,0.10913333333333,0.097533333333333,0.10305,5
COM4,509,02-Jun-19,2019-06-02 03:00:00,0.14595,0.12241666666666999,0.11336666666666999,0.10938333333333,0.10476666666666999,0.092866666666667,0.09711666666666699,5
COM4,509,02-Jun-19,2019-06-02 04:00:00,0.14545,0.12265,0.11301666666667,0.10858333333333,0.1048,0.09231666666666699,0.097516666666667,5
COM4,509,02-Jun-19,2019-06-02 05:00:00,0.13513333333333,0.11493333333333,0.10561666666667,0.10286666666666999,0.097783333333333,0.08691666666666702,0.0919,5
COM4,509,02-Jun-19,2019-06-02 06:00:00,0.23845,0.20826666666667004,0.19448333333332996,0.18786666666667004,0.18236666666667004,0.16525,0.17416666666667002,5
COM4,509,02-Jun-19,2019-06-02 07:00:00,0.24961666666667004,0.21961666666667004,0.20678333333332996,0.20025,0.1942,0.17535,0.18541666666667003,5
COM4,509,02-Jun-19,2019-06-02 08:00:00,0.21288333333332995,0.18836666666667004,0.17738333333332998,0.17375,0.16886666666667002,0.1505,0.15911666666667001,5
COM4,509,02-Jun-19,2019-06-02 09:00:00,0.18976666666667003,0.16341666666667,0.15598333333332998,0.151,0.14875,0.13155,0.14111666666667003,5
COM4,509,02-Jun-19,2019-06-02 10:00:00,0.14508333333332998,0.13,0.12538333333333002,0.12278333333333001,0.12156666666667,0.10400000000000001,0.11135,5
COM4,509,02-Jun-19,2019-06-02 11:00:00,0.13983333333332998,0.1292,0.1249,0.12396666666667,0.12243333333333001,0.11503333333333,0.12201666666666999,5
COM4,509,02-Jun-19,2019-06-02 12:00:00,0.10476666666666999,0.10413333333333001,0.10303333333333001,0.1031,0.10293333333333,0.091583333333333,0.09635,5
COM4,509,02-Jun-19,2019-06-02 13:00:00,0.10678333333333001,0.1043,0.10193333333333,0.10241666666667,0.10198333333333001,0.10023333333333001,0.10621666666667,5
COM4,509,02-Jun-19,2019-06-02 14:00:00,0.0823,0.081833333333333,0.078716666666667,0.079133333333333,0.078033333333333,0.07200000000000001,0.07583333333333299,5
COM4,509,02-Jun-19,2019-06-02 15:00:00,0.082766666666667,0.079033333333333,0.0756,0.074166666666667,0.073666666666667,0.066016666666667,0.07061666666666701,5
COM4,509,02-Jun-19,2019-06-02 16:00:00,0.14876666666667002,0.12735,0.11888333333333001,0.11496666666666999,0.11036666666667,0.095566666666667,0.10188333333333001,5
COM4,509,02-Jun-19,2019-06-02 17:00:00,0.11686666666666999,0.10233333333333,0.094816666666667,0.09105,0.088716666666667,0.076716666666667,0.081,5
COM4,509,02-Jun-19,2019-06-02 18:00:00,0.10773333333333,0.095766666666667,0.0889,0.08531666666666701,0.08248333333333299,0.07303333333333299,0.077233333333333,5
COM4,509,02-Jun-19,2019-06-02 19:00:00,0.13688333333333,0.11701666666666999,0.10851666666667,0.1045,0.09986666666666699,0.08755,0.09185,5
COM4,509,02-Jun-19,2019-06-02 20:00:00,0.20018333333332997,0.16093333333333,0.14601666666667001,0.13993333333333,0.13266666666666999,0.11545,0.12156666666667,5
COM4,509,02-Jun-19,2019-06-02 21:00:00,0.32541666666667,0.24776666666667002,0.22366666666667004,0.20848333333332997,0.19676666666667003,0.16876666666667003,0.17806666666667004,5
COM4,509,02-Jun-19,2019-06-02 22:00:00,0.25703333333332995,0.20256666666667003,0.18411666666667004,0.17451666666667004,0.1648,0.14348333333333,0.15018333333332998,5
COM4,509,02-Jun-19,2019-06-02 23:00:00,0.19871666666667004,0.16141666666667,0.14806666666667,0.1418,0.13481666666667,0.11708333333333,0.12281666666666999,5
