COM4,509,18-Apr-19,2019-04-18 00:00:00,0.062283333333333,0.050083333333333,0.048033333333333005,0.044033333333333,0.039633333333333,0.034533333333333,0.034533333333333,5.0
COM4,509,18-Apr-19,2019-04-18 01:00:00,0.04611666666666699,0.040933333333333,0.035616666666667,0.03326666666666701,0.032033333333333,0.025216666666667005,0.026483333333332994,5.0
COM4,509,18-Apr-19,2019-04-18 02:00:00,0.048683333333333,0.04475,0.040216666666667,0.037166666666667,0.034516666666667,0.029366666666667006,0.029866666666667006,5.0
COM4,509,18-Apr-19,2019-04-18 03:00:00,0.06543333333333301,0.05775,0.04955,0.048883333333333,0.043266666666666995,0.040666666666667003,0.039266666666667,5.0
COM4,509,18-Apr-19,2019-04-18 04:00:00,0.0715,0.0646,0.0593,0.054866666666666994,0.050633333333333,0.043883333333333004,0.043866666666667,5.0
COM4,509,18-Apr-19,2019-04-18 05:00:00,0.080783333333333,0.06946666666666701,0.063866666666667,0.06165,0.057683333333333,0.0515,0.053533333333333,5.0
COM4,509,18-Apr-19,2019-04-18 06:00:00,0.18501666666667002,0.17386666666667003,0.16036666666667002,0.15375,0.14686666666667,0.13771666666667,0.14003333333332998,5.0
COM4,509,18-Apr-19,2019-04-18 07:00:00,0.2493,0.22901666666667003,0.2146,0.20331666666667003,0.19621666666667004,0.18428333333332997,0.18933333333332997,5.0
COM4,509,18-Apr-19,2019-04-18 08:00:00,0.21945,0.20118333333332997,0.18418333333332998,0.17965,0.1669,0.1549,0.15671666666667,5.0
COM4,509,18-Apr-19,2019-04-18 09:00:00,0.20923333333332997,0.18973333333332998,0.17675,0.16896666666667004,0.16198333333332998,0.14825,0.15435,5.0
COM4,509,18-Apr-19,2019-04-18 10:00:00,0.20951666666667004,0.14161666666667003,0.13441666666667,0.13235,0.1274,0.12235,0.12705,4.6666666666667
COM4,509,18-Apr-19,2019-04-18 11:00:00,0.12693333333333,0.11811666666666999,0.11116666666667,0.10966666666666999,0.10503333333333001,0.10201666666666999,0.10411666666667,5.0
COM4,509,18-Apr-19,2019-04-18 12:00:00,0.08801666666666699,0.08723333333333298,0.082533333333333,0.081683333333333,0.07805,0.07555,0.07675,5.0
COM4,509,18-Apr-19,2019-04-18 13:00:00,0.069066666666667,0.06711666666666699,0.0633,0.061766666666667,0.060066666666667,0.05645,0.058316666666666996,5.0
COM4,509,18-Apr-19,2019-04-18 14:00:00,0.063583333333333,0.058083333333333,0.0552,0.05405,0.05191666666666699,0.04835,0.050833333333333,5.0
COM4,509,18-Apr-19,2019-04-18 15:00:00,0.061516666666667,0.056066666666666994,0.0527,0.051316666666666996,0.04933333333333301,0.04593333333333301,0.04775,5.0
COM4,509,18-Apr-19,2019-04-18 16:00:00,0.0523,0.047416666666666996,0.04505,0.0431,0.0421,0.039416666666667,0.0404,5.0
COM4,509,18-Apr-19,2019-04-18 17:00:00,0.044000000000000004,0.043583333333333,0.041166666666667,0.040316666666667,0.037966666666667,0.036033333333333,0.036383333333333,5.0
COM4,509,18-Apr-19,2019-04-18 18:00:00,0.048333333333333006,0.04775,0.04435,0.04395,0.041383333333333,0.0398,0.039483333333333,5.0
COM4,509,18-Apr-19,2019-04-18 19:00:00,0.067966666666667,0.068933333333333,0.064283333333333,0.0645,0.060266666666666996,0.059000000000000004,0.058566666666666996,5.0
COM4,509,18-Apr-19,2019-04-18 20:00:00,0.12196666666667,0.1099,0.10111666666666999,0.097716666666667,0.0919,0.08713333333333298,0.0881,5.0
COM4,509,18-Apr-19,2019-04-18 21:00:00,0.13921666666667,0.12535,0.11418333333333,0.10983333333333001,0.10358333333333,0.094816666666667,0.09743333333333301,5.0
COM4,509,18-Apr-19,2019-04-18 22:00:00,0.10936666666667,0.096516666666667,0.089183333333333,0.08528333333333299,0.080833333333333,0.0746,0.076533333333333,5.0
COM4,509,18-Apr-19,2019-04-18 23:00:00,0.14627118644068,0.11716949152542,0.10545762711864,0.10144067796610001,0.09544067796610199,0.088593220338983,0.09101694915254199,5.0
