COM4,509,06-Sep-18,2018-09-06 00:00:00,0.58406779661017,0.5325254237288101,0.48825423728814,0.47333898305085,0.44667796610169,0.40689830508475,0.41576271186441,5
COM4,509,06-Sep-18,2018-09-06 01:00:00,0.53705,0.46088333333333,0.41253333333333003,0.38926666666667,0.36121666666667,0.3364,0.34496666666667,5
COM4,509,06-Sep-18,2018-09-06 02:00:00,0.70798333333333,0.65115,0.5910166666666701,0.5672,0.53811666666667,0.50625,0.51765,5
COM4,509,06-Sep-18,2018-09-06 03:00:00,0.6029,0.53683333333333,0.48646666666667,0.46245,0.43468333333333,0.40526666666667,0.41563333333333,5
COM4,509,06-Sep-18,2018-09-06 04:00:00,0.72016666666667,0.67986666666667,0.63071666666667,0.6136333333333299,0.5866333333333299,0.5553166666666701,0.56983333333333,5
COM4,509,06-Sep-18,2018-09-06 05:00:00,0.68518333333333,0.6311333333333299,0.5832333333333299,0.5648666666666701,0.5393,0.5085,0.52221666666667,5
COM4,509,06-Sep-18,2018-09-06 06:00:00,0.86906666666667,0.81548333333333,0.75998333333333,0.74348333333333,0.71228333333333,0.68338333333333,0.7025,5
COM4,509,06-Sep-18,2018-09-06 07:00:00,0.76785,0.83325,0.82556666666667,0.8452,0.84483333333333,0.85893333333333,0.88988333333333,5
COM4,509,06-Sep-18,2018-09-06 08:00:00,0.5593,0.59565,0.58603333333333,0.59731666666667,0.5936666666666701,0.5950666666666701,0.6165333333333299,5
COM4,509,06-Sep-18,2018-09-06 09:00:00,0.52666666666667,0.49031666666667,0.46551666666667,0.4584,0.44645,0.42923333333333,0.44471666666667,5
COM4,509,06-Sep-18,2018-09-06 10:00:00,0.49035,0.46213333333333,0.44753333333333,0.44635,0.4421,0.43333333333333,0.45098333333333,5
COM4,509,06-Sep-18,2018-09-06 11:00:00,0.36178333333333,0.35681666666667,0.34928333333333,0.35325,0.35595,0.3594,0.37466666666667,5
COM4,509,06-Sep-18,2018-09-06 12:00:00,0.39003333333333,0.40063333333333,0.39615,0.40576666666667,0.40866666666667,0.42985,0.44673333333333,5
COM4,509,06-Sep-18,2018-09-06 13:00:00,0.43753333333333,0.47238333333333,0.47725,0.49701666666667,0.50878333333333,0.53546666666667,0.5579,5
COM4,509,06-Sep-18,2018-09-06 14:00:00,0.14515,0.28351666666666997,0.3276,0.37626666666666997,0.41968333333333,0.4944,0.52453333333333,5
COM4,509,06-Sep-18,2018-09-06 15:00:00,0.51815,0.42318333333333,0.37513333333333,0.35241666666667,0.32496666666667,0.29575,0.30038333333333,5
COM4,509,06-Sep-18,2018-09-06 16:00:00,0.42128333333333,0.36618333333333003,0.331,0.313,0.2902,0.2547,0.25878333333333,5
COM4,509,06-Sep-18,2018-09-06 17:00:00,0.5091,0.44481666666666997,0.40436666666667,0.38725,0.36178333333333,0.32928333333333,0.33338333333333,5
COM4,509,06-Sep-18,2018-09-06 18:00:00,0.45136666666666997,0.38831666666667,0.34926666666667,0.33086666666667,0.30553333333333,0.2665,0.27078333333333,5
COM4,509,06-Sep-18,2018-09-06 19:00:00,0.5819666666666701,0.47035,0.4122,0.38188333333333,0.34746666666667,0.29613333333333003,0.29965,5
COM4,509,06-Sep-18,2018-09-06 20:00:00,0.54088333333333,0.42166666666667,0.37426666666666997,0.34313333333333,0.31371666666667,0.25966666666667004,0.2685,5
COM4,509,06-Sep-18,2018-09-06 21:00:00,0.48668333333333,0.39151666666667,0.3435,0.31761666666667,0.29036666666667,0.24161666666667003,0.24633333333332996,5
COM4,509,06-Sep-18,2018-09-06 22:00:00,0.6510666666666701,0.55593333333333,0.49633333333333,0.46536666666667,0.43063333333333,0.38008333333333,0.38815,5
COM4,509,06-Sep-18,2018-09-06 23:00:00,0.71166666666667,0.636,0.57708333333333,0.55235,0.51665,0.47161666666667,0.47943333333333,5
