COM4,509,07-Mar-19,2019-03-07 00:00:00,0.18318333333332998,0.15426666666667002,0.1409,0.13105,0.12258333333333,0.11433333333333001,0.11651666666666999,5
COM4,509,07-Mar-19,2019-03-07 01:00:00,0.15115,0.15145,0.14346666666667002,0.13673333333333001,0.13036666666667,0.12308333333333,0.12555,5
COM4,509,07-Mar-19,2019-03-07 02:00:00,-0.07103333333333299,-0.037866666666667,-0.034866666666667,-0.030916666666667005,-0.03055,-0.031933333333332994,-0.03375,5
COM4,509,07-Mar-19,2019-03-07 03:00:00,-0.044216666666666994,-0.0245,-0.02115,-0.020433333333332998,-0.019783333333333,-0.01565,-0.017166666666667,5
COM4,509,07-Mar-19,2019-03-07 04:00:00,-0.0146,-5e-05,0.00205,0.0031,0.0025,0.0039833333333333,0.0049833333333333,5
COM4,509,07-Mar-19,2019-03-07 05:00:00,0.042633333333333,0.053316666666667,0.052866666666667,0.052383333333333004,0.051066666666666996,0.04781666666666699,0.050366666666667,5
COM4,509,07-Mar-19,2019-03-07 06:00:00,0.05028333333333301,0.055166666666666996,0.049,0.047583333333333006,0.04328333333333301,0.04155,0.041133333333333,5
COM4,509,07-Mar-19,2019-03-07 07:00:00,0.15165,0.1477,0.13736666666667,0.13541666666667,0.12875,0.12101666666666999,0.12333333333333,5
COM4,509,07-Mar-19,2019-03-07 08:00:00,0.3991,0.36688333333333,0.33931666666667,0.32585,0.30876666666667,0.29061666666667,0.29833333333333,5
COM4,509,07-Mar-19,2019-03-07 09:00:00,0.1307,0.13763333333333,0.12911666666667,0.12891666666666998,0.12183333333333,0.11711666666666999,0.11973333333333,5
COM4,509,07-Mar-19,2019-03-07 10:00:00,0.05365,0.0661,0.064083333333333,0.063583333333333,0.062366666666666994,0.05975,0.061966666666666996,5
COM4,509,07-Mar-19,2019-03-07 11:00:00,0.062016666666667,0.0685,0.06715,0.06636666666666699,0.06533333333333301,0.06445,0.066016666666667,5
COM4,509,07-Mar-19,2019-03-07 12:00:00,0.18138333333332995,0.17973333333332997,0.16648333333332999,0.16361666666667002,0.15386666666667,0.14096666666667002,0.14505,5
COM4,509,07-Mar-19,2019-03-07 13:00:00,0.12633333333333,0.12471666666667,0.11551666666667,0.11195,0.10596666666667,0.0949,0.0971,5
COM4,509,07-Mar-19,2019-03-07 14:00:00,0.08885,0.091733333333333,0.0856,0.083166666666667,0.07915,0.071516666666667,0.071883333333333,5
COM4,509,07-Mar-19,2019-03-07 15:00:00,0.08331666666666701,0.0817,0.07533333333333299,0.073083333333333,0.068666666666667,0.066516666666667,0.06725,5
COM4,509,07-Mar-19,2019-03-07 16:00:00,0.08081666666666701,0.082433333333333,0.077966666666667,0.074816666666667,0.071516666666667,0.061883333333333006,0.0645,5
COM4,509,07-Mar-19,2019-03-07 17:00:00,0.07783333333333299,0.0727,0.067716666666667,0.063833333333333,0.060783333333333,0.05828333333333301,0.059066666666666996,5
COM4,509,07-Mar-19,2019-03-07 18:00:00,0.07003333333333299,0.06396666666666699,0.05871666666666699,0.058016666666666994,0.055716666666667,0.04586666666666699,0.04765,5
COM4,509,07-Mar-19,2019-03-07 19:00:00,0.12623333333333,0.11853333333333001,0.11086666666667,0.1079,0.1008,0.09343333333333301,0.097733333333333,5
COM4,509,07-Mar-19,2019-03-07 20:00:00,0.43718333333333,0.35401666666667,0.31205,0.29325,0.27195,0.24775,0.2516,5
COM4,509,07-Mar-19,2019-03-07 21:00:00,0.51515,0.42308333333333,0.36955,0.34325,0.31453333333333,0.28456666666667,0.2907,5
COM4,509,07-Mar-19,2019-03-07 22:00:00,0.22196666666667003,0.19338333333332997,0.17568333333332997,0.17031666666667003,0.15856666666667002,0.1409,0.14363333333332998,5
COM4,509,07-Mar-19,2019-03-07 23:00:00,0.33913333333333,0.29575,0.27065,0.25866666666667004,0.24261666666667003,0.22081666666667002,0.22521666666667003,5
