COM4,509,29-Sep-19,2019-09-29 00:00:00,0.017183333333333,0.0109,0.014816666666667,0.010733333333333,0.01495,0.005,0.012616666666667,5
COM4,509,29-Sep-19,2019-09-29 01:00:00,0.0229,0.0222,0.023783333333332993,0.02175,0.0249,0.018716666666667,0.023366666666667004,5
COM4,509,29-Sep-19,2019-09-29 02:00:00,0.016233333333333,0.016333333333333,0.017133333333333,0.015566666666667001,0.017366666666667,0.014233333333333,0.017733333333333,5
COM4,509,29-Sep-19,2019-09-29 03:00:00,-0.0011833333333333,0.0012666666666667,0.0012833333333333,0.00076666666666667,0.0010166666666667,-0.0019,-0.00086666666666667,5
COM4,509,29-Sep-19,2019-09-29 04:00:00,0.0006,0.0021,0.00145,0.00175,0.0025166666666667,0.0019166666666667,0.0029833333333333,5
COM4,509,29-Sep-19,2019-09-29 05:00:00,0.0025166666666667,0.0027833333333333,0.0031833333333333,0.0025666666666667,0.0032833333333333,0.00285,0.0046,5
COM4,509,29-Sep-19,2019-09-29 06:00:00,0.0039666666666667,0.0069333333333333,0.006,0.0061833333333333,0.0068333333333333,0.0061166666666667,0.0067333333333333,5
COM4,509,29-Sep-19,2019-09-29 07:00:00,0.0027666666666667,0.0047666666666667,0.0044333333333333,0.00395,0.0044666666666667,0.0037666666666667,0.0038166666666667,5
COM4,509,29-Sep-19,2019-09-29 08:00:00,0.00835,0.0094166666666667,0.0093833333333333,0.0094,0.0099333333333333,0.010366666666667001,0.01135,5
COM4,509,29-Sep-19,2019-09-29 09:00:00,0.0064833333333333,0.0085333333333333,0.0081166666666667,0.0092,0.0085833333333333,0.0095,0.0092833333333333,5
COM4,509,29-Sep-19,2019-09-29 10:00:00,0.012866666666667,0.017,0.01785,0.018066666666667,0.018216666666667,0.019766666666667,0.020633333333333,5
COM4,509,29-Sep-19,2019-09-29 11:00:00,0.012366666666667001,0.0184,0.0179,0.019183333333333,0.0192,0.021416666666667,0.021766666666667,5
COM4,509,29-Sep-19,2019-09-29 12:00:00,0.0090333333333333,0.013466666666667,0.013533333333333,0.013983333333332999,0.013766666666667,0.014283333333332999,0.014266666666667,5
COM4,509,29-Sep-19,2019-09-29 13:00:00,0.02,0.02375,0.02355,0.025283333333332995,0.0252,0.025966666666667006,0.026616666666667003,5
COM4,509,29-Sep-19,2019-09-29 14:00:00,0.015966666666667,0.018266666666667,0.01855,0.019066666666667,0.019,0.02165,0.0231,5
COM4,509,29-Sep-19,2019-09-29 15:00:00,0.010683333333333,0.013316666666667,0.01345,0.013216666666667,0.013933333333333,0.013566666666667001,0.0141,5
COM4,509,29-Sep-19,2019-09-29 16:00:00,0.0119,0.014333333333333,0.014566666666667,0.015383333333332999,0.014916666666667,0.014316666666667,0.0153,5
COM4,509,29-Sep-19,2019-09-29 17:00:00,0.0147,0.018000000000000002,0.01785,0.017766666666667,0.018783333333333,0.0189,0.019583333333332998,5
COM4,509,29-Sep-19,2019-09-29 18:00:00,0.050833333333333,0.050733333333333006,0.049283333333333006,0.05071666666666699,0.05,0.051,0.054133333333333006,5
COM4,509,29-Sep-19,2019-09-29 19:00:00,0.06443333333333301,0.063116666666667,0.0615,0.06215,0.062483333333333,0.064366666666667,0.066483333333333,5
COM4,509,29-Sep-19,2019-09-29 20:00:00,0.10133333333333,0.0938,0.09106666666666699,0.091866666666667,0.09055,0.09318333333333301,0.09683333333333301,5
COM4,509,29-Sep-19,2019-09-29 21:00:00,0.133,0.1201,0.11563333333333001,0.1167,0.1164,0.11858333333333,0.12371666666667,5
COM4,509,29-Sep-19,2019-09-29 22:00:00,0.043083333333333,0.04586666666666699,0.04405,0.0456,0.044866666666667,0.043183333333333004,0.044966666666666995,5
COM4,509,29-Sep-19,2019-09-29 23:00:00,0.066716666666667,0.07038333333333299,0.068833333333333,0.069483333333333,0.069,0.0716,0.073983333333333,5
