COM4,509,27-Sep-19,2019-09-27 00:00:00,0.28273333333333,0.2641,0.24855,0.24211666666667003,0.2309,0.22148333333332998,0.2278,5
COM4,509,27-Sep-19,2019-09-27 01:00:00,0.40036666666667,0.3879,0.36711666666667,0.36165,0.34628333333333,0.32763333333333,0.33421666666667,5
COM4,509,27-Sep-19,2019-09-27 02:00:00,0.6105833333333299,0.52575,0.48661666666667,0.47388333333333,0.45315,0.42753333333333,0.43845,5
COM4,509,27-Sep-19,2019-09-27 03:00:00,0.53756666666667,0.43375,0.39621666666667,0.38318333333333,0.36483333333333,0.34698333333333,0.35565,5
COM4,509,27-Sep-19,2019-09-27 04:00:00,0.7074,0.63835,0.5987333333333299,0.59298333333333,0.57173333333333,0.5524666666666701,0.5671,5
COM4,509,27-Sep-19,2019-09-27 05:00:00,0.6185333333333299,0.5714666666666701,0.54168333333333,0.53833333333333,0.5218,0.50141666666667,0.51371666666667,5
COM4,509,27-Sep-19,2019-09-27 06:00:00,0.36701666666667,0.3449,0.32836666666666997,0.32516666666667,0.31415,0.30451666666667,0.31466666666667,5
COM4,509,27-Sep-19,2019-09-27 07:00:00,0.31316666666667,0.29968333333333,0.28311666666667,0.27918333333333,0.26915,0.2584,0.26433333333333,5
COM4,509,27-Sep-19,2019-09-27 08:00:00,0.38546666666667,0.3701,0.3531,0.35258333333333003,0.34193333333333,0.33358333333333,0.34356666666667,5
COM4,509,27-Sep-19,2019-09-27 09:00:00,0.44385,0.44166666666667,0.42643333333333,0.42851666666667,0.41906666666667,0.4097,0.42143333333333,5
COM4,509,27-Sep-19,2019-09-27 10:00:00,0.5199,0.50808333333333,0.48835,0.49013333333333,0.47681666666667,0.4644,0.47616666666667,5
COM4,509,27-Sep-19,2019-09-27 11:00:00,0.37361666666667,0.35895,0.34378333333333,0.344,0.33396666666667,0.3204,0.32775,5
COM4,509,27-Sep-19,2019-09-27 12:00:00,0.22053333333332997,0.19706666666667003,0.18531666666667004,0.18208333333332996,0.17600000000000002,0.16338333333333,0.16848333333332996,5
COM4,509,27-Sep-19,2019-09-27 13:00:00,0.19956666666667003,0.17921666666667002,0.16966666666667002,0.16573333333332999,0.16155,0.14185,0.14858333333333,5
COM4,509,27-Sep-19,2019-09-27 14:00:00,0.13736666666667,0.12085,0.11261666666667,0.10765,0.10478333333333001,0.10003333333333,0.10445,5
COM4,509,27-Sep-19,2019-09-27 15:00:00,0.16671666666667,0.14903333333333,0.1387,0.13536666666667,0.12925,0.11776666666666999,0.12168333333333001,5
COM4,509,27-Sep-19,2019-09-27 16:00:00,0.20971666666667002,0.17801666666667004,0.16281666666667002,0.15655,0.14855,0.13328333333333,0.13803333333332998,5
COM4,509,27-Sep-19,2019-09-27 17:00:00,0.15621666666667,0.13746666666667,0.12545,0.12031666666667,0.11618333333333,0.10876666666667,0.11195,5
COM4,509,27-Sep-19,2019-09-27 18:00:00,0.6673833333333299,0.5616166666666701,0.51215,0.49491666666667,0.47076666666667,0.44001666666667,0.45376666666667,5
COM4,509,27-Sep-19,2019-09-27 19:00:00,0.3453,0.28256666666667,0.25405,0.24421666666667002,0.22871666666667004,0.21298333333332997,0.21788333333332996,5
COM4,509,27-Sep-19,2019-09-27 20:00:00,1.1159333333333001,0.94981666666667,0.8726,0.84491666666667,0.79906666666667,0.74128333333333,0.75998333333333,5
COM4,509,27-Sep-19,2019-09-27 21:00:00,0.57913333333333,0.46018333333333,0.41398333333333,0.39525,0.36916666666667,0.33455,0.342,5
COM4,509,27-Sep-19,2019-09-27 22:00:00,0.5705333333333299,0.49375,0.45796666666667,0.44613333333333,0.42483333333333,0.40688333333333,0.41651666666667,5
COM4,509,27-Sep-19,2019-09-27 23:00:00,0.69098333333333,0.61455,0.57603333333333,0.56788333333333,0.54646666666667,0.52071666666667,0.5346,5
