COM4,0509,28-Feb-19,2019-02-28 00:00:00,0.6905,0.65401666666667,0.62371666666667,0.62008333333333,0.60376666666667,0.58883333333333,0.60545,5,0,0,0,0,0,0,0,0,0,0,0,0,0,0,0,0,0,0,0,0,0,0,0,0,0,0,0,0,0,0,0,0,0,0,0,0,0,0,0,0,0,0
COM4,0509,28-Feb-19,2019-02-28 01:00:00,0.74513333333333,0.71133333333333,0.675,0.66848333333333,0.649,0.63046666666667,0.64805,5,0,0,0,0,0,0,0,0,0,0,0,0,0,0,0,0,0,0,0,0,0,0,0,0,0,0,0,0,0,0,0,0,0,0,0,0,0,0,0,0,0,0
COM4,0509,28-Feb-19,2019-02-28 02:00:00,0.63203333333333,0.60826666666667,0.58048333333333,0.57625,0.55815,0.53651666666667,0.55018333333333,5,0,0,0,0,0,0,0,0,0,0,0,0,0,0,0,0,0,0,0,0,0,0,0,0,0,0,0,0,0,0,0,0,0,0,0,0,0,0,0,0,0,0
COM4,0509,28-Feb-19,2019-02-28 03:00:00,0.65673333333333,0.62265,0.59126666666667,0.586,0.56708333333333,0.54461666666667,0.55901666666667,5,0,0,0,0,0,0,0,0,0,0,0,0,0,0,0,0,0,0,0,0,0,0,0,0,0,0,0,0,0,0,0,0,0,0,0,0,0,0,0,0,0,0
COM4,0509,28-Feb-19,2019-02-28 04:00:00,0.58506666666667,0.52758333333333,0.5011,0.49551666666667,0.47956666666667,0.45671666666667,0.46893333333333,5,0,0,0,0,0,0,0,0,0,0,0,0,0,0,0,0,0,0,0,0,0,0,0,0,0,0,0,0,0,0,0,0,0,0,0,0,0,0,0,0,0,0
COM4,0509,28-Feb-19,2019-02-28 05:00:00,0.54085,0.52115,0.5005,0.49788333333333,0.4824,0.46563333333333,0.47651666666667,5,0,0,0,0,0,0,0,0,0,0,0,0,0,0,0,0,0,0,0,0,0,0,0,0,0,0,0,0,0,0,0,0,0,0,0,0,0,0,0,0,0,0
COM4,0509,28-Feb-19,2019-02-28 06:00:00,0.43443333333333,0.4146,0.3927,0.38893333333333,0.3748,0.35596666666667,0.36626666666667,5,0,0,0,0,0,0,0,0,0,0,0,0,0,0,0,0,0,0,0,0,0,0,0,0,0,0,0,0,0,0,0,0,0,0,0,0,0,0,0,0,0,0
COM4,0509,28-Feb-19,2019-02-28 07:00:00,0.44071666666667,0.38811666666667,0.36105,0.3495,0.33166666666667,0.30665,0.31246666666667,5,0,0,0,0,0,0,0,0,0,0,0,0,0,0,0,0,0,0,0,0,0,0,0,0,0,0,0,0,0,0,0,0,0,0,0,0,0,0,0,0,0,0
COM4,0509,28-Feb-19,2019-02-28 08:00:00,0.78208333333333,0.71611666666667,0.66835,0.65103333333333,0.62393333333333,0.59155,0.60708333333333,5,0,0,0,0,0,0,0,0,0,0,0,0,0,0,0,0,0,0,0,0,0,0,0,0,0,0,0,0,0,0,0,0,0,0,0,0,0,0,0,0,0,0
COM4,0509,28-Feb-19,2019-02-28 09:00:00,0.72163333333333,0.69098333333333,0.65763333333333,0.64856666666667,0.62691666666667,0.60355,0.61965,5,0,0,0,0,0,0,0,0,0,0,0,0,0,0,0,0,0,0,0,0,0,0,0,0,0,0,0,0,0,0,0,0,0,0,0,0,0,0,0,0,0,0
COM4,0509,28-Feb-19,2019-02-28 10:00:00,0.95163333333333,0.94151666666667,0.90386666666667,0.90353333333333,0.88023333333333,0.8551,0.87851666666667,5,0,0,0,0,0,0,0,0,0,0,0,0,0,0,0,0,0,0,0,0,0,0,0,0,0,0,0,0,0,0,0,0,0,0,0,0,0,0,0,0,0,0
COM4,0509,28-Feb-19,2019-02-28 11:00:00,1.24505,1.2246,1.1710166666667,1.1665333333333,1.1364333333333,1.1159833333333,1.14435,5,0,0,0,0,0,0,0,0,0,0,0,0,0,0,0,0,0,0,0,0,0,0,0,0,0,0,0,0,0,0,0,0,0,0,0,0,0,0,0,0,0,0
COM4,0509,28-Feb-19,2019-02-28 12:00:00,1.0913833333333,1.0956666666667,1.0646833333333,1.0737333333333,1.0557833333333,1.0382666666667,1.06695,5,0,0,0,0,0,0,0,0,0,0,0,0,0,0,0,0,0,0,0,0,0,0,0,0,0,0,0,0,0,0,0,0,0,0,0,0,0,0,0,0,0,0
COM4,0509,28-Feb-19,2019-02-28 13:00:00,0.4091,0.4312,0.42446666666667,0.43043333333333,0.42275,0.41621666666667,0.42811666666667,5,0,0,0,0,0,0,0,0,0,0,0,0,0,0,0,0,0,0,0,0,0,0,0,0,0,0,0,0,0,0,0,0,0,0,0,0,0,0,0,0,0,0
COM4,0509,28-Feb-19,2019-02-28 14:00:00,0.02235,0.046516666666667,0.043583333333333,0.039616666666667,0.03455,0.030916666666667,0.03285,5,0,0,0,0,0,0,0,0,0,0,0,0,0,0,0,0,0,0,0,0,0,0,0,0,0,0,0,0,0,0,0,0,0,0,0,0,0,0,0,0,0,0
COM4,0509,28-Feb-19,2019-02-28 15:00:00,0.014666666666667,0.0439,0.041616666666667,0.03555,0.029833333333333,0.015416666666667,0.014866666666667,5,0,0,0,0,0,0,0,0,0,0,0,0,0,0,0,0,0,0,0,0,0,0,0,0,0,0,0,0,0,0,0,0,0,0,0,0,0,0,0,0,0,0
COM4,0509,28-Feb-19,2019-02-28 16:00:00,0.0956,0.119,0.1151,0.11318333333333,0.1076,0.099416666666667,0.10053333333333,5,0,0,0,0,0,0,0,0,0,0,0,0,0,0,0,0,0,0,0,0,0,0,0,0,0,0,0,0,0,0,0,0,0,0,0,0,0,0,0,0,0,0
COM4,0509,28-Feb-19,2019-02-28 17:00:00,0.0291,0.043166666666667,0.040733333333333,0.038633333333333,0.0354,0.027816666666667,0.030166666666667,5,0,0,0,0,0,0,0,0,0,0,0,0,0,0,0,0,0,0,0,0,0,0,0,0,0,0,0,0,0,0,0,0,0,0,0,0,0,0,0,0,0,0
COM4,0509,28-Feb-19,2019-02-28 18:00:00,0.2224,0.21485,0.20248333333333,0.19835,0.19093333333333,0.17753333333333,0.18335,5,0,0,0,0,0,0,0,0,0,0,0,0,0,0,0,0,0,0,0,0,0,0,0,0,0,0,0,0,0,0,0,0,0,0,0,0,0,0,0,0,0,0
COM4,0509,28-Feb-19,2019-02-28 19:00:00,0.1818,0.18391666666667,0.1773,0.17716666666667,0.17158333333333,0.16485,0.16763333333333,5,0,0,0,0,0,0,0,0,0,0,0,0,0,0,0,0,0,0,0,0,0,0,0,0,0,0,0,0,0,0,0,0,0,0,0,0,0,0,0,0,0,0
COM4,0509,28-Feb-19,2019-02-28 20:00:00,-0.00655,0.0065833333333333,0.010783333333333,0.01005,0.00965,0.0087166666666667,0.0097166666666667,5,0,0,0,0,0,0,0,0,0,0,0,0,0,0,0,0,0,0,0,0,0,0,0,0,0,0,0,0,0,0,0,0,0,0,0,0,0,0,0,0,0,0
COM4,0509,28-Feb-19,2019-02-28 21:00:00,0.049733333333333,0.046566666666667,0.04205,0.041266666666667,0.039783333333333,0.035716666666667,0.037183333333333,5,0,0,0,0,0,0,0,0,0,0,0,0,0,0,0,0,0,0,0,0,0,0,0,0,0,0,0,0,0,0,0,0,0,0,0,0,0,0,0,0,0,0
COM4,0509,28-Feb-19,2019-02-28 22:00:00,0.12498333333333,0.11111666666667,0.10293333333333,0.10123333333333,0.095816666666667,0.088383333333333,0.090366666666667,5,0,0,0,0,0,0,0,0,0,0,0,0,0,0,0,0,0,0,0,0,0,0,0,0,0,0,0,0,0,0,0,0,0,0,0,0,0,0,0,0,0,0
COM4,0509,28-Feb-19,2019-02-28 23:00:00,0.2295,0.19353333333333,0.18008333333333,0.17188333333333,0.16353333333333,0.15173333333333,0.15378333333333,5,0,0,0,0,0,0,0,0,0,0,0,0,0,0,0,0,0,0,0,0,0,0,0,0,0,0,0,0,0,0,0,0,0,0,0,0,0,0,0,0,0,0
