COM4,0509,29-Jan-19,2019-01-29 00:00:00,0.95248275862069,0.70725862068966,0.61784482758621,0.57179310344828,0.51246551724138,0.41093103448276,0.39741379310345,4.9,0,0,0,0,0,0,0,0,0,0,0,0,0,0,0,0,0,0,0,0,0,0,0,0,0,0,0,0,0,0,0,0,0,0,0,0,0,0,0,0,0,0
COM4,0509,29-Jan-19,2019-01-29 01:00:00,1.1120338983051,0.83323728813559,0.72547457627119,0.6745593220339,0.62672881355932,0.5264406779661,0.51106779661017,4.9,0,0,0,0,0,0,0,0,0,0,0,0,0,0,0,0,0,0,0,0,0,0,0,0,0,0,0,0,0,0,0,0,0,0,0,0,0,0,0,0,0,0
COM4,0509,29-Jan-19,2019-01-29 02:00:00,0.65210526315789,0.5159298245614,0.44984210526316,0.41673684210526,0.37771929824561,0.31777192982456,0.30315789473684,4.9,0,0,0,0,0,0,0,0,0,0,0,0,0,0,0,0,0,0,0,0,0,0,0,0,0,0,0,0,0,0,0,0,0,0,0,0,0,0,0,0,0,0
COM4,0509,29-Jan-19,2019-01-29 03:00:00,0.55391379310345,0.45170689655172,0.39086206896552,0.35496551724138,0.31929310344828,0.27170689655172,0.25601724137931,4.9,0,0,0,0,0,0,0,0,0,0,0,0,0,0,0,0,0,0,0,0,0,0,0,0,0,0,0,0,0,0,0,0,0,0,0,0,0,0,0,0,0,0
COM4,0509,29-Jan-19,2019-01-29 04:00:00,0.28265517241379,0.24958620689655,0.21303448275862,0.18893103448276,0.15803448275862,0.11625862068966,0.10706896551724,4.9,0,0,0,0,0,0,0,0,0,0,0,0,0,0,0,0,0,0,0,0,0,0,0,0,0,0,0,0,0,0,0,0,0,0,0,0,0,0,0,0,0,0
COM4,0509,29-Jan-19,2019-01-29 05:00:00,0.557,0.42943859649123,0.35878947368421,0.32557894736842,0.28817543859649,0.23350877192982,0.22212280701754,4.9,0,0,0,0,0,0,0,0,0,0,0,0,0,0,0,0,0,0,0,0,0,0,0,0,0,0,0,0,0,0,0,0,0,0,0,0,0,0,0,0,0,0
COM4,0509,29-Jan-19,2019-01-29 06:00:00,1.7154833333333,1.30165,1.1176,1.0168,0.93245,0.82625,0.8107,4.8416666666667,0,0,0,0,0,0,0,0,0,0,0,0,0,0,0,0,0,0,0,0,0,0,0,0,0,0,0,0,0,0,0,0,0,0,0,0,0,0,0,0,0,0
COM4,0509,29-Jan-19,2019-01-29 07:00:00,2.3068103448276,1.7300344827586,1.4623103448276,1.3285,1.2166724137931,1.0940862068966,1.0821724137931,4.8,0,0,0,0,0,0,0,0,0,0,0,0,0,0,0,0,0,0,0,0,0,0,0,0,0,0,0,0,0,0,0,0,0,0,0,0,0,0,0,0,0,0
COM4,0509,29-Jan-19,2019-01-29 08:00:00,1.1198833333333,0.9658,0.85176666666667,0.79643333333333,0.73685,0.65356666666667,0.65708333333333,4.8,0,0,0,0,0,0,0,0,0,0,0,0,0,0,0,0,0,0,0,0,0,0,0,0,0,0,0,0,0,0,0,0,0,0,0,0,0,0,0,0,0,0
COM4,0509,29-Jan-19,2019-01-29 09:00:00,0.867,0.7782,0.69788333333333,0.65171666666667,0.6066,0.54811666666667,0.55753333333333,4.8,0,0,0,0,0,0,0,0,0,0,0,0,0,0,0,0,0,0,0,0,0,0,0,0,0,0,0,0,0,0,0,0,0,0,0,0,0,0,0,0,0,0
COM4,0509,29-Jan-19,2019-01-29 10:00:00,0.49275862068966,0.47012068965517,0.42213793103448,0.40139655172414,0.3721724137931,0.32958620689655,0.3331724137931,4.8,0,0,0,0,0,0,0,0,0,0,0,0,0,0,0,0,0,0,0,0,0,0,0,0,0,0,0,0,0,0,0,0,0,0,0,0,0,0,0,0,0,0
COM4,0509,29-Jan-19,2019-01-29 11:00:00,0.198,0.21513559322034,0.18574576271186,0.16889830508475,0.14664406779661,0.11730508474576,0.119,4.8,0,0,0,0,0,0,0,0,0,0,0,0,0,0,0,0,0,0,0,0,0,0,0,0,0,0,0,0,0,0,0,0,0,0,0,0,0,0,0,0,0,0
COM4,0509,29-Jan-19,2019-01-29 12:00:00,0.22966101694915,0.22203389830508,0.19828813559322,0.16898305084746,0.14545762711864,0.098881355932203,0.10061016949153,4.8,0,0,0,0,0,0,0,0,0,0,0,0,0,0,0,0,0,0,0,0,0,0,0,0,0,0,0,0,0,0,0,0,0,0,0,0,0,0,0,0,0,0
COM4,0509,29-Jan-19,2019-01-29 13:00:00,0.4589,0.41048333333333,0.35916666666667,0.33181666666667,0.29756666666667,0.25358333333333,0.25745,4.8,0,0,0,0,0,0,0,0,0,0,0,0,0,0,0,0,0,0,0,0,0,0,0,0,0,0,0,0,0,0,0,0,0,0,0,0,0,0,0,0,0,0
COM4,0509,29-Jan-19,2019-01-29 14:00:00,0.51528333333333,0.44956666666667,0.3998,0.36431666666667,0.33163333333333,0.27123333333333,0.27243333333333,4.8,0,0,0,0,0,0,0,0,0,0,0,0,0,0,0,0,0,0,0,0,0,0,0,0,0,0,0,0,0,0,0,0,0,0,0,0,0,0,0,0,0,0
COM4,0509,29-Jan-19,2019-01-29 15:00:00,0.62575,0.54896666666667,0.48403333333333,0.45058333333333,0.41511666666667,0.34595,0.35065,4.8,0,0,0,0,0,0,0,0,0,0,0,0,0,0,0,0,0,0,0,0,0,0,0,0,0,0,0,0,0,0,0,0,0,0,0,0,0,0,0,0,0,0
COM4,0509,29-Jan-19,2019-01-29 16:00:00,0.57291666666667,0.54183333333333,0.49878333333333,0.47253333333333,0.43948333333333,0.39361666666667,0.39621666666667,4.8,0,0,0,0,0,0,0,0,0,0,0,0,0,0,0,0,0,0,0,0,0,0,0,0,0,0,0,0,0,0,0,0,0,0,0,0,0,0,0,0,0,0
COM4,0509,29-Jan-19,2019-01-29 17:00:00,0.37477966101695,0.40157627118644,0.36883050847458,0.35905084745763,0.33335593220339,0.30350847457627,0.30794915254237,4.8,0,0,0,0,0,0,0,0,0,0,0,0,0,0,0,0,0,0,0,0,0,0,0,0,0,0,0,0,0,0,0,0,0,0,0,0,0,0,0,0,0,0
COM4,0509,29-Jan-19,2019-01-29 18:00:00,0.84245,0.74591666666667,0.67041666666667,0.64116666666667,0.60435,0.56465,0.57271666666667,4.8,0,0,0,0,0,0,0,0,0,0,0,0,0,0,0,0,0,0,0,0,0,0,0,0,0,0,0,0,0,0,0,0,0,0,0,0,0,0,0,0,0,0
COM4,0509,29-Jan-19,2019-01-29 19:00:00,1.7574237288136,1.3794745762712,1.2338983050847,1.1642542372881,1.0883220338983,0.99401694915254,1.0124745762712,4.8,0,0,0,0,0,0,0,0,0,0,0,0,0,0,0,0,0,0,0,0,0,0,0,0,0,0,0,0,0,0,0,0,0,0,0,0,0,0,0,0,0,0
COM4,0509,29-Jan-19,2019-01-29 20:00:00,1.3197118644068,1.0589322033898,0.93854237288136,0.87406779661017,0.81306779661017,0.71474576271186,0.7205593220339,4.8,0,0,0,0,0,0,0,0,0,0,0,0,0,0,0,0,0,0,0,0,0,0,0,0,0,0,0,0,0,0,0,0,0,0,0,0,0,0,0,0,0,0
COM4,0509,29-Jan-19,2019-01-29 21:00:00,1.8120508474576,1.4591186440678,1.2976271186441,1.2202711864407,1.1439322033898,1.0412881355932,1.0635423728814,4.8,0,0,0,0,0,0,0,0,0,0,0,0,0,0,0,0,0,0,0,0,0,0,0,0,0,0,0,0,0,0,0,0,0,0,0,0,0,0,0,0,0,0
COM4,0509,29-Jan-19,2019-01-29 22:00:00,1.4271379310345,1.1371551724138,1.0065862068966,0.93784482758621,0.8618275862069,0.75522413793103,0.76703448275862,4.8,0,0,0,0,0,0,0,0,0,0,0,0,0,0,0,0,0,0,0,0,0,0,0,0,0,0,0,0,0,0,0,0,0,0,0,0,0,0,0,0,0,0
COM4,0509,29-Jan-19,2019-01-29 23:00:00,1.4703389830508,1.1002881355932,0.97142372881356,0.91301694915254,0.84223728813559,0.7451186440678,0.75622033898305,4.8,0,0,0,0,0,0,0,0,0,0,0,0,0,0,0,0,0,0,0,0,0,0,0,0,0,0,0,0,0,0,0,0,0,0,0,0,0,0,0,0,0,0
