COM4,509,17-Sep-19,2019-09-17 00:00:00,0.068716666666667,0.059766666666666995,0.0543,0.05245,0.0496,0.046016666666667,0.047033333333333004,5
COM4,509,17-Sep-19,2019-09-17 01:00:00,0.07036666666666701,0.060583333333333,0.05425,0.053416666666666994,0.049566666666666995,0.04665,0.047416666666666996,5
COM4,509,17-Sep-19,2019-09-17 02:00:00,0.053083333333333,0.04756666666666699,0.04175,0.040733333333333,0.037016666666667,0.03675,0.03505,5
COM4,509,17-Sep-19,2019-09-17 03:00:00,0.047016666666667,0.041616666666667,0.03695,0.035816666666667,0.033233333333333,0.031933333333332994,0.03095,5
COM4,509,17-Sep-19,2019-09-17 04:00:00,0.04445,0.038566666666667,0.034766666666667,0.033983333333333,0.03085,0.029883333333332995,0.0297,5
COM4,509,17-Sep-19,2019-09-17 05:00:00,0.04681666666666699,0.038883333333333,0.0343,0.0326,0.029416666666667004,0.027583333333332995,0.027316666666667006,5
COM4,509,17-Sep-19,2019-09-17 06:00:00,0.048266666666667,0.04215,0.038583333333333,0.038,0.0347,0.03376666666666701,0.03331666666666701,5
COM4,509,17-Sep-19,2019-09-17 07:00:00,0.054233333333333,0.050516666666666994,0.046533333333333,0.045966666666666996,0.043866666666667,0.041416666666667,0.0426,5
COM4,509,17-Sep-19,2019-09-17 08:00:00,0.08573333333333298,0.08486666666666702,0.079866666666667,0.078783333333333,0.076866666666667,0.076216666666667,0.078316666666667,5
COM4,509,17-Sep-19,2019-09-17 09:00:00,0.06446666666666699,0.062016666666667,0.059266666666666995,0.0595,0.05735,0.05595,0.0567,5
COM4,509,17-Sep-19,2019-09-17 10:00:00,0.056816666666666994,0.054583333333333005,0.051566666666666996,0.04995,0.048983333333333004,0.0468,0.04805,5
COM4,509,17-Sep-19,2019-09-17 11:00:00,0.054466666666666996,0.050183333333333004,0.046916666666666995,0.04665,0.04405,0.0409,0.042583333333333,5
COM4,509,17-Sep-19,2019-09-17 12:00:00,0.05435,0.048316666666666994,0.04475,0.043566666666666996,0.0416,0.037233333333333,0.038566666666667,5
COM4,509,17-Sep-19,2019-09-17 13:00:00,0.058366666666667,0.051933333333333005,0.047966666666667,0.0466,0.044966666666666995,0.039683333333333,0.041766666666667,5
COM4,509,17-Sep-19,2019-09-17 14:00:00,0.07436666666666701,0.060916666666666994,0.055733333333333,0.0544,0.053216666666666995,0.04545,0.048883333333333,5
COM4,509,17-Sep-19,2019-09-17 15:00:00,0.05513333333333301,0.052633333333333004,0.048633333333333,0.046516666666667,0.046266666666667,0.041266666666667,0.042516666666666994,5
COM4,509,17-Sep-19,2019-09-17 16:00:00,0.059883333333333004,0.052383333333333004,0.0488,0.048,0.046833333333333005,0.040683333333333,0.04465,5
COM4,509,17-Sep-19,2019-09-17 17:00:00,0.0622,0.05755,0.05515,0.053383333333333005,0.0535,0.048483333333333004,0.05125,5
COM4,509,17-Sep-19,2019-09-17 18:00:00,0.07253333333333299,0.076733333333333,0.072316666666667,0.07286666666666701,0.071133333333333,0.06938333333333299,0.07205,5
COM4,509,17-Sep-19,2019-09-17 19:00:00,0.09335,0.098,0.09045,0.091016666666667,0.08691666666666702,0.0869,0.08825,5
COM4,509,17-Sep-19,2019-09-17 20:00:00,0.0774,0.0788,0.0738,0.073983333333333,0.071016666666667,0.070683333333333,0.0725,5
COM4,509,17-Sep-19,2019-09-17 21:00:00,0.10831666666666999,0.10691666666666999,0.099883333333333,0.099216666666667,0.095166666666667,0.09368333333333301,0.095316666666667,5
COM4,509,17-Sep-19,2019-09-17 22:00:00,0.11076666666667,0.09715,0.088933333333333,0.08735,0.08256666666666701,0.08015,0.08115,5
COM4,509,17-Sep-19,2019-09-17 23:00:00,0.12358333333333,0.093483333333333,0.08231666666666701,0.0783,0.072883333333333,0.07013333333333299,0.07121666666666701,5
