COM4,509,25-Mar-19,2019-03-25 00:00:00,0.0579,0.058316666666666996,0.054866666666666994,0.053766666666667,0.05075,0.0472,0.0469,5
COM4,509,25-Mar-19,2019-03-25 01:00:00,0.05075,0.048266666666667,0.043716666666666994,0.044083333333333,0.041716666666667,0.038083333333333,0.0384,5
COM4,509,25-Mar-19,2019-03-25 02:00:00,0.049766666666666994,0.050833333333333,0.047483333333333,0.0459,0.043883333333333004,0.038466666666667,0.039566666666667,5
COM4,509,25-Mar-19,2019-03-25 03:00:00,0.058383333333333,0.057283333333333006,0.055,0.0539,0.051416666666667,0.04491666666666699,0.047033333333333004,5
COM4,509,25-Mar-19,2019-03-25 04:00:00,0.041066666666667,0.040183333333333,0.03605,0.03545,0.03355,0.03,0.031033333333332996,5
COM4,509,25-Mar-19,2019-03-25 05:00:00,0.0796,0.08055,0.07795,0.0784,0.075716666666667,0.07261666666666701,0.074133333333333,5
COM4,509,25-Mar-19,2019-03-25 06:00:00,0.22515,0.23411666666667003,0.22371666666667003,0.22173333333332998,0.21595,0.21131666666667004,0.21878333333332997,5
COM4,509,25-Mar-19,2019-03-25 07:00:00,0.25296666666667006,0.26703333333332996,0.25638333333332997,0.25666666666667004,0.25128333333333,0.24671666666667003,0.25483333333332997,5
COM4,509,25-Mar-19,2019-03-25 08:00:00,0.13095,0.13085,0.12365,0.12326666666667,0.11768333333333,0.1138,0.11811666666666999,5
COM4,509,25-Mar-19,2019-03-25 09:00:00,0.089466666666667,0.08716666666666702,0.08298333333333299,0.080266666666667,0.07805,0.07511666666666701,0.07716666666666701,5
COM4,509,25-Mar-19,2019-03-25 10:00:00,0.08766666666666702,0.08213333333333299,0.080683333333333,0.078566666666667,0.07565,0.07005,0.073083333333333,5
COM4,509,25-Mar-19,2019-03-25 11:00:00,0.0963,0.093166666666667,0.088583333333333,0.08696666666666701,0.083616666666667,0.07486666666666701,0.077866666666667,5
COM4,509,25-Mar-19,2019-03-25 12:00:00,0.1063,0.10088333333333001,0.09693333333333301,0.09306666666666699,0.089783333333333,0.0799,0.08199999999999999,5
COM4,509,25-Mar-19,2019-03-25 13:00:00,0.11301666666667,0.11151666666667,0.10493333333333,0.10243333333333,0.095983333333333,0.08656666666666701,0.08891666666666699,5
COM4,509,25-Mar-19,2019-03-25 14:00:00,0.12143333333333,0.12028333333333001,0.11331666666667,0.10993333333333001,0.10448333333333,0.09355,0.09468333333333301,5
COM4,509,25-Mar-19,2019-03-25 15:00:00,0.1427,0.14046666666667001,0.13301666666667,0.13048333333333,0.12238333333333,0.11016666666667,0.11243333333333,5
COM4,509,25-Mar-19,2019-03-25 16:00:00,0.15645,0.15266666666667,0.14358333333332998,0.13855,0.131,0.11661666666666999,0.11855,5
COM4,509,25-Mar-19,2019-03-25 17:00:00,0.15266666666667,0.14615,0.13699999999999998,0.1328,0.12455,0.11053333333333,0.11155,5
COM4,509,25-Mar-19,2019-03-25 18:00:00,0.14400000000000002,0.13873333333333,0.12881666666667,0.12463333333333,0.11746666666667,0.10396666666667,0.10573333333333,5
COM4,509,25-Mar-19,2019-03-25 19:00:00,0.14805,0.13961666666667003,0.13101666666667,0.12551666666667,0.11800000000000001,0.10341666666667,0.10646666666667,5
COM4,509,25-Mar-19,2019-03-25 20:00:00,0.17800000000000002,0.17076666666667004,0.1576,0.1511,0.14298333333333,0.12546666666667,0.12765,5
COM4,509,25-Mar-19,2019-03-25 21:00:00,0.18268333333332998,0.17058333333332998,0.1578,0.1516,0.14246666666667002,0.12911666666667,0.13166666666666998,5
COM4,509,25-Mar-19,2019-03-25 22:00:00,0.21125,0.18378333333332997,0.16773333333333,0.16008333333333,0.14843333333332998,0.13156666666667,0.13331666666667,5
COM4,509,25-Mar-19,2019-03-25 23:00:00,0.64816949152542,0.49015254237288,0.43010169491525,0.39779661016949,0.36310169491525,0.31052542372881,0.31437288135593,5
