COM4,509,02-May-19,2019-05-02 00:00:00,0.14181666666667,0.0778,0.0713,0.069516666666667,0.06485,0.06168333333333301,0.0635,5
COM4,509,02-May-19,2019-05-02 01:00:00,0.098483333333333,0.08285,0.0743,0.07071666666666701,0.06635,0.06185,0.0622,5
COM4,509,02-May-19,2019-05-02 02:00:00,0.07418333333333299,0.06805,0.06136666666666699,0.059133333333333,0.05495,0.05128333333333301,0.051266666666666995,5
COM4,509,02-May-19,2019-05-02 03:00:00,0.06511666666666699,0.06161666666666699,0.05635,0.054016666666667,0.0504,0.0467,0.047833333333333006,5
COM4,509,02-May-19,2019-05-02 04:00:00,0.0697,0.064283333333333,0.059516666666666995,0.0577,0.053666666666666994,0.049916666666667,0.04996666666666699,5
COM4,509,02-May-19,2019-05-02 05:00:00,0.11815,0.10591666666666999,0.09805,0.094616666666667,0.090116666666667,0.08363333333333299,0.08658333333333298,5
COM4,509,02-May-19,2019-05-02 06:00:00,0.21545,0.20445,0.19163333333332996,0.188,0.17873333333332997,0.17046666666667004,0.17413333333332998,5
COM4,509,02-May-19,2019-05-02 07:00:00,0.18361666666667004,0.17981666666667004,0.16991666666667002,0.16605,0.15941666666667,0.15015,0.15446666666667,5
COM4,509,02-May-19,2019-05-02 08:00:00,0.28355,0.25368333333333,0.22995,0.21931666666667002,0.20415,0.18396666666667003,0.18808333333332997,5
COM4,509,02-May-19,2019-05-02 09:00:00,0.18745,0.17083333333332998,0.15696666666667,0.15103333333333,0.14146666666667002,0.12925,0.13263333333333,5
COM4,509,02-May-19,2019-05-02 10:00:00,0.1669,0.15178333333333,0.13756666666667,0.13348333333333,0.12848333333333,0.11793333333333,0.12085,5
COM4,509,02-May-19,2019-05-02 11:00:00,0.12616666666667,0.11485,0.10656666666667,0.10405,0.1001,0.09195,0.09465,5
COM4,509,02-May-19,2019-05-02 12:00:00,0.10883333333333,0.10161666666666999,0.095333333333333,0.09303333333333301,0.089333333333333,0.08321666666666701,0.08638333333333298,5
COM4,509,02-May-19,2019-05-02 13:00:00,0.0987,0.09485,0.088983333333333,0.088083333333333,0.08406666666666701,0.07956666666666701,0.080866666666667,5
COM4,509,02-May-19,2019-05-02 14:00:00,0.09453333333333301,0.089766666666667,0.08418333333333299,0.083116666666667,0.079,0.073733333333333,0.07535,5
COM4,509,02-May-19,2019-05-02 15:00:00,0.095016666666667,0.090116666666667,0.08445,0.08245,0.07955,0.074383333333333,0.076116666666667,5
COM4,509,02-May-19,2019-05-02 16:00:00,0.092916666666667,0.0886,0.082366666666667,0.08138333333333299,0.078033333333333,0.07305,0.07436666666666701,5
COM4,509,02-May-19,2019-05-02 17:00:00,0.13496666666666998,0.12735,0.11871666666667,0.1168,0.11115,0.10471666666667,0.1067,5
COM4,509,02-May-19,2019-05-02 18:00:00,0.15331666666667002,0.13681666666667,0.12566666666667,0.12281666666666999,0.1158,0.10826666666667,0.10883333333333,5
COM4,509,02-May-19,2019-05-02 19:00:00,0.14413333333332998,0.12326666666667,0.11256666666666999,0.10826666666667,0.10225,0.09418333333333301,0.09568333333333301,5
COM4,509,02-May-19,2019-05-02 20:00:00,0.125,0.10675,0.098283333333333,0.09505,0.09,0.082116666666667,0.08455,5
COM4,509,02-May-19,2019-05-02 21:00:00,0.14781666666667,0.13431666666667,0.12665,0.12406666666666999,0.11898333333333,0.11031666666666999,0.11451666666667,5
COM4,509,02-May-19,2019-05-02 22:00:00,0.10803333333333001,0.09925,0.094233333333333,0.092133333333333,0.0881,0.0814,0.08403333333333299,5
COM4,509,02-May-19,2019-05-02 23:00:00,0.09437288135593198,0.08484745762711901,0.079050847457627,0.077033898305085,0.073661016949153,0.067050847457627,0.06908474576271201,5
