COM4,0509,30-Nov-18,2018-11-30 00:00:00,0.44547457627119,0.39213559322034,0.35071186440678,0.33222033898305,0.30779661016949,0.27713559322034,0.28281355932203,5,0,0,0,0,0,0,0,0,0,0,0,0,0,0,0,0,0,0,0,0,0,0,0,0,0,0,0,0,0,0,0,0,0,0,0,0,0,0,0,0,0,0
COM4,0509,30-Nov-18,2018-11-30 01:00:00,0.50618333333333,0.46735,0.42998333333333,0.41191666666667,0.38355,0.34403333333333,0.34983333333333,5,0,0,0,0,0,0,0,0,0,0,0,0,0,0,0,0,0,0,0,0,0,0,0,0,0,0,0,0,0,0,0,0,0,0,0,0,0,0,0,0,0,0
COM4,0509,30-Nov-18,2018-11-30 02:00:00,0.38583333333333,0.34563333333333,0.31628333333333,0.30215,0.28215,0.25251666666667,0.25815,5,0,0,0,0,0,0,0,0,0,0,0,0,0,0,0,0,0,0,0,0,0,0,0,0,0,0,0,0,0,0,0,0,0,0,0,0,0,0,0,0,0,0
COM4,0509,30-Nov-18,2018-11-30 03:00:00,0.21076666666667,0.20021666666667,0.18085,0.1723,0.1595,0.1446,0.14893333333333,5,0,0,0,0,0,0,0,0,0,0,0,0,0,0,0,0,0,0,0,0,0,0,0,0,0,0,0,0,0,0,0,0,0,0,0,0,0,0,0,0,0,0
COM4,0509,30-Nov-18,2018-11-30 04:00:00,0.21626666666667,0.19846666666667,0.18346666666667,0.17463333333333,0.16233333333333,0.1451,0.14568333333333,5,0,0,0,0,0,0,0,0,0,0,0,0,0,0,0,0,0,0,0,0,0,0,0,0,0,0,0,0,0,0,0,0,0,0,0,0,0,0,0,0,0,0
COM4,0509,30-Nov-18,2018-11-30 05:00:00,0.22601666666667,0.20801666666667,0.189,0.18218333333333,0.16831666666667,0.14803333333333,0.15031666666667,5,0,0,0,0,0,0,0,0,0,0,0,0,0,0,0,0,0,0,0,0,0,0,0,0,0,0,0,0,0,0,0,0,0,0,0,0,0,0,0,0,0,0
COM4,0509,30-Nov-18,2018-11-30 06:00:00,0.46385,0.41995,0.38435,0.36721666666667,0.34188333333333,0.30561666666667,0.3114,5,0,0,0,0,0,0,0,0,0,0,0,0,0,0,0,0,0,0,0,0,0,0,0,0,0,0,0,0,0,0,0,0,0,0,0,0,0,0,0,0,0,0
COM4,0509,30-Nov-18,2018-11-30 07:00:00,0.2766,0.27286666666667,0.26068333333333,0.25463333333333,0.23956666666667,0.21821666666667,0.22415,5,0,0,0,0,0,0,0,0,0,0,0,0,0,0,0,0,0,0,0,0,0,0,0,0,0,0,0,0,0,0,0,0,0,0,0,0,0,0,0,0,0,0
COM4,0509,30-Nov-18,2018-11-30 08:00:00,0.64445,0.5722,0.5147,0.48885,0.45185,0.39601666666667,0.40098333333333,5,0,0,0,0,0,0,0,0,0,0,0,0,0,0,0,0,0,0,0,0,0,0,0,0,0,0,0,0,0,0,0,0,0,0,0,0,0,0,0,0,0,0
COM4,0509,30-Nov-18,2018-11-30 09:00:00,2.0398,1.70855,1.5141,1.4206666666667,1.2974666666667,1.1413833333333,1.1597166666667,5,0,0,0,0,0,0,0,0,0,0,0,0,0,0,0,0,0,0,0,0,0,0,0,0,0,0,0,0,0,0,0,0,0,0,0,0,0,0,0,0,0,0
COM4,0509,30-Nov-18,2018-11-30 10:00:00,1.8230833333333,1.5382666666667,1.3580333333333,1.2689666666667,1.161,1.0218833333333,1.0433833333333,5,0,0,0,0,0,0,0,0,0,0,0,0,0,0,0,0,0,0,0,0,0,0,0,0,0,0,0,0,0,0,0,0,0,0,0,0,0,0,0,0,0,0
COM4,0509,30-Nov-18,2018-11-30 11:00:00,0.66896666666667,0.61401666666667,0.56511666666667,0.5354,0.50126666666667,0.44865,0.45561666666667,5,0,0,0,0,0,0,0,0,0,0,0,0,0,0,0,0,0,0,0,0,0,0,0,0,0,0,0,0,0,0,0,0,0,0,0,0,0,0,0,0,0,0
COM4,0509,30-Nov-18,2018-11-30 12:00:00,0.68181666666667,0.56988333333333,0.51478333333333,0.47538333333333,0.43386666666667,0.36176666666667,0.36713333333333,5,0,0,0,0,0,0,0,0,0,0,0,0,0,0,0,0,0,0,0,0,0,0,0,0,0,0,0,0,0,0,0,0,0,0,0,0,0,0,0,0,0,0
COM4,0509,30-Nov-18,2018-11-30 13:00:00,0.29918333333333,0.28793333333333,0.26395,0.25963333333333,0.23581666666667,0.21266666666667,0.21646666666667,5,0,0,0,0,0,0,0,0,0,0,0,0,0,0,0,0,0,0,0,0,0,0,0,0,0,0,0,0,0,0,0,0,0,0,0,0,0,0,0,0,0,0
