COM4,509,26-Apr-19,2019-04-26 00:00:00,0.2322,0.19861666666667002,0.17946666666667002,0.17235,0.15896666666667,0.14025,0.1422,5
COM4,509,26-Apr-19,2019-04-26 01:00:00,0.24301666666667004,0.20596666666667005,0.18585,0.17628333333332996,0.16408333333333,0.14751666666667002,0.14783333333332999,5
COM4,509,26-Apr-19,2019-04-26 02:00:00,0.2375,0.19153333333332997,0.17283333333332998,0.16656666666667003,0.15275,0.13613333333333,0.13786666666667002,5
COM4,509,26-Apr-19,2019-04-26 03:00:00,0.44195,0.28411666666667,0.23983333333332996,0.21905,0.19841666666667004,0.16826666666667003,0.16865,5
COM4,509,26-Apr-19,2019-04-26 04:00:00,0.5619666666666701,0.3405,0.28071666666667,0.25353333333332995,0.22545,0.18535,0.18723333333332998,5
COM4,509,26-Apr-19,2019-04-26 05:00:00,0.6743,0.3781,0.30271666666667,0.2679,0.23471666666667004,0.18845,0.18841666666667004,5
COM4,509,26-Apr-19,2019-04-26 06:00:00,0.7073,0.4267,0.34933333333333,0.31258333333333,0.27858333333333,0.23141666666667005,0.23371666666667004,5
COM4,509,26-Apr-19,2019-04-26 07:00:00,0.61451666666667,0.41746666666667,0.35311666666667,0.3276,0.29698333333333,0.2569,0.26068333333333,5
COM4,509,26-Apr-19,2019-04-26 08:00:00,0.34695,0.26003333333332995,0.22953333333332998,0.21841666666667003,0.20125,0.1799,0.18263333333332996,5
COM4,509,26-Apr-19,2019-04-26 09:00:00,0.2822,0.23203333333332996,0.20831666666667004,0.2004,0.18806666666667002,0.17073333333332996,0.17451666666667004,5
COM4,509,26-Apr-19,2019-04-26 10:00:00,0.23243333333332997,0.20178333333332996,0.18813333333332996,0.18205,0.17378333333332996,0.15875,0.16256666666667002,5
COM4,509,26-Apr-19,2019-04-26 11:00:00,0.1923,0.17311666666667003,0.16245,0.15771666666667,0.15498333333332998,0.14063333333332997,0.14735,5
COM4,509,26-Apr-19,2019-04-26 12:00:00,0.17328333333332996,0.16705,0.16411666666667002,0.1622,0.15803333333333,0.1492,0.1545,5
COM4,509,26-Apr-19,2019-04-26 13:00:00,0.16973333333332996,0.1642,0.15955,0.15678333333333,0.1556,0.14435,0.1513,5
COM4,509,26-Apr-19,2019-04-26 14:00:00,0.2006,0.19556666666667002,0.18363333333332996,0.1798,0.17168333333332997,0.15708333333333,0.16026666666667003,5
COM4,509,26-Apr-19,2019-04-26 15:00:00,0.19263333333332996,0.19126666666667003,0.17588333333332998,0.17131666666667003,0.16201666666667,0.1498,0.15115,5
COM4,509,26-Apr-19,2019-04-26 16:00:00,0.1992,0.1916,0.17223333333332996,0.16413333333333,0.15276666666667002,0.12996666666667,0.13093333333333002,5
COM4,509,26-Apr-19,2019-04-26 17:00:00,0.23273333333332996,0.20036666666667002,0.17465,0.16255,0.1438,0.12046666666667,0.12105,5
COM4,509,26-Apr-19,2019-04-26 18:00:00,0.20303333333332996,0.166,0.14056666666667,0.13058333333333,0.11755,0.096633333333333,0.096016666666667,5
COM4,509,26-Apr-19,2019-04-26 19:00:00,0.13666666666667,0.12673333333333,0.1067,0.10036666666666999,0.08776666666666702,0.0749,0.07411666666666701,5
COM4,509,26-Apr-19,2019-04-26 20:00:00,0.11615,0.10211666666666999,0.08635,0.081583333333333,0.074383333333333,0.062883333333333,0.063116666666667,5
COM4,509,26-Apr-19,2019-04-26 21:00:00,0.1064,0.09300000000000001,0.083833333333333,0.07543333333333299,0.06963333333333299,0.0556,0.0581,5
COM4,509,26-Apr-19,2019-04-26 22:00:00,0.12223333333333,0.10555,0.091,0.0855,0.077366666666667,0.06295,0.064283333333333,5
COM4,509,26-Apr-19,2019-04-26 23:00:00,0.13491525423728998,0.11706779661017001,0.10238983050846999,0.09152542372881402,0.08552542372881401,0.069762711864407,0.070813559322034,5
