COM4,509,25-Sep-18,2018-09-25 00:00:00,0.19855932203389998,0.15837288135593,0.134,0.12123728813559,0.11254237288136,0.10964406779661,0.1121186440678,4.9
COM4,509,25-Sep-18,2018-09-25 01:00:00,0.21095,0.16753333333332998,0.14066666666667002,0.12563333333333002,0.11543333333333,0.1004,0.10163333333333001,4.9
COM4,509,25-Sep-18,2018-09-25 02:00:00,0.23716666666667002,0.19088333333332996,0.16528333333332998,0.15246666666667003,0.1419,0.1346,0.1379,4.9
COM4,509,25-Sep-18,2018-09-25 03:00:00,0.2297,0.19658333333332997,0.1728,0.16213333333333,0.15208333333333,0.13258333333333,0.1351,4.9
COM4,509,25-Sep-18,2018-09-25 04:00:00,0.25668333333333,0.22031666666667002,0.20008333333332998,0.18908333333332997,0.17861666666667003,0.16798333333332996,0.17031666666667003,4.9
COM4,509,25-Sep-18,2018-09-25 05:00:00,0.24475,0.21535,0.19581666666667003,0.18688333333332996,0.17515,0.16348333333332998,0.16773333333333,4.9
COM4,509,25-Sep-18,2018-09-25 06:00:00,0.42893333333333,0.38558333333333,0.35106666666666997,0.34083333333333,0.32353333333333,0.30563333333333,0.31421666666667,4.9
COM4,509,25-Sep-18,2018-09-25 07:00:00,0.42368333333333,0.38503333333333,0.35191666666667,0.33728333333333,0.32383333333333003,0.3089,0.3172,4.9
COM4,509,25-Sep-18,2018-09-25 08:00:00,0.30096666666667,0.27448333333332997,0.25255,0.24071666666667002,0.23195,0.21473333333332997,0.22078333333332997,4.9
COM4,509,25-Sep-18,2018-09-25 09:00:00,0.22763333333332997,0.1925,0.17675,0.16511666666667002,0.15526666666667002,0.13573333333333001,0.1411,4.9
COM4,509,25-Sep-18,2018-09-25 10:00:00,0.2116,0.1834,0.16411666666667002,0.15421666666667003,0.14783333333332999,0.13123333333333,0.13478333333333,4.9
COM4,509,25-Sep-18,2018-09-25 11:00:00,0.18473333333332997,0.14931666666667,0.13606666666667,0.1255,0.12213333333333,0.10888333333333,0.1157,4.8966666666667
COM4,509,25-Sep-18,2018-09-25 12:00:00,1.0708,0.85423333333333,0.7495166666666699,0.69113333333333,0.6477333333333299,0.5796166666666701,0.59555,4.82
COM4,509,25-Sep-18,2018-09-25 13:00:00,0.12171666666667,0.08663333333333298,0.0769,0.070233333333333,0.066916666666667,0.046383333333333006,0.051516666666666995,4.8
COM4,509,25-Sep-18,2018-09-25 14:00:00,0.10065,0.08145,0.07011666666666701,0.06435,0.059216666666666994,0.04876666666666699,0.050166666666667,4.8
COM4,509,25-Sep-18,2018-09-25 15:00:00,0.12438333333333,0.10571666666667,0.0943,0.08536666666666702,0.082116666666667,0.08006666666666701,0.08105,4.8
COM4,509,25-Sep-18,2018-09-25 16:00:00,0.12071666666667,0.08771666666666701,0.07895,0.07493333333333299,0.06851666666666699,0.05675,0.062083333333333005,4.49
COM4,509,25-Sep-18,2018-09-25 17:00:00,0.22961666666667002,0.17873333333332997,0.16891666666667005,0.16761666666667002,0.1613,0.16323333333332998,0.1684,5.0
COM4,509,25-Sep-18,2018-09-25 18:00:00,1.1114166666667,0.79173333333333,0.701,0.64276666666667,0.59365,0.55385,0.5661833333333299,5.0
COM4,509,25-Sep-18,2018-09-25 19:00:00,0.32603333333333,0.35098333333333,0.3306,0.32345,0.30496666666667,0.28333333333333,0.28808333333333,5.0
COM4,509,25-Sep-18,2018-09-25 20:00:00,0.31726666666666997,0.31316666666667,0.29408333333333003,0.28961666666667,0.27763333333333,0.27291666666667,0.28023333333333,5.0
COM4,509,25-Sep-18,2018-09-25 21:00:00,0.2594,0.25776666666667003,0.24236666666667003,0.23876666666667004,0.2295,0.22293333333332996,0.2292,5.0
COM4,509,25-Sep-18,2018-09-25 22:00:00,0.49456666666667,0.41213333333333,0.35115,0.319,0.29435,0.27958333333333,0.28635,5.0
COM4,509,25-Sep-18,2018-09-25 23:00:00,0.3508,0.32,0.28723333333333,0.27346666666667,0.25701666666667006,0.24353333333332997,0.2506,5.0
