COM4,0509,13-Feb-19,2019-02-13 00:00:00,7.8469122807018,5.2019473684211,4.3168070175439,3.818350877193,3.3687368421053,2.6490350877193,2.2955614035088,4.8,0,0,0,0,0,0,0,0,0,0,0,0,0,0,0,0,0,0,0,0,0,0,0,0,0,0,0,0,0,0,0,0,0,0,0,0,0,0,0,0,0,0
COM4,0509,13-Feb-19,2019-02-13 01:00:00,5.3931551724138,3.767,3.2205689655172,2.9614310344828,2.6440517241379,2.2540517241379,2.0251206896552,4.5068965517241,0,0,0,0,0,0,0,0,0,0,0,0,0,0,0,0,0,0,0,0,0,0,0,0,0,0,0,0,0,0,0,0,0,0,0,0,0,0,0,0,0,0
COM4,0509,13-Feb-19,2019-02-13 02:00:00,1.4416949152542,1.2244576271186,1.1333220338983,1.1020508474576,1.0513898305085,0.99527118644068,1.0212711864407,5,0,0,0,0,0,0,0,0,0,0,0,0,0,0,0,0,0,0,0,0,0,0,0,0,0,0,0,0,0,0,0,0,0,0,0,0,0,0,0,0,0,0
COM4,0509,13-Feb-19,2019-02-13 03:00:00,1.186406779661,1.0461525423729,0.96532203389831,0.93664406779661,0.89415254237288,0.84930508474576,0.86928813559322,5,0,0,0,0,0,0,0,0,0,0,0,0,0,0,0,0,0,0,0,0,0,0,0,0,0,0,0,0,0,0,0,0,0,0,0,0,0,0,0,0,0,0
COM4,0509,13-Feb-19,2019-02-13 04:00:00,0.18051666666667,0.17863333333333,0.16351666666667,0.15793333333333,0.14953333333333,0.14631666666667,0.1502,5,0,0,0,0,0,0,0,0,0,0,0,0,0,0,0,0,0,0,0,0,0,0,0,0,0,0,0,0,0,0,0,0,0,0,0,0,0,0,0,0,0,0
COM4,0509,13-Feb-19,2019-02-13 05:00:00,0.36462711864407,0.35420338983051,0.33010169491525,0.32076271186441,0.30515254237288,0.29238983050847,0.29913559322034,5,0,0,0,0,0,0,0,0,0,0,0,0,0,0,0,0,0,0,0,0,0,0,0,0,0,0,0,0,0,0,0,0,0,0,0,0,0,0,0,0,0,0
COM4,0509,13-Feb-19,2019-02-13 06:00:00,0.42610344827586,0.4171724137931,0.39231034482759,0.38374137931034,0.36722413793103,0.3535,0.36113793103448,5,0,0,0,0,0,0,0,0,0,0,0,0,0,0,0,0,0,0,0,0,0,0,0,0,0,0,0,0,0,0,0,0,0,0,0,0,0,0,0,0,0,0
COM4,0509,13-Feb-19,2019-02-13 07:00:00,0.23679661016949,0.23925423728814,0.22616949152542,0.22281355932203,0.21579661016949,0.21623728813559,0.22332203389831,5,0,0,0,0,0,0,0,0,0,0,0,0,0,0,0,0,0,0,0,0,0,0,0,0,0,0,0,0,0,0,0,0,0,0,0,0,0,0,0,0,0,0
COM4,0509,13-Feb-19,2019-02-13 08:00:00,0.034175438596491,0.073421052631579,0.074543859649123,0.07740350877193,0.080719298245614,0.098245614035088,0.10359649122807,5,0,0,0,0,0,0,0,0,0,0,0,0,0,0,0,0,0,0,0,0,0,0,0,0,0,0,0,0,0,0,0,0,0,0,0,0,0,0,0,0,0,0
COM4,0509,13-Feb-19,2019-02-13 09:00:00,0.031120689655172,0.061706896551724,0.063293103448276,0.06901724137931,0.069086206896552,0.077448275862069,0.080396551724138,5,0,0,0,0,0,0,0,0,0,0,0,0,0,0,0,0,0,0,0,0,0,0,0,0,0,0,0,0,0,0,0,0,0,0,0,0,0,0,0,0,0,0
COM4,0509,13-Feb-19,2019-02-13 10:00:00,0.091083333333333,0.10461666666667,0.0997,0.097766666666667,0.09525,0.092716666666667,0.094166666666667,5,0,0,0,0,0,0,0,0,0,0,0,0,0,0,0,0,0,0,0,0,0,0,0,0,0,0,0,0,0,0,0,0,0,0,0,0,0,0,0,0,0,0
COM4,0509,13-Feb-19,2019-02-13 11:00:00,0.32524561403509,0.26694736842105,0.20622807017544,0.1689298245614,0.14494736842105,0.13691228070175,0.13961403508772,5,0,0,0,0,0,0,0,0,0,0,0,0,0,0,0,0,0,0,0,0,0,0,0,0,0,0,0,0,0,0,0,0,0,0,0,0,0,0,0,0,0,0
COM4,0509,13-Feb-19,2019-02-13 12:00:00,0.1979298245614,0.18877192982456,0.16871929824561,0.15914035087719,0.147,0.13624561403509,0.14182456140351,5,0,0,0,0,0,0,0,0,0,0,0,0,0,0,0,0,0,0,0,0,0,0,0,0,0,0,0,0,0,0,0,0,0,0,0,0,0,0,0,0,0,0
COM4,0509,13-Feb-19,2019-02-13 13:00:00,0.25635593220339,0.21432203389831,0.17027118644068,0.14323728813559,0.12661016949153,0.1161186440678,0.11830508474576,5,0,0,0,0,0,0,0,0,0,0,0,0,0,0,0,0,0,0,0,0,0,0,0,0,0,0,0,0,0,0,0,0,0,0,0,0,0,0,0,0,0,0
COM4,0509,13-Feb-19,2019-02-13 14:00:00,0.25952542372881,0.22094915254237,0.17974576271186,0.15542372881356,0.13950847457627,0.12718644067797,0.13042372881356,5,0,0,0,0,0,0,0,0,0,0,0,0,0,0,0,0,0,0,0,0,0,0,0,0,0,0,0,0,0,0,0,0,0,0,0,0,0,0,0,0,0,0
COM4,0509,13-Feb-19,2019-02-13 15:00:00,0.20127118644068,0.19467796610169,0.17679661016949,0.16877966101695,0.15959322033898,0.14927118644068,0.15383050847458,5,0,0,0,0,0,0,0,0,0,0,0,0,0,0,0,0,0,0,0,0,0,0,0,0,0,0,0,0,0,0,0,0,0,0,0,0,0,0,0,0,0,0
COM4,0509,13-Feb-19,2019-02-13 16:00:00,0.33280701754386,0.31410526315789,0.28184210526316,0.26670175438596,0.25166666666667,0.23414035087719,0.23912280701754,5,0,0,0,0,0,0,0,0,0,0,0,0,0,0,0,0,0,0,0,0,0,0,0,0,0,0,0,0,0,0,0,0,0,0,0,0,0,0,0,0,0,0
COM4,0509,13-Feb-19,2019-02-13 17:00:00,0.63901754385965,0.52742105263158,0.42171929824561,0.36040350877193,0.32552631578947,0.29480701754386,0.30501754385965,5,0,0,0,0,0,0,0,0,0,0,0,0,0,0,0,0,0,0,0,0,0,0,0,0,0,0,0,0,0,0,0,0,0,0,0,0,0,0,0,0,0,0
COM4,0509,13-Feb-19,2019-02-13 18:00:00,0.32608474576271,0.30583050847458,0.27408474576271,0.25947457627119,0.24627118644068,0.22727118644068,0.23206779661017,5,0,0,0,0,0,0,0,0,0,0,0,0,0,0,0,0,0,0,0,0,0,0,0,0,0,0,0,0,0,0,0,0,0,0,0,0,0,0,0,0,0,0
COM4,0509,13-Feb-19,2019-02-13 19:00:00,0.18471428571429,0.17778571428571,0.16451785714286,0.15985714285714,0.15171428571429,0.13442857142857,0.13728571428571,5,0,0,0,0,0,0,0,0,0,0,0,0,0,0,0,0,0,0,0,0,0,0,0,0,0,0,0,0,0,0,0,0,0,0,0,0,0,0,0,0,0,0
COM4,0509,13-Feb-19,2019-02-13 20:00:00,0.090440677966102,0.097254237288136,0.093966101694915,0.093508474576271,0.089474576271186,0.081389830508475,0.082813559322034,5,0,0,0,0,0,0,0,0,0,0,0,0,0,0,0,0,0,0,0,0,0,0,0,0,0,0,0,0,0,0,0,0,0,0,0,0,0,0,0,0,0,0
COM4,0509,13-Feb-19,2019-02-13 21:00:00,0.10810169491525,0.10983050847458,0.10318644067797,0.10154237288136,0.096186440677966,0.086881355932203,0.089050847457627,5,0,0,0,0,0,0,0,0,0,0,0,0,0,0,0,0,0,0,0,0,0,0,0,0,0,0,0,0,0,0,0,0,0,0,0,0,0,0,0,0,0,0
COM4,0509,13-Feb-19,2019-02-13 22:00:00,0.058283333333333,0.056716666666667,0.0524,0.051066666666667,0.0472,0.04195,0.043166666666667,5,0,0,0,0,0,0,0,0,0,0,0,0,0,0,0,0,0,0,0,0,0,0,0,0,0,0,0,0,0,0,0,0,0,0,0,0,0,0,0,0,0,0
COM4,0509,13-Feb-19,2019-02-13 23:00:00,0.0539,0.053416666666667,0.048716666666667,0.046383333333333,0.0439,0.039583333333333,0.0405,5,0,0,0,0,0,0,0,0,0,0,0,0,0,0,0,0,0,0,0,0,0,0,0,0,0,0,0,0,0,0,0,0,0,0,0,0,0,0,0,0,0,0
