COM4,509,16-Sep-19,2019-09-16 00:00:00,0.20648333333332997,0.20013333333332997,0.18863333333332996,0.18778333333332997,0.18066666666667003,0.17465,0.17813333333332998,5
COM4,509,16-Sep-19,2019-09-16 01:00:00,0.18538333333332996,0.17915,0.16838333333332997,0.16801666666667003,0.16153333333332998,0.15586666666667,0.15868333333332998,5
COM4,509,16-Sep-19,2019-09-16 02:00:00,0.16905,0.16113333333333,0.15166666666667,0.15053333333333,0.145,0.13763333333333,0.14071666666667001,5
COM4,509,16-Sep-19,2019-09-16 03:00:00,0.16805,0.15911666666667001,0.14936666666667,0.14851666666667002,0.1421,0.13666666666667,0.13936666666667002,5
COM4,509,16-Sep-19,2019-09-16 04:00:00,0.15298333333332997,0.14455,0.13526666666667,0.13496666666666998,0.12938333333333,0.12436666666667,0.12688333333333002,5
COM4,509,16-Sep-19,2019-09-16 05:00:00,0.15375,0.1468,0.13835,0.1379,0.13216666666666999,0.12721666666667,0.13038333333333,5
COM4,509,16-Sep-19,2019-09-16 06:00:00,0.19366666666667004,0.18886666666667004,0.17883333333332996,0.17718333333332997,0.17193333333332997,0.16613333333333,0.17083333333332998,5
COM4,509,16-Sep-19,2019-09-16 07:00:00,0.3133,0.31585,0.3015,0.303,0.29483333333333,0.29093333333333,0.29965,5
COM4,509,16-Sep-19,2019-09-16 08:00:00,0.431,0.44606666666667,0.42995,0.43365,0.42323333333333,0.42298333333333,0.4347,5
COM4,509,16-Sep-19,2019-09-16 09:00:00,0.43183333333333,0.44915,0.43676666666666997,0.44313333333333,0.43735,0.43683333333333,0.45201666666667,5
COM4,509,16-Sep-19,2019-09-16 10:00:00,0.27681666666667,0.29543333333333,0.29218333333333,0.29693333333333,0.29453333333333,0.29353333333333,0.30466666666666997,5
COM4,509,16-Sep-19,2019-09-16 11:00:00,0.16765,0.18421666666667003,0.18265,0.18988333333332996,0.19068333333332996,0.19401666666667003,0.20068333333332997,5
COM4,509,16-Sep-19,2019-09-16 12:00:00,0.1282,0.14281666666667,0.14335,0.1488,0.14793333333332997,0.15053333333333,0.15536666666667,5
COM4,509,16-Sep-19,2019-09-16 13:00:00,0.12611666666666999,0.13763333333333,0.13543333333333,0.1388,0.13795,0.13646666666666998,0.14066666666667002,5
COM4,509,16-Sep-19,2019-09-16 14:00:00,0.13373333333333,0.14323333333333,0.14086666666667003,0.14245,0.13993333333333,0.13886666666667002,0.14318333333333,5
COM4,509,16-Sep-19,2019-09-16 15:00:00,0.15731666666667002,0.15961666666667002,0.15145,0.15263333333332998,0.1477,0.14415,0.14883333333333,5
COM4,509,16-Sep-19,2019-09-16 16:00:00,0.16645,0.15938333333333,0.14995,0.14771666666667002,0.14365,0.13643333333333,0.14046666666667001,5
COM4,509,16-Sep-19,2019-09-16 17:00:00,0.12275,0.11913333333333001,0.1108,0.1103,0.10638333333333,0.10078333333333,0.10513333333333001,5
COM4,509,16-Sep-19,2019-09-16 18:00:00,0.17003333333332996,0.1388,0.12315,0.11633333333333,0.10885,0.0981,0.10085,5
COM4,509,16-Sep-19,2019-09-16 19:00:00,0.20926666666667004,0.16113333333333,0.14021666666667001,0.12921666666667,0.11953333333333001,0.10595,0.11011666666667,5
COM4,509,16-Sep-19,2019-09-16 20:00:00,0.20451666666667004,0.15541666666667,0.1349,0.12598333333333,0.11548333333333001,0.102,0.10528333333333001,5
COM4,509,16-Sep-19,2019-09-16 21:00:00,0.1474,0.11546666666666999,0.10286666666666999,0.095583333333333,0.09031666666666699,0.08073333333333299,0.08433333333333298,5
COM4,509,16-Sep-19,2019-09-16 22:00:00,0.0894,0.079966666666667,0.071016666666667,0.0694,0.064633333333333,0.059216666666666994,0.060366666666667,5
COM4,509,16-Sep-19,2019-09-16 23:00:00,0.073316666666667,0.06533333333333301,0.05995,0.05745,0.055083333333333005,0.05025,0.053466666666666995,5
