COM4,509,26-Dec-19,2019-12-26 00:00:00,0.5896333333333299,0.52941666666667,0.48183333333333,0.46195,0.43288333333333,0.39123333333333,0.39886666666667,5
COM4,509,26-Dec-19,2019-12-26 01:00:00,0.53726666666667,0.47246666666667,0.43188333333333,0.41593333333333,0.39098333333333,0.35165,0.35863333333333003,5
COM4,509,26-Dec-19,2019-12-26 02:00:00,0.44245,0.40188333333333,0.36816666666667,0.35363333333333,0.33226666666667,0.29945,0.30543333333333,5
COM4,509,26-Dec-19,2019-12-26 03:00:00,0.49941666666667,0.43613333333333,0.3985,0.38295,0.35985,0.3216,0.32801666666667,5
COM4,509,26-Dec-19,2019-12-26 04:00:00,0.46006666666667,0.39968333333333,0.36501666666667,0.35111666666667,0.3278,0.29256666666666997,0.29868333333333,5
COM4,509,26-Dec-19,2019-12-26 05:00:00,0.4836,0.40776666666667,0.36788333333333,0.35241666666667,0.32921666666667,0.29575,0.3014,5
COM4,509,26-Dec-19,2019-12-26 06:00:00,0.6442833333333299,0.5537666666666701,0.50413333333333,0.48436666666667,0.45771666666667,0.41258333333333,0.41971666666667,5
COM4,509,26-Dec-19,2019-12-26 07:00:00,0.72176666666667,0.6046833333333299,0.5469,0.52398333333333,0.49111666666667,0.44108333333333,0.45011666666667,5
COM4,509,26-Dec-19,2019-12-26 08:00:00,0.75816666666667,0.63976666666667,0.57985,0.55605,0.52256666666667,0.46798333333333003,0.47700000000000004,5
COM4,509,26-Dec-19,2019-12-26 09:00:00,1.0584833333333001,0.92565,0.84965,0.82648333333333,0.78123333333333,0.71395,0.7313,5
COM4,509,26-Dec-19,2019-12-26 10:00:00,0.66758333333333,0.58115,0.52753333333333,0.5064,0.47463333333333,0.42396666666667,0.43026666666667,5
COM4,509,26-Dec-19,2019-12-26 11:00:00,0.3077,0.2992,0.27871666666667,0.2689,0.25658333333332994,0.23293333333332997,0.23971666666667002,5
COM4,509,26-Dec-19,2019-12-26 12:00:00,0.18915,0.2045,0.1898,0.18818333333332996,0.17538333333332998,0.16061666666667002,0.1632,5
COM4,509,26-Dec-19,2019-12-26 13:00:00,0.33561666666667,0.32251666666667,0.2976,0.28745,0.27166666666667005,0.2447,0.24975,5
COM4,509,26-Dec-19,2019-12-26 14:00:00,0.35091666666667,0.3332,0.3066,0.29558333333333,0.27836666666667,0.24698333333332997,0.25261666666667004,5
COM4,509,26-Dec-19,2019-12-26 15:00:00,0.33736666666667,0.3138,0.28941666666667,0.27865,0.2624,0.23315,0.23805,5
COM4,509,26-Dec-19,2019-12-26 16:00:00,0.36111666666666997,0.3212,0.29308333333333003,0.28108333333333,0.26561666666667005,0.23548333333332996,0.24078333333332996,5
COM4,509,26-Dec-19,2019-12-26 17:00:00,0.54963333333333,0.47885,0.43658333333333,0.42038333333333,0.39546666666667,0.35483333333333,0.36143333333333,5
COM4,509,26-Dec-19,2019-12-26 18:00:00,0.92776666666667,0.74416666666667,0.67166666666667,0.6439,0.6033,0.53671666666667,0.54948333333333,5
COM4,509,26-Dec-19,2019-12-26 19:00:00,0.80435,0.6706666666666701,0.609,0.58765,0.55191666666667,0.4942,0.50138333333333,5
COM4,509,26-Dec-19,2019-12-26 20:00:00,0.55235,0.47946666666667,0.42965,0.40968333333333,0.38336666666667,0.33051666666667,0.3355,5
COM4,509,26-Dec-19,2019-12-26 21:00:00,0.5866666666666701,0.5118,0.46993333333333,0.44978333333333,0.42423333333333,0.38706666666667,0.39571666666667,5
COM4,509,26-Dec-19,2019-12-26 22:00:00,0.61118333333333,0.51376666666667,0.46826666666667,0.45255,0.42821666666667,0.3851,0.39263333333333,5
COM4,509,26-Dec-19,2019-12-26 23:00:00,0.27966666666667,0.27465,0.25691666666667,0.25456666666667005,0.24016666666667003,0.21978333333332997,0.22415,5
