COM4,509,06-Dec-19,2019-12-06 00:00:00,2.8349666666667,2.65385,2.4993,2.46075,2.3621166666667004,2.2398166666667003,2.3075166666667,5.0
COM4,509,06-Dec-19,2019-12-06 01:00:00,3.4684,3.1909166666667,2.9829333333332997,2.9128833333333,2.7802,2.6130833333332997,2.6943833333333,5.0
COM4,509,06-Dec-19,2019-12-06 02:00:00,2.8876333333332997,2.6858333333332998,2.50235,2.43365,2.3038333333332996,2.1164666666667,2.1740833333333,5.0
COM4,509,06-Dec-19,2019-12-06 03:00:00,3.3630333333333,3.0669333333332998,2.8396333333332997,2.7419833333333,2.5856,2.3537666666667003,2.4182666666667,5.0
COM4,509,06-Dec-19,2019-12-06 04:00:00,3.31285,3.0153833333332996,2.78085,2.6768,2.5115,2.2626833333332996,2.3213666666667003,5.0
COM4,509,06-Dec-19,2019-12-06 05:00:00,3.3824666666667,3.0323166666667003,2.79355,2.6791333333333,2.50895,2.2542333333333,2.3137166666667004,5.0
COM4,509,06-Dec-19,2019-12-06 06:00:00,3.8981,3.2796666666667003,2.97455,2.8175,2.62035,2.3245,2.3839166666667,5.0
COM4,509,06-Dec-19,2019-12-06 07:00:00,5.1264666666667,4.36545,3.94255,3.74525,3.4712333333333,3.09415,3.1751166666667,5.0
COM4,509,06-Dec-19,2019-12-06 08:00:00,2.7358666666667,2.4143333333332997,2.22395,2.1292,2.006,1.821,1.8769833333333001,4.6666666666667
COM4,509,06-Dec-19,2019-12-06 09:00:00,1.7012833333333,1.6136333333333,1.5495,1.55435,1.5191666666666999,1.4930166666667,1.5369833333333,5.0
COM4,509,06-Dec-19,2019-12-06 10:00:00,1.5736166666667,1.5892666666667,1.5435333333333001,1.5648333333333,1.5452166666667,1.5518666666667,1.6037,5.0
COM4,509,06-Dec-19,2019-12-06 11:00:00,1.8558666666666999,1.9609166666667,1.91125,1.9401333333333,1.9197166666667,1.93775,2.005,5.0
COM4,509,06-Dec-19,2019-12-06 12:00:00,2.0559333333333,2.17645,2.1211833333333,2.1529666666667,2.1275833333333,2.1425,2.2160833333333,5.0
COM4,509,06-Dec-19,2019-12-06 13:00:00,1.8864833333333,1.9620333333333,1.9151333333333,1.9440333333333,1.9187166666667,1.9240000000000002,1.9903333333333,5.0
COM4,509,06-Dec-19,2019-12-06 14:00:00,1.3912,1.4083,1.3722333333333,1.3883,1.3702166666667,1.3659166666667,1.41275,5.0
COM4,509,06-Dec-19,2019-12-06 15:00:00,1.4929,1.4940666666667,1.4513833333333002,1.4647333333333001,1.4371,1.4179333333333,1.46555,5.0
COM4,509,06-Dec-19,2019-12-06 16:00:00,2.0879833333333,2.131,2.0772166666667,2.1000333333333,2.0638166666667,2.0429666666667,2.1132833333333,5.0
COM4,509,06-Dec-19,2019-12-06 17:00:00,3.1781666666667,3.2523166666667,3.16325,3.1938833333332997,3.1274833333333,3.08135,3.1823166666667,5.0
COM4,509,06-Dec-19,2019-12-06 18:00:00,1.3551833333333,1.3738166666667,1.3300333333333,1.3348666666667,1.3003166666666999,1.2567833333333,1.2966666666667,5.0
COM4,509,06-Dec-19,2019-12-06 19:00:00,1.0499333333333,1.06505,1.0268666666667,1.0252833333333,0.98996666666667,0.94091666666667,0.96683333333333,5.0
COM4,509,06-Dec-19,2019-12-06 20:00:00,1.2774666666666998,1.2875166666667,1.2329833333333,1.2267333333333001,1.1782833333333,1.1160666666666998,1.1444833333333,5.0
COM4,509,06-Dec-19,2019-12-06 21:00:00,1.14195,1.1531,1.1021333333333,1.0922833333333,1.0451333333333002,0.97658333333333,1.0007166666667,5.0
COM4,509,06-Dec-19,2019-12-06 22:00:00,1.0246666666667,1.0193333333333001,0.96938333333333,0.95385,0.90861666666667,0.83458333333333,0.85365,5.0
COM4,509,06-Dec-19,2019-12-06 23:00:00,1.0171333333333001,0.97393333333333,0.91205,0.89131666666667,0.83846666666667,0.75886666666667,0.77503333333333,5.0
