COM4,509,05-Dec-19,2019-12-05 00:00:00,0.5127,0.48068333333333,0.46205,0.46481666666667,0.45435,0.44946666666667,0.4628,5
COM4,509,05-Dec-19,2019-12-05 01:00:00,0.48503333333333,0.5092,0.48918333333333003,0.49163333333333,0.4821,0.47578333333333,0.48971666666667,5
COM4,509,05-Dec-19,2019-12-05 02:00:00,0.41611666666667,0.457,0.43883333333333,0.44028333333333003,0.43016666666667,0.42365,0.43655,5
COM4,509,05-Dec-19,2019-12-05 03:00:00,0.41191666666667,0.45085,0.43413333333333,0.43645,0.42781666666667,0.42243333333333,0.4359,5
COM4,509,05-Dec-19,2019-12-05 04:00:00,0.46898333333333003,0.49368333333333003,0.47525,0.47781666666667,0.4679,0.46486666666667,0.47908333333333003,5
COM4,509,05-Dec-19,2019-12-05 05:00:00,0.41931666666667,0.44591666666667,0.43241666666667,0.43573333333333003,0.4304,0.42921666666667,0.44343333333333,5
COM4,509,05-Dec-19,2019-12-05 06:00:00,0.48386666666667,0.49965,0.48253333333333,0.48728333333333,0.47901666666667,0.47876666666667,0.4951,5
COM4,509,05-Dec-19,2019-12-05 07:00:00,0.98568333333333,0.97763333333333,0.93675,0.93938333333333,0.91855,0.9088,0.93806666666667,5
COM4,509,05-Dec-19,2019-12-05 08:00:00,0.7011,0.6919,0.6640333333333299,0.6633,0.64735,0.6392666666666701,0.66015,5
COM4,509,05-Dec-19,2019-12-05 09:00:00,0.6504666666666701,0.64571666666667,0.6205,0.62113333333333,0.60733333333333,0.6004833333333299,0.61965,5
COM4,509,05-Dec-19,2019-12-05 10:00:00,0.6438,0.65175,0.62865,0.63358333333333,0.6223666666666701,0.6208666666666701,0.64081666666667,5
COM4,509,05-Dec-19,2019-12-05 11:00:00,0.77355,0.78038333333333,0.7556,0.76098333333333,0.7472,0.7418,0.7664,5
COM4,509,05-Dec-19,2019-12-05 12:00:00,1.1167166666666999,1.0178333333333,0.9659,0.9626,0.93803333333333,0.92896666666667,0.95828333333333,5
COM4,509,05-Dec-19,2019-12-05 13:00:00,0.90873333333333,0.89831666666667,0.86571666666667,0.87253333333333,0.85551666666667,0.84591666666667,0.87413333333333,5
COM4,509,05-Dec-19,2019-12-05 14:00:00,1.0241,1.0483,1.0207333333333,1.0338833333333,1.0199166666667,1.0209833333333,1.0556666666666998,5
COM4,509,05-Dec-19,2019-12-05 15:00:00,1.2964666666667,1.31645,1.2765333333333,1.2886333333333,1.2668666666667,1.2571666666666999,1.3000666666667,5
COM4,509,05-Dec-19,2019-12-05 16:00:00,1.4411166666667,1.4710333333333,1.4301166666667,1.4467333333333001,1.4224166666667,1.41605,1.4642166666667,5
COM4,509,05-Dec-19,2019-12-05 17:00:00,1.4315,1.4505333333333001,1.40825,1.4234333333333,1.3971166666666999,1.3847,1.4318,5
COM4,509,05-Dec-19,2019-12-05 18:00:00,1.5372333333333001,1.5707833333333001,1.5279333333333,1.5430333333333,1.5185333333333,1.5079,1.5603,5
COM4,509,05-Dec-19,2019-12-05 19:00:00,1.7297833333333001,1.7634833333333,1.7122833333333,1.73035,1.7012,1.6916,1.75105,5
COM4,509,05-Dec-19,2019-12-05 20:00:00,2.6515333333332998,2.50695,2.3900833333333,2.3862333333333,2.3219333333332997,2.2754666666667003,2.3495,5
COM4,509,05-Dec-19,2019-12-05 21:00:00,2.42715,2.4006666666667003,2.3069666666667,2.3109666666667,2.2577666666667002,2.2187833333333,2.2959833333332997,5
COM4,509,05-Dec-19,2019-12-05 22:00:00,3.286,3.0997166666667004,2.9379666666667004,2.91805,2.8280166666667004,2.74985,2.8424,5
COM4,509,05-Dec-19,2019-12-05 23:00:00,2.4778,2.37795,2.2623,2.237,2.1624666666667,2.0616833333333,2.1268166666667,5
