COM4,509,10-Jul-19,2019-07-10 00:00:00,0.2323,0.21611666666667004,0.20465,0.2012,0.19376666666667003,0.18241666666667003,0.18721666666667003,5
COM4,509,10-Jul-19,2019-07-10 01:00:00,0.1748,0.16276666666667,0.15325,0.15226666666667002,0.1451,0.13651666666667,0.1404,5
COM4,509,10-Jul-19,2019-07-10 02:00:00,0.14996666666667002,0.14151666666667,0.13301666666667,0.13156666666667,0.12631666666667,0.11853333333333001,0.12113333333333001,5
COM4,509,10-Jul-19,2019-07-10 03:00:00,0.12856666666667,0.12085,0.11421666666666999,0.11291666666667,0.10818333333333001,0.10143333333333,0.10391666666666999,5
COM4,509,10-Jul-19,2019-07-10 04:00:00,0.12246666666667,0.11561666666666999,0.10863333333333,0.10765,0.10275,0.096016666666667,0.0983,5
COM4,509,10-Jul-19,2019-07-10 05:00:00,0.14323333333333,0.1313,0.12271666666667,0.12056666666667,0.11576666666667,0.1084,0.11148333333333,5
COM4,509,10-Jul-19,2019-07-10 06:00:00,0.18991666666667004,0.18056666666667004,0.17061666666667002,0.16981666666667003,0.16363333333333,0.15683333333333,0.16108333333333,5
COM4,509,10-Jul-19,2019-07-10 07:00:00,0.20645,0.20311666666667003,0.19485,0.195,0.18921666666667003,0.18333333333332996,0.18801666666667002,5
COM4,509,10-Jul-19,2019-07-10 08:00:00,0.24065,0.23915,0.23106666666667003,0.2325,0.22783333333332997,0.22093333333332996,0.22813333333332997,5
COM4,509,10-Jul-19,2019-07-10 09:00:00,0.21415,0.2205,0.21741666666667003,0.21968333333332996,0.21703333333332997,0.21408333333332996,0.22243333333332996,5
COM4,509,10-Jul-19,2019-07-10 10:00:00,0.17853333333332996,0.19981666666667003,0.20001666666667003,0.20581666666667003,0.20778333333332996,0.21251666666667005,0.22091666666667004,5
COM4,509,10-Jul-19,2019-07-10 11:00:00,0.14103333333332999,0.16636666666667002,0.16865,0.17688333333332998,0.1792,0.18785,0.19453333333332998,5
COM4,509,10-Jul-19,2019-07-10 12:00:00,0.12008333333333,0.1424,0.14445,0.15165,0.15408333333333,0.16313333333333,0.16991666666667002,5
COM4,509,10-Jul-19,2019-07-10 13:00:00,0.11231666666666999,0.13186666666667,0.13345,0.13796666666667,0.13958333333332998,0.14533333333332998,0.15058333333333,5
COM4,509,10-Jul-19,2019-07-10 14:00:00,0.09465,0.1125,0.11356666666667,0.1193,0.1197,0.12608333333333,0.1303,5
COM4,509,10-Jul-19,2019-07-10 15:00:00,0.10235,0.11498333333333001,0.11268333333333,0.11428333333333,0.11385,0.1137,0.1171,5
COM4,509,10-Jul-19,2019-07-10 16:00:00,0.13188333333333,0.1508,0.14851666666667002,0.15323333333332997,0.14948333333333,0.14506666666667,0.1494,5
COM4,509,10-Jul-19,2019-07-10 17:00:00,0.15085,0.16366666666667,0.159,0.1622,0.15868333333332998,0.1641,0.16671666666667,5
COM4,509,10-Jul-19,2019-07-10 18:00:00,0.10303333333333001,0.12531666666667,0.12315,0.1268,0.12466666666666999,0.12658333333333,0.12863333333333002,5
COM4,509,10-Jul-19,2019-07-10 19:00:00,0.14615,0.15236666666667,0.14378333333333,0.14515,0.13641666666667,0.13035,0.13215,5
COM4,509,10-Jul-19,2019-07-10 20:00:00,0.26838333333333,0.25423333333333,0.23851666666667004,0.23218333333332997,0.22228333333332997,0.20381666666667003,0.20863333333332998,5
COM4,509,10-Jul-19,2019-07-10 21:00:00,0.35131666666667,0.31255,0.29011666666667,0.27733333333333,0.26438333333333,0.23718333333332997,0.24476666666667002,5
COM4,509,10-Jul-19,2019-07-10 22:00:00,0.37036666666667,0.33341666666666997,0.31063333333333,0.29961666666667,0.28421666666667,0.25581666666667,0.26393333333332997,5
COM4,509,10-Jul-19,2019-07-10 23:00:00,0.37325423728814,0.34986440677965996,0.32696610169491996,0.31684745762711997,0.30196610169492,0.27440677966102,0.28111864406779996,5
