COM4,509,25-May-19,2019-05-25 00:00:00,0.11946666666667,0.10581666666667,0.09765,0.094833333333333,0.090266666666667,0.0839,0.08591666666666702,5
COM4,509,25-May-19,2019-05-25 01:00:00,0.1279,0.11103333333333,0.1025,0.099933333333333,0.095383333333333,0.090266666666667,0.09281666666666699,5
COM4,509,25-May-19,2019-05-25 02:00:00,0.11699999999999999,0.10093333333333,0.092083333333333,0.089066666666667,0.08385,0.0778,0.07925,5
COM4,509,25-May-19,2019-05-25 03:00:00,0.12713333333333002,0.1095,0.10005,0.0963,0.090366666666667,0.082866666666667,0.0857,5
COM4,509,25-May-19,2019-05-25 04:00:00,0.1401,0.12328333333333001,0.113,0.10915,0.1033,0.095666666666667,0.097883333333333,5
COM4,509,25-May-19,2019-05-25 05:00:00,0.12176666666666999,0.10963333333333,0.1,0.097133333333333,0.09165,0.086,0.08758333333333299,5
COM4,509,25-May-19,2019-05-25 06:00:00,0.1211,0.1076,0.099283333333333,0.09518333333333301,0.0904,0.0839,0.08653333333333299,5
COM4,509,25-May-19,2019-05-25 07:00:00,0.11783333333333,0.10058333333333,0.091933333333333,0.088183333333333,0.081833333333333,0.076716666666667,0.078,5
COM4,509,25-May-19,2019-05-25 08:00:00,0.10573333333333,0.0929,0.08486666666666702,0.0817,0.077816666666667,0.073133333333333,0.074416666666667,5
COM4,509,25-May-19,2019-05-25 09:00:00,0.098683333333333,0.09175,0.08653333333333299,0.08505,0.08113333333333299,0.075633333333333,0.0776,5
COM4,509,25-May-19,2019-05-25 10:00:00,0.09255,0.08975,0.08521666666666701,0.08405,0.080716666666667,0.07593333333333299,0.077433333333333,5
COM4,509,25-May-19,2019-05-25 11:00:00,0.09013333333333301,0.08638333333333298,0.08205,0.0821,0.078883333333333,0.07443333333333299,0.07643333333333299,5
COM4,509,25-May-19,2019-05-25 12:00:00,0.0925,0.08643333333333299,0.083666666666667,0.08255,0.0816,0.076116666666667,0.07906666666666701,5
COM4,509,25-May-19,2019-05-25 13:00:00,0.08115,0.077933333333333,0.075666666666667,0.075133333333333,0.074133333333333,0.06865,0.07245,5
COM4,509,25-May-19,2019-05-25 14:00:00,0.071983333333333,0.06938333333333299,0.06636666666666699,0.06546666666666699,0.06393333333333301,0.059583333333333,0.06185,5
COM4,509,25-May-19,2019-05-25 15:00:00,0.078616666666667,0.07668333333333299,0.071766666666667,0.071433333333333,0.0681,0.064333333333333,0.0655,5
COM4,509,25-May-19,2019-05-25 16:00:00,0.07715,0.076716666666667,0.072166666666667,0.07136666666666701,0.06826666666666699,0.064316666666667,0.06561666666666699,5
COM4,509,25-May-19,2019-05-25 17:00:00,0.07105,0.06953333333333299,0.06475,0.06471666666666699,0.06195,0.059266666666666995,0.060716666666666995,5
COM4,509,25-May-19,2019-05-25 18:00:00,0.10811666666667,0.10478333333333001,0.099883333333333,0.09883333333333301,0.095733333333333,0.090366666666667,0.0932,5
COM4,509,25-May-19,2019-05-25 19:00:00,0.13526666666667,0.13705,0.13065,0.12901666666667,0.12426666666667,0.11955,0.12253333333333001,5
COM4,509,25-May-19,2019-05-25 20:00:00,0.074883333333333,0.076366666666667,0.071983333333333,0.0721,0.068916666666667,0.067466666666667,0.068166666666667,5
COM4,509,25-May-19,2019-05-25 21:00:00,0.053916666666666994,0.05191666666666699,0.0488,0.04926666666666699,0.0462,0.045266666666666996,0.04611666666666699,5
COM4,509,25-May-19,2019-05-25 22:00:00,0.055183333333333,0.052083333333333,0.04855,0.046666666666666995,0.045333333333333004,0.043483333333333006,0.0442,5
COM4,509,25-May-19,2019-05-25 23:00:00,0.048633333333333,0.04636666666666699,0.043183333333333004,0.042816666666666996,0.040483333333332996,0.038916666666667,0.0386,5
