COM4,509,05-Jul-19,2019-07-05 00:00:00,0.2793,0.20818333333332997,0.18086666666667003,0.16348333333332998,0.1436,0.11585,0.11548333333333001,5
COM4,509,05-Jul-19,2019-07-05 01:00:00,0.24148333333332997,0.18685,0.1595,0.1468,0.12955,0.10236666666666999,0.10373333333333,5
COM4,509,05-Jul-19,2019-07-05 02:00:00,0.19645,0.15116666666667,0.13101666666667,0.11895,0.10505,0.082533333333333,0.0828,5
COM4,509,05-Jul-19,2019-07-05 03:00:00,0.1831,0.14285,0.12221666666667,0.11213333333333,0.098433333333333,0.077033333333333,0.07776666666666701,5
COM4,509,05-Jul-19,2019-07-05 04:00:00,0.16401666666667,0.12823333333333,0.11001666666667,0.10171666666667,0.08888333333333301,0.069916666666667,0.0705,5
COM4,509,05-Jul-19,2019-07-05 05:00:00,0.15791666666667,0.12126666666666999,0.10423333333333,0.09485,0.08443333333333299,0.066066666666667,0.0659,5
COM4,509,05-Jul-19,2019-07-05 06:00:00,0.17196666666667004,0.13696666666666998,0.12131666666667,0.11216666666667,0.10016666666667,0.08206666666666701,0.08246666666666701,5
COM4,509,05-Jul-19,2019-07-05 07:00:00,0.20211666666667003,0.16721666666667,0.15005,0.14123333333333,0.12781666666667,0.10641666666666999,0.10753333333333001,5
COM4,509,05-Jul-19,2019-07-05 08:00:00,0.18911666666667004,0.16586666666667002,0.15066666666667,0.14175,0.13026666666667,0.11051666666667,0.1104,5
COM4,509,05-Jul-19,2019-07-05 09:00:00,0.18883333333332997,0.16035,0.14653333333333,0.13966666666667002,0.13026666666667,0.11115,0.11426666666667,5
COM4,509,05-Jul-19,2019-07-05 10:00:00,0.17636666666667003,0.14248333333333,0.13488333333333,0.1288,0.12195,0.1031,0.10763333333333,5
COM4,509,05-Jul-19,2019-07-05 11:00:00,0.11735,0.10486666666667,0.09895,0.0949,0.09278333333333301,0.07981666666666701,0.08411666666666702,5
COM4,509,05-Jul-19,2019-07-05 12:00:00,0.07651666666666701,0.070433333333333,0.066983333333333,0.06543333333333301,0.06135,0.0521,0.053133333333333005,5
COM4,509,05-Jul-19,2019-07-05 13:00:00,0.059816666666667,0.05783333333333301,0.05305,0.051766666666666995,0.047266666666667,0.040033333333333,0.04105,5
COM4,509,05-Jul-19,2019-07-05 14:00:00,0.048616666666666995,0.049533333333333006,0.04405,0.041183333333333,0.039716666666667,0.03225,0.032683333333332995,5
COM4,509,05-Jul-19,2019-07-05 15:00:00,0.051133333333333,0.05035,0.045283333333333,0.043983333333333006,0.0393,0.033933333333332996,0.0342,5
COM4,509,05-Jul-19,2019-07-05 16:00:00,0.039933333333333,0.0402,0.035283333333333,0.03305,0.029433333333332996,0.023533333333332997,0.022783333333332996,5
COM4,509,05-Jul-19,2019-07-05 17:00:00,0.04085,0.045966666666666996,0.0399,0.03845,0.03308333333333299,0.03065,0.029366666666667006,5
COM4,509,05-Jul-19,2019-07-05 18:00:00,0.044783333333333,0.059233333333333006,0.050916666666667,0.0539,0.044783333333333,0.048583333333333006,0.04465,5
COM4,509,05-Jul-19,2019-07-05 19:00:00,0.05175,0.05928333333333301,0.052966666666666995,0.05335,0.0471,0.0422,0.03995,5
COM4,509,05-Jul-19,2019-07-05 20:00:00,0.16135,0.13906666666667,0.1237,0.11315,0.10318333333333,0.08415,0.08458333333333298,5
COM4,509,05-Jul-19,2019-07-05 21:00:00,0.47023333333333,0.34881666666667,0.29763333333333003,0.26741666666667,0.23386666666667003,0.17781666666667004,0.18056666666667004,5
COM4,509,05-Jul-19,2019-07-05 22:00:00,NaN,NaN,NaN,NaN,NaN,NaN,NaN,NaN
COM4,509,05-Jul-19,2019-07-05 23:00:00,NaN,NaN,NaN,NaN,NaN,NaN,NaN,NaN
