COM4,509,02-Jan-20,2020-01-02 00:00:00,-0.049566666666666995,-0.0237,-0.025816666666667005,-0.025383333333332994,-0.02485,-0.022566666666667005,-0.023,5
COM4,509,02-Jan-20,2020-01-02 01:00:00,0.00033333333333332996,0.0048,0.0027,0.00255,0.00066666666666667,0.00555,0.0073,5
COM4,509,02-Jan-20,2020-01-02 02:00:00,0.09785,0.099283333333333,0.093166666666667,0.094016666666667,0.09113333333333301,0.091966666666667,0.09525,5
COM4,509,02-Jan-20,2020-01-02 03:00:00,0.04605,0.04705,0.039533333333333,0.03615,0.032533333333333,0.029783333333332995,0.02965,5
COM4,509,02-Jan-20,2020-01-02 04:00:00,0.18781666666667002,0.1493,0.13466666666667,0.12925,0.12023333333333,0.10261666666666999,0.10385,5
COM4,509,02-Jan-20,2020-01-02 05:00:00,0.39213333333333,0.36548333333333,0.34593333333333,0.3422,0.33399999999999996,0.32,0.33098333333333,5
COM4,509,02-Jan-20,2020-01-02 06:00:00,0.30645,0.29546666666667,0.2759,0.2749,0.26265,0.25046666666667006,0.25775,5
COM4,509,02-Jan-20,2020-01-02 07:00:00,0.6247,0.56611666666667,0.52591666666667,0.5158,0.49985,0.48395,0.49596666666667,5
COM4,509,02-Jan-20,2020-01-02 08:00:00,0.71383333333333,0.66065,0.61725,0.6088666666666701,0.5897833333333299,0.5704833333333299,0.58803333333333,5
COM4,509,02-Jan-20,2020-01-02 09:00:00,0.77128333333333,0.75333333333333,0.71285,0.71281666666667,0.69556666666667,0.67723333333333,0.70051666666667,5
COM4,509,02-Jan-20,2020-01-02 10:00:00,0.6407333333333299,0.6620333333333299,0.6344666666666701,0.6378833333333299,0.62423333333333,0.60856666666667,0.6254,5
COM4,509,02-Jan-20,2020-01-02 11:00:00,0.040033333333333,0.089733333333333,0.089733333333333,0.089716666666667,0.089266666666667,0.09038333333333301,0.09275,5
COM4,509,02-Jan-20,2020-01-02 12:00:00,0.11433333333333001,0.1499,0.14738333333332998,0.1493,0.14623333333333,0.14435,0.14776666666667002,5
COM4,509,02-Jan-20,2020-01-02 13:00:00,0.09028333333333301,0.11856666666667,0.11775,0.1154,0.11571666666666999,0.1116,0.11658333333333,5
COM4,509,02-Jan-20,2020-01-02 14:00:00,0.08173333333333299,0.10613333333333,0.10493333333333,0.10585,0.10476666666666999,0.10013333333333001,0.10153333333333,5
COM4,509,02-Jan-20,2020-01-02 15:00:00,0.49408333333333,0.50768333333333,0.48713333333333003,0.48961666666667,0.47761666666667,0.45896666666667,0.47435,5
COM4,509,02-Jan-20,2020-01-02 16:00:00,0.47673333333333,0.44971666666667,0.4257,0.4224,0.41186666666667,0.38883333333333,0.3984,5
COM4,509,02-Jan-20,2020-01-02 17:00:00,0.6643333333333299,0.6210333333333299,0.5868,0.58446666666667,0.5654666666666701,0.53825,0.55091666666667,5
COM4,509,02-Jan-20,2020-01-02 18:00:00,1.0286833333333,0.97866666666667,0.92788333333333,0.92513333333333,0.89895,0.85998333333333,0.8826,5
COM4,509,02-Jan-20,2020-01-02 19:00:00,0.90166666666667,0.80388333333333,0.75596666666667,0.74645,0.72181666666667,0.67521666666667,0.69231666666667,5
COM4,509,02-Jan-20,2020-01-02 20:00:00,1.3159,1.0679,0.98843333333333,0.96783333333333,0.92636666666667,0.85443333333333,0.87088333333333,5
COM4,509,02-Jan-20,2020-01-02 21:00:00,1.1890666666667,1.0865666666667,1.028,1.0234833333333,0.99318333333333,0.94013333333333,0.96358333333333,5
COM4,509,02-Jan-20,2020-01-02 22:00:00,1.1347333333333,0.9753166666666699,0.90975,0.89338333333333,0.85826666666667,0.80368333333333,0.82161666666667,5
COM4,509,02-Jan-20,2020-01-02 23:00:00,1.4873833333333,1.2678333333333,1.1868166666667,1.1715,1.13655,1.0759166666667,1.1000833333333,5
