COM4,0509,25-Feb-19,2019-02-25 00:00:00,0.18320338983051,0.15162711864407,0.13618644067797,0.12872881355932,0.12322033898305,0.11215254237288,0.11279661016949,5,0,0,0,0,0,0,0,0,0,0,0,0,0,0,0,0,0,0,0,0,0,0,0,0,0,0,0,0,0,0,0,0,0,0,0,0,0,0,0,0,0,0
COM4,0509,25-Feb-19,2019-02-25 01:00:00,0.16430357142857,0.13973214285714,0.12994642857143,0.12185714285714,0.11582142857143,0.10521428571429,0.11017857142857,5,0,0,0,0,0,0,0,0,0,0,0,0,0,0,0,0,0,0,0,0,0,0,0,0,0,0,0,0,0,0,0,0,0,0,0,0,0,0,0,0,0,0
COM4,0509,25-Feb-19,2019-02-25 02:00:00,0.10662068965517,0.10568965517241,0.09748275862069,0.096275862068966,0.089827586206897,0.080948275862069,0.081844827586207,5,0,0,0,0,0,0,0,0,0,0,0,0,0,0,0,0,0,0,0,0,0,0,0,0,0,0,0,0,0,0,0,0,0,0,0,0,0,0,0,0,0,0
COM4,0509,25-Feb-19,2019-02-25 03:00:00,0.043465517241379,0.045051724137931,0.047586206896552,0.049120689655172,0.050862068965517,0.060879310344828,0.065655172413793,5,0,0,0,0,0,0,0,0,0,0,0,0,0,0,0,0,0,0,0,0,0,0,0,0,0,0,0,0,0,0,0,0,0,0,0,0,0,0,0,0,0,0
COM4,0509,25-Feb-19,2019-02-25 04:00:00,-0.08205,-0.052433333333333,-0.038566666666667,-0.03255,-0.025383333333333,-0.01245,-0.011566666666667,5,0,0,0,0,0,0,0,0,0,0,0,0,0,0,0,0,0,0,0,0,0,0,0,0,0,0,0,0,0,0,0,0,0,0,0,0,0,0,0,0,0,0
COM4,0509,25-Feb-19,2019-02-25 05:00:00,-0.051491525423729,-0.018677966101695,-0.0083559322033898,-0.0040677966101695,0.00044067796610169,0.0072542372881356,0.0065593220338983,5,0,0,0,0,0,0,0,0,0,0,0,0,0,0,0,0,0,0,0,0,0,0,0,0,0,0,0,0,0,0,0,0,0,0,0,0,0,0,0,0,0,0
COM4,0509,25-Feb-19,2019-02-25 06:00:00,-0.047593220338983,-0.015084745762712,-0.012169491525424,-0.0084745762711864,-0.0070169491525424,0.0024576271186441,0.00091525423728814,5,0,0,0,0,0,0,0,0,0,0,0,0,0,0,0,0,0,0,0,0,0,0,0,0,0,0,0,0,0,0,0,0,0,0,0,0,0,0,0,0,0,0
COM4,0509,25-Feb-19,2019-02-25 07:00:00,0.016576271186441,0.043457627118644,0.041271186440678,0.045593220338983,0.045220338983051,0.047728813559322,0.049254237288136,5,0,0,0,0,0,0,0,0,0,0,0,0,0,0,0,0,0,0,0,0,0,0,0,0,0,0,0,0,0,0,0,0,0,0,0,0,0,0,0,0,0,0
COM4,0509,25-Feb-19,2019-02-25 08:00:00,0.16775,0.1629,0.15498333333333,0.14998333333333,0.14428333333333,0.1433,0.1484,5,0,0,0,0,0,0,0,0,0,0,0,0,0,0,0,0,0,0,0,0,0,0,0,0,0,0,0,0,0,0,0,0,0,0,0,0,0,0,0,0,0,0
COM4,0509,25-Feb-19,2019-02-25 09:00:00,0.17225423728814,0.17123728813559,0.16135593220339,0.16162711864407,0.15152542372881,0.14849152542373,0.15206779661017,5,0,0,0,0,0,0,0,0,0,0,0,0,0,0,0,0,0,0,0,0,0,0,0,0,0,0,0,0,0,0,0,0,0,0,0,0,0,0,0,0,0,0
COM4,0509,25-Feb-19,2019-02-25 10:00:00,0.15127118644068,0.1581186440678,0.15049152542373,0.14701694915254,0.14364406779661,0.13396610169492,0.13686440677966,5,0,0,0,0,0,0,0,0,0,0,0,0,0,0,0,0,0,0,0,0,0,0,0,0,0,0,0,0,0,0,0,0,0,0,0,0,0,0,0,0,0,0
COM4,0509,25-Feb-19,2019-02-25 11:00:00,0.084169491525424,0.091745762711864,0.08735593220339,0.082389830508475,0.084,0.077627118644068,0.078169491525424,5,0,0,0,0,0,0,0,0,0,0,0,0,0,0,0,0,0,0,0,0,0,0,0,0,0,0,0,0,0,0,0,0,0,0,0,0,0,0,0,0,0,0
COM4,0509,25-Feb-19,2019-02-25 12:00:00,0.0994,0.1013,0.094266666666667,0.092133333333333,0.086316666666667,0.08025,0.0818,5,0,0,0,0,0,0,0,0,0,0,0,0,0,0,0,0,0,0,0,0,0,0,0,0,0,0,0,0,0,0,0,0,0,0,0,0,0,0,0,0,0,0
COM4,0509,25-Feb-19,2019-02-25 13:00:00,0.14956140350877,0.14373684210526,0.1360350877193,0.1319298245614,0.12624561403509,0.11778947368421,0.11928070175439,5,0,0,0,0,0,0,0,0,0,0,0,0,0,0,0,0,0,0,0,0,0,0,0,0,0,0,0,0,0,0,0,0,0,0,0,0,0,0,0,0,0,0
COM4,0509,25-Feb-19,2019-02-25 14:00:00,0.15875,0.15185,0.14251666666667,0.13818333333333,0.13108333333333,0.1188,0.12123333333333,5,0,0,0,0,0,0,0,0,0,0,0,0,0,0,0,0,0,0,0,0,0,0,0,0,0,0,0,0,0,0,0,0,0,0,0,0,0,0,0,0,0,0
COM4,0509,25-Feb-19,2019-02-25 15:00:00,0.21396666666667,0.20406666666667,0.19153333333333,0.18858333333333,0.1817,0.17351666666667,0.17908333333333,5,0,0,0,0,0,0,0,0,0,0,0,0,0,0,0,0,0,0,0,0,0,0,0,0,0,0,0,0,0,0,0,0,0,0,0,0,0,0,0,0,0,0
COM4,0509,25-Feb-19,2019-02-25 16:00:00,0.35128333333333,0.34283333333333,0.32475,0.3196,0.31096666666667,0.30245,0.31181666666667,5,0,0,0,0,0,0,0,0,0,0,0,0,0,0,0,0,0,0,0,0,0,0,0,0,0,0,0,0,0,0,0,0,0,0,0,0,0,0,0,0,0,0
COM4,0509,25-Feb-19,2019-02-25 17:00:00,0.19433333333333,0.185,0.17783333333333,0.17111666666667,0.16596666666667,0.15585,0.16116666666667,4.9916666666667,0,0,0,0,0,0,0,0,0,0,0,0,0,0,0,0,0,0,0,0,0,0,0,0,0,0,0,0,0,0,0,0,0,0,0,0,0,0,0,0,0,0
COM4,0509,25-Feb-19,2019-02-25 18:00:00,0.12925,0.12551666666667,0.11766666666667,0.11631666666667,0.11053333333333,0.10376666666667,0.10823333333333,4.9183333333333,0,0,0,0,0,0,0,0,0,0,0,0,0,0,0,0,0,0,0,0,0,0,0,0,0,0,0,0,0,0,0,0,0,0,0,0,0,0,0,0,0,0
COM4,0509,25-Feb-19,2019-02-25 19:00:00,0.1386,0.12746666666667,0.12048333333333,0.11531666666667,0.1129,0.1058,0.10875,4.9266666666667,0,0,0,0,0,0,0,0,0,0,0,0,0,0,0,0,0,0,0,0,0,0,0,0,0,0,0,0,0,0,0,0,0,0,0,0,0,0,0,0,0,0
COM4,0509,25-Feb-19,2019-02-25 20:00:00,0.16183333333333,0.14653333333333,0.13611666666667,0.13178333333333,0.12568333333333,0.11791666666667,0.12068333333333,4.9016666666667,0,0,0,0,0,0,0,0,0,0,0,0,0,0,0,0,0,0,0,0,0,0,0,0,0,0,0,0,0,0,0,0,0,0,0,0,0,0,0,0,0,0
COM4,0509,25-Feb-19,2019-02-25 21:00:00,0.08795,0.08175,0.075433333333333,0.0734,0.068916666666667,0.0624,0.065883333333333,4.9283333333333,0,0,0,0,0,0,0,0,0,0,0,0,0,0,0,0,0,0,0,0,0,0,0,0,0,0,0,0,0,0,0,0,0,0,0,0,0,0,0,0,0,0
COM4,0509,25-Feb-19,2019-02-25 22:00:00,0.070883333333333,0.064833333333333,0.06145,0.05715,0.054583333333333,0.049816666666667,0.0491,4.9,0,0,0,0,0,0,0,0,0,0,0,0,0,0,0,0,0,0,0,0,0,0,0,0,0,0,0,0,0,0,0,0,0,0,0,0,0,0,0,0,0,0
COM4,0509,25-Feb-19,2019-02-25 23:00:00,0.061733333333333,0.06095,0.054383333333333,0.0542,0.0504,0.04275,0.0431,4.9,0,0,0,0,0,0,0,0,0,0,0,0,0,0,0,0,0,0,0,0,0,0,0,0,0,0,0,0,0,0,0,0,0,0,0,0,0,0,0,0,0,0
