COM4,509,21-Nov-19,2019-11-21 00:00:00,0.04325,0.044883333333333005,0.041466666666667,0.038916666666667,0.036883333333333,0.036133333333333,0.0366,5
COM4,509,21-Nov-19,2019-11-21 01:00:00,0.0308,0.0396,0.03725,0.0393,0.037216666666667,0.03315,0.0349,5
COM4,509,21-Nov-19,2019-11-21 02:00:00,0.045383333333333005,0.047366666666666994,0.044866666666667,0.043833333333333,0.0416,0.037166666666667,0.037683333333333,5
COM4,509,21-Nov-19,2019-11-21 03:00:00,0.05635,0.0574,0.053766666666667,0.052216666666666994,0.049883333333333,0.04668333333333301,0.0468,5
COM4,509,21-Nov-19,2019-11-21 04:00:00,0.063666666666667,0.058916666666667,0.05468333333333301,0.05336666666666699,0.051466666666666994,0.045433333333333006,0.04745,5
COM4,509,21-Nov-19,2019-11-21 05:00:00,0.12993333333333001,0.12343333333333001,0.11323333333333001,0.11091666666667,0.10748333333333,0.1032,0.10676666666667,5
COM4,509,21-Nov-19,2019-11-21 06:00:00,0.11455,0.11365,0.10703333333333001,0.10525,0.1014,0.09475,0.09835,5
COM4,509,21-Nov-19,2019-11-21 07:00:00,0.076533333333333,0.07535,0.07,0.06965,0.064983333333333,0.064916666666667,0.06621666666666699,5
COM4,509,21-Nov-19,2019-11-21 08:00:00,0.097533333333333,0.097266666666667,0.092383333333333,0.0901,0.088366666666667,0.083366666666667,0.08681666666666701,5
COM4,509,21-Nov-19,2019-11-21 09:00:00,0.17215,0.17455,0.16573333333332999,0.16528333333332998,0.16058333333333,0.15638333333333,0.16138333333333,5
COM4,509,21-Nov-19,2019-11-21 10:00:00,0.17021666666667004,0.17295,0.16525,0.16336666666667002,0.15968333333332999,0.1603,0.16506666666667003,5
COM4,509,21-Nov-19,2019-11-21 11:00:00,0.11061666666667,0.10988333333333,0.10206666666667,0.099066666666667,0.095233333333333,0.08753333333333299,0.089983333333333,5
COM4,509,21-Nov-19,2019-11-21 12:00:00,0.11638333333333001,0.11356666666667,0.1074,0.10615,0.10001666666667,0.093516666666667,0.095533333333333,5
COM4,509,21-Nov-19,2019-11-21 13:00:00,0.10275,0.098,0.0922,0.088583333333333,0.0862,0.079433333333333,0.082583333333333,5
COM4,509,21-Nov-19,2019-11-21 14:00:00,0.07766666666666701,0.075733333333333,0.069366666666667,0.068716666666667,0.06535,0.059266666666666995,0.06143333333333301,5
COM4,509,21-Nov-19,2019-11-21 15:00:00,0.080116666666667,0.07693333333333299,0.0712,0.06881666666666701,0.065,0.0622,0.064733333333333,5
COM4,509,21-Nov-19,2019-11-21 16:00:00,0.11418333333333,0.10536666666667,0.097066666666667,0.095283333333333,0.09103333333333301,0.08515,0.08655,5
COM4,509,21-Nov-19,2019-11-21 17:00:00,0.2766,0.25223333333333,0.23598333333332996,0.23028333333332998,0.22048333333332998,0.20816666666667002,0.2133,5
COM4,509,21-Nov-19,2019-11-21 18:00:00,0.22536666666667002,0.20966666666667003,0.19515,0.19201666666667003,0.1852,0.17808333333332996,0.18418333333332998,5
COM4,509,21-Nov-19,2019-11-21 19:00:00,0.22705,0.18926666666667002,0.17303333333332996,0.16606666666667003,0.15823333333332998,0.14603333333333,0.14968333333332998,5
COM4,509,21-Nov-19,2019-11-21 20:00:00,0.36235,0.28356666666667,0.25453333333332995,0.24223333333332997,0.22633333333332997,0.20813333333332998,0.21353333333332997,5
COM4,509,21-Nov-19,2019-11-21 21:00:00,0.27228333333333,0.2393,0.22168333333332996,0.21521666666667003,0.20508333333332998,0.18756666666667005,0.19225,5
COM4,509,21-Nov-19,2019-11-21 22:00:00,0.29671666666667,0.24726666666667002,0.22426666666667003,0.21506666666667004,0.20478333333332996,0.18888333333332996,0.19273333333332998,5
COM4,509,21-Nov-19,2019-11-21 23:00:00,0.29413333333333,0.2522,0.23558333333332998,0.22925,0.2175,0.20205,0.20568333333332997,5
