COM4,509,03-May-19,2019-05-03 00:00:00,0.095366666666667,0.08271666666666701,0.07616666666666701,0.07335,0.068933333333333,0.06186666666666699,0.063266666666667,5
COM4,509,03-May-19,2019-05-03 01:00:00,0.10118333333333,0.0888,0.081516666666667,0.07808333333333299,0.07386666666666701,0.067,0.068716666666667,5
COM4,509,03-May-19,2019-05-03 02:00:00,0.11271666666666999,0.10085,0.09343333333333301,0.09053333333333301,0.08526666666666702,0.077866666666667,0.0798,5
COM4,509,03-May-19,2019-05-03 03:00:00,0.091916666666667,0.08413333333333299,0.077533333333333,0.0749,0.0713,0.06605,0.067766666666667,5
COM4,509,03-May-19,2019-05-03 04:00:00,0.080933333333333,0.07415,0.068316666666667,0.0671,0.06331666666666699,0.059316666666666996,0.060383333333333004,5
COM4,509,03-May-19,2019-05-03 05:00:00,0.0862,0.07891666666666701,0.07353333333333299,0.070816666666667,0.06786666666666699,0.06303333333333301,0.0644,5
COM4,509,03-May-19,2019-05-03 06:00:00,0.11986666666667,0.11283333333333001,0.1051,0.10318333333333,0.097633333333333,0.0922,0.094816666666667,5
COM4,509,03-May-19,2019-05-03 07:00:00,0.11881666666667,0.11116666666667,0.10425,0.10156666666667,0.09758333333333301,0.0922,0.094783333333333,5
COM4,509,03-May-19,2019-05-03 08:00:00,0.13055,0.12363333333333,0.11643333333333,0.11446666666666999,0.10943333333333001,0.10333333333333,0.10595,5
COM4,509,03-May-19,2019-05-03 09:00:00,0.11213333333333,0.10593333333333001,0.099966666666667,0.0983,0.09403333333333301,0.08738333333333298,0.090433333333333,5
COM4,509,03-May-19,2019-05-03 10:00:00,0.10228333333333,0.096416666666667,0.09088333333333301,0.08875,0.08588333333333299,0.078816666666667,0.0814,5
COM4,509,03-May-19,2019-05-03 11:00:00,0.098,0.08991666666666699,0.083583333333333,0.080883333333333,0.078366666666667,0.072316666666667,0.07515,5
COM4,509,03-May-19,2019-05-03 12:00:00,0.0955,0.08545,0.080016666666667,0.078466666666667,0.075666666666667,0.069483333333333,0.072233333333333,5
COM4,509,03-May-19,2019-05-03 13:00:00,0.09758333333333301,0.08675,0.081433333333333,0.07891666666666701,0.07633333333333299,0.07021666666666701,0.074066666666667,5
COM4,509,03-May-19,2019-05-03 14:00:00,0.083366666666667,0.077066666666667,0.072066666666667,0.069916666666667,0.067683333333333,0.0634,0.064083333333333,5
COM4,509,03-May-19,2019-05-03 15:00:00,0.0764,0.069833333333333,0.06583333333333301,0.06368333333333301,0.06155,0.057116666666666996,0.059683333333333005,5
COM4,509,03-May-19,2019-05-03 16:00:00,0.06851666666666699,0.06486666666666699,0.06095,0.060583333333333,0.05675,0.05368333333333301,0.054566666666667,5
COM4,509,03-May-19,2019-05-03 17:00:00,0.11913333333333001,0.12578333333333,0.1209,0.121,0.11828333333333,0.11793333333333,0.12071666666667,5
COM4,509,03-May-19,2019-05-03 18:00:00,0.12525,0.13326666666667,0.12705,0.12848333333333,0.12405,0.12323333333333,0.12538333333333002,5
COM4,509,03-May-19,2019-05-03 19:00:00,0.20538333333332998,0.18226666666667002,0.16673333333332999,0.16121666666667,0.15308333333333,0.1456,0.14868333333332998,5
COM4,509,03-May-19,2019-05-03 20:00:00,0.41563333333333,0.34035,0.30658333333333,0.28801666666667,0.26681666666667003,0.24276666666667004,0.24605,5
COM4,509,03-May-19,2019-05-03 21:00:00,0.2902,0.24495,0.22221666666667003,0.20878333333332996,0.19385,0.17445,0.17928333333332996,5
COM4,509,03-May-19,2019-05-03 22:00:00,0.35661666666666997,0.28321666666667,0.25256666666667005,0.23673333333332996,0.2189,0.19821666666667004,0.2025,5
COM4,509,03-May-19,2019-05-03 23:00:00,0.30401694915253996,0.25576271186441,0.23130508474576,0.22069491525424,0.20644067796610002,0.18915254237288,0.19261016949152998,5
