COM4,509,08-Dec-19,2019-12-08 00:00:00,1.1409666666667,1.02625,0.96071666666667,0.94941666666667,0.91695,0.88303333333333,0.90755,5
COM4,509,08-Dec-19,2019-12-08 01:00:00,1.03875,1.0499333333333,1.0024166666667,0.99965,0.97231666666667,0.9434,0.96973333333333,5
COM4,509,08-Dec-19,2019-12-08 02:00:00,0.94995,0.94666666666667,0.90263333333333,0.89881666666667,0.87343333333333,0.84668333333333,0.87068333333333,5
COM4,509,08-Dec-19,2019-12-08 03:00:00,0.6385166666666701,0.6511333333333299,0.62618333333333,0.6257333333333299,0.6086,0.59145,0.6084333333333299,5
COM4,509,08-Dec-19,2019-12-08 04:00:00,0.41573333333333,0.44026666666666997,0.42701666666667,0.42751666666667,0.41651666666667,0.40843333333333,0.42011666666666997,5
COM4,509,08-Dec-19,2019-12-08 05:00:00,0.22681666666667002,0.25921666666667004,0.25123333333333,0.25103333333332994,0.24236666666667003,0.23271666666667004,0.2384,5
COM4,509,08-Dec-19,2019-12-08 06:00:00,-0.14456666666667,-0.11621666666667,-0.1149,-0.11975,-0.12363333333333,-0.13241666666666999,-0.13645,5
COM4,509,08-Dec-19,2019-12-08 07:00:00,-0.1398,-0.12333333333333,-0.1227,-0.1278,-0.12976666666667,-0.1393,-0.14635,5
COM4,509,08-Dec-19,2019-12-08 08:00:00,-0.0083666666666667,0.013999999999999999,0.014116666666667001,0.014083333333333,0.010933333333333,0.0050166666666667,0.0036166666666667,5
COM4,509,08-Dec-19,2019-12-08 09:00:00,0.079633333333333,0.08395,0.081183333333333,0.0802,0.0777,0.07355,0.075233333333333,5
COM4,509,08-Dec-19,2019-12-08 10:00:00,0.07015,0.08678333333333299,0.08538333333333299,0.08798333333333301,0.0865,0.08716666666666702,0.0892,5
COM4,509,08-Dec-19,2019-12-08 11:00:00,0.038783333333332996,0.053516666666667,0.05375,0.0543,0.0531,0.05025,0.051016666666666995,5
COM4,509,08-Dec-19,2019-12-08 12:00:00,0.14551666666667,0.15491666666667,0.15106666666667,0.15145,0.14793333333332997,0.14255,0.14665,5
COM4,509,08-Dec-19,2019-12-08 13:00:00,0.14818333333332998,0.15761666666667,0.15223333333332997,0.15328333333333,0.1505,0.14636666666667,0.1499,5
COM4,509,08-Dec-19,2019-12-08 14:00:00,0.15225,0.15256666666667001,0.1454,0.1453,0.13971666666667001,0.13436666666667,0.1384,5
COM4,509,08-Dec-19,2019-12-08 15:00:00,0.26746666666667,0.20065,0.17838333333332998,0.16623333333332999,0.15448333333332998,0.13903333333332998,0.14203333333333,5
COM4,509,08-Dec-19,2019-12-08 16:00:00,0.21173333333332997,0.18358333333332996,0.1683,0.1627,0.15225,0.13988333333332997,0.14301666666667,5
COM4,509,08-Dec-19,2019-12-08 17:00:00,0.2612,0.22973333333332996,0.21051666666667004,0.20221666666667004,0.19073333333332998,0.17471666666667005,0.17941666666667003,5
COM4,509,08-Dec-19,2019-12-08 18:00:00,0.15023333333333,0.12485,0.1131,0.10756666666666999,0.099466666666667,0.08865,0.09056666666666699,5
COM4,509,08-Dec-19,2019-12-08 19:00:00,0.19261666666667004,0.15293333333332998,0.13856666666667,0.13295,0.12573333333333,0.11525,0.11823333333333,5
COM4,509,08-Dec-19,2019-12-08 20:00:00,0.44265,0.29418333333333,0.25871666666667004,0.24486666666667004,0.22705,0.20518333333332997,0.20956666666667004,5
COM4,509,08-Dec-19,2019-12-08 21:00:00,0.58136666666667,0.40136666666667,0.35023333333333,0.32603333333333,0.29901666666667,0.2617,0.26505,5
COM4,509,08-Dec-19,2019-12-08 22:00:00,0.77398333333333,0.6353666666666701,0.5803333333333299,0.5592333333333299,0.5273,0.48723333333333,0.49928333333333,5
COM4,509,08-Dec-19,2019-12-08 23:00:00,0.95641666666667,0.66453333333333,0.5889,0.5557666666666701,0.51946666666667,0.46996666666667,0.4792,5
