COM4,509,12-Apr-19,2019-04-12 00:00:00,0.0171,0.013333333333333,0.013933333333333,0.011566666666667001,0.012416666666667001,0.011966666666667,0.010533333333332999,5
COM4,509,12-Apr-19,2019-04-12 01:00:00,0.019333333333333,0.01845,0.016933333333333,0.017766666666667,0.017066666666667,0.01675,0.01725,5
COM4,509,12-Apr-19,2019-04-12 02:00:00,0.0323,0.031983333333332996,0.031116666666667004,0.0265,0.0273,0.023333333333332994,0.024233333333332996,5
COM4,509,12-Apr-19,2019-04-12 03:00:00,0.057783333333333006,0.054016666666667,0.050483333333333005,0.0519,0.046516666666667,0.0453,0.045316666666667,5
COM4,509,12-Apr-19,2019-04-12 04:00:00,0.061566666666667,0.0602,0.056033333333333005,0.05535,0.05375,0.0489,0.050316666666666995,5
COM4,509,12-Apr-19,2019-04-12 05:00:00,0.04208333333333301,0.0427,0.039433333333333,0.037333333333332996,0.035433333333333,0.032716666666667005,0.0329,5
COM4,509,12-Apr-19,2019-04-12 06:00:00,0.029833333333332993,0.028533333333332994,0.02825,0.0276,0.025966666666667006,0.025583333333332996,0.02425,5
COM4,509,12-Apr-19,2019-04-12 07:00:00,0.0304,0.0297,0.028516666666667006,0.026816666666667006,0.02565,0.023133333333332996,0.025166666666667004,5
COM4,509,12-Apr-19,2019-04-12 08:00:00,0.022666666666667005,0.024383333333332993,0.024183333333332994,0.021566666666667,0.022383333333332995,0.021716666666667002,0.020933333333333,5
COM4,509,12-Apr-19,2019-04-12 09:00:00,0.029416666666667004,0.026283333333332996,0.024866666666667005,0.028016666666667005,0.025116666666667006,0.021916666666667,0.02515,5
COM4,509,12-Apr-19,2019-04-12 10:00:00,0.022766666666667004,0.0227,0.021233333333333,0.019783333333333,0.01965,0.016033333333333,0.01555,5
COM4,509,12-Apr-19,2019-04-12 11:00:00,0.023116666666667004,0.02055,0.0184,0.0178,0.018066666666667,0.0136,0.0169,5
COM4,509,12-Apr-19,2019-04-12 12:00:00,0.022416666666667005,0.019866666666667,0.019416666666667002,0.0158,0.017,0.0122,0.013783333333333,5
COM4,509,12-Apr-19,2019-04-12 13:00:00,0.0311,0.025016666666667006,0.0247,0.02305,0.02275,0.02105,0.021483333333333,5
COM4,509,12-Apr-19,2019-04-12 14:00:00,0.027416666666667006,0.026883333333332995,0.024783333333332994,0.02465,0.022866666666667004,0.020666666666667,0.02155,5
COM4,509,12-Apr-19,2019-04-12 15:00:00,0.026216666666667006,0.0302,0.025533333333332995,0.025783333333332995,0.022383333333332995,0.023483333333332995,0.022716666666667006,5
COM4,509,12-Apr-19,2019-04-12 16:00:00,0.03975,0.0329,0.031766666666667005,0.028883333333332994,0.028916666666667003,0.0282,0.0268,5
COM4,509,12-Apr-19,2019-04-12 17:00:00,0.0388,0.03695,0.0331,0.032,0.028916666666667003,0.0238,0.026166666666667004,5
COM4,509,12-Apr-19,2019-04-12 18:00:00,0.0393,0.039516666666667,0.036783333333333,0.035516666666667,0.032633333333332994,0.030416666666667005,0.029016666666667006,5
COM4,509,12-Apr-19,2019-04-12 19:00:00,0.28646666666667,0.27681666666667,0.2551,0.24928333333332997,0.2327,0.20615,0.20633333333332995,5
COM4,509,12-Apr-19,2019-04-12 20:00:00,0.13721666666666998,0.12188333333333,0.11306666666667,0.10815,0.09948333333333301,0.08935,0.08855,5
COM4,509,12-Apr-19,2019-04-12 21:00:00,0.10438333333333001,0.083433333333333,0.07275,0.069433333333333,0.065783333333333,0.057216666666667,0.0594,5
COM4,509,12-Apr-19,2019-04-12 22:00:00,0.41546666666667,0.26676666666667004,0.22711666666667002,0.20336666666667003,0.18208333333332996,0.15118333333332998,0.15296666666667003,5
COM4,509,12-Apr-19,2019-04-12 23:00:00,0.31005084745763,0.20077966101695002,0.16842372881356002,0.15054237288136,0.13450847457627,0.11413559322033999,0.11454237288136,5
