COM4,509,29-Jan-20,2020-01-29 00:00:00,0.70643333333333,0.6319833333333299,0.5776666666666701,0.54905,0.51553333333333,0.45968333333333,0.46998333333333,5
COM4,509,29-Jan-20,2020-01-29 01:00:00,0.70998333333333,0.63515,0.58388333333333,0.5574833333333299,0.52573333333333,0.47403333333333003,0.48396666666667,5
COM4,509,29-Jan-20,2020-01-29 02:00:00,0.81835,0.69836666666667,0.62953333333333,0.5999166666666701,0.56321666666667,0.50378333333333,0.5146166666666699,5
COM4,509,29-Jan-20,2020-01-29 03:00:00,0.9012,0.774,0.70431666666667,0.66883333333333,0.6289166666666701,0.5606,0.5694833333333299,5
COM4,509,29-Jan-20,2020-01-29 04:00:00,0.61308333333333,0.537,0.49046666666667,0.47058333333333,0.44113333333333,0.39793333333333003,0.4089,5
COM4,509,29-Jan-20,2020-01-29 05:00:00,0.51513333333333,0.45238333333333003,0.41355,0.39361666666667,0.37048333333333,0.33395,0.34086666666667,5
COM4,509,29-Jan-20,2020-01-29 06:00:00,0.24521666666667002,0.21055,0.19088333333332996,0.17581666666667004,0.16695,0.14751666666667002,0.15098333333333,5
COM4,509,29-Jan-20,2020-01-29 07:00:00,-0.0013666666666667,0.0071,-0.00016666666666667,-0.0016833333333333,-0.00345,-0.0045833333333333,-0.0018333333333333,5
COM4,509,29-Jan-20,2020-01-29 08:00:00,-0.06546666666666699,-0.0414,-0.042933333333333004,-0.04505,-0.047366666666666994,-0.048433333333333,-0.049733333333333005,5
COM4,509,29-Jan-20,2020-01-29 09:00:00,0.13298333333333,0.13853333333332998,0.12178333333333001,0.1139,0.10061666666666999,0.08593333333333299,0.0896,5
COM4,509,29-Jan-20,2020-01-29 10:00:00,0.018933333333333,0.038866666666667,0.03685,0.02965,0.027983333333332996,0.01865,0.019033333333333,5
COM4,509,29-Jan-20,2020-01-29 11:00:00,0.34228333333333,0.33108333333333,0.29813333333333003,0.28255,0.26301666666667,0.23381666666667003,0.23861666666667003,5
COM4,509,29-Jan-20,2020-01-29 12:00:00,0.44793333333333,0.41853333333333,0.38006666666667,0.35983333333333,0.33658333333333,0.30078333333333,0.30563333333333,5
COM4,509,29-Jan-20,2020-01-29 13:00:00,0.24675,0.24978333333332997,0.22661666666667002,0.21646666666667003,0.19936666666667002,0.17571666666667002,0.17995,5
COM4,509,29-Jan-20,2020-01-29 14:00:00,0.1686,0.174,0.16005,0.15163333333332998,0.14261666666667,0.12286666666667,0.12418333333333001,5
COM4,509,29-Jan-20,2020-01-29 15:00:00,0.25163333333333,0.23146666666667004,0.21343333333332998,0.20048333333332996,0.18651666666667002,0.159,0.16171666666667,5
COM4,509,29-Jan-20,2020-01-29 16:00:00,0.30388333333333,0.2738,0.25023333333333,0.23623333333332996,0.21861666666667004,0.1853,0.18786666666667004,5
COM4,509,29-Jan-20,2020-01-29 17:00:00,0.43496666666667,0.39061666666667,0.3546,0.33601666666667,0.31195,0.27071666666667005,0.27403333333332996,5
COM4,509,29-Jan-20,2020-01-29 18:00:00,0.37543333333333,0.32768333333333,0.29856666666667,0.28396666666667,0.26361666666667005,0.22941666666667004,0.23536666666667003,5
COM4,509,29-Jan-20,2020-01-29 19:00:00,0.35708333333333003,0.29605,0.26531666666667003,0.24928333333332997,0.23216666666667002,0.19935,0.20225,5
COM4,509,29-Jan-20,2020-01-29 20:00:00,0.22461666666667005,0.1864,0.16693333333333,0.15695,0.14516666666667002,0.12253333333333001,0.12286666666667,5
COM4,509,29-Jan-20,2020-01-29 21:00:00,0.44021666666667,0.3588,0.31896666666667,0.29665,0.27511666666667,0.23563333333332998,0.24031666666667004,5
COM4,509,29-Jan-20,2020-01-29 22:00:00,0.47216666666667,0.37073333333333003,0.32971666666667,0.31046666666667,0.28246666666667,0.24355,0.24731666666667004,5
COM4,509,29-Jan-20,2020-01-29 23:00:00,0.7041864406779699,0.50698305084746,0.44362711864407,0.41040677966102,0.37766101694915005,0.32332203389831,0.32713559322034,5
