COM4,509,31-Mar-19,2019-03-31 00:00:00,0.12755,0.099,0.088566666666667,0.080466666666667,0.07418333333333299,0.064566666666667,0.066,4.8
COM4,509,31-Mar-19,2019-03-31 01:00:00,0.11443333333333,0.095316666666667,0.0828,0.078766666666667,0.0729,0.06395,0.06368333333333301,4.8
COM4,509,31-Mar-19,2019-03-31 02:00:00,0.073983333333333,0.063133333333333,0.055783333333333004,0.053566666666667,0.048683333333333,0.042916666666667,0.04355,4.8
COM4,509,31-Mar-19,2019-03-31 03:00:00,0.074333333333333,0.062616666666667,0.0592,0.05515,0.04945,0.0429,0.043683333333333005,4.8
COM4,509,31-Mar-19,2019-03-31 04:00:00,0.0812,0.071,0.0619,0.05871666666666699,0.05481666666666699,0.048983333333333004,0.047483333333333,4.8
COM4,509,31-Mar-19,2019-03-31 05:00:00,0.091,0.079033333333333,0.06885,0.065483333333333,0.060616666666667,0.0534,0.055416666666666996,4.8
COM4,509,31-Mar-19,2019-03-31 06:00:00,0.08513333333333299,0.073966666666667,0.066283333333333,0.064233333333333,0.05905,0.051683333333333005,0.052816666666667,4.8
COM4,509,31-Mar-19,2019-03-31 07:00:00,0.098733333333333,0.08416666666666701,0.077633333333333,0.07063333333333299,0.066733333333333,0.06205,0.06315,4.8
COM4,509,31-Mar-19,2019-03-31 08:00:00,0.08175,0.06595,0.05871666666666699,0.05506666666666699,0.051766666666666995,0.045266666666666996,0.045716666666666995,4.8
COM4,509,31-Mar-19,2019-03-31 09:00:00,0.07658333333333299,0.05695,0.054916666666666995,0.04995,0.04725,0.03765,0.041416666666667,4.8
COM4,509,31-Mar-19,2019-03-31 10:00:00,0.076,0.0583,0.053466666666666995,0.048533333333333005,0.04498333333333301,0.03675,0.0381,4.8
COM4,509,31-Mar-19,2019-03-31 11:00:00,0.074316666666667,0.05525,0.050916666666667,0.0467,0.044683333333333006,0.0335,0.036533333333333,4.8
COM4,509,31-Mar-19,2019-03-31 12:00:00,0.070266666666667,0.054883333333333006,0.049066666666666994,0.04365,0.041333333333333,0.032716666666667005,0.032983333333333,4.8
COM4,509,31-Mar-19,2019-03-31 13:00:00,0.056033333333333005,0.04765,0.043366666666667,0.038866666666667,0.036383333333333,0.028883333333332994,0.029466666666667005,4.7416666666667
COM4,509,31-Mar-19,2019-03-31 14:00:00,0.055216666666667,0.04675,0.042233333333333005,0.039666666666667,0.034083333333332994,0.028783333333332994,0.030533333333332996,4.7
COM4,509,31-Mar-19,2019-03-31 15:00:00,0.04725,0.042583333333333,0.035966666666667,0.03405,0.03181666666666701,0.0254,0.024183333333332994,4.7
COM4,509,31-Mar-19,2019-03-31 16:00:00,0.047466666666667,0.042233333333333005,0.0372,0.035816666666667,0.031166666666667005,0.024766666666667006,0.0264,4.7
COM4,509,31-Mar-19,2019-03-31 17:00:00,0.047766666666667,0.042266666666666994,0.0375,0.033433333333332996,0.031233333333332995,0.025333333333332996,0.024216666666667004,4.7
COM4,509,31-Mar-19,2019-03-31 18:00:00,0.06368333333333301,0.057216666666667,0.0506,0.045483333333333,0.039983333333333,0.0333,0.03208333333333299,4.7
COM4,509,31-Mar-19,2019-03-31 19:00:00,0.07276666666666701,0.063483333333333,0.055116666666666994,0.05205,0.046566666666667,0.046266666666667,0.045633333333333005,4.7
COM4,509,31-Mar-19,2019-03-31 20:00:00,0.17496666666667005,0.15353333333333,0.14033333333332998,0.13308333333333,0.12561666666666998,0.11135,0.114,4.7
COM4,509,31-Mar-19,2019-03-31 21:00:00,0.098683333333333,0.08431666666666701,0.074783333333333,0.072466666666667,0.06586666666666699,0.0597,0.057716666666667,4.7
COM4,509,31-Mar-19,2019-03-31 22:00:00,0.10001666666667,0.081783333333333,0.073883333333333,0.068416666666667,0.06155,0.05255,0.053016666666666996,4.7
COM4,509,31-Mar-19,2019-03-31 23:00:00,0.10149152542373,0.08449152542372901,0.072745762711864,0.066423728813559,0.061779661016949004,0.053220338983050994,0.053457627118644005,4.7
