COM4,509,10-Aug-19,2019-08-10 00:00:00,0.72158333333333,0.54511666666667,0.47111666666667,0.42961666666667,0.38191666666667,0.31296666666667,0.31301666666667,5.0
COM4,509,10-Aug-19,2019-08-10 01:00:00,0.57015,0.45775,0.40685,0.38211666666667,0.34946666666667,0.30316666666666997,0.30503333333333,5.0
COM4,509,10-Aug-19,2019-08-10 02:00:00,0.45165,0.36381666666667,0.32801666666667,0.30695,0.28178333333333,0.24806666666667004,0.25031666666667,5.0
COM4,509,10-Aug-19,2019-08-10 03:00:00,0.37813333333333,0.29925,0.2645,0.24998333333332998,0.23146666666667004,0.19876666666667003,0.20373333333332996,4.6666666666667
COM4,509,10-Aug-19,2019-08-10 04:00:00,0.23101666666667003,0.1725,0.16123333333332998,0.15596666666667,0.14823333333333,0.13915,0.14355,5.0
COM4,509,10-Aug-19,2019-08-10 05:00:00,0.18818333333332996,0.17118333333332997,0.16056666666667002,0.15613333333333,0.14841666666667,0.13883333333332998,0.14161666666667003,5.0
COM4,509,10-Aug-19,2019-08-10 06:00:00,0.2148,0.20448333333332996,0.19178333333332998,0.18823333333332998,0.1801,0.17105,0.17478333333332996,5.0
COM4,509,10-Aug-19,2019-08-10 07:00:00,0.24476666666667002,0.23493333333332997,0.22123333333332998,0.21738333333332996,0.20853333333332996,0.19736666666667002,0.20255,5.0
COM4,509,10-Aug-19,2019-08-10 08:00:00,0.24226666666667004,0.2332,0.2206,0.21746666666667003,0.2092,0.1985,0.20388333333332997,5.0
COM4,509,10-Aug-19,2019-08-10 09:00:00,0.21758333333332996,0.20581666666667003,0.19608333333332997,0.19326666666667003,0.18798333333332998,0.1761,0.18226666666667002,5.0
COM4,509,10-Aug-19,2019-08-10 10:00:00,0.17853333333332996,0.17326666666667004,0.16486666666667002,0.16366666666667,0.1581,0.15031666666667,0.15535,5.0
COM4,509,10-Aug-19,2019-08-10 11:00:00,0.17918333333332997,0.17631666666667004,0.16836666666667002,0.16751666666667,0.16253333333332998,0.15533333333333,0.15921666666667,5.0
COM4,509,10-Aug-19,2019-08-10 12:00:00,0.13901666666667,0.13606666666667,0.1301,0.12996666666667,0.12571666666667,0.1195,0.1235,5.0
COM4,509,10-Aug-19,2019-08-10 13:00:00,0.23725,0.18843333333332996,0.16601666666667,0.15675,0.14568333333332997,0.13003333333333,0.13191666666666998,5.0
COM4,509,10-Aug-19,2019-08-10 14:00:00,0.17238333333332997,0.14363333333332998,0.128,0.12098333333333,0.11218333333333,0.097816666666667,0.0989,5.0
COM4,509,10-Aug-19,2019-08-10 15:00:00,0.10388333333333001,0.09745,0.0905,0.088766666666667,0.08416666666666701,0.07975,0.08181666666666701,5.0
COM4,509,10-Aug-19,2019-08-10 16:00:00,0.0851,0.082866666666667,0.078433333333333,0.07805,0.07455,0.07351666666666701,0.07468333333333299,5.0
COM4,509,10-Aug-19,2019-08-10 17:00:00,0.07575,0.075666666666667,0.071483333333333,0.069483333333333,0.067816666666667,0.0641,0.06575,5.0
COM4,509,10-Aug-19,2019-08-10 18:00:00,0.066166666666667,0.06661666666666699,0.062033333333333,0.06211666666666699,0.058816666666666996,0.056916666666667,0.057,5.0
COM4,509,10-Aug-19,2019-08-10 19:00:00,0.12643333333333,0.11271666666666999,0.10221666666667,0.099683333333333,0.09278333333333301,0.089083333333333,0.0891,5.0
COM4,509,10-Aug-19,2019-08-10 20:00:00,0.32095,0.30065,0.28375,0.27748333333333003,0.26655,0.25183333333332997,0.2593,5.0
COM4,509,10-Aug-19,2019-08-10 21:00:00,0.52915,0.4435,0.40565,0.38558333333333,0.3638,0.33261666666667,0.3436,5.0
COM4,509,10-Aug-19,2019-08-10 22:00:00,0.5641333333333299,0.47303333333333003,0.43106666666667,0.40798333333333,0.38295,0.3483,0.35826666666667,5.0
COM4,509,10-Aug-19,2019-08-10 23:00:00,0.60236666666667,0.51063333333333,0.46526666666667,0.4402,0.41268333333333,0.37716666666667,0.38791666666667,5.0
