COM4,509,08-Sep-19,2019-09-08 00:00:00,1.1869333333333,0.92285,0.82003333333333,0.77565,0.71953333333333,0.6380333333333299,0.6471333333333299,5
COM4,509,08-Sep-19,2019-09-08 01:00:00,1.0299833333333,0.7929999999999999,0.70361666666667,0.66501666666667,0.6141,0.54223333333333,0.5501333333333299,5
COM4,509,08-Sep-19,2019-09-08 02:00:00,1.0915333333333002,0.84025,0.74236666666667,0.70135,0.64953333333333,0.57236666666667,0.58083333333333,5
COM4,509,08-Sep-19,2019-09-08 03:00:00,1.1216833333333,0.8170166666666699,0.70156666666667,0.64976666666667,0.5907333333333299,0.5003,0.50481666666667,5
COM4,509,08-Sep-19,2019-09-08 04:00:00,1.1534833333333,0.81518333333333,0.6908,0.63445,0.5720166666666701,0.4797,0.48328333333333,5
COM4,509,08-Sep-19,2019-09-08 05:00:00,0.96528333333333,0.69281666666667,0.5948166666666701,0.5541333333333299,0.50543333333333,0.43376666666667,0.43856666666667,5
COM4,509,08-Sep-19,2019-09-08 06:00:00,0.8166,0.6002166666666701,0.52155,0.48981666666667,0.45201666666667,0.39791666666666997,0.40375,5
COM4,509,08-Sep-19,2019-09-08 07:00:00,0.75411666666667,0.5585666666666701,0.48885,0.4604,0.42825,0.38008333333333,0.38648333333333,5
COM4,509,08-Sep-19,2019-09-08 08:00:00,0.73068333333333,0.5532,0.48791666666667,0.4644,0.43638333333333,0.40006666666667,0.40735,5
COM4,509,08-Sep-19,2019-09-08 09:00:00,0.55315,0.43325,0.38688333333333,0.37508333333333,0.35605,0.3363,0.34493333333333,5
COM4,509,08-Sep-19,2019-09-08 10:00:00,0.5292,0.42173333333333,0.38145,0.37271666666666997,0.35721666666667,0.34348333333333003,0.35265,5
COM4,509,08-Sep-19,2019-09-08 11:00:00,0.54306666666667,0.44921666666667,0.41081666666667,0.40365,0.38963333333333,0.37776666666666997,0.38866666666667,5
COM4,509,08-Sep-19,2019-09-08 12:00:00,0.50163333333333,0.42718333333333003,0.39615,0.39286666666667,0.38333333333333003,0.37896666666667,0.38976666666667,5
COM4,509,08-Sep-19,2019-09-08 13:00:00,0.45731666666667,0.37976666666666997,0.35373333333333,0.35221666666667,0.34376666666667,0.33586666666667,0.34708333333333,5
COM4,509,08-Sep-19,2019-09-08 14:00:00,0.42185,0.34841666666667,0.3226,0.31743333333333,0.30955,0.29846666666667,0.30941666666667,5
COM4,509,08-Sep-19,2019-09-08 15:00:00,0.28656666666666997,0.27585,0.27055,0.27705,0.28046666666667,0.29255,0.30423333333333,5
COM4,509,08-Sep-19,2019-09-08 16:00:00,0.25428333333333,0.2383,0.23378333333332996,0.24005,0.24506666666667004,0.25128333333333,0.26366666666667005,5
COM4,509,08-Sep-19,2019-09-08 17:00:00,0.28575,0.2313,0.20738333333332998,0.19673333333332996,0.18501666666667002,0.161,0.16546666666667,5
COM4,509,08-Sep-19,2019-09-08 18:00:00,0.29235,0.22213333333332996,0.19081666666667002,0.17600000000000002,0.15858333333333,0.13018333333333001,0.13045,5
COM4,509,08-Sep-19,2019-09-08 19:00:00,0.31245,0.23575,0.20143333333332997,0.18378333333332997,0.16371666666667,0.13258333333333,0.13258333333333,5
COM4,509,08-Sep-19,2019-09-08 20:00:00,0.37593333333333,0.28125,0.24348333333332997,0.2257,0.20131666666667003,0.16423333333332998,0.16385,5
COM4,509,08-Sep-19,2019-09-08 21:00:00,0.38113333333333,0.28455,0.24501666666667002,0.2268,0.20183333333332998,0.16526666666667,0.1653,5
COM4,509,08-Sep-19,2019-09-08 22:00:00,0.39626666666667,0.28865,0.24963333333332996,0.22575,0.2027,0.16173333333332998,0.16355,5
COM4,509,08-Sep-19,2019-09-08 23:00:00,0.49961666666667,0.35473333333333,0.30023333333333,0.27323333333332994,0.24018333333332997,0.18908333333332997,0.18711666666667004,5
