COM4,509,27-Jul-19,2019-07-27 00:00:00,0.13871666666667,0.14256666666667,0.1388,0.13995,0.1357,0.13138333333333,0.13395,5
COM4,509,27-Jul-19,2019-07-27 01:00:00,0.16705,0.15958333333333,0.15311666666667,0.15255,0.1489,0.14426666666667,0.1492,5
COM4,509,27-Jul-19,2019-07-27 02:00:00,0.12683333333333,0.1252,0.12083333333333,0.12225,0.11895,0.11631666666667,0.11933333333333,5
COM4,509,27-Jul-19,2019-07-27 03:00:00,0.1314,0.11745,0.11435,0.11376666666667,0.11328333333333,0.11126666666667,0.11495,5
COM4,509,27-Jul-19,2019-07-27 04:00:00,0.14681666666667,0.12911666666667,0.12315,0.1211,0.11691666666667,0.11531666666667,0.1183,5
COM4,509,27-Jul-19,2019-07-27 05:00:00,0.11805,0.10913333333333,0.10506666666667,0.1063,0.10406666666667,0.1022,0.10571666666667,5
COM4,509,27-Jul-19,2019-07-27 06:00:00,0.13896666666667,0.1335,0.12818333333333,0.1295,0.12766666666666998,0.12718333333333,0.1307,5
COM4,509,27-Jul-19,2019-07-27 07:00:00,0.14195,0.14133333333332998,0.13696666666666998,0.13833333333332998,0.13431666666667,0.13161666666667,0.13623333333333001,5
COM4,509,27-Jul-19,2019-07-27 08:00:00,0.16065,0.15428333333333,0.14685,0.14641666666667003,0.1428,0.13681666666667,0.14035,5
COM4,509,27-Jul-19,2019-07-27 09:00:00,0.18221666666667002,0.18273333333332997,0.17576666666667004,0.17438333333332998,0.16915,0.16228333333332998,0.16561666666667002,5
COM4,509,27-Jul-19,2019-07-27 10:00:00,0.1282,0.13286666666667,0.12716666666666998,0.12805,0.1234,0.11751666666666999,0.12013333333333001,5
COM4,509,27-Jul-19,2019-07-27 11:00:00,0.07948333333333299,0.08736666666666701,0.08403333333333299,0.08471666666666701,0.082766666666667,0.077566666666667,0.07916666666666701,5
COM4,509,27-Jul-19,2019-07-27 12:00:00,0.06928333333333299,0.07526666666666701,0.07135,0.0715,0.069183333333333,0.068866666666667,0.070266666666667,5
COM4,509,27-Jul-19,2019-07-27 13:00:00,0.061633333333333006,0.066483333333333,0.064483333333333,0.06515,0.06305,0.059433333333333005,0.06161666666666699,5
COM4,509,27-Jul-19,2019-07-27 14:00:00,0.07353333333333299,0.076383333333333,0.0731,0.07445,0.071916666666667,0.069083333333333,0.0707,5
COM4,509,27-Jul-19,2019-07-27 15:00:00,0.07445,0.0787,0.076633333333333,0.076816666666667,0.075466666666667,0.071233333333333,0.073916666666667,5
COM4,509,27-Jul-19,2019-07-27 16:00:00,0.08348333333333299,0.08636666666666701,0.083016666666667,0.083416666666667,0.08095,0.079116666666667,0.07975,5
COM4,509,27-Jul-19,2019-07-27 17:00:00,0.08801666666666699,0.093666666666667,0.09053333333333301,0.091366666666667,0.088966666666667,0.08586666666666701,0.08888333333333301,5
COM4,509,27-Jul-19,2019-07-27 18:00:00,0.0959,0.10735,0.10191666666667,0.10328333333333001,0.0993,0.099433333333333,0.09833333333333301,5
COM4,509,27-Jul-19,2019-07-27 19:00:00,0.10831666666666999,0.11533333333333,0.11,0.11146666666666999,0.10643333333333001,0.10586666666667,0.10643333333333001,5
COM4,509,27-Jul-19,2019-07-27 20:00:00,0.38946666666667,0.33713333333333,0.31015,0.29693333333333,0.27898333333333003,0.25326666666667,0.25755,5
COM4,509,27-Jul-19,2019-07-27 21:00:00,0.47795,0.41886666666667,0.38976666666667,0.3775,0.35723333333333,0.32098333333333,0.33068333333333,5
COM4,509,27-Jul-19,2019-07-27 22:00:00,0.38231666666666997,0.33356666666667,0.31175,0.2998,0.28593333333333,0.262,0.2685,5
COM4,509,27-Jul-19,2019-07-27 23:00:00,0.413,0.35,0.322,0.30901694915253997,0.29142372881356,0.26476271186441,0.27072881355932,5
