COM4,0509,04-Feb-19,2019-02-04 00:00:00,-0.093033333333333,-0.080166666666667,-0.082016666666667,-0.0824,-0.085016666666667,-0.0867,-0.0897,5,0,0,0,0,0,0,0,0,0,0,0,0,0,0,0,0,0,0,0,0,0,0,0,0,0,0,0,0,0,0,0,0,0,0,0,0,0,0,0,0,0,0
COM4,0509,04-Feb-19,2019-02-04 01:00:00,-0.032216666666667,-0.02485,-0.028366666666667,-0.031233333333333,-0.03185,-0.035633333333333,-0.037016666666667,5,0,0,0,0,0,0,0,0,0,0,0,0,0,0,0,0,0,0,0,0,0,0,0,0,0,0,0,0,0,0,0,0,0,0,0,0,0,0,0,0,0,0
COM4,0509,04-Feb-19,2019-02-04 02:00:00,-0.021516666666667,-0.016933333333333,-0.018,-0.0214,-0.022433333333333,-0.025466666666667,-0.0233,5,0,0,0,0,0,0,0,0,0,0,0,0,0,0,0,0,0,0,0,0,0,0,0,0,0,0,0,0,0,0,0,0,0,0,0,0,0,0,0,0,0,0
COM4,0509,04-Feb-19,2019-02-04 03:00:00,-0.026766666666667,-0.022783333333333,-0.02305,-0.025833333333333,-0.025083333333333,-0.024416666666667,-0.026166666666667,5,0,0,0,0,0,0,0,0,0,0,0,0,0,0,0,0,0,0,0,0,0,0,0,0,0,0,0,0,0,0,0,0,0,0,0,0,0,0,0,0,0,0
COM4,0509,04-Feb-19,2019-02-04 04:00:00,-0.01265,-0.0033333333333333,-0.00595,-0.0054,-0.00925,-0.00805,-0.0064833333333333,5,0,0,0,0,0,0,0,0,0,0,0,0,0,0,0,0,0,0,0,0,0,0,0,0,0,0,0,0,0,0,0,0,0,0,0,0,0,0,0,0,0,0
COM4,0509,04-Feb-19,2019-02-04 05:00:00,0.019916666666667,0.023983333333333,0.024833333333333,0.023283333333333,0.024366666666667,0.027483333333333,0.026533333333333,5,0,0,0,0,0,0,0,0,0,0,0,0,0,0,0,0,0,0,0,0,0,0,0,0,0,0,0,0,0,0,0,0,0,0,0,0,0,0,0,0,0,0
COM4,0509,04-Feb-19,2019-02-04 06:00:00,0.043033333333333,0.049416666666667,0.0464,0.0475,0.046166666666667,0.0476,0.049133333333333,5,0,0,0,0,0,0,0,0,0,0,0,0,0,0,0,0,0,0,0,0,0,0,0,0,0,0,0,0,0,0,0,0,0,0,0,0,0,0,0,0,0,0
COM4,0509,04-Feb-19,2019-02-04 07:00:00,0.061533333333333,0.069633333333333,0.066816666666667,0.06545,0.064816666666667,0.065616666666667,0.065133333333333,5,0,0,0,0,0,0,0,0,0,0,0,0,0,0,0,0,0,0,0,0,0,0,0,0,0,0,0,0,0,0,0,0,0,0,0,0,0,0,0,0,0,0
COM4,0509,04-Feb-19,2019-02-04 08:00:00,0.1892,0.1808,0.16643333333333,0.16133333333333,0.15988333333333,0.16183333333333,0.16028333333333,5,0,0,0,0,0,0,0,0,0,0,0,0,0,0,0,0,0,0,0,0,0,0,0,0,0,0,0,0,0,0,0,0,0,0,0,0,0,0,0,0,0,0
COM4,0509,04-Feb-19,2019-02-04 09:00:00,0.1711724137931,0.18329310344828,0.17381034482759,0.17474137931034,0.16937931034483,0.17155172413793,0.17087931034483,4.9137931034483,0,0,0,0,0,0,0,0,0,0,0,0,0,0,0,0,0,0,0,0,0,0,0,0,0,0,0,0,0,0,0,0,0,0,0,0,0,0,0,0,0,0
COM4,0509,04-Feb-19,2019-02-04 10:00:00,0.14927118644068,0.080474576271186,0.078593220338983,0.080338983050847,0.077542372881356,0.07306779661017,0.07935593220339,4.4915254237288,0,0,0,0,0,0,0,0,0,0,0,0,0,0,0,0,0,0,0,0,0,0,0,0,0,0,0,0,0,0,0,0,0,0,0
COM4,0509,04-Feb-19,2019-02-04 11:00:00,0.1114,0.081333333333333,0.07705,0.0767,0.073816666666667,0.07455,0.0757,5,0,0,0,0,0,0,0,0,0,0,0,0,0,0,0,0,0,0,0,0,0,0,0,0,0,0,0,0,0,0,0,0,0,0,0,0,0,0,0,0,0,0
COM4,0509,04-Feb-19,2019-02-04 12:00:00,0.17983333333333,0.17843333333333,0.16778333333333,0.1647,0.15888333333333,0.15505,0.15926666666667,5,0,0,0,0,0,0,0,0,0,0,0,0,0,0,0,0,0,0,0,0,0,0,0,0,0,0,0,0,0,0,0,0,0,0,0,0,0,0,0,0,0,0
COM4,0509,04-Feb-19,2019-02-04 13:00:00,0.13521666666667,0.1366,0.12716666666667,0.12526666666667,0.11903333333333,0.11566666666667,0.11851666666667,5,0,0,0,0,0,0,0,0,0,0,0,0,0,0,0,0,0,0,0,0,0,0,0,0,0,0,0,0,0,0,0,0,0,0,0,0,0,0,0,0,0,0
COM4,0509,04-Feb-19,2019-02-04 14:00:00,0.18194642857143,0.16969642857143,0.15273214285714,0.14551785714286,0.13969642857143,0.13626785714286,0.140375,5,0,0,0,0,0,0,0,0,0,0,0,0,0,0,0,0,0,0,0,0,0,0,0,0,0,0,0,0,0,0,0,0,0,0,0,0,0,0,0,0,0,0
COM4,0509,04-Feb-19,2019-02-04 15:00:00,0.21233333333333,0.20323333333333,0.18735,0.18131666666667,0.17311666666667,0.16656666666667,0.17211666666667,5,0,0,0,0,0,0,0,0,0,0,0,0,0,0,0,0,0,0,0,0,0,0,0,0,0,0,0,0,0,0,0,0,0,0,0,0,0,0,0,0,0,0
COM4,0509,04-Feb-19,2019-02-04 16:00:00,0.18024137931034,0.18336206896552,0.17481034482759,0.17315517241379,0.16839655172414,0.16370689655172,0.1691724137931,5,0,0,0,0,0,0,0,0,0,0,0,0,0,0,0,0,0,0,0,0,0,0,0,0,0,0,0,0,0,0,0,0,0,0,0,0,0,0,0,0,0,0
COM4,0509,04-Feb-19,2019-02-04 17:00:00,0.13923728813559,0.14006779661017,0.13435593220339,0.13286440677966,0.12928813559322,0.12603389830508,0.13033898305085,5,0,0,0,0,0,0,0,0,0,0,0,0,0,0,0,0,0,0,0,0,0,0,0,0,0,0,0,0,0,0,0,0,0,0,0,0,0,0,0,0,0,0
COM4,0509,04-Feb-19,2019-02-04 18:00:00,0.12960344827586,0.12944827586207,0.12313793103448,0.12208620689655,0.118,0.11262068965517,0.11520689655172,5,0,0,0,0,0,0,0,0,0,0,0,0,0,0,0,0,0,0,0,0,0,0,0,0,0,0,0,0,0,0,0,0,0,0,0,0,0,0,0,0,0,0
COM4,0509,04-Feb-19,2019-02-04 19:00:00,0.090661016949153,0.088881355932203,0.084423728813559,0.08371186440678,0.080118644067797,0.078661016949153,0.080779661016949,5,0,0,0,0,0,0,0,0,0,0,0,0,0,0,0,0,0,0,0,0,0,0,0,0,0,0,0,0,0,0,0,0,0,0,0,0,0,0,0,0,0,0
COM4,0509,04-Feb-19,2019-02-04 20:00:00,0.080616666666667,0.077883333333333,0.073366666666667,0.071566666666667,0.068783333333333,0.0646,0.066883333333333,5,0,0,0,0,0,0,0,0,0,0,0,0,0,0,0,0,0,0,0,0,0,0,0,0,0,0,0,0,0,0,0,0,0,0,0,0,0,0,0,0,0,0
COM4,0509,04-Feb-19,2019-02-04 21:00:00,0.0497,0.0462,0.044116666666667,0.043916666666667,0.04205,0.042733333333333,0.043566666666667,5,0,0,0,0,0,0,0,0,0,0,0,0,0,0,0,0,0,0,0,0,0,0,0,0,0,0,0,0,0,0,0,0,0,0,0,0,0,0,0,0,0,0
COM4,0509,04-Feb-19,2019-02-04 22:00:00,0.039203389830508,0.034932203389831,0.032966101694915,0.031542372881356,0.031169491525424,0.025813559322034,0.026457627118644,5,0,0,0,0,0,0,0,0,0,0,0,0,0,0,0,0,0,0,0,0,0,0,0,0,0,0,0,0,0,0,0,0,0,0,0,0,0,0,0,0,0,0
COM4,0509,04-Feb-19,2019-02-04 23:00:00,0.039116666666667,0.0362,0.034283333333333,0.03435,0.03305,0.032733333333333,0.03415,5,0,0,0,0,0,0,0,0,0,0,0,0,0,0,0,0,0,0,0,0,0,0,0,0,0,0,0,0,0,0,0,0,0,0,0,0,0,0,0,0,0,0
