COM4,509,3-Dec-18,2018-12-03 00:00:00,NaN,NaN,NaN,NaN,NaN,NaN,NaN,NaN
COM4,509,3-Dec-18,2018-12-03 01:00:00,NaN,NaN,NaN,NaN,NaN,NaN,NaN,NaN
COM4,509,3-Dec-18,2018-12-03 02:00:00,NaN,NaN,NaN,NaN,NaN,NaN,NaN,NaN
COM4,509,3-Dec-18,2018-12-03 03:00:00,NaN,NaN,NaN,NaN,NaN,NaN,NaN,NaN
COM4,509,3-Dec-18,2018-12-03 04:00:00,NaN,NaN,NaN,NaN,NaN,NaN,NaN,NaN
COM4,509,3-Dec-18,2018-12-03 05:00:00,NaN,NaN,NaN,NaN,NaN,NaN,NaN,NaN
COM4,509,3-Dec-18,2018-12-03 06:00:00,NaN,NaN,NaN,NaN,NaN,NaN,NaN,NaN
COM4,509,3-Dec-18,2018-12-03 07:00:00,NaN,NaN,NaN,NaN,NaN,NaN,NaN,NaN
COM4,509,3-Dec-18,2018-12-03 08:00:00,NaN,NaN,NaN,NaN,NaN,NaN,NaN,NaN
COM4,509,3-Dec-18,2018-12-03 09:00:00,NaN,NaN,NaN,NaN,NaN,NaN,NaN,NaN
COM4,509,3-Dec-18,2018-12-03 10:00:00,NaN,NaN,NaN,NaN,NaN,NaN,NaN,NaN
COM4,509,3-Dec-18,2018-12-03 11:00:00,NaN,NaN,NaN,NaN,NaN,NaN,NaN,NaN
COM4,509,3-Dec-18,2018-12-03 12:00:00,NaN,NaN,NaN,NaN,NaN,NaN,NaN,NaN
COM4,509,3-Dec-18,2018-12-03 13:00:00,NaN,NaN,NaN,NaN,NaN,NaN,NaN,NaN
COM4,509,3-Dec-18,2018-12-03 14:00:00,NaN,NaN,NaN,NaN,NaN,NaN,NaN,NaN
COM4,509,3-Dec-18,2018-12-03 15:00:00,NaN,NaN,NaN,NaN,NaN,NaN,NaN,NaN
COM4,509,3-Dec-18,2018-12-03 16:00:00,0.657067797,0.616254237,0.582338983,0.569915254,0.54740678,0.500847458,0.508271186,5
COM4,509,3-Dec-18,2018-12-03 17:00:00,0.751166667,0.685083333,0.641566667,0.628883333,0.602516667,0.544383333,0.551016667,5
COM4,509,3-Dec-18,2018-12-03 18:00:00,0.929233333,0.805433333,0.746266667,0.723633333,0.6854,0.598716667,0.603416667,5
COM4,509,3-Dec-18,2018-12-03 19:00:00,1.405,1.1707,1.0466,0.985816667,0.921166667,0.785,0.78875,5
COM4,509,3-Dec-18,2018-12-03 20:00:00,1.104183333,0.8279,0.726366667,0.672983333,0.620216667,0.516283333,0.518616667,5
COM4,509,3-Dec-18,2018-12-03 21:00:00,1.44575,1.0213,0.878016667,0.800533333,0.728916667,0.593316667,0.592616667,5
COM4,509,3-Dec-18,2018-12-03 22:00:00,1.389916667,1.0612,0.897633333,0.799333333,0.714633333,0.561816667,0.559883333,5
COM4,509,3-Dec-18,2018-12-03 23:00:00,0.912233333,0.7263,0.639333333,0.590433333,0.540866667,0.433583333,0.431766667,5
