COM4,509,09-Oct-18,2018-10-09 00:00:00,NaN,NaN,NaN,NaN,NaN,NaN,NaN,NaN
COM4,509,09-Oct-18,2018-10-09 01:00:00,NaN,NaN,NaN,NaN,NaN,NaN,NaN,NaN
COM4,509,09-Oct-18,2018-10-09 02:00:00,NaN,NaN,NaN,NaN,NaN,NaN,NaN,NaN
COM4,509,09-Oct-18,2018-10-09 03:00:00,NaN,NaN,NaN,NaN,NaN,NaN,NaN,NaN
COM4,509,09-Oct-18,2018-10-09 04:00:00,NaN,NaN,NaN,NaN,NaN,NaN,NaN,NaN
COM4,509,09-Oct-18,2018-10-09 05:00:00,NaN,NaN,NaN,NaN,NaN,NaN,NaN,NaN
COM4,509,09-Oct-18,2018-10-09 06:00:00,NaN,NaN,NaN,NaN,NaN,NaN,NaN,NaN
COM4,509,09-Oct-18,2018-10-09 07:00:00,NaN,NaN,NaN,NaN,NaN,NaN,NaN,NaN
COM4,509,09-Oct-18,2018-10-09 08:00:00,NaN,NaN,NaN,NaN,NaN,NaN,NaN,NaN
COM4,509,09-Oct-18,2018-10-09 09:00:00,NaN,NaN,NaN,NaN,NaN,NaN,NaN,NaN
COM4,509,09-Oct-18,2018-10-09 10:00:00,NaN,NaN,NaN,NaN,NaN,NaN,NaN,NaN
COM4,509,09-Oct-18,2018-10-09 11:00:00,NaN,NaN,NaN,NaN,NaN,NaN,NaN,NaN
COM4,509,09-Oct-18,2018-10-09 12:00:00,0.20893333333332997,0.17281666666667003,0.16641666666667002,0.16551666666667,0.16076666666667,0.15788333333333,0.1651,5
COM4,509,09-Oct-18,2018-10-09 13:00:00,0.18628333333332997,0.17598333333332997,0.16453333333332998,0.16171666666667,0.15518333333332998,0.15048333333333,0.15508333333333,5
COM4,509,09-Oct-18,2018-10-09 14:00:00,0.23698333333332997,0.23731666666667003,0.22566666666667004,0.22253333333332997,0.2158,0.21288333333332995,0.21975,5
COM4,509,09-Oct-18,2018-10-09 15:00:00,0.28013333333333,0.27753333333333,0.26491666666667,0.26373333333333,0.2558,0.25003333333332994,0.25718333333333,5
COM4,509,09-Oct-18,2018-10-09 16:00:00,0.26855,0.2622,0.25075,0.24845,0.24093333333332997,0.23408333333332998,0.24123333333332997,5
COM4,509,09-Oct-18,2018-10-09 17:00:00,0.33851666666667,0.34456666666667,0.33261666666667,0.33328333333333,0.32508333333333,0.32218333333333,0.3325,5
COM4,509,09-Oct-18,2018-10-09 18:00:00,0.2614,0.26113333333332994,0.25228333333333,0.2534,0.2467,0.2401,0.2473,5
COM4,509,09-Oct-18,2018-10-09 19:00:00,0.20068333333332997,0.20045,0.19345,0.1927,0.18908333333332997,0.18328333333332997,0.18873333333332998,5
COM4,509,09-Oct-18,2018-10-09 20:00:00,0.20096666666667004,0.19925,0.19203333333332998,0.19248333333332998,0.18701666666667002,0.18153333333332997,0.18626666666667002,5
COM4,509,09-Oct-18,2018-10-09 21:00:00,0.18438333333332996,0.1758,0.16835,0.16785,0.16335,0.15925,0.16398333333332998,5
COM4,509,09-Oct-18,2018-10-09 22:00:00,0.1571,0.15485,0.14915,0.14756666666667,0.14396666666667002,0.13943333333333,0.1434,5
COM4,509,09-Oct-18,2018-10-09 23:00:00,0.061949152542373,0.057372881355932,0.053949152542373,0.054000000000000006,0.051694915254237,0.048152542372880996,0.049491525423729,5
