COM4,509,20-Mar-19,2019-03-20 00:00:00,0.070516666666667,0.06736666666666699,0.06255,0.06155,0.058416666666667,0.054883333333333006,0.055333333333333005,5
COM4,509,20-Mar-19,2019-03-20 01:00:00,0.06725,0.06468333333333301,0.060183333333333006,0.05915,0.055183333333333,0.0514,0.05295,5
COM4,509,20-Mar-19,2019-03-20 02:00:00,0.071666666666667,0.067016666666667,0.06271666666666699,0.06105,0.057316666666666995,0.053966666666666996,0.05435,5
COM4,509,20-Mar-19,2019-03-20 03:00:00,0.0767,0.07435,0.0686,0.067033333333333,0.0638,0.058333333333333,0.06025,5
COM4,509,20-Mar-19,2019-03-20 04:00:00,0.088483333333333,0.08545,0.08105,0.07908333333333299,0.07533333333333299,0.071183333333333,0.072566666666667,5
COM4,509,20-Mar-19,2019-03-20 05:00:00,0.15388333333332999,0.15003333333333,0.14203333333333,0.14023333333333,0.13473333333333,0.12863333333333002,0.13275,5
COM4,509,20-Mar-19,2019-03-20 06:00:00,0.28076666666667,0.28898333333333,0.27736666666667,0.27621666666667,0.26856666666667,0.26158333333332995,0.26936666666667003,5
COM4,509,20-Mar-19,2019-03-20 07:00:00,0.34903333333333003,0.36661666666667,0.35296666666667,0.35353333333333,0.34508333333333,0.34118333333333,0.35271666666667,5
COM4,509,20-Mar-19,2019-03-20 08:00:00,0.18068333333332998,0.18701666666667002,0.17948333333332997,0.17978333333332996,0.17386666666667003,0.17123333333332996,0.17633333333332996,5
COM4,509,20-Mar-19,2019-03-20 09:00:00,0.10078333333333,0.09995,0.09568333333333301,0.093666666666667,0.090966666666667,0.08535,0.08826666666666699,5
COM4,509,20-Mar-19,2019-03-20 10:00:00,0.08135,0.078566666666667,0.074916666666667,0.07315,0.0708,0.06561666666666699,0.0691,5
COM4,509,20-Mar-19,2019-03-20 11:00:00,0.07701666666666701,0.073416666666667,0.06946666666666701,0.06903333333333299,0.065516666666667,0.0604,0.062233333333333,5
COM4,509,20-Mar-19,2019-03-20 12:00:00,0.07858333333333299,0.072883333333333,0.0691,0.06615,0.064366666666667,0.058266666666666994,0.060816666666667,5
COM4,509,20-Mar-19,2019-03-20 13:00:00,0.073816666666667,0.07005,0.06585,0.06395,0.060816666666667,0.056083333333333006,0.05905,5
COM4,509,20-Mar-19,2019-03-20 14:00:00,0.0672,0.064133333333333,0.059516666666666995,0.05905,0.056083333333333006,0.051366666666667,0.05255,5
COM4,509,20-Mar-19,2019-03-20 15:00:00,0.064083333333333,0.061033333333333,0.057616666666666996,0.055783333333333004,0.05345,0.04926666666666699,0.05078333333333301,5
COM4,509,20-Mar-19,2019-03-20 16:00:00,0.061466666666666996,0.062233333333333,0.058033333333333006,0.057116666666666996,0.0543,0.05071666666666699,0.052000000000000005,5
COM4,509,20-Mar-19,2019-03-20 17:00:00,0.06421666666666699,0.062033333333333,0.059066666666666996,0.057716666666667,0.056066666666666994,0.052216666666666994,0.054083333333333004,5
COM4,509,20-Mar-19,2019-03-20 18:00:00,0.08845,0.0849,0.079616666666667,0.0778,0.074916666666667,0.06965,0.071733333333333,5
COM4,509,20-Mar-19,2019-03-20 19:00:00,0.05985,0.05805,0.054283333333333,0.05405,0.0506,0.04575,0.047216666666667,5
COM4,509,20-Mar-19,2019-03-20 20:00:00,0.05815,0.05846666666666699,0.05565,0.05465,0.05223333333333301,0.05165,0.052966666666666995,5
COM4,509,20-Mar-19,2019-03-20 21:00:00,0.04545,0.045833333333333004,0.041983333333333005,0.042433333333333004,0.04,0.039966666666667,0.041333333333333,5
COM4,509,20-Mar-19,2019-03-20 22:00:00,0.048716666666667,0.048616666666666995,0.046233333333333,0.044716666666666995,0.04285,0.04303333333333301,0.042516666666666994,5
COM4,509,20-Mar-19,2019-03-20 23:00:00,0.058949152542373,0.057338983050846996,0.05428813559322,0.052694915254237,0.050762711864407006,0.05054237288135599,0.051508474576271,5
