COM4,0509,13-Dec-18,2018-12-13 00:00:00,0.46671186440678,0.37242372881356,0.31279661016949,0.28028813559322,0.25240677966102,0.2225593220339,0.22838983050847,5,0,0,0,0,0,0,0,0,0,0,0,0,0,0,0,0,0,0,0,0,0,0,0,0,0,0,0,0,0,0,0,0,0,0,0,0,0,0,0,0,0,0
COM4,0509,13-Dec-18,2018-12-13 01:00:00,0.39043333333333,0.33448333333333,0.28561666666667,0.2536,0.23006666666667,0.20553333333333,0.20926666666667,5,0,0,0,0,0,0,0,0,0,0,0,0,0,0,0,0,0,0,0,0,0,0,0,0,0,0,0,0,0,0,0,0,0,0,0,0,0,0,0,0,0,0
COM4,0509,13-Dec-18,2018-12-13 02:00:00,0.19161666666667,0.15623333333333,0.1364,0.12706666666667,0.1149,0.10143333333333,0.10303333333333,5,0,0,0,0,0,0,0,0,0,0,0,0,0,0,0,0,0,0,0,0,0,0,0,0,0,0,0,0,0,0,0,0,0,0,0,0,0,0,0,0,0,0
COM4,0509,13-Dec-18,2018-12-13 03:00:00,0.34181666666667,0.28438333333333,0.24486666666667,0.22425,0.20323333333333,0.16828333333333,0.17015,5,0,0,0,0,0,0,0,0,0,0,0,0,0,0,0,0,0,0,0,0,0,0,0,0,0,0,0,0,0,0,0,0,0,0,0,0,0,0,0,0,0,0
COM4,0509,13-Dec-18,2018-12-13 04:00:00,0.4304,0.35226666666667,0.32075,0.30033333333333,0.27676666666667,0.24723333333333,0.25233333333333,5,0,0,0,0,0,0,0,0,0,0,0,0,0,0,0,0,0,0,0,0,0,0,0,0,0,0,0,0,0,0,0,0,0,0,0,0,0,0,0,0,0,0
COM4,0509,13-Dec-18,2018-12-13 05:00:00,0.25141666666667,0.22993333333333,0.20938333333333,0.19778333333333,0.18443333333333,0.16743333333333,0.17063333333333,5,0,0,0,0,0,0,0,0,0,0,0,0,0,0,0,0,0,0,0,0,0,0,0,0,0,0,0,0,0,0,0,0,0,0,0,0,0,0,0,0,0,0
COM4,0509,13-Dec-18,2018-12-13 06:00:00,0.62568333333333,0.57623333333333,0.53326666666667,0.51281666666667,0.48456666666667,0.44483333333333,0.45805,5,0,0,0,0,0,0,0,0,0,0,0,0,0,0,0,0,0,0,0,0,0,0,0,0,0,0,0,0,0,0,0,0,0,0,0,0,0,0,0,0,0,0
COM4,0509,13-Dec-18,2018-12-13 07:00:00,0.75533333333333,0.67605,0.60646666666667,0.56843333333333,0.52676666666667,0.48551666666667,0.49398333333333,5,0,0,0,0,0,0,0,0,0,0,0,0,0,0,0,0,0,0,0,0,0,0,0,0,0,0,0,0,0,0,0,0,0,0,0,0,0,0,0,0,0,0
COM4,0509,13-Dec-18,2018-12-13 08:00:00,1.0683333333333,1.0155,0.94428333333333,0.9112,0.8682,0.83271666666667,0.85515,5,0,0,0,0,0,0,0,0,0,0,0,0,0,0,0,0,0,0,0,0,0,0,0,0,0,0,0,0,0,0,0,0,0,0,0,0,0,0,0,0,0,0
COM4,0509,13-Dec-18,2018-12-13 09:00:00,0.70198333333333,0.65543333333333,0.60671666666667,0.58465,0.55091666666667,0.50843333333333,0.52078333333333,5,0,0,0,0,0,0,0,0,0,0,0,0,0,0,0,0,0,0,0,0,0,0,0,0,0,0,0,0,0,0,0,0,0,0,0,0,0,0,0,0,0,0
COM4,0509,13-Dec-18,2018-12-13 10:00:00,1.0078166666667,0.89808333333333,0.81176666666667,0.76395,0.71533333333333,0.65785,0.67176666666667,5,0,0,0,0,0,0,0,0,0,0,0,0,0,0,0,0,0,0,0,0,0,0,0,0,0,0,0,0,0,0,0,0,0,0,0,0,0,0,0,0,0,0
COM4,0509,13-Dec-18,2018-12-13 11:00:00,0.55306666666667,0.53635,0.49593333333333,0.48063333333333,0.45416666666667,0.4227,0.43271666666667,5,0,0,0,0,0,0,0,0,0,0,0,0,0,0,0,0,0,0,0,0,0,0,0,0,0,0,0,0,0,0,0,0,0,0,0,0,0,0,0,0,0,0
COM4,0509,13-Dec-18,2018-12-13 12:00:00,0.18546666666667,0.21476666666667,0.20573333333333,0.19991666666667,0.19175,0.17255,0.17756666666667,5,0,0,0,0,0,0,0,0,0,0,0,0,0,0,0,0,0,0,0,0,0,0,0,0,0,0,0,0,0,0,0,0,0,0,0,0,0,0,0,0,0,0
COM4,0509,13-Dec-18,2018-12-13 13:00:00,0.50886666666667,0.4833,0.44476666666667,0.42535,0.39901666666667,0.36525,0.37008333333333,5,0,0,0,0,0,0,0,0,0,0,0,0,0,0,0,0,0,0,0,0,0,0,0,0,0,0,0,0,0,0,0,0,0,0,0,0,0,0,0,0,0,0
COM4,0509,13-Dec-18,2018-12-13 14:00:00,0.5912,0.56086666666667,0.51641666666667,0.4948,0.4635,0.42468333333333,0.43251666666667,5,0,0,0,0,0,0,0,0,0,0,0,0,0,0,0,0,0,0,0,0,0,0,0,0,0,0,0,0,0,0,0,0,0,0,0,0,0,0,0,0,0,0
COM4,0509,13-Dec-18,2018-12-13 15:00:00,0.54911666666667,0.52185,0.48503333333333,0.46745,0.44505,0.41133333333333,0.42103333333333,5,0,0,0,0,0,0,0,0,0,0,0,0,0,0,0,0,0,0,0,0,0,0,0,0,0,0,0,0,0,0,0,0,0,0,0,0,0,0,0,0,0,0
COM4,0509,13-Dec-18,2018-12-13 16:00:00,0.82246666666667,0.77541666666667,0.72668333333333,0.70663333333333,0.67343333333333,0.62695,0.63863333333333,5,0,0,0,0,0,0,0,0,0,0,0,0,0,0,0,0,0,0,0,0,0,0,0,0,0,0,0,0,0,0,0,0,0,0,0,0,0,0,0,0,0,0
COM4,0509,13-Dec-18,2018-12-13 17:00:00,1.3373,1.2108166666667,1.1337166666667,1.11095,1.0573666666667,0.96996666666667,0.98716666666667,5,0,0,0,0,0,0,0,0,0,0,0,0,0,0,0,0,0,0,0,0,0,0,0,0,0,0,0,0,0,0,0,0,0,0,0,0,0,0,0,0,0,0
COM4,0509,13-Dec-18,2018-12-13 18:00:00,2.7216666666667,2.1822333333333,1.96385,1.8648333333333,1.7522166666667,1.6025833333333,1.6365666666667,5,0,0,0,0,0,0,0,0,0,0,0,0,0,0,0,0,0,0,0,0,0,0,0,0,0,0,0,0,0,0,0,0,0,0,0,0,0,0,0,0,0,0
COM4,0509,13-Dec-18,2018-12-13 19:00:00,1.9188166666667,1.59065,1.4419333333333,1.3743166666667,1.2994,1.2120833333333,1.2406166666667,5,0,0,0,0,0,0,0,0,0,0,0,0,0,0,0,0,0,0,0,0,0,0,0,0,0,0,0,0,0,0,0,0,0,0,0,0,0,0,0,0,0,0
COM4,0509,13-Dec-18,2018-12-13 20:00:00,1.7230833333333,1.5233166666667,1.40545,1.3575666666667,1.2849333333333,1.186,1.2074666666667,5,0,0,0,0,0,0,0,0,0,0,0,0,0,0,0,0,0,0,0,0,0,0,0,0,0,0,0,0,0,0,0,0,0,0,0,0,0,0,0,0,0,0
COM4,0509,13-Dec-18,2018-12-13 21:00:00,1.87965,1.5575833333333,1.41975,1.3520833333333,1.26915,1.13335,1.1493833333333,5,0,0,0,0,0,0,0,0,0,0,0,0,0,0,0,0,0,0,0,0,0,0,0,0,0,0,0,0,0,0,0,0,0,0,0,0,0,0,0,0,0,0
COM4,0509,13-Dec-18,2018-12-13 22:00:00,2.63015,2.1531833333333,1.96645,1.8911333333333,1.79295,1.6566833333333,1.6940833333333,5,0,0,0,0,0,0,0,0,0,0,0,0,0,0,0,0,0,0,0,0,0,0,0,0,0,0,0,0,0,0,0,0,0,0,0,0,0,0,0,0,0,0
COM4,0509,13-Dec-18,2018-12-13 23:00:00,2.14505,1.8184833333333,1.66615,1.5907166666667,1.49935,1.3464833333333,1.36935,5,0,0,0,0,0,0,0,0,0,0,0,0,0,0,0,0,0,0,0,0,0,0,0,0,0,0,0,0,0,0,0,0,0,0,0,0,0,0,0,0,0,0
