COM4,509,25-Sep-19,2019-09-25 00:00:00,0.18773333333332998,0.17136666666667003,0.16038333333333,0.15938333333333,0.14991666666667,0.14448333333333,0.147,5
COM4,509,25-Sep-19,2019-09-25 01:00:00,0.20871666666667002,0.19028333333332997,0.17576666666667004,0.17158333333332998,0.16315,0.15576666666667002,0.15801666666667002,5
COM4,509,25-Sep-19,2019-09-25 02:00:00,0.19691666666667004,0.17763333333332998,0.16501666666667,0.15743333333332998,0.15101666666667002,0.14343333333333,0.14641666666667003,5
COM4,509,25-Sep-19,2019-09-25 03:00:00,0.17516666666667002,0.15996666666667,0.14595,0.14411666666667,0.1347,0.12646666666667,0.12906666666667,5
COM4,509,25-Sep-19,2019-09-25 04:00:00,0.1487,0.13088333333333,0.12358333333333,0.11711666666666999,0.11296666666666999,0.10466666666666999,0.10728333333333001,5
COM4,509,25-Sep-19,2019-09-25 05:00:00,0.17478333333332996,0.1612,0.14621666666667002,0.14473333333333,0.1358,0.1264,0.12781666666667,5
COM4,509,25-Sep-19,2019-09-25 06:00:00,0.22235,0.20773333333332997,0.19208333333332997,0.18386666666667004,0.17395,0.15921666666667,0.16628333333332998,5
COM4,509,25-Sep-19,2019-09-25 07:00:00,0.45401666666667,0.40935,0.37946666666667,0.36761666666667,0.34606666666667,0.31923333333333,0.3257,5
COM4,509,25-Sep-19,2019-09-25 08:00:00,0.38913333333333,0.34925,0.32918333333333,0.3224,0.30703333333333,0.28608333333333,0.29351666666667,5
COM4,509,25-Sep-19,2019-09-25 09:00:00,0.30861666666667,0.2974,0.28705,0.2837,0.27533333333333,0.26638333333333,0.27718333333333,5
COM4,509,25-Sep-19,2019-09-25 10:00:00,0.23236666666667002,0.21521666666667003,0.2208,0.22201666666667003,0.22636666666667002,0.22078333333332997,0.23006666666667003,5
COM4,509,25-Sep-19,2019-09-25 11:00:00,0.17805,0.14965,0.1565,0.15443333333332998,0.16188333333333,0.1534,0.16718333333333,5
COM4,509,25-Sep-19,2019-09-25 12:00:00,0.091333333333333,0.088583333333333,0.09066666666666699,0.09535,0.10098333333333001,0.097883333333333,0.10373333333333,5
COM4,509,25-Sep-19,2019-09-25 13:00:00,0.036066666666667004,0.05055,0.055016666666667,0.053916666666666994,0.059216666666666994,0.05975,0.06465,5
COM4,509,25-Sep-19,2019-09-25 14:00:00,0.01925,0.0388,0.0404,0.040333333333333,0.0418,0.041883333333333,0.04303333333333301,5
COM4,509,25-Sep-19,2019-09-25 15:00:00,0.0167,0.03505,0.0351,0.035183333333333,0.0357,0.034066666666667,0.036266666666667,5
COM4,509,25-Sep-19,2019-09-25 16:00:00,0.027433333333332994,0.046483333333333,0.039166666666667,0.04165,0.037416666666667,0.036833333333333,0.03585,5
COM4,509,25-Sep-19,2019-09-25 17:00:00,0.08445,0.0786,0.076633333333333,0.071483333333333,0.07005,0.061733333333333,0.063666666666667,5
COM4,509,25-Sep-19,2019-09-25 18:00:00,0.20295,0.1615,0.1504,0.14328333333333,0.1341,0.11623333333333001,0.12163333333333,5
COM4,509,25-Sep-19,2019-09-25 19:00:00,0.29093333333333,0.25401666666667005,0.22766666666667004,0.21211666666667003,0.19836666666667002,0.17301666666667004,0.17683333333332996,5
COM4,509,25-Sep-19,2019-09-25 20:00:00,0.20381666666667003,0.20676666666667004,0.18238333333332996,0.17478333333332996,0.15696666666667,0.1428,0.1429,5
COM4,509,25-Sep-19,2019-09-25 21:00:00,0.18395,0.17465,0.15265,0.1462,0.13386666666667,0.122,0.12173333333333,5
COM4,509,25-Sep-19,2019-09-25 22:00:00,0.23718333333332997,0.19793333333332996,0.18003333333332996,0.17181666666667003,0.15473333333332998,0.141,0.14013333333332997,5
COM4,509,25-Sep-19,2019-09-25 23:00:00,0.23628333333332996,0.2045,0.18513333333332996,0.1732,0.15686666666667,0.14088333333332997,0.14056666666667,5
