COM4,0509,14-Feb-19,2019-02-14 00:00:00,0.054233333333333,0.0503,0.044333333333333,0.041433333333333,0.039016666666667,0.0354,0.03615,5,0,0,0,0,0,0,0,0,0,0,0,0,0,0,0,0,0,0,0,0,0,0,0,0,0,0,0,0,0,0,0,0,0,0,0,0,0,0,0,0,0,0
COM4,0509,14-Feb-19,2019-02-14 01:00:00,0.036293103448276,0.030086206896552,0.024155172413793,0.018448275862069,0.016793103448276,0.01401724137931,0.015431034482759,5,0,0,0,0,0,0,0,0,0,0,0,0,0,0,0,0,0,0,0,0,0,0,0,0,0,0,0,0,0,0,0,0,0,0,0,0,0,0,0,0,0,0
COM4,0509,14-Feb-19,2019-02-14 02:00:00,0.027118644067797,0.026220338983051,0.023406779661017,0.022559322033898,0.021406779661017,0.020525423728814,0.019627118644068,5,0,0,0,0,0,0,0,0,0,0,0,0,0,0,0,0,0,0,0,0,0,0,0,0,0,0,0,0,0,0,0,0,0,0,0,0,0,0,0,0,0,0
COM4,0509,14-Feb-19,2019-02-14 03:00:00,0.013169491525424,0.016067796610169,0.016576271186441,0.017186440677966,0.015576271186441,0.013881355932203,0.015067796610169,5,0,0,0,0,0,0,0,0,0,0,0,0,0,0,0,0,0,0,0,0,0,0,0,0,0,0,0,0,0,0,0,0,0,0,0,0,0,0,0,0,0,0
COM4,0509,14-Feb-19,2019-02-14 04:00:00,0.042322033898305,0.043983050847458,0.042779661016949,0.042237288135593,0.040084745762712,0.035457627118644,0.034932203389831,5,0,0,0,0,0,0,0,0,0,0,0,0,0,0,0,0,0,0,0,0,0,0,0,0,0,0,0,0,0,0,0,0,0,0,0,0,0,0,0,0,0,0
COM4,0509,14-Feb-19,2019-02-14 05:00:00,0.071186440677966,0.075694915254237,0.07306779661017,0.072525423728814,0.068576271186441,0.06,0.061593220338983,5,0,0,0,0,0,0,0,0,0,0,0,0,0,0,0,0,0,0,0,0,0,0,0,0,0,0,0,0,0,0,0,0,0,0,0,0,0,0,0,0,0,0
COM4,0509,14-Feb-19,2019-02-14 06:00:00,0.065948275862069,0.069741379310345,0.068431034482759,0.06598275862069,0.062568965517241,0.056189655172414,0.058344827586207,5,0,0,0,0,0,0,0,0,0,0,0,0,0,0,0,0,0,0,0,0,0,0,0,0,0,0,0,0,0,0,0,0,0,0,0,0,0,0,0,0,0,0
COM4,0509,14-Feb-19,2019-02-14 07:00:00,0.46296610169492,0.44972881355932,0.41727118644068,0.40586440677966,0.38030508474576,0.34128813559322,0.34927118644068,5,0,0,0,0,0,0,0,0,0,0,0,0,0,0,0,0,0,0,0,0,0,0,0,0,0,0,0,0,0,0,0,0,0,0,0,0,0,0,0,0,0,0
COM4,0509,14-Feb-19,2019-02-14 08:00:00,0.29665454545455,0.3016,0.2878,0.28625454545455,0.26758181818182,0.2398,0.24518181818182,5,0,0,0,0,0,0,0,0,0,0,0,0,0,0,0,0,0,0,0,0,0,0,0,0,0,0,0,0,0,0,0,0,0,0,0,0,0,0,0,0,0,0
COM4,0509,14-Feb-19,2019-02-14 09:00:00,0.62873333333333,0.6636,0.64175,0.64383333333333,0.6041,0.54686666666667,0.55815,5,0,0,0,0,0,0,0,0,0,0,0,0,0,0,0,0,0,0,0,0,0,0,0,0,0,0,0,0,0,0,0,0,0,0,0,0,0,0,0,0,0,0
COM4,0509,14-Feb-19,2019-02-14 10:00:00,0.27121052631579,0.29321052631579,0.28414035087719,0.285,0.26545614035088,0.23538596491228,0.23875438596491,5,0,0,0,0,0,0,0,0,0,0,0,0,0,0,0,0,0,0,0,0,0,0,0,0,0,0,0,0,0,0,0,0,0,0,0,0,0,0,0,0,0,0
COM4,0509,14-Feb-19,2019-02-14 11:00:00,0.33627118644068,0.36715254237288,0.35716949152542,0.35950847457627,0.337,0.30616949152542,0.31120338983051,5,0,0,0,0,0,0,0,0,0,0,0,0,0,0,0,0,0,0,0,0,0,0,0,0,0,0,0,0,0,0,0,0,0,0,0,0,0,0,0,0,0,0
COM4,0509,14-Feb-19,2019-02-14 12:00:00,0.456,0.48576666666667,0.47448333333333,0.4788,0.44478333333333,0.39603333333333,0.40346666666667,5,0,0,0,0,0,0,0,0,0,0,0,0,0,0,0,0,0,0,0,0,0,0,0,0,0,0,0,0,0,0,0,0,0,0,0,0,0,0,0,0,0,0
COM4,0509,14-Feb-19,2019-02-14 13:00:00,0.41915254237288,0.42684745762712,0.40633898305085,0.40222033898305,0.36983050847458,0.32367796610169,0.32869491525424,5,0,0,0,0,0,0,0,0,0,0,0,0,0,0,0,0,0,0,0,0,0,0,0,0,0,0,0,0,0,0,0,0,0,0,0,0,0,0,0,0,0,0
COM4,0509,14-Feb-19,2019-02-14 14:00:00,0.34435593220339,0.37223728813559,0.36335593220339,0.36486440677966,0.33827118644068,0.2975593220339,0.30374576271186,5,0,0,0,0,0,0,0,0,0,0,0,0,0,0,0,0,0,0,0,0,0,0,0,0,0,0,0,0,0,0,0,0,0,0,0,0,0,0,0,0,0,0
COM4,0509,14-Feb-19,2019-02-14 15:00:00,0.45645614035088,0.48289473684211,0.4700350877193,0.47194736842105,0.43712280701754,0.38510526315789,0.39071929824561,5,0,0,0,0,0,0,0,0,0,0,0,0,0,0,0,0,0,0,0,0,0,0,0,0,0,0,0,0,0,0,0,0,0,0,0,0,0,0,0,0,0,0
COM4,0509,14-Feb-19,2019-02-14 16:00:00,0.39618333333333,0.41098333333333,0.39903333333333,0.40268333333333,0.3711,0.32818333333333,0.33475,5,0,0,0,0,0,0,0,0,0,0,0,0,0,0,0,0,0,0,0,0,0,0,0,0,0,0,0,0,0,0,0,0,0,0,0,0,0,0,0,0,0,0
COM4,0509,14-Feb-19,2019-02-14 17:00:00,0.72740677966102,0.71210169491525,0.66320338983051,0.64964406779661,0.58598305084746,0.50798305084746,0.517,5,0,0,0,0,0,0,0,0,0,0,0,0,0,0,0,0,0,0,0,0,0,0,0,0,0,0,0,0,0,0,0,0,0,0,0,0,0,0,0,0,0,0
COM4,0509,14-Feb-19,2019-02-14 18:00:00,0.50686666666667,0.52756666666667,0.5093,0.50906666666667,0.46518333333333,0.40428333333333,0.41211666666667,5,0,0,0,0,0,0,0,0,0,0,0,0,0,0,0,0,0,0,0,0,0,0,0,0,0,0,0,0,0,0,0,0,0,0,0,0,0,0,0,0,0,0
COM4,0509,14-Feb-19,2019-02-14 19:00:00,0.45329310344828,0.47043103448276,0.46134482758621,0.4631724137931,0.41998275862069,0.35506896551724,0.36103448275862,5,0,0,0,0,0,0,0,0,0,0,0,0,0,0,0,0,0,0,0,0,0,0,0,0,0,0,0,0,0,0,0,0,0,0,0,0,0,0,0,0,0,0
COM4,0509,14-Feb-19,2019-02-14 20:00:00,0.43830508474576,0.45294915254237,0.44313559322034,0.44716949152542,0.40977966101695,0.34898305084746,0.35391525423729,5,0,0,0,0,0,0,0,0,0,0,0,0,0,0,0,0,0,0,0,0,0,0,0,0,0,0,0,0,0,0,0,0,0,0,0,0,0,0,0,0,0,0
COM4,0509,14-Feb-19,2019-02-14 21:00:00,0.3288275862069,0.3365,0.33153448275862,0.3336724137931,0.30293103448276,0.25843103448276,0.26248275862069,5,0,0,0,0,0,0,0,0,0,0,0,0,0,0,0,0,0,0,0,0,0,0,0,0,0,0,0,0,0,0,0,0,0,0,0,0,0,0,0,0,0,0
COM4,0509,14-Feb-19,2019-02-14 22:00:00,-0.025728813559322,-0.014677966101695,-0.0099152542372881,-0.0064237288135593,-0.0051016949152542,-0.00055932203389831,-0.00094915254237288,5,0,0,0,0,0,0,0,0,0,0,0,0,0,0,0,0,0,0,0,0,0,0,0,0,0,0,0,0,0,0,0,0,0,0,0,0,0,0,0,0,0,0
COM4,0509,14-Feb-19,2019-02-14 23:00:00,-0.024118644067797,-0.019762711864407,-0.016457627118644,-0.016491525423729,-0.013305084745763,-0.010830508474576,-0.011949152542373,5,0,0,0,0,0,0,0,0,0,0,0,0,0,0,0,0,0,0,0,0,0,0,0,0,0,0,0,0,0,0,0,0,0,0,0,0,0,0,0,0,0,0
