COM4,0509,05-Jan-19,2019-01-05 00:00:00,2.1575,1.7911833333333,1.6257666666667,1.5665666666667,1.4945666666667,1.4207666666667,1.4593833333333,4.5766666666667,0,0,0,0,0,0,0,0,0,0,0,0,0,0,0,0,0,0,0,0,0,0,0,0,0,0,0,0,0,0,0,0,0,0,0,0,0,0,0,0,0,0
COM4,0509,05-Jan-19,2019-01-05 01:00:00,1.9529666666667,1.6367,1.51655,1.4831833333333,1.4235333333333,1.3630666666667,1.40085,5,0,0,0,0,0,0,0,0,0,0,0,0,0,0,0,0,0,0,0,0,0,0,0,0,0,0,0,0,0,0,0,0,0,0,0,0,0,0,0,0,0,0
COM4,0509,05-Jan-19,2019-01-05 02:00:00,1.56935,1.4840666666667,1.3973833333333,1.3814166666667,1.3381,1.3069,1.3471833333333,5,0,0,0,0,0,0,0,0,0,0,0,0,0,0,0,0,0,0,0,0,0,0,0,0,0,0,0,0,0,0,0,0,0,0,0,0,0,0,0,0,0,0
COM4,0509,05-Jan-19,2019-01-05 03:00:00,1.4142833333333,1.3218333333333,1.23935,1.2190333333333,1.17905,1.1522166666667,1.1885833333333,5,0,0,0,0,0,0,0,0,0,0,0,0,0,0,0,0,0,0,0,0,0,0,0,0,0,0,0,0,0,0,0,0,0,0,0,0,0,0,0,0,0,0
COM4,0509,05-Jan-19,2019-01-05 04:00:00,1.8993,1.5301166666667,1.3981333333333,1.35265,1.2916666666667,1.2409833333333,1.2787,5,0,0,0,0,0,0,0,0,0,0,0,0,0,0,0,0,0,0,0,0,0,0,0,0,0,0,0,0,0,0,0,0,0,0,0,0,0,0,0,0,0,0
COM4,0509,05-Jan-19,2019-01-05 05:00:00,1.6181666666667,1.5299166666667,1.4468333333333,1.4268833333333,1.3812166666667,1.3470166666667,1.3882333333333,5,0,0,0,0,0,0,0,0,0,0,0,0,0,0,0,0,0,0,0,0,0,0,0,0,0,0,0,0,0,0,0,0,0,0,0,0,0,0,0,0,0,0
COM4,0509,05-Jan-19,2019-01-05 06:00:00,1.58325,1.5386166666667,1.4682166666667,1.4617166666667,1.42485,1.39525,1.4384666666667,5,0,0,0,0,0,0,0,0,0,0,0,0,0,0,0,0,0,0,0,0,0,0,0,0,0,0,0,0,0,0,0,0,0,0,0,0,0,0,0,0,0,0
COM4,0509,05-Jan-19,2019-01-05 07:00:00,1.6465166666667,1.5442,1.4577,1.4436,1.4028,1.3670333333333,1.4088333333333,5,0,0,0,0,0,0,0,0,0,0,0,0,0,0,0,0,0,0,0,0,0,0,0,0,0,0,0,0,0,0,0,0,0,0,0,0,0,0,0,0,0,0
COM4,0509,05-Jan-19,2019-01-05 08:00:00,1.8851333333333,1.7723833333333,1.6753666666667,1.6605833333333,1.6096833333333,1.5664166666667,1.6139833333333,5,0,0,0,0,0,0,0,0,0,0,0,0,0,0,0,0,0,0,0,0,0,0,0,0,0,0,0,0,0,0,0,0,0,0,0,0,0,0,0,0,0,0
COM4,0509,05-Jan-19,2019-01-05 09:00:00,2.1267,2.0798166666667,1.9761833333333,1.96245,1.9028833333333,1.8412,1.8932,5,0,0,0,0,0,0,0,0,0,0,0,0,0,0,0,0,0,0,0,0,0,0,0,0,0,0,0,0,0,0,0,0,0,0,0,0,0,0,0,0,0,0
COM4,0509,05-Jan-19,2019-01-05 10:00:00,1.9288,1.8797166666667,1.7751833333333,1.7524333333333,1.6912666666667,1.6232333333333,1.6666,5,0,0,0,0,0,0,0,0,0,0,0,0,0,0,0,0,0,0,0,0,0,0,0,0,0,0,0,0,0,0,0,0,0,0,0,0,0,0,0,0,0,0
COM4,0509,05-Jan-19,2019-01-05 11:00:00,1.9786,1.88595,1.7567666666667,1.7180333333333,1.64955,1.5664,1.6057,4.9283333333333,0,0,0,0,0,0,0,0,0,0,0,0,0,0,0,0,0,0,0,0,0,0,0,0,0,0,0,0,0,0,0,0,0,0,0,0,0,0,0,0,0,0
COM4,0509,05-Jan-19,2019-01-05 12:00:00,2.3109833333333,2.1601166666667,2.0020166666667,1.9491333333333,1.8646333333333,1.76325,1.8041833333333,4.9,0,0,0,0,0,0,0,0,0,0,0,0,0,0,0,0,0,0,0,0,0,0,0,0,0,0,0,0,0,0,0,0,0,0,0,0,0,0,0,0,0,0
COM4,0509,05-Jan-19,2019-01-05 13:00:00,2.44475,2.2679333333333,2.1094166666667,2.0613666666667,1.9724833333333,1.85055,1.8937833333333,4.8233333333333,0,0,0,0,0,0,0,0,0,0,0,0,0,0,0,0,0,0,0,0,0,0,0,0,0,0,0,0,0,0,0,0,0,0,0,0,0,0,0,0,0,0
COM4,0509,05-Jan-19,2019-01-05 14:00:00,2.672,2.4666833333333,2.2954166666667,2.24925,2.1461166666667,2.0166333333333,2.0592,4.8,0,0,0,0,0,0,0,0,0,0,0,0,0,0,0,0,0,0,0,0,0,0,0,0,0,0,0,0,0,0,0,0,0,0,0,0,0,0,0,0,0,0
COM4,0509,05-Jan-19,2019-01-05 15:00:00,2.5442666666667,2.3233333333333,2.1648666666667,2.11465,2.0284166666667,1.90795,1.9507833333333,4.8,0,0,0,0,0,0,0,0,0,0,0,0,0,0,0,0,0,0,0,0,0,0,0,0,0,0,0,0,0,0,0,0,0,0,0,0,0,0,0,0,0,0
COM4,0509,05-Jan-19,2019-01-05 16:00:00,3.0059,2.6776,2.4753166666667,2.4087833333333,2.2958833333333,2.14495,2.1908166666667,4.71,0,0,0,0,0,0,0,0,0,0,0,0,0,0,0,0,0,0,0,0,0,0,0,0,0,0,0,0,0,0,0,0,0,0,0,0,0,0,0,0,0,0
COM4,0509,05-Jan-19,2019-01-05 17:00:00,3.6968666666667,3.17265,2.8826333333333,2.7818833333333,2.6381,2.4754,2.5259166666667,4.7,0,0,0,0,0,0,0,0,0,0,0,0,0,0,0,0,0,0,0,0,0,0,0,0,0,0,0,0,0,0,0,0,0,0,0,0,0,0,0,0,0,0
COM4,0509,05-Jan-19,2019-01-05 18:00:00,3.8251333333333,3.2595,2.95655,2.8501166666667,2.6984833333333,2.51075,2.5608,4.7,0,0,0,0,0,0,0,0,0,0,0,0,0,0,0,0,0,0,0,0,0,0,0,0,0,0,0,0,0,0,0,0,0,0,0,0,0,0,0,0,0,0
COM4,0509,05-Jan-19,2019-01-05 19:00:00,4.0025166666667,3.35535,3.0319833333333,2.9112166666667,2.7463833333333,2.5490666666667,2.6000666666667,4.635,0,0,0,0,0,0,0,0,0,0,0,0,0,0,0,0,0,0,0,0,0,0,0,0,0,0,0,0,0,0,0,0,0,0,0,0,0,0,0,0,0,0
COM4,0509,05-Jan-19,2019-01-05 20:00:00,3.7923,3.2000666666667,2.9183333333333,2.82005,2.67285,2.4897333333333,2.5384,4.6,0,0,0,0,0,0,0,0,0,0,0,0,0,0,0,0,0,0,0,0,0,0,0,0,0,0,0,0,0,0,0,0,0,0,0,0,0,0,0,0,0,0
COM4,0509,05-Jan-19,2019-01-05 21:00:00,2.3773666666667,2.0583,1.9115166666667,1.8691666666667,1.7888666666667,1.6929166666667,1.7374333333333,4.5,0,0,0,0,0,0,0,0,0,0,0,0,0,0,0,0,0,0,0,0,0,0,0,0,0,0,0,0,0,0,0,0,0,0,0,0,0,0,0,0,0,0
COM4,0509,05-Jan-19,2019-01-05 22:00:00,2.05685,1.7761166666667,1.6392333333333,1.5967333333333,1.5375833333333,1.4949833333333,1.53985,5,0,0,0,0,0,0,0,0,0,0,0,0,0,0,0,0,0,0,0,0,0,0,0,0,0,0,0,0,0,0,0,0,0,0,0,0,0,0,0,0,0,0
COM4,0509,05-Jan-19,2019-01-05 23:00:00,1.9128833333333,1.7819166666667,1.66835,1.6404666666667,1.58905,1.5585166666667,1.6064166666667,5,0,0,0,0,0,0,0,0,0,0,0,0,0,0,0,0,0,0,0,0,0,0,0,0,0,0,0,0,0,0,0,0,0,0,0,0,0,0,0,0,0,0
