COM4,0509,29-Dec-18,2018-12-29 00:00:00,1.0813333333333,0.86536666666667,0.77411666666667,0.73176666666667,0.6877,0.60638333333333,0.61741666666667,5,0,0,0,0,0,0,0,0,0,0,0,0,0,0,0,0,0,0,0,0,0,0,0,0,0,0,0,0,0,0,0,0,0,0,0,0,0,0,0,0,0,0
COM4,0509,29-Dec-18,2018-12-29 01:00:00,0.97551666666667,0.77938333333333,0.6983,0.66061666666667,0.61676666666667,0.54316666666667,0.55141666666667,5,0,0,0,0,0,0,0,0,0,0,0,0,0,0,0,0,0,0,0,0,0,0,0,0,0,0,0,0,0,0,0,0,0,0,0,0,0,0,0,0,0,0
COM4,0509,29-Dec-18,2018-12-29 02:00:00,1.2516666666667,0.9235,0.8173,0.76653333333333,0.71371666666667,0.62501666666667,0.63893333333333,5,0,0,0,0,0,0,0,0,0,0,0,0,0,0,0,0,0,0,0,0,0,0,0,0,0,0,0,0,0,0,0,0,0,0,0,0,0,0,0,0,0,0
COM4,0509,29-Dec-18,2018-12-29 03:00:00,0.97408333333333,0.76346666666667,0.68206666666667,0.63986666666667,0.59576666666667,0.51838333333333,0.52613333333333,5,0,0,0,0,0,0,0,0,0,0,0,0,0,0,0,0,0,0,0,0,0,0,0,0,0,0,0,0,0,0,0,0,0,0,0,0,0,0,0,0,0,0
COM4,0509,29-Dec-18,2018-12-29 04:00:00,0.71686666666667,0.59648333333333,0.53898333333333,0.50971666666667,0.48113333333333,0.42941666666667,0.43841666666667,5,0,0,0,0,0,0,0,0,0,0,0,0,0,0,0,0,0,0,0,0,0,0,0,0,0,0,0,0,0,0,0,0,0,0,0,0,0,0,0,0,0,0
COM4,0509,29-Dec-18,2018-12-29 05:00:00,0.39996666666667,0.36188333333333,0.32815,0.31225,0.29071666666667,0.25646666666667,0.26108333333333,5,0,0,0,0,0,0,0,0,0,0,0,0,0,0,0,0,0,0,0,0,0,0,0,0,0,0,0,0,0,0,0,0,0,0,0,0,0,0,0,0,0,0
COM4,0509,29-Dec-18,2018-12-29 06:00:00,0.44375,0.40256666666667,0.35881666666667,0.34186666666667,0.32241666666667,0.29108333333333,0.29458333333333,5,0,0,0,0,0,0,0,0,0,0,0,0,0,0,0,0,0,0,0,0,0,0,0,0,0,0,0,0,0,0,0,0,0,0,0,0,0,0,0,0,0,0
COM4,0509,29-Dec-18,2018-12-29 07:00:00,0.70565,0.57885,0.52803333333333,0.49928333333333,0.46963333333333,0.41576666666667,0.42476666666667,5,0,0,0,0,0,0,0,0,0,0,0,0,0,0,0,0,0,0,0,0,0,0,0,0,0,0,0,0,0,0,0,0,0,0,0,0,0,0,0,0,0,0
COM4,0509,29-Dec-18,2018-12-29 08:00:00,0.59753333333333,0.47198333333333,0.42936666666667,0.41186666666667,0.38648333333333,0.33996666666667,0.34775,4.6666666666667,0,0,0,0,0,0,0,0,0,0,0,0,0,0,0,0,0,0,0,0,0,0,0,0,0,0,0,0,0,0,0,0,0,0,0,0,0,0,0,0,0,0
COM4,0509,29-Dec-18,2018-12-29 09:00:00,0.73563333333333,0.55511666666667,0.50858333333333,0.48461666666667,0.45355,0.42095,0.43028333333333,5,0,0,0,0,0,0,0,0,0,0,0,0,0,0,0,0,0,0,0,0,0,0,0,0,0,0,0,0,0,0,0,0,0,0,0,0,0,0,0,0,0,0
COM4,0509,29-Dec-18,2018-12-29 10:00:00,0.3479,0.27855,0.25531666666667,0.24878333333333,0.2355,0.22256666666667,0.22711666666667,5,0,0,0,0,0,0,0,0,0,0,0,0,0,0,0,0,0,0,0,0,0,0,0,0,0,0,0,0,0,0,0,0,0,0,0,0,0,0,0,0,0,0
COM4,0509,29-Dec-18,2018-12-29 11:00:00,0.52496666666667,0.5042,0.47455,0.46855,0.44888333333333,0.42661666666667,0.43676666666667,5,0,0,0,0,0,0,0,0,0,0,0,0,0,0,0,0,0,0,0,0,0,0,0,0,0,0,0,0,0,0,0,0,0,0,0,0,0,0,0,0,0,0
COM4,0509,29-Dec-18,2018-12-29 12:00:00,0.2991,0.2869,0.26586666666667,0.25976666666667,0.2466,0.23206666666667,0.23678333333333,5,0,0,0,0,0,0,0,0,0,0,0,0,0,0,0,0,0,0,0,0,0,0,0,0,0,0,0,0,0,0,0,0,0,0,0,0,0,0,0,0,0,0
COM4,0509,29-Dec-18,2018-12-29 13:00:00,0.17841666666667,0.17358333333333,0.16106666666667,0.1582,0.14981666666667,0.14231666666667,0.14513333333333,5,0,0,0,0,0,0,0,0,0,0,0,0,0,0,0,0,0,0,0,0,0,0,0,0,0,0,0,0,0,0,0,0,0,0,0,0,0,0,0,0,0,0
COM4,0509,29-Dec-18,2018-12-29 14:00:00,0.22256666666667,0.2054,0.19015,0.18583333333333,0.17698333333333,0.16671666666667,0.17066666666667,5,0,0,0,0,0,0,0,0,0,0,0,0,0,0,0,0,0,0,0,0,0,0,0,0,0,0,0,0,0,0,0,0,0,0,0,0,0,0,0,0,0,0
COM4,0509,29-Dec-18,2018-12-29 15:00:00,0.26338333333333,0.25308333333333,0.23901666666667,0.23568333333333,0.22563333333333,0.21488333333333,0.2198,5,0,0,0,0,0,0,0,0,0,0,0,0,0,0,0,0,0,0,0,0,0,0,0,0,0,0,0,0,0,0,0,0,0,0,0,0,0,0,0,0,0,0
COM4,0509,29-Dec-18,2018-12-29 16:00:00,0.3426,0.33003333333333,0.31078333333333,0.30561666666667,0.29236666666667,0.27756666666667,0.28541666666667,5,0,0,0,0,0,0,0,0,0,0,0,0,0,0,0,0,0,0,0,0,0,0,0,0,0,0,0,0,0,0,0,0,0,0,0,0,0,0,0,0,0,0
COM4,0509,29-Dec-18,2018-12-29 17:00:00,0.4023,0.3756,0.35255,0.3463,0.33058333333333,0.31488333333333,0.32283333333333,5,0,0,0,0,0,0,0,0,0,0,0,0,0,0,0,0,0,0,0,0,0,0,0,0,0,0,0,0,0,0,0,0,0,0,0,0,0,0,0,0,0,0
COM4,0509,29-Dec-18,2018-12-29 18:00:00,0.32626666666667,0.3051,0.28786666666667,0.28343333333333,0.27273333333333,0.25905,0.2657,5,0,0,0,0,0,0,0,0,0,0,0,0,0,0,0,0,0,0,0,0,0,0,0,0,0,0,0,0,0,0,0,0,0,0,0,0,0,0,0,0,0,0
COM4,0509,29-Dec-18,2018-12-29 19:00:00,0.31398333333333,0.2844,0.26656666666667,0.26165,0.24931666666667,0.23698333333333,0.2435,5,0,0,0,0,0,0,0,0,0,0,0,0,0,0,0,0,0,0,0,0,0,0,0,0,0,0,0,0,0,0,0,0,0,0,0,0,0,0,0,0,0,0
COM4,0509,29-Dec-18,2018-12-29 20:00:00,0.30568333333333,0.27413333333333,0.25455,0.24911666666667,0.23795,0.22465,0.23051666666667,5,0,0,0,0,0,0,0,0,0,0,0,0,0,0,0,0,0,0,0,0,0,0,0,0,0,0,0,0,0,0,0,0,0,0,0,0,0,0,0,0,0,0
COM4,0509,29-Dec-18,2018-12-29 21:00:00,0.35168333333333,0.31423333333333,0.29373333333333,0.28763333333333,0.27443333333333,0.26191666666667,0.2683,5,0,0,0,0,0,0,0,0,0,0,0,0,0,0,0,0,0,0,0,0,0,0,0,0,0,0,0,0,0,0,0,0,0,0,0,0,0,0,0,0,0,0
COM4,0509,29-Dec-18,2018-12-29 22:00:00,0.33458333333333,0.2989,0.27855,0.27391666666667,0.26121666666667,0.24418333333333,0.2496,5,0,0,0,0,0,0,0,0,0,0,0,0,0,0,0,0,0,0,0,0,0,0,0,0,0,0,0,0,0,0,0,0,0,0,0,0,0,0,0,0,0,0
COM4,0509,29-Dec-18,2018-12-29 23:00:00,0.27833333333333,0.2774,0.26296666666667,0.2594,0.24885,0.23566666666667,0.24213333333333,5,0,0,0,0,0,0,0,0,0,0,0,0,0,0,0,0,0,0,0,0,0,0,0,0,0,0,0,0,0,0,0,0,0,0,0,0,0,0,0,0,0,0
