COM4,0509,05-Feb-19,2019-02-05 00:00:00,0.033,0.02965,0.027666666666667,0.027066666666667,0.0261,0.025083333333333,0.0256,5,0,0,0,0,0,0,0,0,0,0,0,0,0,0,0,0,0,0,0,0,0,0,0,0,0,0,0,0,0,0,0,0,0,0,0,0,0,0,0,0,0,0
COM4,0509,05-Feb-19,2019-02-05 01:00:00,0.02885,0.026966666666667,0.025466666666667,0.0247,0.0237,0.023416666666667,0.02405,5,0,0,0,0,0,0,0,0,0,0,0,0,0,0,0,0,0,0,0,0,0,0,0,0,0,0,0,0,0,0,0,0,0,0,0,0,0,0,0,0,0,0
COM4,0509,05-Feb-19,2019-02-05 02:00:00,0.022416666666667,0.021266666666667,0.020333333333333,0.019483333333333,0.019166666666667,0.01665,0.017233333333333,5,0,0,0,0,0,0,0,0,0,0,0,0,0,0,0,0,0,0,0,0,0,0,0,0,0,0,0,0,0,0,0,0,0,0,0,0,0,0,0,0,0,0
COM4,0509,05-Feb-19,2019-02-05 03:00:00,0.020322033898305,0.019542372881356,0.018525423728814,0.019542372881356,0.018576271186441,0.018847457627119,0.019,5,0,0,0,0,0,0,0,0,0,0,0,0,0,0,0,0,0,0,0,0,0,0,0,0,0,0,0,0,0,0,0,0,0,0,0,0,0,0,0,0,0,0
COM4,0509,05-Feb-19,2019-02-05 04:00:00,0.063389830508475,0.047559322033898,0.039457627118644,0.034898305084746,0.031915254237288,0.027881355932203,0.028033898305085,5,0,0,0,0,0,0,0,0,0,0,0,0,0,0,0,0,0,0,0,0,0,0,0,0,0,0,0,0,0,0,0,0,0,0,0,0,0,0,0,0,0,0
COM4,0509,05-Feb-19,2019-02-05 05:00:00,0.055766666666667,0.0536,0.05005,0.049466666666667,0.047566666666667,0.047916666666667,0.048933333333333,5,0,0,0,0,0,0,0,0,0,0,0,0,0,0,0,0,0,0,0,0,0,0,0,0,0,0,0,0,0,0,0,0,0,0,0,0,0,0,0,0,0,0
COM4,0509,05-Feb-19,2019-02-05 06:00:00,0.03195,0.032316666666667,0.03035,0.029683333333333,0.028866666666667,0.028133333333333,0.030016666666667,5,0,0,0,0,0,0,0,0,0,0,0,0,0,0,0,0,0,0,0,0,0,0,0,0,0,0,0,0,0,0,0,0,0,0,0,0,0,0,0,0,0,0
COM4,0509,05-Feb-19,2019-02-05 07:00:00,0.11677586206897,0.11208620689655,0.10598275862069,0.10406896551724,0.09998275862069,0.095293103448276,0.098275862068966,5,0,0,0,0,0,0,0,0,0,0,0,0,0,0,0,0,0,0,0,0,0,0,0,0,0,0,0,0,0,0,0,0,0,0,0,0,0,0,0,0,0,0
COM4,0509,05-Feb-19,2019-02-05 08:00:00,0.097233333333333,0.099016666666667,0.093733333333333,0.092433333333333,0.089083333333333,0.087383333333333,0.089333333333333,5,0,0,0,0,0,0,0,0,0,0,0,0,0,0,0,0,0,0,0,0,0,0,0,0,0,0,0,0,0,0,0,0,0,0,0,0,0,0,0,0,0,0
COM4,0509,05-Feb-19,2019-02-05 09:00:00,0.21452542372881,0.21738983050847,0.2058813559322,0.2051186440678,0.19886440677966,0.19549152542373,0.20094915254237,5,0,0,0,0,0,0,0,0,0,0,0,0,0,0,0,0,0,0,0,0,0,0,0,0,0,0,0,0,0,0,0,0,0,0,0,0,0,0,0,0,0,0
COM4,0509,05-Feb-19,2019-02-05 10:00:00,0.03851724137931,0.038810344827586,0.037465517241379,0.037689655172414,0.035448275862069,0.037172413793103,0.03748275862069,5,0,0,0,0,0,0,0,0,0,0,0,0,0,0,0,0,0,0,0,0,0,0,0,0,0,0,0,0,0,0,0,0,0,0,0,0,0,0,0,0,0,0
COM4,0509,05-Feb-19,2019-02-05 11:00:00,0.0401,0.040983333333333,0.03905,0.03885,0.037033333333333,0.03635,0.037383333333333,5,0,0,0,0,0,0,0,0,0,0,0,0,0,0,0,0,0,0,0,0,0,0,0,0,0,0,0,0,0,0,0,0,0,0,0,0,0,0,0,0,0,0
COM4,0509,05-Feb-19,2019-02-05 12:00:00,0.024862068965517,0.024637931034483,0.022224137931034,0.022258620689655,0.021258620689655,0.018396551724138,0.018224137931034,5,0,0,0,0,0,0,0,0,0,0,0,0,0,0,0,0,0,0,0,0,0,0,0,0,0,0,0,0,0,0,0,0,0,0,0,0,0,0,0,0,0,0
COM4,0509,05-Feb-19,2019-02-05 13:00:00,0.01964406779661,0.017949152542373,0.017322033898305,0.017389830508475,0.017169491525424,0.016101694915254,0.015898305084746,5,0,0,0,0,0,0,0,0,0,0,0,0,0,0,0,0,0,0,0,0,0,0,0,0,0,0,0,0,0,0,0,0,0,0,0,0,0,0,0,0,0,0
COM4,0509,05-Feb-19,2019-02-05 14:00:00,0.050016949152542,0.048271186440678,0.04664406779661,0.045627118644068,0.044694915254237,0.040474576271186,0.042067796610169,5,0,0,0,0,0,0,0,0,0,0,0,0,0,0,0,0,0,0,0,0,0,0,0,0,0,0,0,0,0,0,0,0,0,0,0,0,0,0,0,0,0,0
COM4,0509,05-Feb-19,2019-02-05 15:00:00,0.38323333333333,0.3732,0.34615,0.33828333333333,0.3264,0.32181666666667,0.33186666666667,5,0,0,0,0,0,0,0,0,0,0,0,0,0,0,0,0,0,0,0,0,0,0,0,0,0,0,0,0,0,0,0,0,0,0,0,0,0,0,0,0,0,0
COM4,0509,05-Feb-19,2019-02-05 16:00:00,0.06965,0.069733333333333,0.065333333333333,0.064683333333333,0.062016666666667,0.060316666666667,0.06105,5,0,0,0,0,0,0,0,0,0,0,0,0,0,0,0,0,0,0,0,0,0,0,0,0,0,0,0,0,0,0,0,0,0,0,0,0,0,0,0,0,0,0
COM4,0509,05-Feb-19,2019-02-05 17:00:00,0.36266101694915,0.36903389830508,0.35132203389831,0.34852542372881,0.33827118644068,0.33203389830508,0.34127118644068,5,0,0,0,0,0,0,0,0,0,0,0,0,0,0,0,0,0,0,0,0,0,0,0,0,0,0,0,0,0,0,0,0,0,0,0,0,0,0,0,0,0,0
COM4,0509,05-Feb-19,2019-02-05 18:00:00,0.1118,0.10823333333333,0.10146666666667,0.10003333333333,0.095783333333333,0.09195,0.0956,5,0,0,0,0,0,0,0,0,0,0,0,0,0,0,0,0,0,0,0,0,0,0,0,0,0,0,0,0,0,0,0,0,0,0,0,0,0,0,0,0,0,0
COM4,0509,05-Feb-19,2019-02-05 19:00:00,0.1752,0.16241666666667,0.151,0.1478,0.1418,0.13646666666667,0.13935,5,0,0,0,0,0,0,0,0,0,0,0,0,0,0,0,0,0,0,0,0,0,0,0,0,0,0,0,0,0,0,0,0,0,0,0,0,0,0,0,0,0,0
COM4,0509,05-Feb-19,2019-02-05 20:00:00,0.34545614035088,0.34210526315789,0.32668421052632,0.32319298245614,0.31371929824561,0.30205263157895,0.31033333333333,5,0,0,0,0,0,0,0,0,0,0,0,0,0,0,0,0,0,0,0,0,0,0,0,0,0,0,0,0,0,0,0,0,0,0,0,0,0,0,0,0,0,0
COM4,0509,05-Feb-19,2019-02-05 21:00:00,0.36685,0.33158333333333,0.31045,0.30525,0.29206666666667,0.2793,0.286,5,0,0,0,0,0,0,0,0,0,0,0,0,0,0,0,0,0,0,0,0,0,0,0,0,0,0,0,0,0,0,0,0,0,0,0,0,0,0,0,0,0,0
COM4,0509,05-Feb-19,2019-02-05 22:00:00,0.33929310344828,0.30872413793103,0.28912068965517,0.28394827586207,0.27213793103448,0.2581724137931,0.26429310344828,5,0,0,0,0,0,0,0,0,0,0,0,0,0,0,0,0,0,0,0,0,0,0,0,0,0,0,0,0,0,0,0,0,0,0,0,0,0,0,0,0,0,0
COM4,0509,05-Feb-19,2019-02-05 23:00:00,0.20905084745763,0.18301694915254,0.16952542372881,0.16594915254237,0.157,0.14776271186441,0.15037288135593,5,0,0,0,0,0,0,0,0,0,0,0,0,0,0,0,0,0,0,0,0,0,0,0,0,0,0,0,0,0,0,0,0,0,0,0,0,0,0,0,0,0,0
