COM4,509,05-Feb-20,2020-02-05 00:00:00,1.1632,0.91056666666667,0.8197,0.78133333333333,0.72778333333333,0.6479833333333299,0.65768333333333,5.0
COM4,509,05-Feb-20,2020-02-05 01:00:00,0.12451666666667,0.13693333333333,0.1284,0.12743333333333,0.12345,0.12588333333333002,0.1315,5.0
COM4,509,05-Feb-20,2020-02-05 02:00:00,0.07973333333333299,0.07153333333333299,0.06365,0.05965,0.05651666666666699,0.05575,0.05805,5.0
COM4,509,05-Feb-20,2020-02-05 03:00:00,0.54481666666667,0.4555,0.40565,0.38928333333333,0.35981666666667,0.31048333333333,0.31575,5.0
COM4,509,05-Feb-20,2020-02-05 04:00:00,0.71643333333333,0.59856666666667,0.54655,0.52048333333333,0.4905,0.44283333333333,0.44828333333333,5.0
COM4,509,05-Feb-20,2020-02-05 05:00:00,0.40183333333333,0.26121666666667004,0.23403333333332996,0.22923333333332996,0.21621666666667003,0.2031,0.21021666666667002,4.6666666666667
COM4,509,05-Feb-20,2020-02-05 06:00:00,0.42501666666667,0.2625,0.23593333333332997,0.228,0.2167,0.20511666666667003,0.20893333333332997,5.0
COM4,509,05-Feb-20,2020-02-05 07:00:00,0.4073,0.30978333333333,0.28521666666667,0.27823333333333,0.26383333333333,0.24716666666667003,0.2532,5.0
COM4,509,05-Feb-20,2020-02-05 08:00:00,0.6540833333333299,0.61046666666667,0.57341666666667,0.56406666666667,0.54161666666667,0.51313333333333,0.52556666666667,5.0
COM4,509,05-Feb-20,2020-02-05 09:00:00,0.53993333333333,0.53438333333333,0.50133333333333,0.49373333333333,0.47191666666667,0.4418,0.45186666666666997,5.0
COM4,509,05-Feb-20,2020-02-05 10:00:00,0.6718666666666699,0.6538333333333299,0.6094,0.59831666666667,0.57126666666667,0.53493333333333,0.54756666666667,5.0
COM4,509,05-Feb-20,2020-02-05 11:00:00,1.5112166666667,1.54095,1.4610333333333,1.44805,1.4001833333333,1.357,1.39635,5.0
COM4,509,05-Feb-20,2020-02-05 12:00:00,0.28421666666667,0.30576666666667,0.28903333333333,0.28583333333333,0.27523333333333,0.26486666666667,0.27123333333333,5.0
COM4,509,05-Feb-20,2020-02-05 13:00:00,0.1886,0.20508333333332998,0.19603333333332998,0.19433333333332997,0.18773333333332998,0.18151666666667005,0.18561666666667004,5.0
COM4,509,05-Feb-20,2020-02-05 14:00:00,0.15561666666667,0.16945,0.1627,0.16223333333332998,0.15706666666667002,0.15058333333333,0.15455,5.0
COM4,509,05-Feb-20,2020-02-05 15:00:00,0.21975,0.22698333333332996,0.2175,0.21691666666667003,0.20976666666667004,0.20155,0.20745,5.0
COM4,509,05-Feb-20,2020-02-05 16:00:00,0.33678333333333,0.34306666666667,0.33021666666667,0.33021666666667,0.3211,0.30908333333333,0.31736666666667,5.0
COM4,509,05-Feb-20,2020-02-05 17:00:00,0.3156,0.31111666666667,0.29833333333333,0.29755,0.28878333333333,0.2777,0.28565,5.0
COM4,509,05-Feb-20,2020-02-05 18:00:00,0.37111666666667,0.35913333333333003,0.34383333333333,0.34271666666667,0.33313333333333,0.32018333333333,0.32905,5.0
COM4,509,05-Feb-20,2020-02-05 19:00:00,0.37913333333333,0.36745,0.35141666666667,0.35016666666667,0.34033333333333,0.3281,0.3373,5.0
COM4,509,05-Feb-20,2020-02-05 20:00:00,0.47143333333333,0.4373,0.41468333333333,0.41151666666667,0.39751666666667,0.37926666666666997,0.38806666666667,5.0
COM4,509,05-Feb-20,2020-02-05 21:00:00,0.37208333333333,0.36953333333333,0.35408333333333003,0.35305,0.34121666666667,0.32566666666667,0.33458333333333,5.0
COM4,509,05-Feb-20,2020-02-05 22:00:00,0.25651666666667006,0.25145,0.24101666666667004,0.24086666666667003,0.23405,0.22583333333332997,0.23098333333332996,5.0
COM4,509,05-Feb-20,2020-02-05 23:00:00,0.33793220338983,0.32223728813559005,0.30632203389831,0.30596610169492,0.29476271186440994,0.28327118644068,0.29147457627119,5.0
