COM4,0509,23-Feb-19,2019-02-23 00:00:00,0.80536206896552,0.61129310344828,0.54327586206897,0.51296551724138,0.47386206896552,0.42027586206897,0.43041379310345,5,0,0,0,0,0,0,0,0,0,0,0,0,0,0,0,0,0,0,0,0,0,0,0,0,0,0,0,0,0,0,0,0,0,0,0,0,0,0,0,0,0,0
COM4,0509,23-Feb-19,2019-02-23 01:00:00,0.61955,0.4943,0.44505,0.41793333333333,0.39033333333333,0.34876666666667,0.35703333333333,5,0,0,0,0,0,0,0,0,0,0,0,0,0,0,0,0,0,0,0,0,0,0,0,0,0,0,0,0,0,0,0,0,0,0,0,0,0,0,0,0,0,0
COM4,0509,23-Feb-19,2019-02-23 02:00:00,0.57262711864407,0.47069491525424,0.42338983050847,0.40059322033898,0.37425423728814,0.33881355932203,0.34493220338983,5,0,0,0,0,0,0,0,0,0,0,0,0,0,0,0,0,0,0,0,0,0,0,0,0,0,0,0,0,0,0,0,0,0,0,0,0,0,0,0,0,0,0
COM4,0509,23-Feb-19,2019-02-23 03:00:00,0.51582456140351,0.42682456140351,0.39031578947368,0.37031578947368,0.34494736842105,0.30522807017544,0.31242105263158,5,0,0,0,0,0,0,0,0,0,0,0,0,0,0,0,0,0,0,0,0,0,0,0,0,0,0,0,0,0,0,0,0,0,0,0,0,0,0,0,0,0,0
COM4,0509,23-Feb-19,2019-02-23 04:00:00,0.62665517241379,0.51258620689655,0.46515517241379,0.44227586206897,0.4128275862069,0.37384482758621,0.37968965517241,5,0,0,0,0,0,0,0,0,0,0,0,0,0,0,0,0,0,0,0,0,0,0,0,0,0,0,0,0,0,0,0,0,0,0,0,0,0,0,0,0,0,0
COM4,0509,23-Feb-19,2019-02-23 05:00:00,0.66154237288136,0.54532203389831,0.49094915254237,0.46532203389831,0.4344406779661,0.38672881355932,0.39479661016949,5,0,0,0,0,0,0,0,0,0,0,0,0,0,0,0,0,0,0,0,0,0,0,0,0,0,0,0,0,0,0,0,0,0,0,0,0,0,0,0,0,0,0
COM4,0509,23-Feb-19,2019-02-23 06:00:00,0.70635593220339,0.56749152542373,0.51628813559322,0.48923728813559,0.45871186440678,0.41493220338983,0.42327118644068,5,0,0,0,0,0,0,0,0,0,0,0,0,0,0,0,0,0,0,0,0,0,0,0,0,0,0,0,0,0,0,0,0,0,0,0,0,0,0,0,0,0,0
COM4,0509,23-Feb-19,2019-02-23 07:00:00,0.83194915254237,0.68969491525424,0.63022033898305,0.60310169491525,0.56589830508475,0.51169491525424,0.52494915254237,5,0,0,0,0,0,0,0,0,0,0,0,0,0,0,0,0,0,0,0,0,0,0,0,0,0,0,0,0,0,0,0,0,0,0,0,0,0,0,0,0,0,0
COM4,0509,23-Feb-19,2019-02-23 08:00:00,0.72465,0.64046666666667,0.5892,0.56746666666667,0.53608333333333,0.4974,0.50656666666667,5,0,0,0,0,0,0,0,0,0,0,0,0,0,0,0,0,0,0,0,0,0,0,0,0,0,0,0,0,0,0,0,0,0,0,0,0,0,0,0,0,0,0
COM4,0509,23-Feb-19,2019-02-23 09:00:00,0.81477966101695,0.74666101694915,0.69833898305085,0.67596610169492,0.64610169491525,0.59661016949153,0.60879661016949,5,0,0,0,0,0,0,0,0,0,0,0,0,0,0,0,0,0,0,0,0,0,0,0,0,0,0,0,0,0,0,0,0,0,0,0,0,0,0,0,0,0,0
COM4,0509,23-Feb-19,2019-02-23 10:00:00,0.79031034482759,0.70665517241379,0.64941379310345,0.63027586206897,0.59715517241379,0.55001724137931,0.56396551724138,5,0,0,0,0,0,0,0,0,0,0,0,0,0,0,0,0,0,0,0,0,0,0,0,0,0,0,0,0,0,0,0,0,0,0,0,0,0,0,0,0,0,0
COM4,0509,23-Feb-19,2019-02-23 11:00:00,0.56424137931034,0.51231034482759,0.47748275862069,0.46001724137931,0.43377586206897,0.40320689655172,0.41194827586207,5,0,0,0,0,0,0,0,0,0,0,0,0,0,0,0,0,0,0,0,0,0,0,0,0,0,0,0,0,0,0,0,0,0,0,0,0,0,0,0,0,0,0
COM4,0509,23-Feb-19,2019-02-23 12:00:00,0.5452,0.50814545454545,0.47578181818182,0.46410909090909,0.44561818181818,0.41650909090909,0.42261818181818,5,0,0,0,0,0,0,0,0,0,0,0,0,0,0,0,0,0,0,0,0,0,0,0,0,0,0,0,0,0,0,0,0,0,0,0,0,0,0,0,0,0,0
COM4,0509,23-Feb-19,2019-02-23 13:00:00,0.36672413793103,0.35879310344828,0.34098275862069,0.33777586206897,0.32555172413793,0.30996551724138,0.31715517241379,5,0,0,0,0,0,0,0,0,0,0,0,0,0,0,0,0,0,0,0,0,0,0,0,0,0,0,0,0,0,0,0,0,0,0,0,0,0,0,0,0,0,0
COM4,0509,23-Feb-19,2019-02-23 14:00:00,0.04728813559322,0.075457627118644,0.076728813559322,0.078389830508475,0.079983050847458,0.086254237288136,0.08971186440678,5,0,0,0,0,0,0,0,0,0,0,0,0,0,0,0,0,0,0,0,0,0,0,0,0,0,0,0,0,0,0,0,0,0,0,0,0,0,0,0,0,0,0
COM4,0509,23-Feb-19,2019-02-23 15:00:00,-0.066933333333333,-0.0225,-0.020433333333333,-0.018483333333333,-0.020633333333333,-0.01795,-0.017383333333333,5,0,0,0,0,0,0,0,0,0,0,0,0,0,0,0,0,0,0,0,0,0,0,0,0,0,0,0,0,0,0,0,0,0,0,0,0,0,0,0,0,0,0
COM4,0509,23-Feb-19,2019-02-23 16:00:00,0.022233333333333,0.047283333333333,0.0425,0.040283333333333,0.038316666666667,0.033216666666667,0.033266666666667,5,0,0,0,0,0,0,0,0,0,0,0,0,0,0,0,0,0,0,0,0,0,0,0,0,0,0,0,0,0,0,0,0,0,0,0,0,0,0,0,0,0,0
COM4,0509,23-Feb-19,2019-02-23 17:00:00,0.10771186440678,0.10552542372881,0.097813559322034,0.094915254237288,0.09,0.088796610169492,0.09028813559322,5,0,0,0,0,0,0,0,0,0,0,0,0,0,0,0,0,0,0,0,0,0,0,0,0,0,0,0,0,0,0,0,0,0,0,0,0,0,0,0,0,0,0
COM4,0509,23-Feb-19,2019-02-23 18:00:00,0.15318644067797,0.14828813559322,0.13750847457627,0.13506779661017,0.12835593220339,0.11889830508475,0.12427118644068,5,0,0,0,0,0,0,0,0,0,0,0,0,0,0,0,0,0,0,0,0,0,0,0,0,0,0,0,0,0,0,0,0,0,0,0,0,0,0,0,0,0,0
COM4,0509,23-Feb-19,2019-02-23 19:00:00,0.20776271186441,0.17608474576271,0.16047457627119,0.15238983050847,0.14525423728814,0.12954237288136,0.13589830508475,5,0,0,0,0,0,0,0,0,0,0,0,0,0,0,0,0,0,0,0,0,0,0,0,0,0,0,0,0,0,0,0,0,0,0,0,0,0,0,0,0,0,0
COM4,0509,23-Feb-19,2019-02-23 20:00:00,0.15716949152542,0.13350847457627,0.12235593220339,0.11672881355932,0.10993220338983,0.096474576271186,0.10030508474576,5,0,0,0,0,0,0,0,0,0,0,0,0,0,0,0,0,0,0,0,0,0,0,0,0,0,0,0,0,0,0,0,0,0,0,0,0,0,0,0,0,0,0
COM4,0509,23-Feb-19,2019-02-23 21:00:00,0.077142857142857,0.069482142857143,0.067267857142857,0.065857142857143,0.061,0.060464285714286,0.060660714285714,5,0,0,0,0,0,0,0,0,0,0,0,0,0,0,0,0,0,0,0,0,0,0,0,0,0,0,0,0,0,0,0,0,0,0,0,0,0,0,0,0,0,0
COM4,0509,23-Feb-19,2019-02-23 22:00:00,0.0442,0.0496,0.046583333333333,0.0475,0.045033333333333,0.044833333333333,0.046583333333333,5,0,0,0,0,0,0,0,0,0,0,0,0,0,0,0,0,0,0,0,0,0,0,0,0,0,0,0,0,0,0,0,0,0,0,0,0,0,0,0,0,0,0
COM4,0509,23-Feb-19,2019-02-23 23:00:00,0.24091228070175,0.19917543859649,0.18114035087719,0.16975438596491,0.1590701754386,0.14622807017544,0.14970175438596,5,0,0,0,0,0,0,0,0,0,0,0,0,0,0,0,0,0,0,0,0,0,0,0,0,0,0,0,0,0,0,0,0,0,0,0,0,0,0,0,0,0,0
