COM4,509,29-Jun-19,2019-06-29 00:00:00,0.3406,0.27343333333333,0.23473333333332996,0.21705,0.19215,0.15365,0.1558,5
COM4,509,29-Jun-19,2019-06-29 01:00:00,0.31016666666667,0.24505,0.21278333333332997,0.19063333333332996,0.16738333333333,0.13653333333333,0.13636666666667,5
COM4,509,29-Jun-19,2019-06-29 02:00:00,0.27818333333333,0.21986666666667004,0.18735,0.16563333333333,0.14901666666667002,0.1172,0.1202,5
COM4,509,29-Jun-19,2019-06-29 03:00:00,0.28668333333333,0.22276666666667003,0.19043333333332996,0.17108333333332998,0.1487,0.12206666666667,0.1203,5
COM4,509,29-Jun-19,2019-06-29 04:00:00,0.27493333333333003,0.21211666666667003,0.17995,0.16268333333333,0.14586666666667,0.11431666666667,0.1152,5
COM4,509,29-Jun-19,2019-06-29 05:00:00,0.29506666666667,0.23263333333332997,0.1982,0.1788,0.1573,0.1293,0.12951666666667,5
COM4,509,29-Jun-19,2019-06-29 06:00:00,0.37198333333333,0.29803333333333,0.25965,0.23515,0.21056666666667004,0.17285,0.17453333333332996,5
COM4,509,29-Jun-19,2019-06-29 07:00:00,0.3327,0.26816666666667005,0.23851666666667004,0.21973333333332998,0.19443333333332996,0.15866666666667,0.16103333333332998,5
COM4,509,29-Jun-19,2019-06-29 08:00:00,0.43845,0.33301666666667,0.2898,0.26033333333333,0.23633333333332998,0.18953333333332997,0.19365,5
COM4,509,29-Jun-19,2019-06-29 09:00:00,0.37111666666667,0.28481666666667,0.25241666666667,0.2297,0.21103333333332996,0.171,0.17365,5
COM4,509,29-Jun-19,2019-06-29 10:00:00,0.26761666666667006,0.22503333333332998,0.20771666666667002,0.19303333333332998,0.1779,0.15198333333332997,0.15495,5
COM4,509,29-Jun-19,2019-06-29 11:00:00,0.22328333333332998,0.18556666666667004,0.17165,0.16056666666667002,0.15046666666667002,0.1232,0.12855,5
COM4,509,29-Jun-19,2019-06-29 12:00:00,0.16478333333332998,0.1459,0.13525,0.12803333333333,0.12108333333333,0.10185,0.10208333333333,5
COM4,509,29-Jun-19,2019-06-29 13:00:00,0.19116666666667004,0.1706,0.15556666666667002,0.14828333333333,0.13681666666667,0.12513333333333002,0.12698333333333,5
COM4,509,29-Jun-19,2019-06-29 14:00:00,0.12463333333333,0.13618333333333,0.12828333333333,0.13018333333333001,0.1244,0.11783333333333,0.11800000000000001,5
COM4,509,29-Jun-19,2019-06-29 15:00:00,0.0866,0.09861666666666699,0.09833333333333301,0.09699999999999999,0.0918,0.08426666666666702,0.08705,5
COM4,509,29-Jun-19,2019-06-29 16:00:00,0.07245,0.082533333333333,0.075733333333333,0.072516666666667,0.069566666666667,0.06285,0.064783333333333,5
COM4,509,29-Jun-19,2019-06-29 17:00:00,0.052683333333333006,0.08641666666666702,0.07205,0.0729,0.06145,0.0599,0.056083333333333006,5
COM4,509,29-Jun-19,2019-06-29 18:00:00,0.0548,0.09743333333333301,0.08758333333333299,0.095,0.081466666666667,0.090616666666667,0.08415,5
COM4,509,29-Jun-19,2019-06-29 19:00:00,0.05965,0.08493333333333299,0.079716666666667,0.0839,0.076283333333333,0.074316666666667,0.072583333333333,5
COM4,509,29-Jun-19,2019-06-29 20:00:00,0.15083333333333,0.1243,0.1081,0.10075,0.0891,0.0704,0.07326666666666701,5
COM4,509,29-Jun-19,2019-06-29 21:00:00,0.52156666666667,0.37016666666667,0.32198333333333,0.27768333333333,0.25506666666667005,0.19391666666667004,0.20348333333332996,5
COM4,509,29-Jun-19,2019-06-29 22:00:00,0.9076,0.69533333333333,0.6091666666666701,0.54338333333333,0.48818333333333,0.39263333333333,0.39803333333333,5
COM4,509,29-Jun-19,2019-06-29 23:00:00,0.96179661016949,0.78194915254237,0.67732203389831,0.6174067796610201,0.5515593220339,0.44820338983051,0.45455932203390004,5
