COM4,509,03-Jan-20,2020-01-03 00:00:00,1.3829833333333001,1.1485833333333,1.0696833333333,1.0546833333333,1.0231166666667,0.96348333333333,0.98775,5.0
COM4,509,03-Jan-20,2020-01-03 01:00:00,1.4386833333333,1.2348833333333,1.15595,1.1402166666667,1.0967666666667,1.0253,1.0460333333333,5.0
COM4,509,03-Jan-20,2020-01-03 02:00:00,1.0072833333333,0.86026666666667,0.80403333333333,0.79635,0.77206666666667,0.72721666666667,0.74773333333333,4.6666666666667
COM4,509,03-Jan-20,2020-01-03 03:00:00,0.91458333333333,0.72721666666667,0.67298333333333,0.6580333333333299,0.6298,0.59951666666667,0.6158833333333299,5.0
COM4,509,03-Jan-20,2020-01-03 04:00:00,0.7262,0.5667,0.52533333333333,0.51513333333333,0.49283333333333,0.4702,0.48115,5.0
COM4,509,03-Jan-20,2020-01-03 05:00:00,0.28818333333333,0.23763333333332998,0.22331666666667002,0.22045,0.21265,0.2051,0.21103333333332996,5.0
COM4,509,03-Jan-20,2020-01-03 06:00:00,0.27655,0.27238333333333,0.25611666666667005,0.2527,0.24278333333332996,0.23366666666667002,0.23953333333332996,5.0
COM4,509,03-Jan-20,2020-01-03 07:00:00,0.42563333333333003,0.42661666666667,0.40038333333333,0.39373333333333,0.3786,0.36173333333333,0.3712,5.0
COM4,509,03-Jan-20,2020-01-03 08:00:00,0.90753333333333,0.8340000000000001,0.77518333333333,0.75841666666667,0.72586666666667,0.6904,0.70923333333333,5.0
COM4,509,03-Jan-20,2020-01-03 09:00:00,1.6718166666667,1.6700333333333,1.5877,1.5805833333333001,1.5347333333333,1.492,1.5351,5.0
COM4,509,03-Jan-20,2020-01-03 10:00:00,0.5931666666666701,0.6057333333333299,0.5775666666666701,0.5752333333333299,0.55835,0.53915,0.55415,5.0
COM4,509,03-Jan-20,2020-01-03 11:00:00,0.51378333333333,0.52025,0.49961666666667,0.49888333333333,0.48743333333333,0.4773,0.49238333333333,5.0
COM4,509,03-Jan-20,2020-01-03 12:00:00,0.6378833333333299,0.6329833333333299,0.60628333333333,0.6061666666666701,0.59121666666667,0.5749166666666701,0.59146666666667,5.0
COM4,509,03-Jan-20,2020-01-03 13:00:00,0.61018333333333,0.5906333333333299,0.56521666666667,0.5632,0.54866666666667,0.52978333333333,0.5453,5.0
COM4,509,03-Jan-20,2020-01-03 14:00:00,0.4745,0.4592,0.43991666666667,0.43886666666667,0.42716666666666997,0.41213333333333,0.42475,5.0
COM4,509,03-Jan-20,2020-01-03 15:00:00,0.51448333333333,0.47226666666667,0.4453,0.43978333333333003,0.42615,0.40821666666667,0.41931666666667,5.0
COM4,509,03-Jan-20,2020-01-03 16:00:00,0.5737666666666701,0.52371666666667,0.49388333333333,0.48686666666667,0.47086666666667,0.4509,0.46351666666667,5.0
COM4,509,03-Jan-20,2020-01-03 17:00:00,1.0971666666667,0.92193333333333,0.8514,0.8281,0.7918333333333301,0.75391666666667,0.77493333333333,5.0
COM4,509,03-Jan-20,2020-01-03 18:00:00,1.6785,1.4173,1.31565,1.2872833333333,1.2304666666667,1.1499,1.17835,5.0
COM4,509,03-Jan-20,2020-01-03 19:00:00,1.7363166666667,1.4279166666667,1.3116666666666998,1.27585,1.2194166666667,1.1440833333333,1.1737166666667,5.0
COM4,509,03-Jan-20,2020-01-03 20:00:00,2.3366666666667,2.0326166666667,1.8999166666667,1.8696,1.8006166666666998,1.7065666666666999,1.7505,5.0
COM4,509,03-Jan-20,2020-01-03 21:00:00,2.7757333333333,2.14125,1.9433666666667,1.8648833333333001,1.7643666666667,1.6147,1.6506333333333,5.0
COM4,509,03-Jan-20,2020-01-03 22:00:00,1.3417833333333,1.1721666666666999,1.0834,1.0485,0.9989,0.92413333333333,0.94595,5.0
COM4,509,03-Jan-20,2020-01-03 23:00:00,0.97793333333333,0.82101666666667,0.74718333333333,0.71068333333333,0.6703666666666701,0.60846666666667,0.6221166666666701,5.0
