COM4,509,22-Jan-20,2020-01-22 00:00:00,0.80036666666667,0.7909999999999999,0.75568333333333,0.75226666666667,0.73186666666667,0.71758333333333,0.74138333333333,5
COM4,509,22-Jan-20,2020-01-22 01:00:00,0.63371666666667,0.6318833333333299,0.6063,0.6049333333333299,0.59018333333333,0.58395,0.60208333333333,5
COM4,509,22-Jan-20,2020-01-22 02:00:00,0.79156666666667,0.77478333333333,0.73933333333333,0.73665,0.7182333333333301,0.7054,0.72796666666667,5
COM4,509,22-Jan-20,2020-01-22 03:00:00,0.92041666666667,0.89483333333333,0.85743333333333,0.85708333333333,0.83825,0.8253,0.84758333333333,5
COM4,509,22-Jan-20,2020-01-22 04:00:00,0.6319166666666701,0.6323,0.6105833333333299,0.61245,0.60055,0.59828333333333,0.6116333333333299,5
COM4,509,22-Jan-20,2020-01-22 05:00:00,0.51676666666667,0.51745,0.49616666666667,0.49551666666667,0.48556666666667,0.47868333333333,0.48883333333333,5
COM4,509,22-Jan-20,2020-01-22 06:00:00,0.38568333333333,0.38406666666667,0.36705,0.36495,0.3547,0.34700000000000003,0.35133333333333,5
COM4,509,22-Jan-20,2020-01-22 07:00:00,0.19111666666667004,0.175,0.15773333333332998,0.15188333333332998,0.14233333333332998,0.13408333333333,0.13601666666667,5
COM4,509,22-Jan-20,2020-01-22 08:00:00,0.89775,0.8220666666666699,0.75661666666667,0.73448333333333,0.70228333333333,0.67266666666667,0.68133333333333,5
COM4,509,22-Jan-20,2020-01-22 09:00:00,0.36201666666667,0.37488333333333,0.34611666666667,0.33671666666667,0.31878333333333003,0.29378333333333,0.2943,5
COM4,509,22-Jan-20,2020-01-22 10:00:00,0.78086666666667,0.81416666666667,0.7735,0.769,0.74516666666667,0.70806666666667,0.71395,5
COM4,509,22-Jan-20,2020-01-22 11:00:00,0.35971666666667,0.39841666666666997,0.3791,0.37501666666667,0.361,0.33175,0.33375,5
COM4,509,22-Jan-20,2020-01-22 12:00:00,0.446,0.45805,0.43408333333333,0.4291,0.41151666666667,0.3741,0.37421666666667,5
COM4,509,22-Jan-20,2020-01-22 13:00:00,0.3378,0.32743333333333,0.30413333333333,0.29625,0.28111666666667,0.24521666666667002,0.2451,5
COM4,509,22-Jan-20,2020-01-22 14:00:00,0.15258333333333,0.15851666666667003,0.14333333333332998,0.13521666666666998,0.12196666666667,0.096066666666667,0.09418333333333301,5
COM4,509,22-Jan-20,2020-01-22 15:00:00,0.19868333333332996,0.20881666666667004,0.19228333333332998,0.18603333333332997,0.17616666666667002,0.15155,0.15148333333333,5
COM4,509,22-Jan-20,2020-01-22 16:00:00,0.18075,0.19756666666667003,0.18628333333332997,0.18176666666667002,0.17326666666667004,0.15041666666667,0.15006666666667,5
COM4,509,22-Jan-20,2020-01-22 17:00:00,0.27331666666667004,0.26486666666667,0.24296666666667002,0.23376666666667004,0.22086666666667004,0.1903,0.19051666666667003,5
COM4,509,22-Jan-20,2020-01-22 18:00:00,0.58821666666667,0.54975,0.51108333333333,0.50026666666667,0.47883333333333,0.42465,0.42481666666667,5
COM4,509,22-Jan-20,2020-01-22 19:00:00,0.40665,0.39406666666667,0.37061666666667,0.3652,0.3505,0.30918333333333,0.3088,5
COM4,509,22-Jan-20,2020-01-22 20:00:00,1.1544333333333001,0.8592,0.77038333333333,0.74175,0.70233333333333,0.5925833333333299,0.58935,5
COM4,509,22-Jan-20,2020-01-22 21:00:00,0.45763333333333,0.34365,0.3045,0.28841666666667,0.27013333333332995,0.22421666666667003,0.22245,5
COM4,509,22-Jan-20,2020-01-22 22:00:00,0.27258333333332996,0.26178333333333,0.23881666666667004,0.22998333333332996,0.21803333333332997,0.18528333333332997,0.18531666666667004,5
COM4,509,22-Jan-20,2020-01-22 23:00:00,0.34713559322034,0.34413559322034,0.32322033898304997,0.31635593220339,0.30235593220339,0.25881355932203,0.25616949152542,5
