COM4,509,25-Nov-19,2019-11-25 00:00:00,0.58795,0.55575,0.49765,0.47095,0.44178333333333003,0.39678333333333,0.40571666666667,5.0
COM4,509,25-Nov-19,2019-11-25 01:00:00,0.53271666666667,0.53665,0.48713333333333003,0.4632,0.43216666666667,0.38418333333333,0.39141666666667,5.0
COM4,509,25-Nov-19,2019-11-25 02:00:00,0.56525,0.44521666666667,0.39398333333333,0.36605,0.33815,0.29805,0.3045,5.0
COM4,509,25-Nov-19,2019-11-25 03:00:00,1.0551833333333,0.8079666666666699,0.70945,0.66225,0.61141666666667,0.5371,0.54823333333333,5.0
COM4,509,25-Nov-19,2019-11-25 04:00:00,1.4404333333333001,1.0354333333333001,0.89656666666667,0.83135,0.76106666666667,0.6615666666666701,0.67416666666667,5.0
COM4,509,25-Nov-19,2019-11-25 05:00:00,0.82241666666667,0.6171,0.55588333333333,0.5347,0.50576666666667,0.46473333333333,0.48065,4.6666666666667
COM4,509,25-Nov-19,2019-11-25 06:00:00,0.29405,0.17795,0.16615,0.16256666666667002,0.15596666666667,0.1478,0.15095,5.0
COM4,509,25-Nov-19,2019-11-25 07:00:00,0.2453,0.20198333333332996,0.19176666666667003,0.19121666666667003,0.18491666666667003,0.18186666666667003,0.18675,5.0
COM4,509,25-Nov-19,2019-11-25 08:00:00,0.1086,0.10168333333333,0.093583333333333,0.09156666666666699,0.0878,0.08125,0.08363333333333299,5.0
COM4,509,25-Nov-19,2019-11-25 09:00:00,0.13341666666667,0.12568333333333,0.11323333333333001,0.10961666666667,0.10201666666666999,0.09215,0.09296666666666699,5.0
COM4,509,25-Nov-19,2019-11-25 10:00:00,0.18128333333332997,0.17015,0.15761666666667,0.15256666666667001,0.1448,0.13261666666667,0.13538333333333,5.0
COM4,509,25-Nov-19,2019-11-25 11:00:00,0.20786666666667003,0.1942,0.17955,0.1752,0.16671666666667,0.15316666666667,0.15698333333332998,5.0
COM4,509,25-Nov-19,2019-11-25 12:00:00,0.23886666666667003,0.23365,0.21998333333332998,0.21691666666667003,0.20841666666667003,0.19623333333332996,0.20106666666667003,5.0
COM4,509,25-Nov-19,2019-11-25 13:00:00,0.057916666666667,0.053016666666666996,0.0484,0.0465,0.044366666666667,0.039516666666667,0.040416666666667,5.0
COM4,509,25-Nov-19,2019-11-25 14:00:00,0.66958333333333,0.71366666666667,0.69041666666667,0.69511666666667,0.6815,0.67393333333333,0.69615,5.0
COM4,509,25-Nov-19,2019-11-25 15:00:00,0.21963333333332996,0.21805,0.20715,0.20641666666667002,0.20021666666667004,0.19173333333332998,0.19706666666667003,5.0
COM4,509,25-Nov-19,2019-11-25 16:00:00,0.23931666666667004,0.24275,0.23206666666667003,0.23141666666667005,0.22548333333332995,0.2222,0.22978333333332998,5.0
COM4,509,25-Nov-19,2019-11-25 17:00:00,0.77661666666667,0.7703,0.73365,0.73083333333333,0.71083333333333,0.6965,0.7197,5.0
COM4,509,25-Nov-19,2019-11-25 18:00:00,0.44566666666667,0.43423333333333003,0.4085,0.40256666666667,0.38731666666667,0.36788333333333,0.37841666666667,5.0
COM4,509,25-Nov-19,2019-11-25 19:00:00,0.5291,0.44598333333333,0.40871666666667,0.39448333333333,0.37395,0.34646666666667,0.35483333333333,5.0
COM4,509,25-Nov-19,2019-11-25 20:00:00,0.27655,0.26586666666667,0.25086666666667,0.24655,0.23746666666667005,0.22426666666667003,0.22996666666667004,5.0
COM4,509,25-Nov-19,2019-11-25 21:00:00,0.28673333333333,0.27785,0.26478333333333,0.26235,0.25071666666667003,0.23278333333332996,0.23821666666667002,5.0
COM4,509,25-Nov-19,2019-11-25 22:00:00,0.31548333333333,0.27695,0.25831666666667,0.2527,0.24128333333332996,0.22065,0.22496666666667003,5.0
COM4,509,25-Nov-19,2019-11-25 23:00:00,0.54541666666667,0.48265,0.45173333333333,0.44328333333333003,0.42151666666667,0.3862,0.39515,5.0
