COM4,509,25-Jul-19,2019-07-25 00:00:00,0.4192,0.3103,0.27033333333333,0.24228333333332996,0.22073333333332998,0.17973333333332997,0.18373333333332997,5.0
COM4,509,25-Jul-19,2019-07-25 01:00:00,0.42713333333333,0.3168,0.28006666666667,0.25643333333332996,0.2311,0.1905,0.19411666666667002,5.0
COM4,509,25-Jul-19,2019-07-25 02:00:00,0.44725,0.33626666666667,0.29491666666667,0.27321666666667005,0.24816666666667003,0.2057,0.20986666666667003,5.0
COM4,509,25-Jul-19,2019-07-25 03:00:00,0.4419,0.33665,0.29788333333333,0.27395,0.25141666666667,0.2075,0.21116666666667003,5.0
COM4,509,25-Jul-19,2019-07-25 04:00:00,0.42336666666667,0.33055,0.29346666666667,0.26899999999999996,0.24986666666667004,0.20798333333332997,0.21311666666667003,5.0
COM4,509,25-Jul-19,2019-07-25 05:00:00,0.43565,0.35700000000000004,0.31841666666667,0.29913333333333003,0.27303333333332996,0.23248333333332996,0.23571666666667004,5.0
COM4,509,25-Jul-19,2019-07-25 06:00:00,0.52708333333333,0.4414,0.39713333333333,0.3719,0.34103333333333,0.2957,0.29806666666667,4.8333333333333
COM4,509,25-Jul-19,2019-07-25 07:00:00,0.36823333333333,0.30703333333333,0.28946666666667,0.28558333333333,0.2737,0.25721666666667004,0.26708333333332995,4.8333333333333
COM4,509,25-Jul-19,2019-07-25 08:00:00,0.26276666666667003,0.25146666666667006,0.23656666666667003,0.23336666666667003,0.22343333333332996,0.21116666666667003,0.21588333333332996,5.0
COM4,509,25-Jul-19,2019-07-25 09:00:00,0.18655,0.18495,0.17566666666667002,0.17386666666667003,0.1666,0.159,0.16255,5.0
COM4,509,25-Jul-19,2019-07-25 10:00:00,0.14771666666667002,0.14753333333333,0.14061666666667003,0.13973333333333,0.13465,0.12793333333333,0.13091666666666998,5.0
COM4,509,25-Jul-19,2019-07-25 11:00:00,0.10095,0.10111666666666999,0.096233333333333,0.096233333333333,0.092916666666667,0.08838333333333301,0.08916666666666699,5.0
COM4,509,25-Jul-19,2019-07-25 12:00:00,0.07651666666666701,0.07583333333333299,0.0724,0.072966666666667,0.07038333333333299,0.066733333333333,0.06855,5.0
COM4,509,25-Jul-19,2019-07-25 13:00:00,0.07038333333333299,0.0697,0.067,0.066316666666667,0.06365,0.061516666666667,0.06211666666666699,5.0
COM4,509,25-Jul-19,2019-07-25 14:00:00,0.06845,0.06775,0.064816666666667,0.064333333333333,0.06205,0.0591,0.060366666666667,5.0
COM4,509,25-Jul-19,2019-07-25 15:00:00,0.064516666666667,0.065316666666667,0.062233333333333,0.061966666666666996,0.060066666666667,0.0574,0.058166666666667,5.0
COM4,509,25-Jul-19,2019-07-25 16:00:00,0.055183333333333,0.055116666666666994,0.052516666666666996,0.05265,0.0508,0.048733333333333004,0.05025,5.0
COM4,509,25-Jul-19,2019-07-25 17:00:00,0.05053333333333301,0.051633333333333004,0.04876666666666699,0.048816666666666994,0.047116666666666994,0.0429,0.043633333333333,5.0
COM4,509,25-Jul-19,2019-07-25 18:00:00,0.094233333333333,0.09883333333333301,0.09418333333333301,0.09518333333333301,0.09145,0.092666666666667,0.09335,5.0
COM4,509,25-Jul-19,2019-07-25 19:00:00,0.11455,0.11473333333333001,0.10903333333333,0.10841666666666999,0.10386666666667,0.098483333333333,0.09936666666666699,5.0
COM4,509,25-Jul-19,2019-07-25 20:00:00,0.18185,0.1646,0.1542,0.15085,0.14508333333332998,0.13778333333332998,0.14215,5.0
COM4,509,25-Jul-19,2019-07-25 21:00:00,0.1728,0.15511666666667,0.14481666666667,0.14071666666667001,0.13468333333333002,0.12365,0.12863333333333002,5.0
COM4,509,25-Jul-19,2019-07-25 22:00:00,0.21073333333332997,0.1867,0.17293333333332997,0.16766666666667002,0.15943333333332999,0.14535,0.14985,5.0
COM4,509,25-Jul-19,2019-07-25 23:00:00,0.1895593220339,0.17794915254237,0.16694915254237,0.16479661016949,0.15652542372880998,0.14644067796610002,0.15022033898304998,5.0
