COM4,509,15-Sep-19,2019-09-15 00:00:00,0.38391666666667,0.299,0.26833333333333,0.25568333333333,0.23881666666667004,0.21751666666667002,0.22398333333332998,4.5233333333333
COM4,509,15-Sep-19,2019-09-15 01:00:00,0.47611666666667,0.35015,0.30901666666667,0.2874,0.2638,0.23583333333332998,0.23938333333332998,5.0
COM4,509,15-Sep-19,2019-09-15 02:00:00,0.34206666666667,0.27761666666667,0.24833333333332996,0.23493333333332997,0.21703333333332997,0.19711666666667002,0.19923333333332996,5.0
COM4,509,15-Sep-19,2019-09-15 03:00:00,0.2859,0.22245,0.19705,0.18405,0.16865,0.15158333333333,0.15295,5.0
COM4,509,15-Sep-19,2019-09-15 04:00:00,0.21573333333332997,0.17661666666667003,0.15813333333333,0.14923333333333,0.13875,0.12506666666667,0.12713333333333002,5.0
COM4,509,15-Sep-19,2019-09-15 05:00:00,0.20203333333332996,0.16686666666667002,0.15035,0.14345,0.13435,0.12205,0.12405,5.0
COM4,509,15-Sep-19,2019-09-15 06:00:00,0.23971666666667002,0.20478333333332996,0.18663333333332996,0.18045,0.17021666666667004,0.15776666666667002,0.16098333333332998,5.0
COM4,509,15-Sep-19,2019-09-15 07:00:00,0.309,0.28233333333333,0.2619,0.25673333333333,0.24496666666667002,0.23106666666667003,0.23733333333332995,5.0
COM4,509,15-Sep-19,2019-09-15 08:00:00,0.26661666666667005,0.23858333333332996,0.22011666666667004,0.215,0.20391666666667002,0.1916,0.19533333333332997,5.0
COM4,509,15-Sep-19,2019-09-15 09:00:00,0.25255,0.22333333333332997,0.20583333333332998,0.20116666666667002,0.19161666666667004,0.17800000000000002,0.18256666666667004,5.0
COM4,509,15-Sep-19,2019-09-15 10:00:00,0.24681666666667004,0.21456666666667004,0.19936666666667002,0.19438333333332997,0.18673333333332998,0.17175,0.17816666666667003,5.0
COM4,509,15-Sep-19,2019-09-15 11:00:00,0.18633333333332996,0.16871666666667004,0.15768333333332998,0.15466666666667,0.14863333333332998,0.13776666666667,0.14166666666667002,5.0
COM4,509,15-Sep-19,2019-09-15 12:00:00,0.14331666666667,0.13206666666667,0.12405,0.1238,0.11863333333333001,0.11073333333333,0.11443333333333,5.0
COM4,509,15-Sep-19,2019-09-15 13:00:00,0.12238333333333,0.11603333333333,0.10981666666666999,0.109,0.10616666666666999,0.099933333333333,0.10205,5.0
COM4,509,15-Sep-19,2019-09-15 14:00:00,0.11088333333333,0.10848333333333,0.10313333333333001,0.10363333333333001,0.09965,0.0959,0.0976,5.0
COM4,509,15-Sep-19,2019-09-15 15:00:00,0.0874,0.083833333333333,0.0795,0.07908333333333299,0.0766,0.073583333333333,0.074783333333333,5.0
COM4,509,15-Sep-19,2019-09-15 16:00:00,0.090216666666667,0.08701666666666702,0.082866666666667,0.083033333333333,0.079966666666667,0.07708333333333299,0.0786,5.0
COM4,509,15-Sep-19,2019-09-15 17:00:00,0.10316666666667,0.098783333333333,0.09375,0.09428333333333301,0.09075,0.08628333333333299,0.08815,5.0
COM4,509,15-Sep-19,2019-09-15 18:00:00,0.16643333333333,0.16181666666667002,0.15366666666667,0.1535,0.14956666666667,0.14195,0.14686666666667,5.0
COM4,509,15-Sep-19,2019-09-15 19:00:00,0.18401666666667002,0.17776666666667004,0.1675,0.16636666666667002,0.16166666666667,0.15313333333332999,0.15921666666667,5.0
COM4,509,15-Sep-19,2019-09-15 20:00:00,0.23645,0.22173333333332998,0.21036666666667003,0.20626666666667004,0.20013333333332997,0.19,0.19765,5.0
COM4,509,15-Sep-19,2019-09-15 21:00:00,0.28786666666667,0.27466666666667006,0.2601,0.25735,0.24938333333332996,0.2396,0.24666666666667003,5.0
COM4,509,15-Sep-19,2019-09-15 22:00:00,0.28531666666667,0.2745,0.25871666666667004,0.25695,0.24726666666667002,0.23988333333332998,0.24598333333332997,5.0
COM4,509,15-Sep-19,2019-09-15 23:00:00,0.23568333333332997,0.22776666666667003,0.2148,0.21395,0.20588333333332998,0.1989,0.2029,5.0
