COM4,0509,10-Dec-18,2018-12-10 00:00:00,0.44694915254237,0.44677966101695,0.42113559322034,0.41110169491525,0.39162711864407,0.36125423728814,0.37032203389831,5,0,0,0,0,0,0,0,0,0,0,0,0,0,0,0,0,0,0,0,0,0,0,0,0,0,0,0,0,0,0,0,0,0,0,0,0,0,0,0,0,0,0
COM4,0509,10-Dec-18,2018-12-10 01:00:00,0.73588333333333,0.68636666666667,0.64211666666667,0.62591666666667,0.59538333333333,0.55151666666667,0.56478333333333,5,0,0,0,0,0,0,0,0,0,0,0,0,0,0,0,0,0,0,0,0,0,0,0,0,0,0,0,0,0,0,0,0,0,0,0,0,0,0,0,0,0,0
COM4,0509,10-Dec-18,2018-12-10 02:00:00,0.72283333333333,0.65375,0.60425,0.58545,0.55238333333333,0.51378333333333,0.52538333333333,5,0,0,0,0,0,0,0,0,0,0,0,0,0,0,0,0,0,0,0,0,0,0,0,0,0,0,0,0,0,0,0,0,0,0,0,0,0,0,0,0,0,0
COM4,0509,10-Dec-18,2018-12-10 03:00:00,0.68476666666667,0.5831,0.53475,0.51133333333333,0.4795,0.4381,0.44586666666667,5,0,0,0,0,0,0,0,0,0,0,0,0,0,0,0,0,0,0,0,0,0,0,0,0,0,0,0,0,0,0,0,0,0,0,0,0,0,0,0,0,0,0
COM4,0509,10-Dec-18,2018-12-10 04:00:00,0.61163333333333,0.54395,0.49678333333333,0.479,0.44573333333333,0.39726666666667,0.40506666666667,5,0,0,0,0,0,0,0,0,0,0,0,0,0,0,0,0,0,0,0,0,0,0,0,0,0,0,0,0,0,0,0,0,0,0,0,0,0,0,0,0,0,0
COM4,0509,10-Dec-18,2018-12-10 05:00:00,0.82021666666667,0.74543333333333,0.69198333333333,0.66858333333333,0.6308,0.57835,0.5898,5,0,0,0,0,0,0,0,0,0,0,0,0,0,0,0,0,0,0,0,0,0,0,0,0,0,0,0,0,0,0,0,0,0,0,0,0,0,0,0,0,0,0
COM4,0509,10-Dec-18,2018-12-10 06:00:00,0.8637,0.77456666666667,0.71288333333333,0.68671666666667,0.64643333333333,0.59083333333333,0.60368333333333,5,0,0,0,0,0,0,0,0,0,0,0,0,0,0,0,0,0,0,0,0,0,0,0,0,0,0,0,0,0,0,0,0,0,0,0,0,0,0,0,0,0,0
COM4,0509,10-Dec-18,2018-12-10 07:00:00,0.77455,0.67881666666667,0.62138333333333,0.59665,0.55903333333333,0.5084,0.5183,5,0,0,0,0,0,0,0,0,0,0,0,0,0,0,0,0,0,0,0,0,0,0,0,0,0,0,0,0,0,0,0,0,0,0,0,0,0,0,0,0,0,0
COM4,0509,10-Dec-18,2018-12-10 08:00:00,0.85765,0.77613333333333,0.71833333333333,0.69615,0.65448333333333,0.60283333333333,0.61541666666667,5,0,0,0,0,0,0,0,0,0,0,0,0,0,0,0,0,0,0,0,0,0,0,0,0,0,0,0,0,0,0,0,0,0,0,0,0,0,0,0,0,0,0
COM4,0509,10-Dec-18,2018-12-10 09:00:00,0.74553333333333,0.7009,0.65653333333333,0.63985,0.60951666666667,0.56818333333333,0.5825,5,0,0,0,0,0,0,0,0,0,0,0,0,0,0,0,0,0,0,0,0,0,0,0,0,0,0,0,0,0,0,0,0,0,0,0,0,0,0,0,0,0,0
COM4,0509,10-Dec-18,2018-12-10 10:00:00,0.59258333333333,0.56503333333333,0.52693333333333,0.51033333333333,0.48231666666667,0.44238333333333,0.45145,5,0,0,0,0,0,0,0,0,0,0,0,0,0,0,0,0,0,0,0,0,0,0,0,0,0,0,0,0,0,0,0,0,0,0,0,0,0,0,0,0,0,0
COM4,0509,10-Dec-18,2018-12-10 11:00:00,0.46285,0.44496666666667,0.41785,0.40845,0.38486666666667,0.35648333333333,0.36383333333333,5,0,0,0,0,0,0,0,0,0,0,0,0,0,0,0,0,0,0,0,0,0,0,0,0,0,0,0,0,0,0,0,0,0,0,0,0,0,0,0,0,0,0
COM4,0509,10-Dec-18,2018-12-10 12:00:00,0.32366666666667,0.32608333333333,0.30736666666667,0.29945,0.2861,0.26845,0.2745,5,0,0,0,0,0,0,0,0,0,0,0,0,0,0,0,0,0,0,0,0,0,0,0,0,0,0,0,0,0,0,0,0,0,0,0,0,0,0,0,0,0,0
COM4,0509,10-Dec-18,2018-12-10 13:00:00,0.30796666666667,0.31683333333333,0.30193333333333,0.29755,0.28578333333333,0.27115,0.27785,5,0,0,0,0,0,0,0,0,0,0,0,0,0,0,0,0,0,0,0,0,0,0,0,0,0,0,0,0,0,0,0,0,0,0,0,0,0,0,0,0,0,0
COM4,0509,10-Dec-18,2018-12-10 14:00:00,0.36073333333333,0.34116666666667,0.31998333333333,0.30868333333333,0.29265,0.26966666666667,0.27493333333333,5,0,0,0,0,0,0,0,0,0,0,0,0,0,0,0,0,0,0,0,0,0,0,0,0,0,0,0,0,0,0,0,0,0,0,0,0,0,0,0,0,0,0
COM4,0509,10-Dec-18,2018-12-10 15:00:00,0.35641666666667,0.30921666666667,0.27828333333333,0.2616,0.23651666666667,0.1996,0.20236666666667,5,0,0,0,0,0,0,0,0,0,0,0,0,0,0,0,0,0,0,0,0,0,0,0,0,0,0,0,0,0,0,0,0,0,0,0,0,0,0,0,0,0,0
COM4,0509,10-Dec-18,2018-12-10 16:00:00,0.45128333333333,0.40715,0.37088333333333,0.35121666666667,0.32716666666667,0.28791666666667,0.29285,5,0,0,0,0,0,0,0,0,0,0,0,0,0,0,0,0,0,0,0,0,0,0,0,0,0,0,0,0,0,0,0,0,0,0,0,0,0,0,0,0,0,0
COM4,0509,10-Dec-18,2018-12-10 17:00:00,0.52313333333333,0.47418333333333,0.43651666666667,0.41871666666667,0.39023333333333,0.35253333333333,0.35998333333333,5,0,0,0,0,0,0,0,0,0,0,0,0,0,0,0,0,0,0,0,0,0,0,0,0,0,0,0,0,0,0,0,0,0,0,0,0,0,0,0,0,0,0
COM4,0509,10-Dec-18,2018-12-10 18:00:00,0.58785,0.53358333333333,0.49356666666667,0.47505,0.44605,0.40695,0.41468333333333,5,0,0,0,0,0,0,0,0,0,0,0,0,0,0,0,0,0,0,0,0,0,0,0,0,0,0,0,0,0,0,0,0,0,0,0,0,0,0,0,0,0,0
COM4,0509,10-Dec-18,2018-12-10 19:00:00,0.5366,0.5016,0.46845,0.45598333333333,0.4296,0.3957,0.40395,5,0,0,0,0,0,0,0,0,0,0,0,0,0,0,0,0,0,0,0,0,0,0,0,0,0,0,0,0,0,0,0,0,0,0,0,0,0,0,0,0,0,0
COM4,0509,10-Dec-18,2018-12-10 20:00:00,0.75476666666667,0.65343333333333,0.60063333333333,0.57875,0.54665,0.5031,0.51303333333333,5,0,0,0,0,0,0,0,0,0,0,0,0,0,0,0,0,0,0,0,0,0,0,0,0,0,0,0,0,0,0,0,0,0,0,0,0,0,0,0,0,0,0
COM4,0509,10-Dec-18,2018-12-10 21:00:00,0.95908333333333,0.79953333333333,0.70685,0.66128333333333,0.61476666666667,0.56345,0.57545,5,0,0,0,0,0,0,0,0,0,0,0,0,0,0,0,0,0,0,0,0,0,0,0,0,0,0,0,0,0,0,0,0,0,0,0,0,0,0,0,0,0,0
COM4,0509,10-Dec-18,2018-12-10 22:00:00,0.70453333333333,0.63011666666667,0.58378333333333,0.56216666666667,0.52983333333333,0.48808333333333,0.49866666666667,5,0,0,0,0,0,0,0,0,0,0,0,0,0,0,0,0,0,0,0,0,0,0,0,0,0,0,0,0,0,0,0,0,0,0,0,0,0,0,0,0,0,0
COM4,0509,10-Dec-18,2018-12-10 23:00:00,0.79638333333333,0.68713333333333,0.63263333333333,0.60878333333333,0.57133333333333,0.52475,0.53496666666667,5,0,0,0,0,0,0,0,0,0,0,0,0,0,0,0,0,0,0,0,0,0,0,0,0,0,0,0,0,0,0,0,0,0,0,0,0,0,0,0,0,0,0
