COM4,509,22-Apr-19,2019-04-22 00:00:00,0.029666666666667004,0.030766666666667004,0.029533333333332995,0.03045,0.028766666666667006,0.028216666666667004,0.028016666666667005,5
COM4,509,22-Apr-19,2019-04-22 01:00:00,0.024383333333332993,0.025966666666667006,0.024866666666667005,0.025266666666667006,0.024616666666667005,0.023166666666667005,0.024316666666667004,5
COM4,509,22-Apr-19,2019-04-22 02:00:00,0.014683333333333,0.017,0.016316666666667,0.016866666666667002,0.016416666666667,0.0157,0.015933333333333,5
COM4,509,22-Apr-19,2019-04-22 03:00:00,0.010966666666667001,0.015416666666667,0.015166666666667,0.014166666666667,0.01395,0.012883333333333,0.013233333333333,5
COM4,509,22-Apr-19,2019-04-22 04:00:00,0.018683333333333,0.02035,0.019333333333333,0.018733333333332998,0.019116666666667,0.018333333333333,0.01925,5
COM4,509,22-Apr-19,2019-04-22 05:00:00,0.032166666666667,0.031766666666667005,0.030516666666667004,0.030083333333332993,0.02935,0.0282,0.029083333333332996,5
COM4,509,22-Apr-19,2019-04-22 06:00:00,0.05506666666666699,0.055866666666666995,0.053016666666666996,0.05335,0.051366666666667,0.050733333333333006,0.051766666666666995,5
COM4,509,22-Apr-19,2019-04-22 07:00:00,0.05153333333333301,0.05273333333333301,0.050066666666666995,0.050766666666666994,0.048316666666666994,0.047516666666667,0.049183333333333,5
COM4,509,22-Apr-19,2019-04-22 08:00:00,0.047783333333333004,0.047283333333333004,0.045883333333333005,0.044866666666667,0.044316666666667,0.043583333333333,0.043083333333333,5
COM4,509,22-Apr-19,2019-04-22 09:00:00,0.039266666666667,0.039133333333333,0.037316666666667,0.037566666666667,0.035733333333333,0.0336,0.0354,5
COM4,509,22-Apr-19,2019-04-22 10:00:00,0.0332,0.03345,0.03195,0.031733333333332996,0.03105,0.029416666666667004,0.030383333333332995,5
COM4,509,22-Apr-19,2019-04-22 11:00:00,0.032783333333333,0.034733333333333,0.032983333333333,0.031916666666667,0.03155,0.029483333333332994,0.031216666666667003,5
COM4,509,22-Apr-19,2019-04-22 12:00:00,0.038116666666667,0.036633333333333,0.035383333333333,0.035183333333333,0.03383333333333299,0.03295,0.032783333333333,5
COM4,509,22-Apr-19,2019-04-22 13:00:00,0.041666666666667,0.0416,0.03925,0.039116666666667,0.037366666666667,0.035516666666667,0.03645,5
COM4,509,22-Apr-19,2019-04-22 14:00:00,0.043183333333333004,0.041666666666667,0.039583333333333,0.03925,0.03855,0.035633333333332996,0.036633333333333,5
COM4,509,22-Apr-19,2019-04-22 15:00:00,0.047933333333333,0.041916666666667,0.040383333333333,0.039516666666667,0.0386,0.034233333333333,0.036816666666667,5
COM4,509,22-Apr-19,2019-04-22 16:00:00,0.054566666666667,0.04575,0.044383333333333004,0.042983333333333006,0.042866666666667,0.038116666666667,0.0403,5
COM4,509,22-Apr-19,2019-04-22 17:00:00,0.051616666666667,0.045466666666666995,0.04345,0.043183333333333004,0.041716666666667,0.036933333333333,0.040083333333333,5
COM4,509,22-Apr-19,2019-04-22 18:00:00,0.050866666666667,0.049933333333333,0.0475,0.046566666666667,0.04555,0.043516666666666995,0.04378333333333301,5
COM4,509,22-Apr-19,2019-04-22 19:00:00,0.056616666666666995,0.0617,0.05705,0.05595,0.05355,0.052916666666666994,0.052616666666667,5
COM4,509,22-Apr-19,2019-04-22 20:00:00,0.08461666666666702,0.078683333333333,0.0719,0.071566666666667,0.066883333333333,0.064783333333333,0.0656,5
COM4,509,22-Apr-19,2019-04-22 21:00:00,0.074483333333333,0.066933333333333,0.061216666666666995,0.0596,0.057133333333333,0.0528,0.05395,5
COM4,509,22-Apr-19,2019-04-22 22:00:00,0.071883333333333,0.063983333333333,0.059133333333333,0.05725,0.054233333333333,0.051116666666667,0.052383333333333004,5
COM4,509,22-Apr-19,2019-04-22 23:00:00,0.071864406779661,0.066084745762712,0.061,0.05888135593220299,0.056694915254237,0.053322033898305,0.054322033898305,5
