COM4,509,07-Oct-18,2018-10-07 00:00:00,0.17330508474576,0.14783050847457999,0.1324406779661,0.12703389830508,0.11961016949153,0.11105084745763,0.11371186440678001,5.0
COM4,509,07-Oct-18,2018-10-07 01:00:00,0.098263157894737,0.09394736842105302,0.08701754385964901,0.084,0.081350877192982,0.07442105263157901,0.076017543859649,4.6491228070175
COM4,509,07-Oct-18,2018-10-07 02:00:00,0.16285,0.08688333333333298,0.08356666666666701,0.083083333333333,0.08056666666666701,0.076033333333333,0.08125,4.75
COM4,509,07-Oct-18,2018-10-07 03:00:00,0.23596666666667004,0.18058333333332996,0.16316666666667,0.15648333333332998,0.14765,0.14108333333332998,0.14343333333333,5.0
COM4,509,07-Oct-18,2018-10-07 04:00:00,0.28316666666667,0.24105,0.22216666666667004,0.2153,0.20498333333332996,0.19595,0.2007,5.0
COM4,509,07-Oct-18,2018-10-07 05:00:00,0.2527,0.2265,0.21188333333332998,0.2086,0.19985,0.19233333333332997,0.19736666666667002,5.0
COM4,509,07-Oct-18,2018-10-07 06:00:00,0.17441666666667002,0.16458333333332997,0.15651666666667002,0.15485,0.14981666666667,0.14591666666667003,0.15026666666667002,5.0
COM4,509,07-Oct-18,2018-10-07 07:00:00,0.1699,0.16431666666667002,0.15668333333332998,0.15638333333333,0.1519,0.1482,0.15223333333332997,5.0
COM4,509,07-Oct-18,2018-10-07 08:00:00,0.15333333333333,0.14891666666667,0.14173333333333,0.14096666666667002,0.13703333333333,0.13336666666667,0.13733333333333,5.0
COM4,509,07-Oct-18,2018-10-07 09:00:00,0.10828333333333001,0.10751666666667,0.10273333333333,0.10311666666666999,0.099683333333333,0.096883333333333,0.099316666666667,5.0
COM4,509,07-Oct-18,2018-10-07 10:00:00,0.1123,0.10985,0.10496666666667,0.1049,0.1027,0.10111666666666999,0.10428333333333001,5.0
COM4,509,07-Oct-18,2018-10-07 11:00:00,0.088733333333333,0.08766666666666702,0.08423333333333298,0.0844,0.082516666666667,0.08025,0.083116666666667,5.0
COM4,509,07-Oct-18,2018-10-07 12:00:00,0.07276666666666701,0.071,0.068533333333333,0.06885,0.067533333333333,0.065233333333333,0.067416666666667,5.0
COM4,509,07-Oct-18,2018-10-07 13:00:00,0.06971666666666701,0.064316666666667,0.0614,0.06155,0.060433333333333006,0.059966666666666994,0.062633333333333,5.0
COM4,509,07-Oct-18,2018-10-07 14:00:00,0.07511666666666701,0.0744,0.071383333333333,0.072016666666667,0.0706,0.071566666666667,0.073,5.0
COM4,509,07-Oct-18,2018-10-07 15:00:00,0.068216666666667,0.06655,0.064266666666667,0.06415,0.063333333333333,0.062083333333333005,0.065266666666667,5.0
COM4,509,07-Oct-18,2018-10-07 16:00:00,0.062916666666667,0.062883333333333,0.0604,0.061166666666666994,0.059816666666667,0.060066666666667,0.06115,5.0
COM4,509,07-Oct-18,2018-10-07 17:00:00,0.072883333333333,0.0719,0.06965,0.07053333333333299,0.069183333333333,0.069316666666667,0.07146666666666701,5.0
COM4,509,07-Oct-18,2018-10-07 18:00:00,0.07136666666666701,0.06875,0.065566666666667,0.06675,0.06475,0.064033333333333,0.06596666666666699,5.0
COM4,509,07-Oct-18,2018-10-07 19:00:00,0.07755,0.0747,0.071416666666667,0.07168333333333299,0.07036666666666701,0.069433333333333,0.071883333333333,5.0
COM4,509,07-Oct-18,2018-10-07 20:00:00,0.054766666666667,0.051683333333333005,0.049616666666666996,0.048483333333333004,0.047,0.044116666666667,0.0453,5.0
COM4,509,07-Oct-18,2018-10-07 21:00:00,0.049316666666666995,0.043633333333333,0.040083333333333,0.039833333333333,0.038816666666667,0.038416666666667,0.0389,5.0
COM4,509,07-Oct-18,2018-10-07 22:00:00,0.052566666666667,0.045316666666667,0.0427,0.041166666666667,0.040333333333333,0.037133333333333,0.039133333333333,5.0
COM4,509,07-Oct-18,2018-10-07 23:00:00,0.046483333333333,0.042183333333333004,0.0398,0.038966666666667,0.03715,0.03655,0.037516666666667,5.0
