COM4,509,24-Apr-19,2019-04-24 00:00:00,0.09695,0.08945,0.083766666666667,0.08199999999999999,0.07883333333333299,0.073916666666667,0.075066666666667,5
COM4,509,24-Apr-19,2019-04-24 01:00:00,0.12235,0.11001666666667,0.10275,0.099816666666667,0.095516666666667,0.08773333333333298,0.09085,5
COM4,509,24-Apr-19,2019-04-24 02:00:00,0.12895,0.11601666666667,0.10726666666667,0.10321666666667,0.0979,0.091,0.093083333333333,5
COM4,509,24-Apr-19,2019-04-24 03:00:00,0.106,0.09835,0.090983333333333,0.0892,0.08475,0.079633333333333,0.0803,5
COM4,509,24-Apr-19,2019-04-24 04:00:00,0.09618333333333301,0.090583333333333,0.08475,0.08173333333333299,0.07823333333333299,0.073983333333333,0.0754,5
COM4,509,24-Apr-19,2019-04-24 05:00:00,0.10691666666666999,0.099933333333333,0.093366666666667,0.09165,0.08673333333333298,0.081766666666667,0.0836,5
COM4,509,24-Apr-19,2019-04-24 06:00:00,0.13481666666667,0.12663333333333002,0.11895,0.11726666666666999,0.11293333333333,0.10578333333333001,0.10785,5
COM4,509,24-Apr-19,2019-04-24 07:00:00,0.1515,0.14808333333333,0.14026666666667,0.13915,0.13301666666667,0.12751666666667,0.13093333333333002,5
COM4,509,24-Apr-19,2019-04-24 08:00:00,0.35333333333333,0.28268333333333,0.25225,0.23858333333332996,0.22238333333332996,0.20068333333332997,0.20425,5
COM4,509,24-Apr-19,2019-04-24 09:00:00,0.51731666666667,0.37993333333333,0.3258,0.29968333333333,0.26958333333332996,0.23188333333332997,0.23436666666667003,5
COM4,509,24-Apr-19,2019-04-24 10:00:00,0.58803333333333,0.4041,0.33925,0.30595,0.27401666666667,0.22836666666667002,0.23271666666667004,5
COM4,509,24-Apr-19,2019-04-24 11:00:00,0.43021666666667,0.29808333333333,0.25576666666667003,0.23115,0.21331666666667004,0.17658333333332996,0.18463333333332996,5
COM4,509,24-Apr-19,2019-04-24 12:00:00,0.22105,0.1756,0.15666666666667,0.14803333333333,0.1371,0.12063333333333001,0.12388333333333,5
COM4,509,24-Apr-19,2019-04-24 13:00:00,0.13731666666667,0.12743333333333,0.11933333333333,0.11688333333333001,0.11148333333333,0.099916666666667,0.10235,5
COM4,509,24-Apr-19,2019-04-24 14:00:00,0.14811666666667,0.1416,0.13485,0.1327,0.12881666666667,0.12468333333333001,0.12706666666667,5
COM4,509,24-Apr-19,2019-04-24 15:00:00,0.16416666666667,0.16425,0.1562,0.15626666666667002,0.15126666666667002,0.14676666666667001,0.15016666666667,5
COM4,509,24-Apr-19,2019-04-24 16:00:00,0.13303333333333,0.15655,0.15771666666667,0.16545,0.16536666666667002,0.17116666666667002,0.1731,5
COM4,509,24-Apr-19,2019-04-24 17:00:00,0.12286666666667,0.1535,0.1546,0.16196666666667,0.16041666666667,0.16616666666667002,0.16878333333332995,5
COM4,509,24-Apr-19,2019-04-24 18:00:00,0.12888333333333002,0.15155,0.14921666666667002,0.15731666666667002,0.15521666666667,0.15926666666667003,0.1628,5
COM4,509,24-Apr-19,2019-04-24 19:00:00,0.12881666666667,0.14071666666667001,0.13926666666667,0.14295,0.14106666666667,0.14215,0.14596666666667002,5
COM4,509,24-Apr-19,2019-04-24 20:00:00,0.12031666666667,0.12333333333333,0.1195,0.11893333333333,0.11765,0.11468333333333,0.11698333333333001,5
COM4,509,24-Apr-19,2019-04-24 21:00:00,0.09675,0.097066666666667,0.09335,0.094083333333333,0.091716666666667,0.08736666666666701,0.090616666666667,5
COM4,509,24-Apr-19,2019-04-24 22:00:00,0.09945,0.09418333333333301,0.08800000000000001,0.08636666666666701,0.08221666666666701,0.0767,0.077883333333333,5
COM4,509,24-Apr-19,2019-04-24 23:00:00,0.16081355932203,0.11550847457627,0.10074576271186,0.091677966101695,0.08520338983050799,0.073457627118644,0.075440677966102,5
