COM4,509,28-Nov-19,2019-11-28 00:00:00,0.48995,0.46211666666667,0.43108333333333,0.42271666666667,0.40533333333333,0.38246666666667,0.39185,5
COM4,509,28-Nov-19,2019-11-28 01:00:00,NaN,NaN,NaN,NaN,NaN,NaN,NaN,NaN
COM4,509,28-Nov-19,2019-11-28 02:00:00,NaN,NaN,NaN,NaN,NaN,NaN,NaN,NaN
COM4,509,28-Nov-19,2019-11-28 03:00:00,NaN,NaN,NaN,NaN,NaN,NaN,NaN,NaN
COM4,509,28-Nov-19,2019-11-28 04:00:00,NaN,NaN,NaN,NaN,NaN,NaN,NaN,NaN
COM4,509,28-Nov-19,2019-11-28 05:00:00,NaN,NaN,NaN,NaN,NaN,NaN,NaN,NaN
COM4,509,28-Nov-19,2019-11-28 06:00:00,NaN,NaN,NaN,NaN,NaN,NaN,NaN,NaN
COM4,509,28-Nov-19,2019-11-28 07:00:00,NaN,NaN,NaN,NaN,NaN,NaN,NaN,NaN
COM4,509,28-Nov-19,2019-11-28 08:00:00,NaN,NaN,NaN,NaN,NaN,NaN,NaN,NaN
COM4,509,28-Nov-19,2019-11-28 09:00:00,NaN,NaN,NaN,NaN,NaN,NaN,NaN,NaN
COM4,509,28-Nov-19,2019-11-28 10:00:00,NaN,NaN,NaN,NaN,NaN,NaN,NaN,NaN
COM4,509,28-Nov-19,2019-11-28 11:00:00,NaN,NaN,NaN,NaN,NaN,NaN,NaN,NaN
COM4,509,28-Nov-19,2019-11-28 12:00:00,NaN,NaN,NaN,NaN,NaN,NaN,NaN,NaN
COM4,509,28-Nov-19,2019-11-28 13:00:00,NaN,NaN,NaN,NaN,NaN,NaN,NaN,NaN
COM4,509,28-Nov-19,2019-11-28 14:00:00,NaN,NaN,NaN,NaN,NaN,NaN,NaN,NaN
COM4,509,28-Nov-19,2019-11-28 15:00:00,NaN,NaN,NaN,NaN,NaN,NaN,NaN,NaN
COM4,509,28-Nov-19,2019-11-28 16:00:00,NaN,NaN,NaN,NaN,NaN,NaN,NaN,NaN
COM4,509,28-Nov-19,2019-11-28 17:00:00,NaN,NaN,NaN,NaN,NaN,NaN,NaN,NaN
COM4,509,28-Nov-19,2019-11-28 18:00:00,NaN,NaN,NaN,NaN,NaN,NaN,NaN,NaN
COM4,509,28-Nov-19,2019-11-28 19:00:00,NaN,NaN,NaN,NaN,NaN,NaN,NaN,NaN
COM4,509,28-Nov-19,2019-11-28 20:00:00,NaN,NaN,NaN,NaN,NaN,NaN,NaN,NaN
COM4,509,28-Nov-19,2019-11-28 21:00:00,NaN,NaN,NaN,NaN,NaN,NaN,NaN,NaN
COM4,509,28-Nov-19,2019-11-28 22:00:00,NaN,NaN,NaN,NaN,NaN,NaN,NaN,NaN
COM4,509,28-Nov-19,2019-11-28 23:00:00,NaN,NaN,NaN,NaN,NaN,NaN,NaN,NaN
