COM4,509,22-May-19,2019-05-22 00:00:00,0.035983333333333,0.03306666666666701,0.032266666666667006,0.03295,0.030783333333332996,0.029216666666667005,0.029416666666667004,5
COM4,509,22-May-19,2019-05-22 01:00:00,0.016116666666667,0.014766666666667,0.013983333333332999,0.012116666666667001,0.01355,0.011716666666667,0.01175,5
COM4,509,22-May-19,2019-05-22 02:00:00,0.00625,0.0081333333333333,0.0083666666666667,0.0087666666666667,0.0080333333333333,0.0073833333333333,0.008,5
COM4,509,22-May-19,2019-05-22 03:00:00,0.00535,0.00725,0.0070333333333333,0.0059333333333333,0.0050333333333333,0.00555,0.0053166666666667,5
COM4,509,22-May-19,2019-05-22 04:00:00,0.0045333333333333,0.0071166666666667,0.00565,0.00655,0.0064,0.0054333333333333,0.0061666666666667,5
COM4,509,22-May-19,2019-05-22 05:00:00,0.01035,0.012566666666667,0.012733333333333,0.012266666666667,0.011133333333332999,0.013216666666667,0.012266666666667,5
COM4,509,22-May-19,2019-05-22 06:00:00,0.014733333333333,0.018066666666667,0.015933333333333,0.016883333333333,0.016466666666667,0.0164,0.016333333333333,5
COM4,509,22-May-19,2019-05-22 07:00:00,0.0164,0.017183333333333,0.017033333333333,0.016466666666667,0.015533333333333,0.014466666666667,0.015716666666667,5
COM4,509,22-May-19,2019-05-22 08:00:00,0.0276,0.025183333333332995,0.024083333333332995,0.024816666666667004,0.023916666666667006,0.0227,0.0244,5
COM4,509,22-May-19,2019-05-22 09:00:00,0.027366666666667004,0.0247,0.026033333333332995,0.0237,0.024033333333332994,0.022166666666667004,0.022983333333332995,5
COM4,509,22-May-19,2019-05-22 10:00:00,0.024333333333332995,0.02255,0.020533333333333,0.020333333333333,0.01915,0.018283333333333,0.018383333333333,5
COM4,509,22-May-19,2019-05-22 11:00:00,0.024966666666667005,0.024816666666667004,0.023416666666667005,0.02265,0.020516666666667,0.017466666666667,0.0191,5
COM4,509,22-May-19,2019-05-22 12:00:00,0.025866666666667006,0.02475,0.020933333333333,0.019,0.018466666666667,0.017,0.015066666666667,5
COM4,509,22-May-19,2019-05-22 13:00:00,0.023883333333332996,0.020266666666667002,0.016766666666667,0.0161,0.015033333333333,0.010733333333333,0.012733333333333,5
COM4,509,22-May-19,2019-05-22 14:00:00,0.020633333333333,0.01795,0.0164,0.0163,0.013733333333333,0.01375,0.012766666666667,5
COM4,509,22-May-19,2019-05-22 15:00:00,0.0165,0.018033333333333,0.0146,0.014466666666667,0.012283333333332999,0.011233333333333,0.012683333333333,5
COM4,509,22-May-19,2019-05-22 16:00:00,0.022683333333332997,0.017433333333333,0.0154,0.012666666666667001,0.014516666666667,0.011666666666667,0.011683333333332999,5
COM4,509,22-May-19,2019-05-22 17:00:00,0.025883333333332995,0.01975,0.018833333333333,0.018283333333333,0.01645,0.013833333333333,0.013983333333332999,5
COM4,509,22-May-19,2019-05-22 18:00:00,0.023683333333332994,0.01855,0.016433333333332998,0.015633333333333,0.015833333333332998,0.0111,0.01265,5
COM4,509,22-May-19,2019-05-22 19:00:00,0.022866666666667004,0.0188,0.0172,0.01505,0.0132,0.0107,0.012733333333333,5
COM4,509,22-May-19,2019-05-22 20:00:00,0.0159,0.014466666666667,0.012316666666667,0.012583333333333,0.01105,0.0065666666666667,0.0067666666666667,5
COM4,509,22-May-19,2019-05-22 21:00:00,0.019583333333332998,0.015033333333333,0.013016666666667,0.01085,0.011183333333333,0.0087666666666667,0.0098166666666667,5
COM4,509,22-May-19,2019-05-22 22:00:00,0.018433333333333,0.014116666666667001,0.0127,0.01125,0.011516666666667001,0.0097833333333333,0.011283333333333,5
COM4,509,22-May-19,2019-05-22 23:00:00,0.015474576271186001,0.013847457627119001,0.010847457627119,0.012067796610168999,0.010389830508475,0.0092372881355932,0.0095593220338983,5
