COM4,509,09-Jan-20,2020-01-09 00:00:00,0.1043,0.08963333333333301,0.0766,0.0698,0.06295,0.052066666666667,0.052966666666666995,5
COM4,509,09-Jan-20,2020-01-09 01:00:00,0.03965,0.065316666666667,0.0604,0.05973333333333301,0.057316666666666995,0.050583333333333,0.05103333333333301,5
COM4,509,09-Jan-20,2020-01-09 02:00:00,-0.022033333333332995,0.0095333333333333,0.01075,0.012833333333332999,0.0097166666666667,0.00835,0.00835,5
COM4,509,09-Jan-20,2020-01-09 03:00:00,0.025183333333332995,0.048,0.045216666666666995,0.04395,0.04221666666666699,0.037933333333333,0.038083333333333,5
COM4,509,09-Jan-20,2020-01-09 04:00:00,0.1628,0.18961666666667004,0.18376666666667002,0.18431666666667004,0.1806,0.1675,0.17025,5
COM4,509,09-Jan-20,2020-01-09 05:00:00,0.049616666666666996,0.06905,0.067883333333333,0.06805,0.0672,0.0625,0.062916666666667,5
COM4,509,09-Jan-20,2020-01-09 06:00:00,0.24461666666667004,0.2583,0.24701666666667002,0.24815,0.24241666666667003,0.22288333333332996,0.22601666666667003,5
COM4,509,09-Jan-20,2020-01-09 07:00:00,0.23356666666667003,0.2496,0.23933333333332996,0.2359,0.22995,0.20658333333332995,0.20846666666667002,5
COM4,509,09-Jan-20,2020-01-09 08:00:00,0.5869666666666701,0.58245,0.54366666666667,0.53273333333333,0.5147,0.46451666666667,0.47005,5
COM4,509,09-Jan-20,2020-01-09 09:00:00,0.39238333333333003,0.39966666666667,0.37315,0.36436666666667,0.35125,0.31513333333333,0.31905,5
COM4,509,09-Jan-20,2020-01-09 10:00:00,0.39551666666667,0.41141666666667,0.3916,0.38578333333333,0.37311666666667,0.33106666666667,0.33321666666667,5
COM4,509,09-Jan-20,2020-01-09 11:00:00,0.1191,0.1492,0.1456,0.14691666666667003,0.14491666666667002,0.13011666666667,0.1308,5
COM4,509,09-Jan-20,2020-01-09 12:00:00,0.16548333333332998,0.18473333333332997,0.17743333333332997,0.17795,0.17301666666667004,0.14961666666667,0.15091666666667,5
COM4,509,09-Jan-20,2020-01-09 13:00:00,0.20356666666667003,0.2206,0.21205,0.21251666666667005,0.20751666666667004,0.18533333333332996,0.18488333333332996,5
COM4,509,09-Jan-20,2020-01-09 14:00:00,0.3453,0.37236666666667,0.36261666666667,0.3637,0.35591666666667,0.32015,0.32398333333333,5
COM4,509,09-Jan-20,2020-01-09 15:00:00,0.29908333333333,0.30663333333333,0.29343333333333,0.29,0.28333333333333,0.24875,0.2511,5
COM4,509,09-Jan-20,2020-01-09 16:00:00,0.44218333333333,0.43023333333333,0.39575,0.38503333333333,0.37158333333333,0.32858333333333,0.33008333333333,5
COM4,509,09-Jan-20,2020-01-09 17:00:00,0.24871666666667003,0.25086666666667,0.23646666666667004,0.23221666666667004,0.22681666666667002,0.19516666666667004,0.19745,5
COM4,509,09-Jan-20,2020-01-09 18:00:00,0.1509,0.15546666666667,0.1441,0.14195,0.1355,0.11766666666667,0.11825,5
COM4,509,09-Jan-20,2020-01-09 19:00:00,0.15008333333333,0.15515,0.14586666666667,0.14461666666667,0.13903333333332998,0.11476666666667,0.11505,5
COM4,509,09-Jan-20,2020-01-09 20:00:00,0.12385,0.10886666666667,0.096633333333333,0.091716666666667,0.089366666666667,0.076983333333333,0.07691666666666701,5
COM4,509,09-Jan-20,2020-01-09 21:00:00,0.039216666666667004,0.042916666666667,0.038733333333333,0.038966666666667,0.035483333333333,0.025266666666667006,0.0275,5
COM4,509,09-Jan-20,2020-01-09 22:00:00,0.0243,0.027916666666667006,0.027533333333332993,0.02435,0.024983333333332997,0.018133333333332998,0.018183333333333,5
COM4,509,09-Jan-20,2020-01-09 23:00:00,0.028305084745762994,0.033728813559322,0.032135593220339,0.029745762711863997,0.028186440677966,0.019542372881356004,0.019135593220339,5
