COM4,509,01-Sep-19,2019-09-01 00:00:00,0.40635,0.3654,0.33548333333333,0.32508333333333,0.30496666666667,0.27985,0.28388333333333,5
COM4,509,01-Sep-19,2019-09-01 01:00:00,0.35301666666667,0.31831666666666997,0.29188333333333,0.2828,0.26541666666667,0.24295,0.24618333333332998,5
COM4,509,01-Sep-19,2019-09-01 02:00:00,0.32418333333333,0.29213333333333,0.26953333333332996,0.2619,0.24641666666667003,0.22535,0.22943333333332996,5
COM4,509,01-Sep-19,2019-09-01 03:00:00,0.28853333333333,0.26145,0.24098333333332997,0.23483333333332998,0.22161666666667004,0.20181666666667003,0.20533333333332998,5
COM4,509,01-Sep-19,2019-09-01 04:00:00,0.23713333333332998,0.2135,0.19611666666667002,0.19065,0.17931666666667004,0.16263333333333,0.16546666666667,5
COM4,509,01-Sep-19,2019-09-01 05:00:00,0.23135,0.20828333333332996,0.19125,0.18565,0.17465,0.15923333333332998,0.16173333333332998,5
COM4,509,01-Sep-19,2019-09-01 06:00:00,0.27406666666667,0.23948333333332997,0.21905,0.21131666666667004,0.19868333333332996,0.17983333333332996,0.18361666666667004,5
COM4,509,01-Sep-19,2019-09-01 07:00:00,0.27768333333333,0.24741666666667003,0.22726666666667003,0.22061666666667004,0.20783333333332996,0.18891666666667004,0.19248333333332998,5
COM4,509,01-Sep-19,2019-09-01 08:00:00,0.27305,0.24711666666667004,0.22813333333332997,0.22258333333332997,0.20858333333332996,0.1908,0.19365,5
COM4,509,01-Sep-19,2019-09-01 09:00:00,0.26388333333333,0.23358333333332998,0.21703333333332997,0.21085,0.20141666666667002,0.17815,0.18375,5
COM4,509,01-Sep-19,2019-09-01 10:00:00,0.21801666666667002,0.1973,0.18505,0.17971666666667002,0.17191666666667002,0.15771666666667,0.16226666666667,5
COM4,509,01-Sep-19,2019-09-01 11:00:00,0.18078333333332997,0.1888,0.188,0.19158333333332997,0.19038333333332996,0.18461666666667004,0.18913333333332996,5
COM4,509,01-Sep-19,2019-09-01 12:00:00,0.14843333333332998,0.17203333333332996,0.1746,0.18503333333332997,0.18736666666667004,0.19358333333332997,0.20038333333332997,5
COM4,509,01-Sep-19,2019-09-01 13:00:00,0.10688333333333,0.1226,0.12393333333333001,0.12875,0.12943333333333001,0.13121666666667,0.13483333333333,5
COM4,509,01-Sep-19,2019-09-01 14:00:00,0.08135,0.09153333333333301,0.08945,0.0923,0.09055,0.0867,0.088866666666667,5
COM4,509,01-Sep-19,2019-09-01 15:00:00,0.08705,0.08855,0.08348333333333299,0.08471666666666701,0.08181666666666701,0.078716666666667,0.080716666666667,5
COM4,509,01-Sep-19,2019-09-01 16:00:00,0.07045,0.0707,0.06715,0.066816666666667,0.06393333333333301,0.060283333333333,0.06135,5
COM4,509,01-Sep-19,2019-09-01 17:00:00,0.054000000000000006,0.05565,0.05273333333333301,0.052266666666666996,0.05,0.04636666666666699,0.046983333333333,5
COM4,509,01-Sep-19,2019-09-01 18:00:00,0.12361666666667,0.12236666666667,0.11273333333333001,0.1098,0.10451666666666999,0.093016666666667,0.09593333333333301,5
COM4,509,01-Sep-19,2019-09-01 19:00:00,0.21435,0.18901666666667002,0.17173333333332996,0.16266666666667,0.15076666666667002,0.13443333333333002,0.13635,5
COM4,509,01-Sep-19,2019-09-01 20:00:00,0.23411666666667003,0.20871666666667002,0.19153333333332997,0.18053333333332997,0.17001666666667004,0.15135,0.15685,5
COM4,509,01-Sep-19,2019-09-01 21:00:00,0.34021666666667,0.30395,0.27913333333333,0.26711666666667006,0.25056666666667005,0.2264,0.23123333333332996,5
COM4,509,01-Sep-19,2019-09-01 22:00:00,0.43701666666667,0.39506666666667,0.3649,0.34956666666666997,0.3297,0.2959,0.30441666666667,5
COM4,509,01-Sep-19,2019-09-01 23:00:00,0.38315,0.35371666666667,0.3259,0.31408333333333,0.29653333333333,0.26753333333332996,0.27361666666667,5
