COM4,509,21-Aug-19,2019-08-21 00:00:00,0.54015,0.38163333333333,0.32513333333333,0.30188333333333,0.27241666666667,0.23675,0.24038333333332998,5
COM4,509,21-Aug-19,2019-08-21 01:00:00,0.43523333333333003,0.31985,0.27693333333333,0.25448333333332995,0.23296666666667004,0.20353333333332996,0.20663333333332998,5
COM4,509,21-Aug-19,2019-08-21 02:00:00,0.39123333333333,0.31205,0.27461666666667,0.25986666666667,0.2387,0.21145,0.21555,5
COM4,509,21-Aug-19,2019-08-21 03:00:00,0.28573333333333,0.23821666666667002,0.21035,0.19805,0.18373333333332997,0.16195,0.16541666666667001,5
COM4,509,21-Aug-19,2019-08-21 04:00:00,0.22965,0.19093333333332996,0.17008333333332998,0.16131666666667002,0.1481,0.13001666666667,0.13263333333333,5
COM4,509,21-Aug-19,2019-08-21 05:00:00,0.30871666666666997,0.24173333333332997,0.21185,0.19825,0.18291666666667003,0.16101666666667,0.16418333333333,5
COM4,509,21-Aug-19,2019-08-21 06:00:00,0.6560833333333299,0.55701666666667,0.49956666666667,0.47668333333333,0.44438333333333,0.40461666666667,0.41523333333333,5
COM4,509,21-Aug-19,2019-08-21 07:00:00,0.55326666666667,0.48213333333333,0.43511666666667,0.41501666666667,0.38825,0.3538,0.36133333333333,5
COM4,509,21-Aug-19,2019-08-21 08:00:00,0.48188333333333,0.41856666666667,0.37853333333333,0.3631,0.34081666666667,0.30683333333333,0.3148,5
COM4,509,21-Aug-19,2019-08-21 09:00:00,0.41278333333333,0.35988333333333,0.33028333333333,0.31503333333333,0.29725,0.26463333333332995,0.27415,5
COM4,509,21-Aug-19,2019-08-21 10:00:00,0.26676666666667004,0.2466,0.2285,0.22033333333332997,0.21003333333332996,0.18693333333332998,0.19271666666667003,5
COM4,509,21-Aug-19,2019-08-21 11:00:00,0.19616666666667004,0.19241666666667004,0.18075,0.1744,0.16588333333333,0.14931666666667,0.15338333333332999,5
COM4,509,21-Aug-19,2019-08-21 12:00:00,0.13081666666667,0.1326,0.12298333333333,0.12266666666666999,0.11621666666667,0.1042,0.1067,5
COM4,509,21-Aug-19,2019-08-21 13:00:00,0.06665,0.080283333333333,0.07558333333333299,0.073833333333333,0.07078333333333299,0.06443333333333301,0.06515,5
COM4,509,21-Aug-19,2019-08-21 14:00:00,0.02925,0.044083333333333,0.042816666666666996,0.04165,0.040066666666667,0.036833333333333,0.038233333333333,5
COM4,509,21-Aug-19,2019-08-21 15:00:00,0.010166666666667,0.02605,0.02615,0.02615,0.0232,0.023266666666667005,0.022883333333332995,5
COM4,509,21-Aug-19,2019-08-21 16:00:00,0.0618,0.06168333333333301,0.05336666666666699,0.050833333333333,0.0486,0.047666666666666996,0.048683333333333,5
COM4,509,21-Aug-19,2019-08-21 17:00:00,0.10881666666666999,0.13158333333333,0.13218333333333002,0.13753333333332998,0.13568333333333,0.13156666666667,0.13285,5
COM4,509,21-Aug-19,2019-08-21 18:00:00,0.15933333333333,0.16793333333332996,0.16235,0.16215,0.15476666666667002,0.14813333333332998,0.14945,5
COM4,509,21-Aug-19,2019-08-21 19:00:00,0.31545,0.28791666666667,0.26241666666667,0.25221666666667003,0.23715,0.21136666666667003,0.21723333333332998,5
COM4,509,21-Aug-19,2019-08-21 20:00:00,0.5534166666666701,0.36615,0.3102,0.2842,0.25775,0.2145,0.22136666666667004,5
COM4,509,21-Aug-19,2019-08-21 21:00:00,0.7441,0.45151666666667,0.37351666666667,0.3344,0.3016,0.25365,0.2579,5
COM4,509,21-Aug-19,2019-08-21 22:00:00,0.61346666666667,0.41633333333333,0.35716666666667,0.32871666666667,0.29945,0.25925,0.26456666666667006,5
COM4,509,21-Aug-19,2019-08-21 23:00:00,0.4709,0.35093333333333,0.30333333333333,0.28361666666667,0.25886666666667,0.22463333333332997,0.22808333333332997,5
