COM4,509,24-Jun-19,2019-06-24 00:00:00,0.10585,0.10583333333333,0.10333333333333,0.10381666666667,0.10056666666667,0.09686666666666699,0.099416666666667,5
COM4,509,24-Jun-19,2019-06-24 01:00:00,0.07981666666666701,0.08296666666666701,0.07915,0.07923333333333299,0.077116666666667,0.0719,0.074066666666667,5
COM4,509,24-Jun-19,2019-06-24 02:00:00,0.07476666666666701,0.07415,0.07200000000000001,0.072083333333333,0.0708,0.067416666666667,0.0696,5
COM4,509,24-Jun-19,2019-06-24 03:00:00,0.09786666666666699,0.099916666666667,0.096483333333333,0.09495,0.0924,0.08778333333333299,0.089516666666667,5
COM4,509,24-Jun-19,2019-06-24 04:00:00,0.11463333333333,0.11708333333333,0.11283333333333001,0.11345,0.10948333333333,0.10591666666666999,0.10946666666667,5
COM4,509,24-Jun-19,2019-06-24 05:00:00,0.13626666666667,0.13955,0.13591666666667,0.13741666666667,0.1349,0.1329,0.13533333333333,5
COM4,509,24-Jun-19,2019-06-24 06:00:00,0.16391666666667,0.1705,0.16751666666667,0.16833333333332998,0.16766666666667002,0.16458333333332997,0.17033333333332998,5
COM4,509,24-Jun-19,2019-06-24 07:00:00,0.17658333333332996,0.18733333333332997,0.18403333333332997,0.18885,0.18608333333332996,0.18411666666667004,0.19066666666667004,5
COM4,509,24-Jun-19,2019-06-24 08:00:00,0.15963333333333,0.17263333333332997,0.17165,0.17578333333332996,0.17676666666667004,0.17468333333332997,0.18083333333332996,5
COM4,509,24-Jun-19,2019-06-24 09:00:00,0.11,0.1093,0.10981666666666999,0.1082,0.10861666666667,0.10226666666666999,0.10723333333333,5
COM4,509,24-Jun-19,2019-06-24 10:00:00,0.067,0.07193333333333299,0.070266666666667,0.07075,0.0714,0.0665,0.07053333333333299,5
COM4,509,24-Jun-19,2019-06-24 11:00:00,0.054016666666667,0.056966666666667,0.058083333333333,0.05855,0.057983333333333005,0.057416666666667,0.059633333333333004,5
COM4,509,24-Jun-19,2019-06-24 12:00:00,0.04805,0.05415,0.053733333333333,0.0548,0.055433333333333,0.05361666666666699,0.055966666666667,5
COM4,509,24-Jun-19,2019-06-24 13:00:00,0.05045,0.056383333333333,0.05513333333333301,0.057683333333333,0.056083333333333006,0.05715,0.058183333333333004,5
COM4,509,24-Jun-19,2019-06-24 14:00:00,0.036533333333333,0.0447,0.04466666666666699,0.04498333333333301,0.0461,0.0468,0.048316666666666994,5
COM4,509,24-Jun-19,2019-06-24 15:00:00,0.033416666666667004,0.042933333333333004,0.04175,0.044516666666666996,0.043833333333333,0.04585,0.045316666666667,5
COM4,509,24-Jun-19,2019-06-24 16:00:00,0.029566666666667005,0.039166666666667,0.03975,0.041233333333333,0.0406,0.0413,0.04175,5
COM4,509,24-Jun-19,2019-06-24 17:00:00,0.035133333333333,0.044366666666667,0.0412,0.042933333333333004,0.040816666666667,0.041533333333333,0.0412,5
COM4,509,24-Jun-19,2019-06-24 18:00:00,0.035566666666667,0.051166666666667,0.0471,0.05028333333333301,0.046016666666667,0.051583333333333,0.048616666666666995,5
COM4,509,24-Jun-19,2019-06-24 19:00:00,0.07145,0.0797,0.074983333333333,0.0775,0.073716666666667,0.0762,0.076616666666667,5
COM4,509,24-Jun-19,2019-06-24 20:00:00,0.19258333333332997,0.15876666666667003,0.14578333333333,0.14121666666667002,0.13316666666666999,0.12481666666666999,0.12743333333333,5
COM4,509,24-Jun-19,2019-06-24 21:00:00,0.18658333333332996,0.16176666666667,0.15133333333333,0.1452,0.14005,0.13,0.13401666666667,5
COM4,509,24-Jun-19,2019-06-24 22:00:00,0.20508333333332998,0.18866666666667004,0.17913333333332998,0.17578333333332996,0.16966666666667002,0.15993333333332999,0.1655,5
COM4,509,24-Jun-19,2019-06-24 23:00:00,0.22494915254237,0.21596610169492003,0.20747457627119,0.20420338983051,0.19913559322034002,0.19133898305085,0.19718644067797,5
