COM4,509,29-Oct-19,2019-10-29 00:00:00,0.075883333333333,0.069183333333333,0.063916666666667,0.061583333333333004,0.058566666666666996,0.054966666666667,0.055416666666666996,5
COM4,509,29-Oct-19,2019-10-29 01:00:00,0.081116666666667,0.073083333333333,0.068066666666667,0.0674,0.063116666666667,0.057616666666666996,0.059516666666666995,5
COM4,509,29-Oct-19,2019-10-29 02:00:00,0.063533333333333,0.05733333333333301,0.053033333333333,0.051566666666666996,0.049166666666667,0.0479,0.048583333333333006,5
COM4,509,29-Oct-19,2019-10-29 03:00:00,0.0565,0.053416666666666994,0.04908333333333301,0.047966666666667,0.04515,0.039183333333333,0.040999999999999995,5
COM4,509,29-Oct-19,2019-10-29 04:00:00,0.072483333333333,0.063016666666667,0.057716666666667,0.054916666666666995,0.052616666666667,0.047866666666666995,0.0485,5
COM4,509,29-Oct-19,2019-10-29 05:00:00,0.0538,0.048616666666666995,0.04345,0.043116666666667,0.038383333333333,0.02625,0.027033333333332996,5
COM4,509,29-Oct-19,2019-10-29 06:00:00,0.051733333333333006,0.04915,0.044283333333333,0.043433333333333005,0.04165,0.041366666666667,0.0417,5
COM4,509,29-Oct-19,2019-10-29 07:00:00,0.052516666666666996,0.047583333333333006,0.043,0.0415,0.03975,0.037683333333333,0.03845,5
COM4,509,29-Oct-19,2019-10-29 08:00:00,0.055233333333333,0.04785,0.0432,0.042133333333333,0.039033333333333,0.034766666666667,0.035833333333333,5
COM4,509,29-Oct-19,2019-10-29 09:00:00,0.05223333333333301,0.046666666666666995,0.04321666666666699,0.041466666666667,0.039833333333333,0.037266666666667,0.039416666666667,5
COM4,509,29-Oct-19,2019-10-29 10:00:00,0.049466666666667,0.044866666666667,0.041316666666667,0.03925,0.038133333333333,0.034633333333333,0.036116666666667,5
COM4,509,29-Oct-19,2019-10-29 11:00:00,0.081966666666667,0.07745,0.07303333333333299,0.072216666666667,0.06986666666666701,0.067266666666667,0.06946666666666701,5
COM4,509,29-Oct-19,2019-10-29 12:00:00,0.10131666666667,0.095,0.08888333333333301,0.08683333333333298,0.08398333333333298,0.081083333333333,0.083616666666667,5
COM4,509,29-Oct-19,2019-10-29 13:00:00,0.15723333333332998,0.14106666666667,0.13033333333333,0.1276,0.12025,0.10976666666667,0.1129,5
COM4,509,29-Oct-19,2019-10-29 14:00:00,0.10711666666667,0.10293333333333,0.09568333333333301,0.094916666666667,0.09041666666666699,0.08708333333333299,0.08913333333333301,5
COM4,509,29-Oct-19,2019-10-29 15:00:00,0.07683333333333299,0.06765,0.061333333333333004,0.060016666666666996,0.056616666666666995,0.05135,0.05345,5
COM4,509,29-Oct-19,2019-10-29 16:00:00,0.14925,0.14568333333332997,0.13873333333333,0.13813333333333,0.13351666666667,0.12801666666667,0.1328,5
COM4,509,29-Oct-19,2019-10-29 17:00:00,0.1379,0.12396666666667,0.11496666666666999,0.11268333333333,0.10883333333333,0.10645,0.10888333333333,5
COM4,509,29-Oct-19,2019-10-29 18:00:00,0.13918333333333,0.1093,0.099916666666667,0.096066666666667,0.0914,0.088766666666667,0.0927,5
COM4,509,29-Oct-19,2019-10-29 19:00:00,0.25668333333333,0.19736666666667002,0.17903333333332996,0.17161666666667003,0.1605,0.1438,0.1468,5
COM4,509,29-Oct-19,2019-10-29 20:00:00,0.38441666666667,0.33221666666667,0.30811666666667,0.3004,0.2868,0.26743333333332997,0.27521666666667,5
COM4,509,29-Oct-19,2019-10-29 21:00:00,0.26455,0.1947,0.17226666666667004,0.16056666666667002,0.14883333333333,0.13133333333333,0.13436666666667,5
COM4,509,29-Oct-19,2019-10-29 22:00:00,0.38221666666667,0.25463333333333,0.22383333333332997,0.21115,0.19688333333332997,0.1784,0.18258333333332996,5
COM4,509,29-Oct-19,2019-10-29 23:00:00,0.20956666666667004,0.15885,0.13838333333333,0.12856666666667,0.11918333333333,0.10735,0.11001666666667,5
