COM4,0509,22-Feb-19,2019-02-22 00:00:00,0.18418333333333,0.16216666666667,0.14835,0.14321666666667,0.13463333333333,0.1231,0.1248,5,0,0,0,0,0,0,0,0,0,0,0,0,0,0,0,0,0,0,0,0,0,0,0,0,0,0,0,0,0,0,0,0,0,0,0,0,0,0,0,0,0,0
COM4,0509,22-Feb-19,2019-02-22 01:00:00,0.15498275862069,0.13946551724138,0.12929310344828,0.12365517241379,0.11639655172414,0.10701724137931,0.10965517241379,5,0,0,0,0,0,0,0,0,0,0,0,0,0,0,0,0,0,0,0,0,0,0,0,0,0,0,0,0,0,0,0,0,0,0,0,0,0,0,0,0,0,0
COM4,0509,22-Feb-19,2019-02-22 02:00:00,0.26898305084746,0.2364406779661,0.21850847457627,0.21138983050847,0.20061016949153,0.18742372881356,0.19010169491525,5,0,0,0,0,0,0,0,0,0,0,0,0,0,0,0,0,0,0,0,0,0,0,0,0,0,0,0,0,0,0,0,0,0,0,0,0,0,0,0,0,0,0
COM4,0509,22-Feb-19,2019-02-22 03:00:00,0.25235593220339,0.22464406779661,0.20767796610169,0.20162711864407,0.19172881355932,0.17962711864407,0.18520338983051,5,0,0,0,0,0,0,0,0,0,0,0,0,0,0,0,0,0,0,0,0,0,0,0,0,0,0,0,0,0,0,0,0,0,0,0,0,0,0,0,0,0,0
COM4,0509,22-Feb-19,2019-02-22 04:00:00,0.28225862068966,0.24063793103448,0.21977586206897,0.21227586206897,0.20060344827586,0.18725862068966,0.19074137931034,5,0,0,0,0,0,0,0,0,0,0,0,0,0,0,0,0,0,0,0,0,0,0,0,0,0,0,0,0,0,0,0,0,0,0,0,0,0,0,0,0,0,0
COM4,0509,22-Feb-19,2019-02-22 05:00:00,0.31398305084746,0.27313559322034,0.25250847457627,0.24625423728814,0.23384745762712,0.21923728813559,0.22408474576271,5,0,0,0,0,0,0,0,0,0,0,0,0,0,0,0,0,0,0,0,0,0,0,0,0,0,0,0,0,0,0,0,0,0,0,0,0,0,0,0,0,0,0
COM4,0509,22-Feb-19,2019-02-22 06:00:00,0.26255,0.23531666666667,0.21715,0.21091666666667,0.20003333333333,0.1839,0.18806666666667,5,0,0,0,0,0,0,0,0,0,0,0,0,0,0,0,0,0,0,0,0,0,0,0,0,0,0,0,0,0,0,0,0,0,0,0,0,0,0,0,0,0,0
COM4,0509,22-Feb-19,2019-02-22 07:00:00,0.25808620689655,0.23029310344828,0.21103448275862,0.20344827586207,0.19408620689655,0.17760344827586,0.18425862068966,5,0,0,0,0,0,0,0,0,0,0,0,0,0,0,0,0,0,0,0,0,0,0,0,0,0,0,0,0,0,0,0,0,0,0,0,0,0,0,0,0,0,0
COM4,0509,22-Feb-19,2019-02-22 08:00:00,0.24920689655172,0.2278275862069,0.21024137931034,0.20629310344828,0.19427586206897,0.18177586206897,0.18836206896552,5,0,0,0,0,0,0,0,0,0,0,0,0,0,0,0,0,0,0,0,0,0,0,0,0,0,0,0,0,0,0,0,0,0,0,0,0,0,0,0,0,0,0
COM4,0509,22-Feb-19,2019-02-22 09:00:00,0.37872881355932,0.35994915254237,0.34162711864407,0.33693220338983,0.32881355932203,0.32079661016949,0.3304406779661,5,0,0,0,0,0,0,0,0,0,0,0,0,0,0,0,0,0,0,0,0,0,0,0,0,0,0,0,0,0,0,0,0,0,0,0,0,0,0,0,0,0,0
COM4,0509,22-Feb-19,2019-02-22 10:00:00,0.28223333333333,0.26518333333333,0.24716666666667,0.2423,0.23098333333333,0.21661666666667,0.22385,5,0,0,0,0,0,0,0,0,0,0,0,0,0,0,0,0,0,0,0,0,0,0,0,0,0,0,0,0,0,0,0,0,0,0,0,0,0,0,0,0,0,0
COM4,0509,22-Feb-19,2019-02-22 11:00:00,0.29940677966102,0.27462711864407,0.25369491525424,0.24557627118644,0.23466101694915,0.21784745762712,0.22435593220339,5,0,0,0,0,0,0,0,0,0,0,0,0,0,0,0,0,0,0,0,0,0,0,0,0,0,0,0,0,0,0,0,0,0,0,0,0,0,0,0,0,0,0
COM4,0509,22-Feb-19,2019-02-22 12:00:00,0.37823333333333,0.35141666666667,0.32406666666667,0.31313333333333,0.29891666666667,0.28105,0.28888333333333,5,0,0,0,0,0,0,0,0,0,0,0,0,0,0,0,0,0,0,0,0,0,0,0,0,0,0,0,0,0,0,0,0,0,0,0,0,0,0,0,0,0,0
COM4,0509,22-Feb-19,2019-02-22 13:00:00,0.35803448275862,0.33037931034483,0.3035,0.2923275862069,0.27774137931034,0.25922413793103,0.26513793103448,5,0,0,0,0,0,0,0,0,0,0,0,0,0,0,0,0,0,0,0,0,0,0,0,0,0,0,0,0,0,0,0,0,0,0,0,0,0,0,0,0,0,0
COM4,0509,22-Feb-19,2019-02-22 14:00:00,0.29837931034483,0.28560344827586,0.26539655172414,0.25901724137931,0.24622413793103,0.23122413793103,0.23715517241379,5,0,0,0,0,0,0,0,0,0,0,0,0,0,0,0,0,0,0,0,0,0,0,0,0,0,0,0,0,0,0,0,0,0,0,0,0,0,0,0,0,0,0
COM4,0509,22-Feb-19,2019-02-22 15:00:00,0.26054237288136,0.24883050847458,0.23415254237288,0.2284406779661,0.21618644067797,0.20198305084746,0.20532203389831,5,0,0,0,0,0,0,0,0,0,0,0,0,0,0,0,0,0,0,0,0,0,0,0,0,0,0,0,0,0,0,0,0,0,0,0,0,0,0,0,0,0,0
COM4,0509,22-Feb-19,2019-02-22 16:00:00,0.31133333333333,0.29345,0.2745,0.26813333333333,0.25665,0.24001666666667,0.24628333333333,5,0,0,0,0,0,0,0,0,0,0,0,0,0,0,0,0,0,0,0,0,0,0,0,0,0,0,0,0,0,0,0,0,0,0,0,0,0,0,0,0,0,0
COM4,0509,22-Feb-19,2019-02-22 17:00:00,0.30120689655172,0.28434482758621,0.26427586206897,0.25841379310345,0.24668965517241,0.23001724137931,0.23460344827586,5,0,0,0,0,0,0,0,0,0,0,0,0,0,0,0,0,0,0,0,0,0,0,0,0,0,0,0,0,0,0,0,0,0,0,0,0,0,0,0,0,0,0
COM4,0509,22-Feb-19,2019-02-22 18:00:00,0.4549649122807,0.41335087719298,0.38543859649123,0.37445614035088,0.35635087719298,0.33414035087719,0.33905263157895,5,0,0,0,0,0,0,0,0,0,0,0,0,0,0,0,0,0,0,0,0,0,0,0,0,0,0,0,0,0,0,0,0,0,0,0,0,0,0,0,0,0,0
COM4,0509,22-Feb-19,2019-02-22 19:00:00,0.59145762711864,0.52079661016949,0.48233898305085,0.47023728813559,0.44766101694915,0.41594915254237,0.42645762711864,5,0,0,0,0,0,0,0,0,0,0,0,0,0,0,0,0,0,0,0,0,0,0,0,0,0,0,0,0,0,0,0,0,0,0,0,0,0,0,0,0,0,0
COM4,0509,22-Feb-19,2019-02-22 20:00:00,0.88105172413793,0.75837931034483,0.69801724137931,0.67420689655172,0.63436206896552,0.57687931034483,0.58955172413793,5,0,0,0,0,0,0,0,0,0,0,0,0,0,0,0,0,0,0,0,0,0,0,0,0,0,0,0,0,0,0,0,0,0,0,0,0,0,0,0,0,0,0
COM4,0509,22-Feb-19,2019-02-22 21:00:00,1.0377166666667,0.78523333333333,0.69045,0.6448,0.60103333333333,0.55211666666667,0.56611666666667,5,0,0,0,0,0,0,0,0,0,0,0,0,0,0,0,0,0,0,0,0,0,0,0,0,0,0,0,0,0,0,0,0,0,0,0,0,0,0,0,0,0,0
COM4,0509,22-Feb-19,2019-02-22 22:00:00,0.82752631578947,0.68429824561404,0.61419298245614,0.5819649122807,0.54642105263158,0.49540350877193,0.50494736842105,5,0,0,0,0,0,0,0,0,0,0,0,0,0,0,0,0,0,0,0,0,0,0,0,0,0,0,0,0,0,0,0,0,0,0,0,0,0,0,0,0,0,0
COM4,0509,22-Feb-19,2019-02-22 23:00:00,0.75257894736842,0.62408771929825,0.56278947368421,0.53570175438596,0.504,0.4549298245614,0.46442105263158,5,0,0,0,0,0,0,0,0,0,0,0,0,0,0,0,0,0,0,0,0,0,0,0,0,0,0,0,0,0,0,0,0,0,0,0,0,0,0,0,0,0,0
