COM4,0509,24-Feb-19,2019-02-24 00:00:00,0.28146666666667,0.23596666666667,0.21468333333333,0.20266666666667,0.19151666666667,0.17128333333333,0.17496666666667,5,0,0,0,0,0,0,0,0,0,0,0,0,0,0,0,0,0,0,0,0,0,0,0,0,0,0,0,0,0,0,0,0,0,0,0,0,0,0,0,0,0,0
COM4,0509,24-Feb-19,2019-02-24 01:00:00,0.3448275862069,0.25865517241379,0.2343275862069,0.21827586206897,0.2061724137931,0.1875,0.1923275862069,5,0,0,0,0,0,0,0,0,0,0,0,0,0,0,0,0,0,0,0,0,0,0,0,0,0,0,0,0,0,0,0,0,0,0,0,0,0,0,0,0,0,0
COM4,0509,24-Feb-19,2019-02-24 02:00:00,0.34316666666667,0.28993333333333,0.26583333333333,0.25643333333333,0.24216666666667,0.22398333333333,0.23095,5,0,0,0,0,0,0,0,0,0,0,0,0,0,0,0,0,0,0,0,0,0,0,0,0,0,0,0,0,0,0,0,0,0,0,0,0,0,0,0,0,0,0
COM4,0509,24-Feb-19,2019-02-24 03:00:00,0.27915254237288,0.22461016949153,0.20313559322034,0.1941186440678,0.18172881355932,0.16435593220339,0.16840677966102,5,0,0,0,0,0,0,0,0,0,0,0,0,0,0,0,0,0,0,0,0,0,0,0,0,0,0,0,0,0,0,0,0,0,0,0,0,0,0,0,0,0,0
COM4,0509,24-Feb-19,2019-02-24 04:00:00,0.27526315789474,0.22780701754386,0.20424561403509,0.19650877192982,0.17957894736842,0.16557894736842,0.16919298245614,5,0,0,0,0,0,0,0,0,0,0,0,0,0,0,0,0,0,0,0,0,0,0,0,0,0,0,0,0,0,0,0,0,0,0,0,0,0,0,0,0,0,0
COM4,0509,24-Feb-19,2019-02-24 05:00:00,0.20424561403509,0.17594736842105,0.15866666666667,0.14922807017544,0.14212280701754,0.12298245614035,0.13014035087719,5,0,0,0,0,0,0,0,0,0,0,0,0,0,0,0,0,0,0,0,0,0,0,0,0,0,0,0,0,0,0,0,0,0,0,0,0,0,0,0,0,0,0
COM4,0509,24-Feb-19,2019-02-24 06:00:00,0.15091525423729,0.1395593220339,0.12777966101695,0.12408474576271,0.11854237288136,0.11406779661017,0.11740677966102,5,0,0,0,0,0,0,0,0,0,0,0,0,0,0,0,0,0,0,0,0,0,0,0,0,0,0,0,0,0,0,0,0,0,0,0,0,0,0,0,0,0,0
COM4,0509,24-Feb-19,2019-02-24 07:00:00,0.17293103448276,0.1521724137931,0.13779310344828,0.13446551724138,0.12512068965517,0.11539655172414,0.1193275862069,5,0,0,0,0,0,0,0,0,0,0,0,0,0,0,0,0,0,0,0,0,0,0,0,0,0,0,0,0,0,0,0,0,0,0,0,0,0,0,0,0,0,0
COM4,0509,24-Feb-19,2019-02-24 08:00:00,0.22347457627119,0.18101694915254,0.16074576271186,0.1541186440678,0.1471186440678,0.13583050847458,0.13854237288136,5,0,0,0,0,0,0,0,0,0,0,0,0,0,0,0,0,0,0,0,0,0,0,0,0,0,0,0,0,0,0,0,0,0,0,0,0,0,0,0,0,0,0
COM4,0509,24-Feb-19,2019-02-24 09:00:00,0.10305084745763,0.1134406779661,0.10586440677966,0.10218644067797,0.095169491525424,0.085372881355932,0.089898305084746,5,0,0,0,0,0,0,0,0,0,0,0,0,0,0,0,0,0,0,0,0,0,0,0,0,0,0,0,0,0,0,0,0,0,0,0,0,0,0,0,0,0,0
COM4,0509,24-Feb-19,2019-02-24 10:00:00,0.09255,0.097383333333333,0.090833333333333,0.0877,0.086483333333333,0.086216666666667,0.090783333333333,5,0,0,0,0,0,0,0,0,0,0,0,0,0,0,0,0,0,0,0,0,0,0,0,0,0,0,0,0,0,0,0,0,0,0,0,0,0,0,0,0,0,0
COM4,0509,24-Feb-19,2019-02-24 11:00:00,0.10439655172414,0.10772413793103,0.10260344827586,0.10110344827586,0.093379310344828,0.089586206896552,0.091293103448276,5,0,0,0,0,0,0,0,0,0,0,0,0,0,0,0,0,0,0,0,0,0,0,0,0,0,0,0,0,0,0,0,0,0,0,0,0,0,0,0,0,0,0
COM4,0509,24-Feb-19,2019-02-24 12:00:00,0.14976271186441,0.14218644067797,0.12954237288136,0.12779661016949,0.11896610169492,0.11616949152542,0.12022033898305,5,0,0,0,0,0,0,0,0,0,0,0,0,0,0,0,0,0,0,0,0,0,0,0,0,0,0,0,0,0,0,0,0,0,0,0,0,0,0,0,0,0,0
COM4,0509,24-Feb-19,2019-02-24 13:00:00,0.083366666666667,0.086766666666667,0.085033333333333,0.080516666666667,0.079166666666667,0.06995,0.070466666666667,5,0,0,0,0,0,0,0,0,0,0,0,0,0,0,0,0,0,0,0,0,0,0,0,0,0,0,0,0,0,0,0,0,0,0,0,0,0,0,0,0,0,0
COM4,0509,24-Feb-19,2019-02-24 14:00:00,0.0111,0.026416666666667,0.027683333333333,0.029616666666667,0.029566666666667,0.0316,0.035533333333333,5,0,0,0,0,0,0,0,0,0,0,0,0,0,0,0,0,0,0,0,0,0,0,0,0,0,0,0,0,0,0,0,0,0,0,0,0,0,0,0,0,0,0
COM4,0509,24-Feb-19,2019-02-24 15:00:00,0.0338,0.046016666666667,0.04335,0.043566666666667,0.041966666666667,0.044016666666667,0.04375,5,0,0,0,0,0,0,0,0,0,0,0,0,0,0,0,0,0,0,0,0,0,0,0,0,0,0,0,0,0,0,0,0,0,0,0,0,0,0,0,0,0,0
COM4,0509,24-Feb-19,2019-02-24 16:00:00,0.0528,0.0633,0.06025,0.062283333333333,0.059283333333333,0.0569,0.059016666666667,5,0,0,0,0,0,0,0,0,0,0,0,0,0,0,0,0,0,0,0,0,0,0,0,0,0,0,0,0,0,0,0,0,0,0,0,0,0,0,0,0,0,0
COM4,0509,24-Feb-19,2019-02-24 17:00:00,0.039017857142857,0.043714285714286,0.038017857142857,0.038267857142857,0.03925,0.043303571428571,0.040910714285714,5,0,0,0,0,0,0,0,0,0,0,0,0,0,0,0,0,0,0,0,0,0,0,0,0,0,0,0,0,0,0,0,0,0,0,0,0,0,0,0,0,0,0
COM4,0509,24-Feb-19,2019-02-24 18:00:00,0.039916666666667,0.047516666666667,0.046083333333333,0.0457,0.044133333333333,0.041516666666667,0.043966666666667,5,0,0,0,0,0,0,0,0,0,0,0,0,0,0,0,0,0,0,0,0,0,0,0,0,0,0,0,0,0,0,0,0,0,0,0,0,0,0,0,0,0,0
COM4,0509,24-Feb-19,2019-02-24 19:00:00,0.023796610169492,0.028559322033898,0.028423728813559,0.025830508474576,0.027508474576271,0.024491525423729,0.024305084745763,5,0,0,0,0,0,0,0,0,0,0,0,0,0,0,0,0,0,0,0,0,0,0,0,0,0,0,0,0,0,0,0,0,0,0,0,0,0,0,0,0,0,0
COM4,0509,24-Feb-19,2019-02-24 20:00:00,0.028169491525424,0.034118644067797,0.032966101694915,0.031677966101695,0.030271186440678,0.031508474576271,0.033474576271186,5,0,0,0,0,0,0,0,0,0,0,0,0,0,0,0,0,0,0,0,0,0,0,0,0,0,0,0,0,0,0,0,0,0,0,0,0,0,0,0,0,0,0
COM4,0509,24-Feb-19,2019-02-24 21:00:00,0.028508771929825,0.032859649122807,0.033982456140351,0.033105263157895,0.031368421052632,0.026859649122807,0.027789473684211,5,0,0,0,0,0,0,0,0,0,0,0,0,0,0,0,0,0,0,0,0,0,0,0,0,0,0,0,0,0,0,0,0,0,0,0,0,0,0,0,0,0,0
COM4,0509,24-Feb-19,2019-02-24 22:00:00,0.049633333333333,0.048066666666667,0.046583333333333,0.045933333333333,0.043433333333333,0.044316666666667,0.046366666666667,5,0,0,0,0,0,0,0,0,0,0,0,0,0,0,0,0,0,0,0,0,0,0,0,0,0,0,0,0,0,0,0,0,0,0,0,0,0,0,0,0,0,0
COM4,0509,24-Feb-19,2019-02-24 23:00:00,0.10818333333333,0.097316666666667,0.088716666666667,0.086816666666667,0.0826,0.079466666666667,0.081283333333333,5,0,0,0,0,0,0,0,0,0,0,0,0,0,0,0,0,0,0,0,0,0,0,0,0,0,0,0,0,0,0,0,0,0,0,0,0,0,0,0,0,0,0
