COM4,0509,19-Dec-18,2018-12-19 00:00:00,0.48494915254237,0.47098305084746,0.44371186440678,0.43776271186441,0.41849152542373,0.39850847457627,0.40842372881356,5,0,0,0,0,0,0,0,0,0,0,0,0,0,0,0,0,0,0,0,0,0,0,0,0,0,0,0,0,0,0,0,0,0,0,0,0,0,0,0,0,0,0
COM4,0509,19-Dec-18,2018-12-19 01:00:00,0.4622,0.45955,0.43581666666667,0.43098333333333,0.41286666666667,0.39385,0.40498333333333,5,0,0,0,0,0,0,0,0,0,0,0,0,0,0,0,0,0,0,0,0,0,0,0,0,0,0,0,0,0,0,0,0,0,0,0,0,0,0,0,0,0,0
COM4,0509,19-Dec-18,2018-12-19 02:00:00,0.2552,0.25781666666667,0.2444,0.23996666666667,0.2297,0.2156,0.22058333333333,5,0,0,0,0,0,0,0,0,0,0,0,0,0,0,0,0,0,0,0,0,0,0,0,0,0,0,0,0,0,0,0,0,0,0,0,0,0,0,0,0,0,0
COM4,0509,19-Dec-18,2018-12-19 03:00:00,0.016116666666667,0.0189,0.012366666666667,0.0066,-0.0011333333333333,-0.0113,-0.0137,5,0,0,0,0,0,0,0,0,0,0,0,0,0,0,0,0,0,0,0,0,0,0,0,0,0,0,0,0,0,0,0,0,0,0,0,0,0,0,0,0,0,0
COM4,0509,19-Dec-18,2018-12-19 04:00:00,-0.025166666666667,-0.015266666666667,-0.019616666666667,-0.025,-0.029783333333333,-0.039066666666667,-0.04095,5,0,0,0,0,0,0,0,0,0,0,0,0,0,0,0,0,0,0,0,0,0,0,0,0,0,0,0,0,0,0,0,0,0,0,0,0,0,0,0,0,0,0
COM4,0509,19-Dec-18,2018-12-19 05:00:00,-0.0072166666666667,0.0010833333333333,-0.0037166666666667,-0.0083833333333333,-0.014266666666667,-0.027683333333333,-0.031383333333333,5,0,0,0,0,0,0,0,0,0,0,0,0,0,0,0,0,0,0,0,0,0,0,0,0,0,0,0,0,0,0,0,0,0,0,0,0,0,0,0,0,0,0
COM4,0509,19-Dec-18,2018-12-19 06:00:00,-0.082316666666667,-0.085766666666667,-0.086633333333333,-0.089966666666667,-0.091366666666667,-0.096383333333333,-0.10005,5,0,0,0,0,0,0,0,0,0,0,0,0,0,0,0,0,0,0,0,0,0,0,0,0,0,0,0,0,0,0,0,0,0,0,0,0,0,0,0,0,0,0
COM4,0509,19-Dec-18,2018-12-19 07:00:00,-0.0253,-0.026483333333333,-0.027883333333333,-0.02905,-0.030883333333333,-0.032916666666667,-0.03435,5,0,0,0,0,0,0,0,0,0,0,0,0,0,0,0,0,0,0,0,0,0,0,0,0,0,0,0,0,0,0,0,0,0,0,0,0,0,0,0,0,0,0
COM4,0509,19-Dec-18,2018-12-19 08:00:00,0.10515,0.1004,0.094183333333333,0.091083333333333,0.087083333333333,0.08365,0.0872,5,0,0,0,0,0,0,0,0,0,0,0,0,0,0,0,0,0,0,0,0,0,0,0,0,0,0,0,0,0,0,0,0,0,0,0,0,0,0,0,0,0,0
COM4,0509,19-Dec-18,2018-12-19 09:00:00,0.05215,0.050616666666667,0.046333333333333,0.04535,0.0432,0.041333333333333,0.04155,5,0,0,0,0,0,0,0,0,0,0,0,0,0,0,0,0,0,0,0,0,0,0,0,0,0,0,0,0,0,0,0,0,0,0,0,0,0,0,0,0,0,0
COM4,0509,19-Dec-18,2018-12-19 10:00:00,0.036966666666667,0.0343,0.030866666666667,0.02945,0.028166666666667,0.027816666666667,0.0292,5,0,0,0,0,0,0,0,0,0,0,0,0,0,0,0,0,0,0,0,0,0,0,0,0,0,0,0,0,0,0,0,0,0,0,0,0,0,0,0,0,0,0
COM4,0509,19-Dec-18,2018-12-19 11:00:00,0.036766666666667,0.03375,0.030883333333333,0.02885,0.02735,0.02505,0.025283333333333,5,0,0,0,0,0,0,0,0,0,0,0,0,0,0,0,0,0,0,0,0,0,0,0,0,0,0,0,0,0,0,0,0,0,0,0,0,0,0,0,0,0,0
COM4,0509,19-Dec-18,2018-12-19 12:00:00,0.19226666666667,0.19246666666667,0.18135,0.17951666666667,0.17356666666667,0.17166666666667,0.1771,5,0,0,0,0,0,0,0,0,0,0,0,0,0,0,0,0,0,0,0,0,0,0,0,0,0,0,0,0,0,0,0,0,0,0,0,0,0,0,0,0,0,0
COM4,0509,19-Dec-18,2018-12-19 13:00:00,0.047466666666667,0.044333333333333,0.041,0.0397,0.038516666666667,0.031533333333333,0.032666666666667,5,0,0,0,0,0,0,0,0,0,0,0,0,0,0,0,0,0,0,0,0,0,0,0,0,0,0,0,0,0,0,0,0,0,0,0,0,0,0,0,0,0,0
COM4,0509,19-Dec-18,2018-12-19 14:00:00,0.091966666666667,0.085933333333333,0.08035,0.078083333333333,0.074083333333333,0.070616666666667,0.073083333333333,5,0,0,0,0,0,0,0,0,0,0,0,0,0,0,0,0,0,0,0,0,0,0,0,0,0,0,0,0,0,0,0,0,0,0,0,0,0,0,0,0,0,0
COM4,0509,19-Dec-18,2018-12-19 15:00:00,0.1657,0.15443333333333,0.1418,0.1379,0.13116666666667,0.12363333333333,0.1278,5,0,0,0,0,0,0,0,0,0,0,0,0,0,0,0,0,0,0,0,0,0,0,0,0,0,0,0,0,0,0,0,0,0,0,0,0,0,0,0,0,0,0
COM4,0509,19-Dec-18,2018-12-19 16:00:00,0.731,0.64033333333333,0.58488333333333,0.56436666666667,0.53281666666667,0.49345,0.50458333333333,5,0,0,0,0,0,0,0,0,0,0,0,0,0,0,0,0,0,0,0,0,0,0,0,0,0,0,0,0,0,0,0,0,0,0,0,0,0,0,0,0,0,0
COM4,0509,19-Dec-18,2018-12-19 17:00:00,0.48683333333333,0.45043333333333,0.41793333333333,0.40955,0.3916,0.37603333333333,0.38691666666667,5,0,0,0,0,0,0,0,0,0,0,0,0,0,0,0,0,0,0,0,0,0,0,0,0,0,0,0,0,0,0,0,0,0,0,0,0,0,0,0,0,0,0
COM4,0509,19-Dec-18,2018-12-19 18:00:00,0.96583333333333,1.0203333333333,0.98393333333333,0.99295,0.97563333333333,0.98796666666667,1.0243833333333,5,0,0,0,0,0,0,0,0,0,0,0,0,0,0,0,0,0,0,0,0,0,0,0,0,0,0,0,0,0,0,0,0,0,0,0,0,0,0,0,0,0,0
COM4,0509,19-Dec-18,2018-12-19 19:00:00,0.96408333333333,0.78351666666667,0.69861666666667,0.6603,0.61703333333333,0.56485,0.57725,5,0,0,0,0,0,0,0,0,0,0,0,0,0,0,0,0,0,0,0,0,0,0,0,0,0,0,0,0,0,0,0,0,0,0,0,0,0,0,0,0,0,0
COM4,0509,19-Dec-18,2018-12-19 20:00:00,1.2116166666667,1.0201833333333,0.89273333333333,0.83326666666667,0.7805,0.73901666666667,0.75975,5,0,0,0,0,0,0,0,0,0,0,0,0,0,0,0,0,0,0,0,0,0,0,0,0,0,0,0,0,0,0,0,0,0,0,0,0,0,0,0,0,0,0
COM4,0509,19-Dec-18,2018-12-19 21:00:00,0.48151666666667,0.34821666666667,0.30678333333333,0.28653333333333,0.26621666666667,0.23888333333333,0.245,5,0,0,0,0,0,0,0,0,0,0,0,0,0,0,0,0,0,0,0,0,0,0,0,0,0,0,0,0,0,0,0,0,0,0,0,0,0,0,0,0,0,0
COM4,0509,19-Dec-18,2018-12-19 22:00:00,1.06675,0.97301666666667,0.88785,0.85186666666667,0.8092,0.7743,0.79441666666667,5,0,0,0,0,0,0,0,0,0,0,0,0,0,0,0,0,0,0,0,0,0,0,0,0,0,0,0,0,0,0,0,0,0,0,0,0,0,0,0,0,0,0
COM4,0509,19-Dec-18,2018-12-19 23:00:00,1.0128666666667,0.85413333333333,0.77413333333333,0.7396,0.69635,0.6461,0.6614,5,0,0,0,0,0,0,0,0,0,0,0,0,0,0,0,0,0,0,0,0,0,0,0,0,0,0,0,0,0,0,0,0,0,0,0,0,0,0,0,0,0,0
