COM8,507,31-Jan-20,2020-01-31 00:00:00,0.43696610169492,0.41611864406779997,0.39325423728813996,0.38516949152541996,0.36796610169492,0.34237288135592997,0.34733898305085,5.0
COM8,507,31-Jan-20,2020-01-31 01:00:00,0.34886666666667,0.33308333333333,0.31481666666667,0.31058333333333,0.29418333333333,0.27325,0.27761666666667,5.0
COM8,507,31-Jan-20,2020-01-31 02:00:00,0.20505,0.20201666666667004,0.19183333333332997,0.18871666666667003,0.17821666666667002,0.16441666666667,0.16791666666667004,5.0
COM8,507,31-Jan-20,2020-01-31 03:00:00,0.27126666666667004,0.23148333333332996,0.21283333333332996,0.20433333333332998,0.1932,0.17693333333332997,0.17895,5.0
COM8,507,31-Jan-20,2020-01-31 04:00:00,0.20651666666667004,0.19565,0.18341666666667003,0.17888333333332998,0.16918333333332997,0.15583333333333,0.15815,5.0
COM8,507,31-Jan-20,2020-01-31 05:00:00,0.34918333333333,0.30166666666666997,0.27821666666667,0.27038333333333,0.253,0.23063333333332997,0.23288333333332997,5.0
COM8,507,31-Jan-20,2020-01-31 06:00:00,0.63423333333333,0.5036,0.45423333333333,0.43496666666667,0.40448333333333003,0.3619,0.3644,5.0
COM8,507,31-Jan-20,2020-01-31 07:00:00,1.1886166666667,0.95375,0.86921666666667,0.83531666666667,0.77911666666667,0.7051,0.71313333333333,5.0
COM8,507,31-Jan-20,2020-01-31 08:00:00,1.5222,1.2899333333333,1.1867,1.14665,1.0733166666667,0.96928333333333,0.97678333333333,5.0
COM8,507,31-Jan-20,2020-01-31 09:00:00,1.0161166666666999,0.95586666666667,0.88915,0.8659,0.81333333333333,0.7414,0.74886666666667,5.0
COM8,507,31-Jan-20,2020-01-31 10:00:00,0.319,0.37248333333333,0.3532,0.34783333333333,0.32738333333333003,0.29796666666667,0.3021,4.9116666666667
COM8,507,31-Jan-20,2020-01-31 11:00:00,0.5373,0.53258333333333,0.50193333333333,0.49011666666667,0.4663,0.42731666666667,0.4313,4.9
COM8,507,31-Jan-20,2020-01-31 12:00:00,1.1456166666667,1.03975,0.96105,0.93306666666667,0.88083333333333,0.80566666666667,0.8141,4.9
COM8,507,31-Jan-20,2020-01-31 13:00:00,1.0472833333333,0.97391666666667,0.90935,0.88756666666667,0.8367,0.76911666666667,0.7765,4.9
COM8,507,31-Jan-20,2020-01-31 14:00:00,0.52661666666667,0.46295,0.4488,0.44806666666667,0.4358,0.4185,0.43213333333333,4.7133333333333
COM8,507,31-Jan-20,2020-01-31 15:00:00,0.41928333333333,0.3712,0.36605,0.36715,0.3587,0.35593333333333,0.36588333333333,5.1
COM8,507,31-Jan-20,2020-01-31 16:00:00,0.5711833333333299,0.5517,0.52275,0.51565,0.50001666666667,0.49246666666667,0.50563333333333,5.1
COM8,507,31-Jan-20,2020-01-31 17:00:00,0.71663333333333,0.67806666666667,0.63565,0.62351666666667,0.6009666666666701,0.5854,0.5987166666666701,5.05
COM8,507,31-Jan-20,2020-01-31 18:00:00,0.66953333333333,0.6361666666666701,0.6005333333333299,0.5911,0.5705666666666701,0.55445,0.5674166666666701,5.0
COM8,507,31-Jan-20,2020-01-31 19:00:00,0.7416,0.69913333333333,0.65763333333333,0.64658333333333,0.62266666666667,0.6049333333333299,0.61838333333333,5.0
COM8,507,31-Jan-20,2020-01-31 20:00:00,1.3763166666667,1.23725,1.1550666666667,1.1309833333333001,1.0879833333333,1.0494,1.07125,5.0
COM8,507,31-Jan-20,2020-01-31 21:00:00,1.7344666666667,1.4420333333333,1.3328833333333001,1.2974666666666999,1.2390833333333,1.1666333333333,1.1878333333333,5.0
COM8,507,31-Jan-20,2020-01-31 22:00:00,1.4021333333333001,1.1024666666667,1.0082333333333,0.97206666666667,0.92011666666667,0.8447,0.85841666666667,5.0
COM8,507,31-Jan-20,2020-01-31 23:00:00,0.48596666666667,0.50703333333333,0.48141666666667,0.47398333333333,0.45501666666667,0.42525,0.43196666666667,5.0
