COM8,507,25-Jan-20,2020-01-25 00:00:00,2.1970677966101997,2.0069661016949,1.8900169491525,1.8463220338983,1.7529661016948999,1.6481016949153,1.6874745762711998,4.9
COM8,507,25-Jan-20,2020-01-25 01:00:00,1.8135833333333,1.6905166666667,1.5878,1.5503833333333001,1.4704666666667,1.3765,1.4082166666667,4.9
COM8,507,25-Jan-20,2020-01-25 02:00:00,1.2461,1.2129833333333,1.14695,1.1269833333333001,1.0714333333333002,1.0031833333333,1.0277,4.9
COM8,507,25-Jan-20,2020-01-25 03:00:00,0.7769,0.83315,0.79515,0.7846,0.74828333333333,0.70336666666667,0.71996666666667,4.9
COM8,507,25-Jan-20,2020-01-25 04:00:00,0.78198333333333,0.81801666666667,0.77506666666667,0.7606,0.72083333333333,0.6691833333333299,0.68463333333333,4.9
COM8,507,25-Jan-20,2020-01-25 05:00:00,0.95056666666667,0.92223333333333,0.86063333333333,0.83421666666667,0.78131666666667,0.71363333333333,0.72655,4.9
COM8,507,25-Jan-20,2020-01-25 06:00:00,0.93118333333333,0.91331666666667,0.85398333333333,0.82905,0.7803,0.71486666666667,0.72925,4.9
COM8,507,25-Jan-20,2020-01-25 07:00:00,1.0396666666667,1.0019666666667,0.93618333333333,0.90745,0.85198333333333,0.77891666666667,0.79416666666667,4.9
COM8,507,25-Jan-20,2020-01-25 08:00:00,1.20115,1.1386833333333,1.0529166666667,1.01415,0.94525,0.85591666666667,0.87143333333333,4.8166666666667
COM8,507,25-Jan-20,2020-01-25 09:00:00,0.69446666666667,0.72376666666667,0.6789333333333301,0.6625,0.62146666666667,0.5625333333333299,0.57403333333333,4.8
COM8,507,25-Jan-20,2020-01-25 10:00:00,0.94115,0.96101666666667,0.91015,0.88908333333333,0.83588333333333,0.77001666666667,0.78391666666667,4.8
COM8,507,25-Jan-20,2020-01-25 11:00:00,0.96406666666667,0.977,0.9242,0.9014,0.85053333333333,0.77935,0.79481666666667,4.8
COM8,507,25-Jan-20,2020-01-25 12:00:00,0.91931666666667,0.92105,0.87151666666667,0.8489,0.79923333333333,0.73083333333333,0.74606666666667,4.8
COM8,507,25-Jan-20,2020-01-25 13:00:00,0.80946666666667,0.82113333333333,0.77573333333333,0.75793333333333,0.71466666666667,0.6568833333333299,0.6728666666666699,4.8
COM8,507,25-Jan-20,2020-01-25 14:00:00,0.65145,0.5958666666666701,0.58805,0.5897833333333299,0.57593333333333,0.55893333333333,0.57621666666667,4.64
COM8,507,25-Jan-20,2020-01-25 15:00:00,0.82346666666667,0.79578333333333,0.77983333333333,0.78353333333333,0.76678333333333,0.75796666666667,0.77753333333333,5.0
COM8,507,25-Jan-20,2020-01-25 16:00:00,0.9097666666666699,0.92643333333333,0.89651666666667,0.89908333333333,0.88023333333333,0.87106666666667,0.8947,5.0
COM8,507,25-Jan-20,2020-01-25 17:00:00,1.4236833333333,1.28315,1.2060833333333,1.1884666666666999,1.14715,1.1109166666666999,1.13725,5.0
COM8,507,25-Jan-20,2020-01-25 18:00:00,1.3497833333333,1.2701666666667,1.20895,1.1970833333333,1.1589,1.12965,1.1561833333333,5.0
COM8,507,25-Jan-20,2020-01-25 19:00:00,0.92226666666667,0.9104,0.8752,0.87143333333333,0.84725,0.83173333333333,0.85445,5.0
COM8,507,25-Jan-20,2020-01-25 20:00:00,1.0211833333333,0.98811666666667,0.94346666666667,0.93446666666667,0.90345,0.87878333333333,0.90066666666667,5.0
COM8,507,25-Jan-20,2020-01-25 21:00:00,1.4303833333333,1.2936166666667,1.2213833333333,1.1998166666666998,1.1504833333333,1.1069166666666999,1.1338,5.0
COM8,507,25-Jan-20,2020-01-25 22:00:00,0.8382,0.8028,0.7675,0.7628,0.73856666666667,0.71766666666667,0.73623333333333,5.0
COM8,507,25-Jan-20,2020-01-25 23:00:00,0.4788,0.52716666666667,0.51488333333333,0.5196,0.5072,0.49735,0.51103333333333,5.0
