COM8,507,23-Jul-19,2019-07-23 00:00:00,0.36833898305084994,0.34130508474576005,0.31715254237288004,0.3105593220339,0.29591525423729,0.28086440677966,0.28793220338983005,5.0
COM8,507,23-Jul-19,2019-07-23 01:00:00,0.33811666666667,0.3147,0.29395,0.28866666666667,0.2755,0.25956666666667005,0.26593333333332997,5.0
COM8,507,23-Jul-19,2019-07-23 02:00:00,0.28606666666667,0.2693,0.25168333333333,0.24853333333332997,0.23686666666667003,0.22506666666667002,0.23023333333332996,5.0
COM8,507,23-Jul-19,2019-07-23 03:00:00,0.20735,0.193,0.17978333333332996,0.1768,0.1697,0.15995,0.16435,5.0
COM8,507,23-Jul-19,2019-07-23 04:00:00,0.23076666666667003,0.21348333333332997,0.19945,0.19703333333332998,0.18915,0.18101666666667005,0.18591666666667003,5.0
COM8,507,23-Jul-19,2019-07-23 05:00:00,0.43778333333333,0.41200000000000003,0.3871,0.38186666666667,0.36555,0.35151666666667,0.36053333333333,5.0
COM8,507,23-Jul-19,2019-07-23 06:00:00,0.6317,0.60385,0.5706333333333299,0.56598333333333,0.54493333333333,0.52635,0.54186666666667,5.0
COM8,507,23-Jul-19,2019-07-23 07:00:00,0.67455,0.6539333333333299,0.62015,0.6185333333333299,0.5955333333333299,0.5763,0.5931166666666701,5.0
COM8,507,23-Jul-19,2019-07-23 08:00:00,1.04385,0.96608333333333,0.8983,0.87615,0.83033333333333,0.78626666666667,0.80833333333333,5.0
COM8,507,23-Jul-19,2019-07-23 09:00:00,1.68815,1.5221166666666999,1.4043833333333,1.36435,1.2874666666666998,1.2208333333333001,1.2573666666667,5.0
COM8,507,23-Jul-19,2019-07-23 10:00:00,0.81996666666667,0.74248333333333,0.68843333333333,0.6687166666666701,0.63181666666667,0.59246666666667,0.60956666666667,5.0
COM8,507,23-Jul-19,2019-07-23 11:00:00,0.46935,0.41623333333333,0.38488333333333,0.37306666666667,0.35105,0.3243,0.33233333333333,5.0
COM8,507,23-Jul-19,2019-07-23 12:00:00,0.34261666666667,0.3043,0.2813,0.27388333333333,0.25633333333332997,0.23623333333332996,0.24283333333332996,4.9816666666667
COM8,507,23-Jul-19,2019-07-23 13:00:00,0.29523333333333,0.21658333333332996,0.20405,0.20168333333332997,0.19503333333332998,0.18448333333332997,0.19298333333332998,4.6533333333333
COM8,507,23-Jul-19,2019-07-23 14:00:00,0.24433333333332996,0.2236,0.2132,0.2108,0.20276666666667004,0.19399999999999998,0.19841666666667004,5.0
COM8,507,23-Jul-19,2019-07-23 15:00:00,0.20655,0.20025,0.19076666666667003,0.18891666666667004,0.18321666666667002,0.1788,0.18305,5.0
COM8,507,23-Jul-19,2019-07-23 16:00:00,0.21885,0.22086666666667004,0.21266666666667003,0.21046666666667002,0.20571666666667004,0.20253333333332996,0.20728333333332996,5.0
COM8,507,23-Jul-19,2019-07-23 17:00:00,0.40386666666667,0.40191666666667,0.3841,0.38096666666667,0.36976666666667,0.3607,0.37013333333333,5.0
COM8,507,23-Jul-19,2019-07-23 18:00:00,0.41361666666667,0.40235,0.38003333333333,0.3746,0.36141666666667,0.34906666666666997,0.35726666666667,5.0
COM8,507,23-Jul-19,2019-07-23 19:00:00,0.3232,0.30376666666667,0.28538333333333,0.27891666666667,0.26816666666667005,0.2581,0.2641,5.0
COM8,507,23-Jul-19,2019-07-23 20:00:00,0.96968333333333,0.76495,0.67741666666667,0.63556666666667,0.5845833333333299,0.52098333333333,0.52715,5.0
COM8,507,23-Jul-19,2019-07-23 21:00:00,0.31781666666666997,0.30228333333333,0.28611666666667,0.27899999999999997,0.26541666666667,0.2515,0.25716666666667004,5.0
COM8,507,23-Jul-19,2019-07-23 22:00:00,0.36171666666667,0.33511666666667,0.31386666666667,0.30728333333333,0.29353333333333,0.27966666666667,0.28563333333333,5.0
COM8,507,23-Jul-19,2019-07-23 23:00:00,0.35678333333333,0.32763333333333,0.30615,0.2989,0.28346666666667,0.26711666666667006,0.27293333333333,5.0
