COM8,507,08-Oct-19,2019-10-08 00:00:00,0.27713559322034004,0.25706779661017,0.23886440677965998,0.23320338983051003,0.21874576271185997,0.20593220338982998,0.21133898305085,5.0
COM8,507,08-Oct-19,2019-10-08 01:00:00,0.24063333333332998,0.21785,0.19898333333332996,0.1967,0.18321666666667002,0.17261666666667003,0.17601666666667004,5.0
COM8,507,08-Oct-19,2019-10-08 02:00:00,0.3319,0.28081666666667,0.25553333333332995,0.24811666666667004,0.2297,0.21435,0.2192,5.0
COM8,507,08-Oct-19,2019-10-08 03:00:00,0.5503833333333299,0.43566666666667,0.39031666666667,0.37691666666667,0.34678333333333,0.31773333333333,0.32495,4.9916666666667
COM8,507,08-Oct-19,2019-10-08 04:00:00,0.70076666666667,0.5655666666666701,0.50991666666667,0.4901,0.45673333333333,0.4216,0.43218333333333003,4.9
COM8,507,08-Oct-19,2019-10-08 05:00:00,1.1013833333333,0.9099,0.82416666666667,0.80096666666667,0.74811666666667,0.70061666666667,0.72021666666667,4.9
COM8,507,08-Oct-19,2019-10-08 06:00:00,1.4810833333333,1.1822166666667,1.0631,1.0303,0.96188333333333,0.89926666666667,0.92735,4.9
COM8,507,08-Oct-19,2019-10-08 07:00:00,1.7472666666667,1.5185333333333,1.3874,1.35425,1.2743,1.20925,1.2466,4.9
COM8,507,08-Oct-19,2019-10-08 08:00:00,1.4908166666667,1.2382333333333,1.1054166666667,1.0677833333333,0.98953333333333,0.9022,0.92673333333333,4.9
COM8,507,08-Oct-19,2019-10-08 09:00:00,2.1499833333333003,1.7588666666666999,1.5403166666666999,1.4542833333333,1.3431,1.2376833333333002,1.2770666666666999,4.8983333333333
COM8,507,08-Oct-19,2019-10-08 10:00:00,2.0263666666667,1.68555,1.50255,1.442,1.3432833333333,1.2391166666667,1.2823833333333001,4.8016666666667005
COM8,507,08-Oct-19,2019-10-08 11:00:00,1.4626,1.21445,1.0787666666667,1.0312,0.95715,0.86503333333333,0.89681666666667,4.8
COM8,507,08-Oct-19,2019-10-08 12:00:00,0.6803,0.52533333333333,0.45903333333333,0.42991666666667,0.39385,0.33695,0.34921666666667,4.8
COM8,507,08-Oct-19,2019-10-08 13:00:00,0.35248333333333,0.25746666666667,0.23756666666667003,0.23011666666667002,0.2244,0.21083333333332996,0.21996666666667003,4.715
COM8,507,08-Oct-19,2019-10-08 14:00:00,0.33498333333333,0.24851666666667002,0.23146666666667004,0.22476666666667003,0.21565,0.20598333333332997,0.21156666666667004,5.1
COM8,507,08-Oct-19,2019-10-08 15:00:00,0.69543333333333,0.6789,0.64238333333333,0.6305,0.60418333333333,0.56903333333333,0.5811833333333299,5.1
COM8,507,08-Oct-19,2019-10-08 16:00:00,0.22956666666667003,0.2189,0.20528333333332996,0.20121666666667004,0.19463333333332997,0.19035,0.19563333333332997,5.1
COM8,507,08-Oct-19,2019-10-08 17:00:00,0.49883333333333,0.4793,0.44885,0.43998333333333,0.42396666666667,0.41265,0.42211666666666997,5.1
COM8,507,08-Oct-19,2019-10-08 18:00:00,0.94721666666667,0.84621666666667,0.7877833333333301,0.76678333333333,0.73571666666667,0.70976666666667,0.72606666666667,5.0966666666667
COM8,507,08-Oct-19,2019-10-08 19:00:00,0.41145,0.36343333333333,0.33553333333333,0.32535,0.3077,0.29493333333333,0.30073333333333,5.0183333333333
COM8,507,08-Oct-19,2019-10-08 20:00:00,0.27921666666667,0.19938333333332997,0.17216666666667002,0.1537,0.1357,0.12226666666666999,0.1232,5.0
COM8,507,08-Oct-19,2019-10-08 21:00:00,0.63935,0.5968833333333299,0.55755,0.54021666666667,0.51478333333333,0.49841666666667,0.5095833333333301,5.0
COM8,507,08-Oct-19,2019-10-08 22:00:00,1.2027333333333001,1.1192666666667,1.0467,1.0252,0.98453333333333,0.95858333333333,0.98373333333333,5.0
COM8,507,08-Oct-19,2019-10-08 23:00:00,0.49025,0.47711666666667,0.45091666666667,0.44543333333333,0.42676666666667,0.4129,0.42395,5.0
