COM8,507,18-Sep-19,2019-09-18 00:00:00,0.30177966101695003,0.24598305084746,0.22306779661017,0.21476271186441,0.20371186440678,0.19245762711864,0.19735593220339,5.1
COM8,507,18-Sep-19,2019-09-18 01:00:00,0.32243333333333,0.26701666666667,0.24175,0.23451666666667004,0.22263333333332996,0.20993333333332997,0.21551666666667002,5.0966666666667
COM8,507,18-Sep-19,2019-09-18 02:00:00,0.31651666666667,0.25845,0.2348,0.22703333333332998,0.21475,0.20135,0.2072,5.0116666666667005
COM8,507,18-Sep-19,2019-09-18 03:00:00,0.32243333333333,0.25851666666667006,0.2319,0.22306666666667002,0.2096,0.19565,0.19936666666667002,5.0
COM8,507,18-Sep-19,2019-09-18 04:00:00,0.34181666666667,0.26988333333333,0.24241666666667003,0.23271666666667004,0.21923333333332998,0.20461666666667003,0.21045,5.0
COM8,507,18-Sep-19,2019-09-18 05:00:00,0.44043333333333,0.36796666666667,0.33631666666667,0.32751666666667,0.31098333333333,0.29585,0.30356666666667,5.0
COM8,507,18-Sep-19,2019-09-18 06:00:00,0.88945,0.79883333333333,0.74685,0.73756666666667,0.70725,0.68535,0.70641666666667,5.0
COM8,507,18-Sep-19,2019-09-18 07:00:00,1.7093166666667,1.5675833333333,1.4555,1.4379333333333,1.3825,1.3234166666667,1.3639166666667,5.0
COM8,507,18-Sep-19,2019-09-18 08:00:00,0.44806666666667,0.38863333333333,0.35505,0.34705,0.32735,0.3129,0.32018333333333,5.0
COM8,507,18-Sep-19,2019-09-18 09:00:00,0.34675,0.28406666666667,0.25596666666667,0.24878333333332997,0.2309,0.2179,0.2213,5.0
COM8,507,18-Sep-19,2019-09-18 10:00:00,0.65973333333333,0.57295,0.52158333333333,0.50555,0.47253333333333003,0.43831666666667,0.44826666666667,5.0
COM8,507,18-Sep-19,2019-09-18 11:00:00,0.7283,0.6596,0.6107666666666701,0.5983833333333299,0.5662833333333299,0.5341,0.54828333333333,5.0
COM8,507,18-Sep-19,2019-09-18 12:00:00,0.26678333333333,0.23566666666667002,0.21778333333332997,0.2128,0.2005,0.19016666666667004,0.19693333333332996,4.9783333333333
COM8,507,18-Sep-19,2019-09-18 13:00:00,0.1949,0.14828333333333,0.13638333333333,0.13426666666667,0.13016666666666998,0.12206666666667,0.1304,4.6666666666667
COM8,507,18-Sep-19,2019-09-18 14:00:00,0.19726666666667003,0.1318,0.12583333333333,0.12381666666666999,0.12043333333333,0.11883333333333,0.1219,5.1
COM8,507,18-Sep-19,2019-09-18 15:00:00,0.12475,0.11558333333333,0.10951666666667,0.10826666666667,0.10565,0.10563333333333001,0.10938333333333,5.1
COM8,507,18-Sep-19,2019-09-18 16:00:00,0.17433333333332998,0.17666666666667002,0.16691666666667002,0.16421666666667,0.15973333333332998,0.15603333333333,0.16106666666667002,5.1
COM8,507,18-Sep-19,2019-09-18 17:00:00,0.1706,0.16825,0.15885,0.15598333333332998,0.15136666666667,0.14881666666667,0.15263333333332998,5.1
COM8,507,18-Sep-19,2019-09-18 18:00:00,0.71225,0.5501833333333299,0.49211666666667,0.47185,0.44891666666667,0.42908333333333,0.43961666666667,5.1
COM8,507,18-Sep-19,2019-09-18 19:00:00,0.6389666666666701,0.5156166666666699,0.4683,0.44856666666667,0.42573333333333,0.40186666666667,0.41023333333333,5.1
COM8,507,18-Sep-19,2019-09-18 20:00:00,0.18616666666667003,0.1934,0.18405,0.18143333333332998,0.17346666666667004,0.16946666666667004,0.1737,5.1
COM8,507,18-Sep-19,2019-09-18 21:00:00,0.09611666666666699,0.095233333333333,0.08905,0.08565,0.08205,0.07933333333333299,0.08156666666666701,5.1
COM8,507,18-Sep-19,2019-09-18 22:00:00,0.08255,0.0813,0.07576666666666701,0.0734,0.07036666666666701,0.06621666666666699,0.068316666666667,5.1
COM8,507,18-Sep-19,2019-09-18 23:00:00,0.0678,0.06823333333333301,0.064416666666667,0.063,0.061333333333333004,0.06245,0.06445,5.1
