COM7,0507,02-Feb-19,2019-02-02 00:00:00,1.4376101694915,1.1556610169492,1.0180508474576,0.96961016949153,0.88694915254237,0.79893220338983,0.81761016949153,4.6,0,0,0,0,0,0,0,0,0,0,0,0,0,0,0,0,0,0,0,0,0,0,0,0,0,0,0,0,0,0,0,0,0,0,0,0,0,0,0,0,0,0
COM7,0507,02-Feb-19,2019-02-02 01:00:00,0.64103333333333,0.6281,0.55741666666667,0.53065,0.48835,0.43321666666667,0.4453,4.6,0,0,0,0,0,0,0,0,0,0,0,0,0,0,0,0,0,0,0,0,0,0,0,0,0,0,0,0,0,0,0,0,0,0,0,0,0,0,0,0,0,0
COM7,0507,02-Feb-19,2019-02-02 02:00:00,0.19185,0.32143333333333,0.29365,0.27748333333333,0.25041666666667,0.2172,0.22156666666667,4.6,0,0,0,0,0,0,0,0,0,0,0,0,0,0,0,0,0,0,0,0,0,0,0,0,0,0,0,0,0,0,0,0,0,0,0,0,0,0,0,0,0,0
COM7,0507,02-Feb-19,2019-02-02 03:00:00,0.32505,0.36105,0.325,0.30601666666667,0.27466666666667,0.2362,0.23855,4.6,0,0,0,0,0,0,0,0,0,0,0,0,0,0,0,0,0,0,0,0,0,0,0,0,0,0,0,0,0,0,0,0,0,0,0,0,0,0,0,0,0,0
COM7,0507,02-Feb-19,2019-02-02 04:00:00,0.3073,0.32498333333333,0.29716666666667,0.28265,0.2546,0.2156,0.21985,4.6,0,0,0,0,0,0,0,0,0,0,0,0,0,0,0,0,0,0,0,0,0,0,0,0,0,0,0,0,0,0,0,0,0,0,0,0,0,0,0,0,0,0
COM7,0507,02-Feb-19,2019-02-02 05:00:00,0.24705,0.29391666666667,0.2701,0.26121666666667,0.23625,0.20686666666667,0.2128,4.6,0,0,0,0,0,0,0,0,0,0,0,0,0,0,0,0,0,0,0,0,0,0,0,0,0,0,0,0,0,0,0,0,0,0,0,0,0,0,0,0,0,0
COM7,0507,02-Feb-19,2019-02-02 06:00:00,0.53485,0.4992,0.45438333333333,0.43345,0.39293333333333,0.34308333333333,0.34895,4.6,0,0,0,0,0,0,0,0,0,0,0,0,0,0,0,0,0,0,0,0,0,0,0,0,0,0,0,0,0,0,0,0,0,0,0,0,0,0,0,0,0,0
COM7,0507,02-Feb-19,2019-02-02 07:00:00,0.78356666666667,0.65986666666667,0.59198333333333,0.56416666666667,0.51333333333333,0.45111666666667,0.45755,4.6,0,0,0,0,0,0,0,0,0,0,0,0,0,0,0,0,0,0,0,0,0,0,0,0,0,0,0,0,0,0,0,0,0,0,0,0,0,0,0,0,0,0
COM7,0507,02-Feb-19,2019-02-02 08:00:00,1.1213,0.93015,0.83005,0.78638333333333,0.71886666666667,0.63091666666667,0.6416,4.6,0,0,0,0,0,0,0,0,0,0,0,0,0,0,0,0,0,0,0,0,0,0,0,0,0,0,0,0,0,0,0,0,0,0,0,0,0,0,0,0,0,0
COM7,0507,02-Feb-19,2019-02-02 09:00:00,0.6928,0.57426666666667,0.52111666666667,0.50426666666667,0.46706666666667,0.41981666666667,0.4328,4.4283333333333,0,0,0,0,0,0,0,0,0,0,0,0,0,0,0,0,0,0,0,0,0,0,0,0,0,0,0,0,0,0,0,0,0,0,0,0,0,0,0,0,0,0
COM7,0507,02-Feb-19,2019-02-02 10:00:00,0.24088333333333,0.15596666666667,0.15148333333333,0.14953333333333,0.14408333333333,0.14093333333333,0.14446666666667,4.9,0,0,0,0,0,0,0,0,0,0,0,0,0,0,0,0,0,0,0,0,0,0,0,0,0,0,0,0,0,0,0,0,0,0,0,0,0,0,0,0,0,0
COM7,0507,02-Feb-19,2019-02-02 11:00:00,0.1254,0.11615,0.1121,0.11178333333333,0.1069,0.10481666666667,0.10595,4.9,0,0,0,0,0,0,0,0,0,0,0,0,0,0,0,0,0,0,0,0,0,0,0,0,0,0,0,0,0,0,0,0,0,0,0,0,0,0,0,0,0,0
COM7,0507,02-Feb-19,2019-02-02 12:00:00,0.17415,0.18713333333333,0.1796,0.1779,0.17173333333333,0.16833333333333,0.17251666666667,4.88,0,0,0,0,0,0,0,0,0,0,0,0,0,0,0,0,0,0,0,0,0,0,0,0,0,0,0,0,0,0,0,0,0,0,0,0,0,0,0,0,0,0
COM7,0507,02-Feb-19,2019-02-02 13:00:00,0.09835,0.10801666666667,0.10388333333333,0.10235,0.0985,0.094183333333333,0.09575,4.8,0,0,0,0,0,0,0,0,0,0,0,0,0,0,0,0,0,0,0,0,0,0,0,0,0,0,0,0,0,0,0,0,0,0,0,0,0,0,0,0,0,0
COM7,0507,02-Feb-19,2019-02-02 14:00:00,0.29218333333333,0.29128333333333,0.27428333333333,0.26873333333333,0.25735,0.24593333333333,0.25221666666667,4.8,0,0,0,0,0,0,0,0,0,0,0,0,0,0,0,0,0,0,0,0,0,0,0,0,0,0,0,0,0,0,0,0,0,0,0,0,0,0,0,0,0,0
COM7,0507,02-Feb-19,2019-02-02 15:00:00,0.28625,0.2777,0.2623,0.25783333333333,0.24743333333333,0.24005,0.24611666666667,4.8,0,0,0,0,0,0,0,0,0,0,0,0,0,0,0,0,0,0,0,0,0,0,0,0,0,0,0,0,0,0,0,0,0,0,0,0,0,0,0,0,0,0
COM7,0507,02-Feb-19,2019-02-02 16:00:00,0.74461666666667,0.76195,0.73275,0.7303,0.71341666666667,0.71218333333333,0.73341666666667,4.8,0,0,0,0,0,0,0,0,0,0,0,0,0,0,0,0,0,0,0,0,0,0,0,0,0,0,0,0,0,0,0,0,0,0,0,0,0,0,0,0,0,0
COM7,0507,02-Feb-19,2019-02-02 17:00:00,0.84473333333333,0.84913333333333,0.81673333333333,0.81463333333333,0.7958,0.79663333333333,0.82165,4.8,0,0,0,0,0,0,0,0,0,0,0,0,0,0,0,0,0,0,0,0,0,0,0,0,0,0,0,0,0,0,0,0,0,0,0,0,0,0,0,0,0,0
COM7,0507,02-Feb-19,2019-02-02 18:00:00,0.17158333333333,0.1623,0.15283333333333,0.15023333333333,0.14383333333333,0.13805,0.14181666666667,4.8,0,0,0,0,0,0,0,0,0,0,0,0,0,0,0,0,0,0,0,0,0,0,0,0,0,0,0,0,0,0,0,0,0,0,0,0,0,0,0,0,0,0
COM7,0507,02-Feb-19,2019-02-02 19:00:00,0.15088333333333,0.15173333333333,0.1457,0.14468333333333,0.14075,0.1369,0.13985,4.8,0,0,0,0,0,0,0,0,0,0,0,0,0,0,0,0,0,0,0,0,0,0,0,0,0,0,0,0,0,0,0,0,0,0,0,0,0,0,0,0,0,0
COM7,0507,02-Feb-19,2019-02-02 20:00:00,0.12361666666667,0.12055,0.11596666666667,0.1145,0.11075,0.10681666666667,0.10983333333333,4.8,0,0,0,0,0,0,0,0,0,0,0,0,0,0,0,0,0,0,0,0,0,0,0,0,0,0,0,0,0,0,0,0,0,0,0,0,0,0,0,0,0,0
COM7,0507,02-Feb-19,2019-02-02 21:00:00,0.1115,0.10666666666667,0.1013,0.0993,0.096166666666667,0.09395,0.0958,4.8,0,0,0,0,0,0,0,0,0,0,0,0,0,0,0,0,0,0,0,0,0,0,0,0,0,0,0,0,0,0,0,0,0,0,0,0,0,0,0,0,0,0
COM7,0507,02-Feb-19,2019-02-02 22:00:00,0.055683333333333,0.055233333333333,0.053,0.052516666666667,0.049966666666667,0.048816666666667,0.0504,4.76,0,0,0,0,0,0,0,0,0,0,0,0,0,0,0,0,0,0,0,0,0,0,0,0,0,0,0,0,0,0,0,0,0,0,0,0,0,0,0,0,0,0
COM7,0507,02-Feb-19,2019-02-02 23:00:00,0.1635,0.17263333333333,0.16806666666667,0.16898333333333,0.16583333333333,0.16695,0.17236666666667,4.7,0,0,0,0,0,0,0,0,0,0,0,0,0,0,0,0,0,0,0,0,0,0,0,0,0,0,0,0,0,0,0,0,0,0,0,0,0,0,0,0,0,0
