COM8,507,01-Dec-19,2019-12-01 00:00:00,0.2685593220339,0.28742372881356,0.24089830508475,0.20937288135593002,0.18113559322034,0.15033898305085003,0.15159322033898,5.1
COM8,507,01-Dec-19,2019-12-01 01:00:00,0.16145,0.21015,0.17876666666667004,0.15828333333332997,0.13811666666667002,0.11596666666666999,0.11816666666667,5.1
COM8,507,01-Dec-19,2019-12-01 02:00:00,0.43801666666667,0.31291666666667,0.25335,0.22353333333332998,0.19048333333332998,0.15048333333333,0.15016666666667,5.1
COM8,507,01-Dec-19,2019-12-01 03:00:00,0.23038333333332997,0.20725,0.17628333333332996,0.15985,0.1401,0.11933333333333,0.12111666666667,5.1
COM8,507,01-Dec-19,2019-12-01 04:00:00,0.37263333333333,0.23638333333332998,0.19635,0.17691666666667002,0.15513333333333,0.13246666666667,0.13481666666667,5.1
COM8,507,01-Dec-19,2019-12-01 05:00:00,0.19246666666667003,0.17131666666667003,0.14371666666667002,0.12738333333333002,0.11105,0.094383333333333,0.094983333333333,5.1
COM8,507,01-Dec-19,2019-12-01 06:00:00,0.08875,0.1462,0.13183333333333,0.12388333333333,0.11286666666667,0.10065,0.10275,5.1
COM8,507,01-Dec-19,2019-12-01 07:00:00,1.3532666666667,0.88463333333333,0.7317,0.66435,0.5841,0.46663333333333,0.46596666666666997,5.1
COM8,507,01-Dec-19,2019-12-01 08:00:00,1.199,0.92665,0.79518333333333,0.73878333333333,0.66445,0.5568,0.5580833333333299,5.1
COM8,507,01-Dec-19,2019-12-01 09:00:00,0.17208333333332998,0.2378,0.21843333333332998,0.20978333333332996,0.1927,0.17221666666667004,0.1755,5.1
COM8,507,01-Dec-19,2019-12-01 10:00:00,0.18891666666667004,0.22011666666667004,0.19906666666667003,0.19053333333332997,0.17693333333332997,0.15671666666667,0.1613,5.1
COM8,507,01-Dec-19,2019-12-01 11:00:00,0.18756666666667005,0.2022,0.18256666666667004,0.17468333333332997,0.16136666666667002,0.14421666666667002,0.14796666666667002,5.1
COM8,507,01-Dec-19,2019-12-01 12:00:00,0.18256666666667004,0.18095,0.1631,0.1565,0.14471666666667002,0.12968333333333001,0.13261666666667,4.76
COM8,507,01-Dec-19,2019-12-01 13:00:00,0.28128333333333,0.18815,0.1767,0.17333333333332998,0.16758333333332998,0.15736666666667,0.16483333333332997,5.2
COM8,507,01-Dec-19,2019-12-01 14:00:00,0.33748333333333,0.2864,0.27236666666667003,0.26993333333333,0.26133333333333,0.2551,0.26233333333333,5.2
COM8,507,01-Dec-19,2019-12-01 15:00:00,0.29061666666667,0.28108333333333,0.2645,0.26033333333333,0.25201666666667005,0.24545,0.25198333333332995,5.2
COM8,507,01-Dec-19,2019-12-01 16:00:00,0.32093333333333,0.29001666666667,0.27046666666667,0.26498333333332996,0.25485,0.24685,0.2526,5.2
COM8,507,01-Dec-19,2019-12-01 17:00:00,0.61395,0.47351666666666997,0.42273333333333,0.39985,0.3723,0.33868333333333,0.34385,5.1833333333333
COM8,507,01-Dec-19,2019-12-01 18:00:00,1.1654833333333001,0.72486666666667,0.6096333333333299,0.54473333333333,0.48548333333333,0.41506666666666997,0.4175,5.11
COM8,507,01-Dec-19,2019-12-01 19:00:00,1.7210666666667,1.13275,0.98135,0.90686666666667,0.83025,0.74171666666667,0.7523,5.1
COM8,507,01-Dec-19,2019-12-01 20:00:00,2.0226166666667,1.2867166666667,1.1013166666667,1.0151666666666999,0.9229999999999999,0.8141,0.82525,5.1
COM8,507,01-Dec-19,2019-12-01 21:00:00,1.2113833333333,0.90485,0.79815,0.74753333333333,0.68943333333333,0.61823333333333,0.62728333333333,5.1
COM8,507,01-Dec-19,2019-12-01 22:00:00,1.3282666666667,0.85096666666667,0.72558333333333,0.6692833333333299,0.6068,0.53373333333333,0.5426,5.1
COM8,507,01-Dec-19,2019-12-01 23:00:00,1.1116833333333,0.7285,0.6124,0.55501666666667,0.49691666666667,0.426,0.43161666666667,5.1
