COM8,507,18-Dec-19,2019-12-18 00:00:00,1.7577627118644,1.135593220339,0.9756779661016899,0.89261016949153,0.80977966101695,0.72059322033898,0.73771186440678,5.1
COM8,507,18-Dec-19,2019-12-18 01:00:00,0.90381666666667,0.67078333333333,0.5764666666666701,0.5277,0.47708333333333003,0.42595,0.4363,5.0266666666667
COM8,507,18-Dec-19,2019-12-18 02:00:00,0.84438333333333,0.6532166666666701,0.5645166666666701,0.5182,0.47016666666667,0.4163,0.42526666666667,5.0
COM8,507,18-Dec-19,2019-12-18 03:00:00,0.66695,0.6030666666666701,0.52985,0.49045,0.44725,0.39788333333333,0.4084,5.0
COM8,507,18-Dec-19,2019-12-18 04:00:00,0.7712,0.62981666666667,0.54743333333333,0.5072,0.46321666666667,0.41406666666666997,0.42353333333333,5.0
COM8,507,18-Dec-19,2019-12-18 05:00:00,1.3864166666667,0.9767,0.84776666666667,0.78813333333333,0.71853333333333,0.63533333333333,0.6483666666666701,5.0
COM8,507,18-Dec-19,2019-12-18 06:00:00,1.0762166666667,0.81126666666667,0.70618333333333,0.6592833333333299,0.5997833333333299,0.53458333333333,0.54678333333333,5.0
COM8,507,18-Dec-19,2019-12-18 07:00:00,1.42095,1.02905,0.89246666666667,0.83521666666667,0.76516666666667,0.69196666666667,0.7086,5.0
COM8,507,18-Dec-19,2019-12-18 08:00:00,1.8524,1.3839666666666999,1.2080666666667,1.1337,1.0427166666667,0.93705,0.9603,4.9583333333333
COM8,507,18-Dec-19,2019-12-18 09:00:00,1.12815,0.9868,0.87501666666667,0.83356666666667,0.76885,0.69848333333333,0.71506666666667,4.9
COM8,507,18-Dec-19,2019-12-18 10:00:00,0.91918333333333,0.87255,0.78381666666667,0.74793333333333,0.69188333333333,0.63148333333333,0.6474,4.9
COM8,507,18-Dec-19,2019-12-18 11:00:00,0.95631666666667,0.86415,0.76945,0.73316666666667,0.67763333333333,0.61675,0.6314666666666701,4.9
COM8,507,18-Dec-19,2019-12-18 12:00:00,1.3356666666666999,1.1115166666667,0.97981666666667,0.92768333333333,0.85666666666667,0.77956666666667,0.80226666666667,4.9
COM8,507,18-Dec-19,2019-12-18 13:00:00,1.0836166666667,0.95673333333333,0.88071666666667,0.85308333333333,0.81393333333333,0.77236666666667,0.79395,4.748333333333299
COM8,507,18-Dec-19,2019-12-18 14:00:00,1.9995,1.8477,1.7259166666666999,1.68675,1.6242833333333,1.5897833333333,1.6333666666667,5.1533333333333
COM8,507,18-Dec-19,2019-12-18 15:00:00,1.9900833333333001,1.8856666666667,1.7556333333333,1.7149666666666998,1.6518,1.6189,1.6655166666666998,5.1
COM8,507,18-Dec-19,2019-12-18 16:00:00,4.1026166666667,4.10435,3.8922166666667004,3.85535,3.7348666666667003,3.6826666666667003,3.79695,5.1
COM8,507,18-Dec-19,2019-12-18 17:00:00,3.8466,3.6465166666667,3.3900833333333,3.3107,3.1615,3.0526,3.1481833333332996,5.065
COM8,507,18-Dec-19,2019-12-18 18:00:00,2.9532,2.58805,2.3754833333332996,2.2997,2.1709666666667,2.0506333333333,2.1085666666667,5.0
COM8,507,18-Dec-19,2019-12-18 19:00:00,1.9822666666667,1.5023166666667,1.3403833333333,1.2743333333333,1.18375,1.0857,1.1133666666667,5.0
COM8,507,18-Dec-19,2019-12-18 20:00:00,2.6616,1.8902666666666998,1.6637166666667,1.5689666666667,1.4405833333333,1.29215,1.32015,5.0
COM8,507,18-Dec-19,2019-12-18 21:00:00,3.5191333333332997,2.7317833333332997,2.4427666666667003,2.3223833333333,2.15525,1.9757166666666999,2.0273166666667,5.0
COM8,507,18-Dec-19,2019-12-18 22:00:00,3.7688333333333,2.7611333333332997,2.4433333333332996,2.3138666666667,2.1293666666667,1.935,1.9822333333333,4.9083333333332995
COM8,507,18-Dec-19,2019-12-18 23:00:00,3.7036,2.7366833333333,2.3965333333333,2.2437666666667004,2.0448833333333,1.81925,1.8582,4.9
