COM8,507,28-Nov-19,2019-11-28 00:00:00,0.78898305084746,0.65206779661017,0.57593220338983,0.5372711864406801,0.49750847457627,0.45633898305084997,0.46588135593220004,5.0
COM8,507,28-Nov-19,2019-11-28 01:00:00,1.8604833333333,1.3236166666667,1.173,1.11075,1.0281833333333001,0.94413333333333,0.9662,5.0
COM8,507,28-Nov-19,2019-11-28 02:00:00,-0.0052666666666667,0.19506666666667002,0.19121666666667003,0.1864,0.17553333333332996,0.16328333333332998,0.16606666666667003,5.0
COM8,507,28-Nov-19,2019-11-28 03:00:00,-0.0067166666666667,0.15903333333332997,0.16523333333332998,0.1647,0.1557,0.14561666666667,0.14981666666667,5.0
COM8,507,28-Nov-19,2019-11-28 04:00:00,0.0020333333333333,0.10725,0.11195,0.11088333333333,0.10343333333333,0.094633333333333,0.096066666666667,5.0
COM8,507,28-Nov-19,2019-11-28 05:00:00,0.14065,0.1608,0.15226666666667002,0.14615,0.13406666666667,0.12018333333333,0.1222,5.0
COM8,507,28-Nov-19,2019-11-28 06:00:00,0.23293333333332997,0.20391666666667002,0.18618333333332998,0.1743,0.16031666666667002,0.14486666666667,0.14851666666667002,5.0
COM8,507,28-Nov-19,2019-11-28 07:00:00,0.27298333333332997,0.2389,0.21648333333332997,0.20636666666667003,0.19038333333332996,0.17288333333332997,0.17598333333332997,5.0
COM8,507,28-Nov-19,2019-11-28 08:00:00,-0.063666666666667,0.0058,0.012433333333333,0.013866666666667,0.011683333333332999,0.011566666666667001,0.011966666666667,5.0
COM8,507,28-Nov-19,2019-11-28 09:00:00,0.0513,0.07218333333333299,0.068866666666667,0.0647,0.057233333333333004,0.04905,0.049933333333333,5.0
COM8,507,28-Nov-19,2019-11-28 10:00:00,-0.017733333333333,0.023283333333332996,0.025266666666667006,0.024466666666667004,0.02205,0.017983333333333,0.018016666666667,5.0
COM8,507,28-Nov-19,2019-11-28 11:00:00,0.27601666666667,0.21485,0.18795,0.17288333333332997,0.1543,0.12985,0.13058333333333,5.0
COM8,507,28-Nov-19,2019-11-28 12:00:00,0.13695,0.11935,0.10733333333333,0.1018,0.09315,0.0822,0.0851,4.671666666666701
COM8,507,28-Nov-19,2019-11-28 13:00:00,0.47536666666667,0.24766666666667003,0.20611666666667003,0.1806,0.16108333333333,0.1395,0.14325,5.1
COM8,507,28-Nov-19,2019-11-28 14:00:00,0.3695,0.27033333333333,0.23818333333332997,0.22076666666667003,0.2012,0.18078333333332997,0.18318333333332998,5.1
COM8,507,28-Nov-19,2019-11-28 15:00:00,0.32283333333333003,0.2878,0.26558333333332995,0.25688333333332997,0.24426666666667002,0.23163333333332997,0.23636666666667003,5.1
COM8,507,28-Nov-19,2019-11-28 16:00:00,0.21606666666667004,0.20683333333332996,0.1943,0.19016666666667004,0.18283333333332996,0.1759,0.18001666666667004,5.1
COM8,507,28-Nov-19,2019-11-28 17:00:00,0.23066666666667004,0.22156666666667002,0.20996666666667002,0.20585,0.19885,0.19455,0.19991666666667005,5.1
COM8,507,28-Nov-19,2019-11-28 18:00:00,0.44485,0.35018333333333,0.3163,0.30123333333333,0.28173333333333,0.25915,0.26336666666667,5.1
COM8,507,28-Nov-19,2019-11-28 19:00:00,0.34271666666667,0.29451666666667,0.27068333333332995,0.26076666666667003,0.24711666666667004,0.23231666666667003,0.23698333333332997,5.1
COM8,507,28-Nov-19,2019-11-28 20:00:00,1.1016333333333002,0.68386666666667,0.58416666666667,0.53508333333333,0.48688333333333,0.42806666666667,0.4328,5.1
COM8,507,28-Nov-19,2019-11-28 21:00:00,1.01685,0.67131666666667,0.57626666666667,0.52685,0.47876666666667,0.42331666666667,0.4279,5.075
COM8,507,28-Nov-19,2019-11-28 22:00:00,0.74893333333333,0.54678333333333,0.48338333333333,0.44545,0.4079,0.36571666666667,0.37185,5.0
COM8,507,28-Nov-19,2019-11-28 23:00:00,0.76753333333333,0.52968333333333,0.46166666666667,0.4252,0.38953333333333,0.3509,0.35578333333333,5.0
