COM8,507,17-Dec-19,2019-12-17 00:00:00,0.46649152542373,0.33462711864406997,0.29211864406779997,0.26418644067797004,0.23805084745763,0.20944067796610003,0.21208474576270997,5.2
COM8,507,17-Dec-19,2019-12-17 01:00:00,0.42728333333333,0.30241666666667,0.26575,0.2445,0.22355,0.20055,0.20406666666667003,5.2
COM8,507,17-Dec-19,2019-12-17 02:00:00,0.7375,0.43875,0.37328333333333,0.3397,0.30645,0.26983333333333,0.27421666666667005,5.1983333333332995
COM8,507,17-Dec-19,2019-12-17 03:00:00,0.42843333333333,0.29926666666667,0.25855,0.23038333333332997,0.20623333333332997,0.17761666666667003,0.18043333333332998,5.115
COM8,507,17-Dec-19,2019-12-17 04:00:00,0.52618333333333,0.36656666666667,0.31491666666667,0.2845,0.25361666666667004,0.215,0.21658333333332996,5.1
COM8,507,17-Dec-19,2019-12-17 05:00:00,0.1795,0.20276666666667004,0.18421666666667003,0.172,0.15768333333332998,0.142,0.14631666666667,5.1
COM8,507,17-Dec-19,2019-12-17 06:00:00,0.2362,0.26451666666667,0.24321666666667002,0.2312,0.21591666666667003,0.19916666666667004,0.2032,5.1
COM8,507,17-Dec-19,2019-12-17 07:00:00,1.0857833333333,0.71913333333333,0.6260833333333299,0.5812,0.5307666666666699,0.47356666666667,0.48315,5.1
COM8,507,17-Dec-19,2019-12-17 08:00:00,2.13605,1.5456666666667,1.38505,1.3134,1.2198,1.12565,1.1533333333333,5.1
COM8,507,17-Dec-19,2019-12-17 09:00:00,0.49776666666667,0.5505,0.51513333333333,0.50041666666667,0.47238333333333,0.44381666666666997,0.4567,5.1
COM8,507,17-Dec-19,2019-12-17 10:00:00,0.7405,0.72956666666667,0.6796,0.66281666666667,0.6260833333333299,0.59565,0.6124833333333299,5.1
COM8,507,17-Dec-19,2019-12-17 11:00:00,1.0925333333333,0.96046666666667,0.8827,0.85525,0.8042,0.76328333333333,0.78571666666667,5.1
COM8,507,17-Dec-19,2019-12-17 12:00:00,1.3112166666667,1.0996833333333,1.00145,0.96531666666667,0.9077833333333301,0.86075,0.8865,5.1
COM8,507,17-Dec-19,2019-12-17 13:00:00,1.1404,0.95085,0.8805,0.8561,0.81813333333333,0.78693333333333,0.81058333333333,4.8116666666667
COM8,507,17-Dec-19,2019-12-17 14:00:00,1.43575,1.29,1.2097833333333001,1.1868166666667,1.1458666666667,1.11975,1.14975,5.2
COM8,507,17-Dec-19,2019-12-17 15:00:00,1.0504166666666999,1.00395,0.94923333333333,0.93761666666667,0.90591666666667,0.88538333333333,0.90883333333333,5.2
COM8,507,17-Dec-19,2019-12-17 16:00:00,0.95195,0.92251666666667,0.86926666666667,0.85626666666667,0.82563333333333,0.80916666666667,0.83226666666667,5.2
COM8,507,17-Dec-19,2019-12-17 17:00:00,1.1140166666667,1.0343,0.96355,0.94043333333333,0.89993333333333,0.87438333333333,0.89988333333333,5.2
COM8,507,17-Dec-19,2019-12-17 18:00:00,3.32895,2.04685,1.7768,1.6430333333333,1.5111,1.38375,1.4146666666667,5.2
COM8,507,17-Dec-19,2019-12-17 19:00:00,2.5415166666667,1.8147,1.6092166666667,1.4863833333333,1.3671833333333,1.2571666666666999,1.2887666666667,5.1066666666667
COM8,507,17-Dec-19,2019-12-17 20:00:00,1.8160333333333,1.3426166666666999,1.1969166666667,1.11515,1.0296833333333,0.94186666666667,0.9652333333333301,5.1
COM8,507,17-Dec-19,2019-12-17 21:00:00,2.3548833333332997,1.5000666666667,1.3071833333333,1.216,1.1157166666667,1.0044666666667,1.0258666666667,5.1
COM8,507,17-Dec-19,2019-12-17 22:00:00,3.1869,1.7999833333333,1.5224,1.3927166666667,1.2577333333333,1.1046833333333002,1.1257833333333,5.1
COM8,507,17-Dec-19,2019-12-17 23:00:00,1.9789833333333,1.2557833333333,1.0665,0.9647,0.8672,0.75273333333333,0.76743333333333,5.1
