COM8,507,08-Nov-19,2019-11-08 00:00:00,0.92749152542373,0.9690338983050799,0.88433898305085,0.8420338983050799,0.7873728813559301,0.7375254237288101,0.75584745762712,4.9
COM8,507,08-Nov-19,2019-11-08 01:00:00,0.95525,0.9532,0.86118333333333,0.82121666666667,0.7648,0.70631666666667,0.72208333333333,4.9
COM8,507,08-Nov-19,2019-11-08 02:00:00,0.8458,0.81053333333333,0.73486666666667,0.7040000000000001,0.64843333333333,0.5931166666666701,0.6055333333333299,4.9
COM8,507,08-Nov-19,2019-11-08 03:00:00,0.82215,0.76063333333333,0.68763333333333,0.65745,0.6075,0.5539833333333299,0.5654666666666701,4.9
COM8,507,08-Nov-19,2019-11-08 04:00:00,1.0511666666667,0.86218333333333,0.77305,0.73558333333333,0.68421666666667,0.62451666666667,0.63795,4.9
COM8,507,08-Nov-19,2019-11-08 05:00:00,2.2392666666667003,1.3174666666666999,1.1436166666667,1.0834166666667,0.99728333333333,0.91073333333333,0.92971666666667,4.9
COM8,507,08-Nov-19,2019-11-08 06:00:00,1.7164166666667,1.2230833333333,1.0902,1.0293666666666998,0.95243333333333,0.8725,0.89001666666667,4.9
COM8,507,08-Nov-19,2019-11-08 07:00:00,1.8940666666666999,1.53095,1.3831666666667,1.31715,1.2236,1.1357666666667,1.16185,4.9
COM8,507,08-Nov-19,2019-11-08 08:00:00,1.93585,1.7282166666667,1.5809166666667,1.5275,1.44575,1.3644333333333,1.4041666666666999,4.6966666666667
COM8,507,08-Nov-19,2019-11-08 09:00:00,1.34445,1.2531833333333,1.1951166666667,1.1837,1.1540166666667,1.15275,1.1886,5.2
COM8,507,08-Nov-19,2019-11-08 10:00:00,1.5337166666667,1.4992,1.4209,1.4037,1.3608666666667,1.3347166666666999,1.3718166666667,5.2
COM8,507,08-Nov-19,2019-11-08 11:00:00,1.58875,1.60045,1.5267833333333,1.51455,1.4762166666667,1.4600166666667,1.5040833333333001,5.2
COM8,507,08-Nov-19,2019-11-08 12:00:00,2.9665833333332996,2.9334333333332996,2.78605,2.7612333333333,2.6852333333333,2.6509833333332997,2.7338666666667004,5.1166666666667
COM8,507,08-Nov-19,2019-11-08 13:00:00,2.4653166666667,2.38775,2.2517166666667,2.2226333333332997,2.1481333333333,2.1003166666667,2.1692833333333,5.1
COM8,507,08-Nov-19,2019-11-08 14:00:00,1.7012833333333,1.65055,1.5522,1.5266666666667,1.4723333333333,1.4405333333333001,1.4913166666667,5.1
COM8,507,08-Nov-19,2019-11-08 15:00:00,1.4141666666666999,1.3702166666667,1.2863,1.2642166666666999,1.2179666666667,1.1878666666667,1.2299666666667,5.0216666666667
COM8,507,08-Nov-19,2019-11-08 16:00:00,1.3908,1.3306,1.2386166666667,1.20795,1.1522166666667,1.1151333333333,1.1528666666667,5.0
COM8,507,08-Nov-19,2019-11-08 17:00:00,1.8641333333333001,1.7714833333333,1.64735,1.6069166666666999,1.5322333333333,1.48335,1.5310833333333,5.0
COM8,507,08-Nov-19,2019-11-08 18:00:00,3.4721333333332995,3.3110666666667004,3.1075833333332996,3.0659833333332998,2.9317333333332996,2.8505333333332996,2.93955,5.0
COM8,507,08-Nov-19,2019-11-08 19:00:00,2.3533166666667,1.9911166666667,1.8416166666667,1.8065166666666999,1.7106,1.6486833333333,1.69385,5.0
COM8,507,08-Nov-19,2019-11-08 20:00:00,3.19325,2.7007333333332997,2.4702,2.3930333333332996,2.22765,2.0677666666667,2.1128833333333,4.96
COM8,507,08-Nov-19,2019-11-08 21:00:00,3.6605333333332997,2.6233333333332998,2.3525,2.2577666666667002,2.0905833333333,1.91405,1.9517833333333001,4.9
COM8,507,08-Nov-19,2019-11-08 22:00:00,2.9136333333332995,2.1153,1.8815,1.78555,1.6376166666667,1.499,1.5277166666667,4.9
COM8,507,08-Nov-19,2019-11-08 23:00:00,2.6455166666667003,1.99845,1.7792333333333001,1.6828833333333,1.5330833333333,1.3893,1.41345,4.9
