COM8,507,24-Jun-19,2019-06-24 00:00:00,0.098542372881356,0.09211864406779699,0.085983050847458,0.08364406779661,0.079966101694915,0.075881355932203,0.07762711864406799,4.9
COM8,507,24-Jun-19,2019-06-24 01:00:00,0.12225,0.09783333333333301,0.08866666666666699,0.08483333333333298,0.079966666666667,0.074333333333333,0.0755,4.9
COM8,507,24-Jun-19,2019-06-24 02:00:00,0.12355,0.10385,0.094133333333333,0.0907,0.08481666666666701,0.078066666666667,0.079616666666667,4.9
COM8,507,24-Jun-19,2019-06-24 03:00:00,0.13928333333332998,0.12421666666667,0.11445,0.11018333333333001,0.10461666666667,0.0976,0.099933333333333,4.9
COM8,507,24-Jun-19,2019-06-24 04:00:00,0.1877,0.1612,0.14778333333333,0.14238333333332998,0.13523333333333,0.1256,0.12823333333333,4.9
COM8,507,24-Jun-19,2019-06-24 05:00:00,0.33046666666667,0.3124,0.2933,0.2895,0.27741666666667,0.26505,0.27191666666667,4.9
COM8,507,24-Jun-19,2019-06-24 06:00:00,1.0956333333333002,1.1082166666667,1.0624,1.0579166666667,1.0253,1.00315,1.0306,4.9
COM8,507,24-Jun-19,2019-06-24 07:00:00,0.29278333333333,0.285,0.2699,0.26788333333333,0.25593333333332996,0.24273333333332997,0.24925,4.9
COM8,507,24-Jun-19,2019-06-24 08:00:00,0.42576666666667,0.41323333333333,0.39066666666667,0.38616666666667,0.36873333333333,0.35203333333333,0.36041666666667,4.9
COM8,507,24-Jun-19,2019-06-24 09:00:00,0.22796666666667004,0.22298333333332998,0.21051666666667004,0.20756666666667004,0.19765,0.18806666666667002,0.1918,4.9
COM8,507,24-Jun-19,2019-06-24 10:00:00,0.43822033898304996,0.41376271186441,0.38396610169492,0.37567796610169,0.35984745762712,0.33662711864407,0.34508474576271003,4.9
COM8,507,24-Jun-19,2019-06-24 11:00:00,0.27476666666667005,0.25971666666667004,0.24416666666667003,0.24026666666667004,0.22818333333332996,0.2172,0.22243333333332996,4.9
COM8,507,24-Jun-19,2019-06-24 12:00:00,0.26233333333333,0.23451666666667004,0.2215,0.21886666666667004,0.21103333333332996,0.20033333333332998,0.20858333333332996,4.5733333333332995
COM8,507,24-Jun-19,2019-06-24 13:00:00,0.22615,0.17198333333332996,0.1621,0.16041666666667,0.15425,0.14925,0.15341666666667,4.9
COM8,507,24-Jun-19,2019-06-24 14:00:00,0.11805,0.0924,0.08776666666666702,0.08508333333333298,0.082016666666667,0.078516666666667,0.08033333333333299,4.9
COM8,507,24-Jun-19,2019-06-24 15:00:00,0.1444,0.12748333333333,0.12005,0.11863333333333001,0.11403333333333,0.10991666666667,0.11253333333333,4.9
COM8,507,24-Jun-19,2019-06-24 16:00:00,0.1679,0.15303333333333,0.14443333333333,0.14213333333332998,0.13785,0.1356,0.13946666666667001,4.9
COM8,507,24-Jun-19,2019-06-24 17:00:00,0.30876666666667,0.29255,0.27583333333333,0.27125,0.26033333333333,0.24893333333332998,0.25436666666667,4.9
COM8,507,24-Jun-19,2019-06-24 18:00:00,0.2113,0.20223333333332996,0.19091666666667004,0.18791666666667003,0.18071666666667002,0.17286666666667003,0.17708333333332996,4.9
COM8,507,24-Jun-19,2019-06-24 19:00:00,0.47058333333333,0.46606666666667,0.44421666666667,0.44001666666667,0.42495,0.41375,0.42356666666667,4.9
COM8,507,24-Jun-19,2019-06-24 20:00:00,0.64495,0.5705833333333299,0.53025,0.51613333333333,0.49291666666667,0.47248333333333,0.4838,4.9
COM8,507,24-Jun-19,2019-06-24 21:00:00,0.41491666666667,0.37023333333333003,0.3439,0.33433333333333,0.31616666666667,0.30038333333333,0.3057,4.9
COM8,507,24-Jun-19,2019-06-24 22:00:00,0.7843,0.5765333333333299,0.51805,0.49568333333333,0.467,0.43911666666667,0.44838333333333,4.9
COM8,507,24-Jun-19,2019-06-24 23:00:00,0.2701,0.25086666666667,0.23346666666667004,0.22723333333332996,0.21468333333332998,0.2044,0.20826666666667004,4.9
