COM8,507,23-Dec-19,2019-12-23 00:00:00,1.037593220339,0.70222033898305,0.60474576271186,0.55171186440678,0.49576271186440996,0.43862711864407,0.44572881355932,5.0
COM8,507,23-Dec-19,2019-12-23 01:00:00,0.6507333333333299,0.49028333333333,0.42423333333333,0.3869,0.34846666666667,0.30563333333333,0.31113333333333,5.0
COM8,507,23-Dec-19,2019-12-23 02:00:00,0.4236,0.43153333333333,0.39096666666667,0.3698,0.33925,0.30628333333333,0.313,5.0
COM8,507,23-Dec-19,2019-12-23 03:00:00,0.61946666666667,0.53753333333333,0.4823,0.4549,0.4172,0.37421666666667,0.38216666666667,5.0
COM8,507,23-Dec-19,2019-12-23 04:00:00,0.29021666666667,0.3244,0.29975,0.28938333333333,0.2654,0.23755,0.24205,5.0
COM8,507,23-Dec-19,2019-12-23 05:00:00,0.21465,0.31021666666666997,0.29163333333333,0.27745,0.25743333333332996,0.2358,0.24206666666667004,5.0
COM8,507,23-Dec-19,2019-12-23 06:00:00,0.54273333333333,0.5803333333333299,0.54356666666667,0.53013333333333,0.49861666666667,0.46543333333333,0.47903333333333,5.0
COM8,507,23-Dec-19,2019-12-23 07:00:00,1.71695,1.6056166666667,1.51105,1.4831666666667,1.4054333333333,1.3254666666666999,1.3628,5.0
COM8,507,23-Dec-19,2019-12-23 08:00:00,1.8224333333333,1.7412833333333,1.6372833333333001,1.6060666666666998,1.5224666666667,1.4364,1.4781,5.0
COM8,507,23-Dec-19,2019-12-23 09:00:00,1.1059333333333001,1.0771833333333,1.0071833333333,0.98711666666667,0.92996666666667,0.87776666666667,0.9037166666666699,4.975
COM8,507,23-Dec-19,2019-12-23 10:00:00,2.11765,1.9143833333333,1.7573166666667,1.7018,1.5998333333333001,1.5072833333333,1.5548666666667,4.9033333333333
COM8,507,23-Dec-19,2019-12-23 11:00:00,0.82791666666667,0.87308333333333,0.8156,0.79318333333333,0.74465,0.69798333333333,0.71968333333333,4.9
COM8,507,23-Dec-19,2019-12-23 12:00:00,0.0095833333333333,0.20975,0.22436666666667004,0.23256666666667003,0.22391666666667004,0.21351666666667002,0.22318333333332996,4.9
COM8,507,23-Dec-19,2019-12-23 13:00:00,0.33895,0.34051666666667,0.3272,0.32588333333333,0.31831666666666997,0.31121666666666997,0.32438333333333,4.6733333333333
COM8,507,23-Dec-19,2019-12-23 14:00:00,1.2750833333333,1.1225,1.0460666666667,1.0159333333333,0.97611666666667,0.94885,0.9754,5.1
COM8,507,23-Dec-19,2019-12-23 15:00:00,1.5102833333333001,1.3232666666667,1.2132666666667,1.17065,1.1127833333333002,1.0637,1.0907833333333001,5.1
COM8,507,23-Dec-19,2019-12-23 16:00:00,2.1585833333333,2.03195,1.876,1.8148166666667,1.7357166666666999,1.6939833333333,1.74345,5.1
COM8,507,23-Dec-19,2019-12-23 17:00:00,3.2224333333332997,2.8072,2.5275,2.4064333333333,2.2645333333332998,2.1589666666667,2.2206,5.08
COM8,507,23-Dec-19,2019-12-23 18:00:00,4.6365,3.6896333333333,3.2928666666667,3.1246166666667,2.9131166666667,2.7163166666667005,2.7857666666667003,5.0
COM8,507,23-Dec-19,2019-12-23 19:00:00,3.8747166666667003,3.0147,2.6865,2.5378166666667004,2.34905,2.16275,2.2168,5.0
COM8,507,23-Dec-19,2019-12-23 20:00:00,1.2293166666667,1.0756,0.95808333333333,0.90686666666667,0.84806666666667,0.7822,0.80223333333333,5.0
COM8,507,23-Dec-19,2019-12-23 21:00:00,0.57955,0.6388,0.5813333333333299,0.54803333333333,0.50886666666667,0.46155,0.47276666666667,5.0
COM8,507,23-Dec-19,2019-12-23 22:00:00,-0.13558333333333,0.10696666666667,0.12806666666667,0.13176666666667,0.12163333333333,0.1082,0.1098,5.0
COM8,507,23-Dec-19,2019-12-23 23:00:00,0.45178333333333,0.42171666666667,0.38171666666667,0.35493333333333,0.32563333333333,0.29016666666667,0.29516666666667,5.0
