COM7,0507,26-Feb-19,2019-02-26 00:00:00,0.23153448275862,0.19893103448276,0.18327586206897,0.1751724137931,0.16520689655172,0.15312068965517,0.15587931034483,4.9,0,0,0,0,0,0,0,0,0,0,0,0,0,0,0,0,0,0,0,0,0,0,0,0,0,0,0,0,0,0,0,0,0,0,0,0,0,0,0,0,0,0
COM7,0507,26-Feb-19,2019-02-26 01:00:00,0.21253333333333,0.18343333333333,0.169,0.16068333333333,0.15076666666667,0.13818333333333,0.1405,4.9,0,0,0,0,0,0,0,0,0,0,0,0,0,0,0,0,0,0,0,0,0,0,0,0,0,0,0,0,0,0,0,0,0,0,0,0,0,0,0,0,0,0
COM7,0507,26-Feb-19,2019-02-26 02:00:00,0.31916666666667,0.29308333333333,0.27483333333333,0.26773333333333,0.25473333333333,0.242,0.24768333333333,4.9,0,0,0,0,0,0,0,0,0,0,0,0,0,0,0,0,0,0,0,0,0,0,0,0,0,0,0,0,0,0,0,0,0,0,0,0,0,0,0,0,0,0
COM7,0507,26-Feb-19,2019-02-26 03:00:00,0.2625,0.24766666666667,0.23278333333333,0.22725,0.21623333333333,0.20406666666667,0.20826666666667,4.9,0,0,0,0,0,0,0,0,0,0,0,0,0,0,0,0,0,0,0,0,0,0,0,0,0,0,0,0,0,0,0,0,0,0,0,0,0,0,0,0,0,0
COM7,0507,26-Feb-19,2019-02-26 04:00:00,0.081183333333333,0.080366666666667,0.076816666666667,0.07465,0.070666666666667,0.0657,0.066783333333333,4.9,0,0,0,0,0,0,0,0,0,0,0,0,0,0,0,0,0,0,0,0,0,0,0,0,0,0,0,0,0,0,0,0,0,0,0,0,0,0,0,0,0,0
COM7,0507,26-Feb-19,2019-02-26 05:00:00,0.065383333333333,0.0662,0.06305,0.062016666666667,0.05865,0.05395,0.05515,4.9,0,0,0,0,0,0,0,0,0,0,0,0,0,0,0,0,0,0,0,0,0,0,0,0,0,0,0,0,0,0,0,0,0,0,0,0,0,0,0,0,0,0
COM7,0507,26-Feb-19,2019-02-26 06:00:00,0.12908333333333,0.12698333333333,0.12033333333333,0.11863333333333,0.1134,0.10831666666667,0.11023333333333,4.9,0,0,0,0,0,0,0,0,0,0,0,0,0,0,0,0,0,0,0,0,0,0,0,0,0,0,0,0,0,0,0,0,0,0,0,0,0,0,0,0,0,0
COM7,0507,26-Feb-19,2019-02-26 07:00:00,0.27045,0.26045,0.2462,0.2414,0.2289,0.21596666666667,0.2209,4.9,0,0,0,0,0,0,0,0,0,0,0,0,0,0,0,0,0,0,0,0,0,0,0,0,0,0,0,0,0,0,0,0,0,0,0,0,0,0,0,0,0,0
COM7,0507,26-Feb-19,2019-02-26 08:00:00,0.191,0.18645,0.17505,0.1713,0.16205,0.152,0.15491666666667,4.9,0,0,0,0,0,0,0,0,0,0,0,0,0,0,0,0,0,0,0,0,0,0,0,0,0,0,0,0,0,0,0,0,0,0,0,0,0,0,0,0,0,0
COM7,0507,26-Feb-19,2019-02-26 09:00:00,0.22031666666667,0.21511666666667,0.20275,0.19858333333333,0.18865,0.17923333333333,0.18286666666667,4.9,0,0,0,0,0,0,0,0,0,0,0,0,0,0,0,0,0,0,0,0,0,0,0,0,0,0,0,0,0,0,0,0,0,0,0,0,0,0,0,0,0,0
COM7,0507,26-Feb-19,2019-02-26 10:00:00,0.18666666666667,0.18161666666667,0.1717,0.16791666666667,0.15926666666667,0.15016666666667,0.15375,4.9,0,0,0,0,0,0,0,0,0,0,0,0,0,0,0,0,0,0,0,0,0,0,0,0,0,0,0,0,0,0,0,0,0,0,0,0,0,0,0,0,0,0
COM7,0507,26-Feb-19,2019-02-26 11:00:00,0.16838333333333,0.16665,0.15765,0.15485,0.14665,0.13866666666667,0.14063333333333,4.9,0,0,0,0,0,0,0,0,0,0,0,0,0,0,0,0,0,0,0,0,0,0,0,0,0,0,0,0,0,0,0,0,0,0,0,0,0,0,0,0,0,0
COM7,0507,26-Feb-19,2019-02-26 12:00:00,0.17775,0.17381666666667,0.16426666666667,0.1616,0.15331666666667,0.14365,0.14691666666667,4.9,0,0,0,0,0,0,0,0,0,0,0,0,0,0,0,0,0,0,0,0,0,0,0,0,0,0,0,0,0,0,0,0,0,0,0,0,0,0,0,0,0,0
COM7,0507,26-Feb-19,2019-02-26 13:00:00,0.19013333333333,0.18723333333333,0.17836666666667,0.17496666666667,0.16646666666667,0.15593333333333,0.1597,4.9,0,0,0,0,0,0,0,0,0,0,0,0,0,0,0,0,0,0,0,0,0,0,0,0,0,0,0,0,0,0,0,0,0,0,0,0,0,0,0,0,0,0
COM7,0507,26-Feb-19,2019-02-26 14:00:00,0.16971666666667,0.16046666666667,0.15175,0.14955,0.14271666666667,0.13338333333333,0.13806666666667,4.535,0,0,0,0,0,0,0,0,0,0,0,0,0,0,0,0,0,0,0,0,0,0,0,0,0,0,0,0,0,0,0,0,0,0,0,0,0,0,0,0,0,0
COM7,0507,26-Feb-19,2019-02-26 15:00:00,0.30101666666667,0.23576666666667,0.22598333333333,0.22293333333333,0.21693333333333,0.21086666666667,0.2178,4.9,0,0,0,0,0,0,0,0,0,0,0,0,0,0,0,0,0,0,0,0,0,0,0,0,0,0,0,0,0,0,0,0,0,0,0,0,0,0,0,0,0,0
COM7,0507,26-Feb-19,2019-02-26 16:00:00,0.37736666666667,0.31338333333333,0.29813333333333,0.29413333333333,0.2819,0.27263333333333,0.27795,4.9,0,0,0,0,0,0,0,0,0,0,0,0,0,0,0,0,0,0,0,0,0,0,0,0,0,0,0,0,0,0,0,0,0,0,0,0,0,0,0,0,0,0
COM7,0507,26-Feb-19,2019-02-26 17:00:00,0.28376666666667,0.26703333333333,0.25433333333333,0.25028333333333,0.241,0.23315,0.23868333333333,4.9,0,0,0,0,0,0,0,0,0,0,0,0,0,0,0,0,0,0,0,0,0,0,0,0,0,0,0,0,0,0,0,0,0,0,0,0,0,0,0,0,0,0
COM7,0507,26-Feb-19,2019-02-26 18:00:00,0.4327,0.38416666666667,0.35503333333333,0.34318333333333,0.32575,0.31005,0.31565,4.9,0,0,0,0,0,0,0,0,0,0,0,0,0,0,0,0,0,0,0,0,0,0,0,0,0,0,0,0,0,0,0,0,0,0,0,0,0,0,0,0,0,0
COM7,0507,26-Feb-19,2019-02-26 19:00:00,0.47171666666667,0.42021666666667,0.38521666666667,0.37103333333333,0.34906666666667,0.3221,0.3296,4.9,0,0,0,0,0,0,0,0,0,0,0,0,0,0,0,0,0,0,0,0,0,0,0,0,0,0,0,0,0,0,0,0,0,0,0,0,0,0,0,0,0,0
COM7,0507,26-Feb-19,2019-02-26 20:00:00,0.095583333333333,0.11493333333333,0.11125,0.10915,0.10336666666667,0.097566666666667,0.098233333333333,4.9,0,0,0,0,0,0,0,0,0,0,0,0,0,0,0,0,0,0,0,0,0,0,0,0,0,0,0,0,0,0,0,0,0,0,0,0,0,0,0,0,0,0
COM7,0507,26-Feb-19,2019-02-26 21:00:00,0.13383333333333,0.14291666666667,0.13575,0.1327,0.12578333333333,0.11746666666667,0.11965,4.9,0,0,0,0,0,0,0,0,0,0,0,0,0,0,0,0,0,0,0,0,0,0,0,0,0,0,0,0,0,0,0,0,0,0,0,0,0,0,0,0,0,0
COM7,0507,26-Feb-19,2019-02-26 22:00:00,0.12445,0.13278333333333,0.1274,0.12525,0.11921666666667,0.11318333333333,0.11575,4.9,0,0,0,0,0,0,0,0,0,0,0,0,0,0,0,0,0,0,0,0,0,0,0,0,0,0,0,0,0,0,0,0,0,0,0,0,0,0,0,0,0,0
COM7,0507,26-Feb-19,2019-02-26 23:00:00,0.10145,0.10478333333333,0.099433333333333,0.097416666666667,0.091183333333333,0.08455,0.085066666666667,4.9,0,0,0,0,0,0,0,0,0,0,0,0,0,0,0,0,0,0,0,0,0,0,0,0,0,0,0,0,0,0,0,0,0,0,0,0,0,0,0,0,0,0
