COM8,507,31-Jul-19,2019-07-31 00:00:00,0.21338983050847002,0.19793220338983,0.18474576271185997,0.18152542372881,0.17332203389831,0.16681355932203001,0.17015254237288002,5.0
COM8,507,31-Jul-19,2019-07-31 01:00:00,0.18443333333332998,0.16958333333332998,0.15851666666667003,0.1549,0.14805,0.1412,0.14461666666667,5.0
COM8,507,31-Jul-19,2019-07-31 02:00:00,0.20945,0.17725,0.1622,0.15471666666667,0.146,0.1373,0.13908333333332998,5.0
COM8,507,31-Jul-19,2019-07-31 03:00:00,0.26661666666667005,0.2183,0.19773333333332996,0.18838333333332996,0.17678333333332996,0.16578333333332998,0.16981666666667003,5.0
COM8,507,31-Jul-19,2019-07-31 04:00:00,0.84305,0.51955,0.42313333333333003,0.36761666666667,0.32391666666667,0.27531666666667,0.27791666666667,5.0
COM8,507,31-Jul-19,2019-07-31 05:00:00,0.44241666666667,0.35528333333333,0.31416666666667,0.29166666666667,0.26955,0.24738333333332996,0.25151666666667005,5.0
COM8,507,31-Jul-19,2019-07-31 06:00:00,2.46305,2.30535,2.1459666666667,2.09325,1.9992666666667,1.9472,2.0053666666667,4.9633333333333
COM8,507,31-Jul-19,2019-07-31 07:00:00,1.9322,1.78375,1.65765,1.6209,1.5440833333333,1.4827666666666999,1.5242333333333,4.9
COM8,507,31-Jul-19,2019-07-31 08:00:00,3.6309166666667,3.2524,2.9955166666667004,2.9114333333333,2.7523333333332998,2.6298166666667004,2.7075833333332997,4.9
COM8,507,31-Jul-19,2019-07-31 09:00:00,4.3124833333333,3.6169666666667,3.2702166666667,3.1439833333332996,2.9327166666667,2.7494166666667,2.8296333333333,4.9
COM8,507,31-Jul-19,2019-07-31 10:00:00,4.1013833333333,3.13165,2.7365666666667003,2.5783,2.3605666666667005,2.1313833333333,2.1837833333333,4.85
COM8,507,31-Jul-19,2019-07-31 11:00:00,1.4018166666667,0.9873,0.83888333333333,0.77346666666667,0.6920333333333301,0.60018333333333,0.61108333333333,4.8
COM8,507,31-Jul-19,2019-07-31 12:00:00,0.87051666666667,0.7131833333333301,0.6455,0.6188,0.5735166666666701,0.52438333333333,0.53871666666667,4.8
COM8,507,31-Jul-19,2019-07-31 13:00:00,0.46323333333333,0.6553,0.71183333333333,0.77738333333333,0.79621666666667,0.8538,0.89065,4.8
COM8,507,31-Jul-19,2019-07-31 14:00:00,0.44003333333333,0.67503333333333,0.75416666666667,0.84215,0.88746666666667,0.99676666666667,1.0482,4.876666666666701
COM8,507,31-Jul-19,2019-07-31 15:00:00,0.47885,0.45286666666666997,0.434,0.44183333333333,0.42781666666667,0.42931666666667,0.4441,4.9
COM8,507,31-Jul-19,2019-07-31 16:00:00,0.4217,0.38905,0.37585,0.37848333333333,0.36673333333333,0.36295,0.38065,4.59
COM8,507,31-Jul-19,2019-07-31 17:00:00,0.42408333333333,0.3802,0.36455,0.36106666666667,0.35113333333333,0.34551666666666997,0.35575,5.0
COM8,507,31-Jul-19,2019-07-31 18:00:00,0.50266666666667,0.49083333333333,0.46798333333333003,0.46391666666667,0.44965,0.4407,0.45141666666667,5.0
COM8,507,31-Jul-19,2019-07-31 19:00:00,0.54863333333333,0.53633333333333,0.51108333333333,0.50723333333333,0.4917,0.4816,0.49346666666667,5.0
COM8,507,31-Jul-19,2019-07-31 20:00:00,0.53108333333333,0.5196333333333301,0.49445,0.48856666666667,0.47448333333333,0.46438333333333,0.47661666666667,5.0
COM8,507,31-Jul-19,2019-07-31 21:00:00,0.44228333333333003,0.42955,0.41006666666667,0.40786666666667,0.39541666666666997,0.38508333333333,0.39398333333333,5.0
COM8,507,31-Jul-19,2019-07-31 22:00:00,0.27468333333332995,0.25733333333332997,0.24421666666667002,0.24061666666667003,0.23353333333332996,0.22513333333332997,0.23061666666667002,5.0
COM8,507,31-Jul-19,2019-07-31 23:00:00,0.22361666666667004,0.19665,0.18266666666667003,0.17885,0.17095,0.16325,0.16653333333332998,5.0
