COM8,507,07-Feb-20,2020-02-07 00:00:00,0.0065932203389831,0.07498305084745799,0.079728813559322,0.08183050847457599,0.07957627118644099,0.076830508474576,0.07862711864406799,4.9
COM8,507,07-Feb-20,2020-02-07 01:00:00,0.00026666666666667004,0.0432,0.04715,0.05,0.0475,0.04498333333333301,0.0455,4.9
COM8,507,07-Feb-20,2020-02-07 02:00:00,0.029116666666667006,0.057316666666666995,0.059266666666666995,0.06015,0.05846666666666699,0.0546,0.05588333333333301,4.9
COM8,507,07-Feb-20,2020-02-07 03:00:00,0.11016666666667,0.10336666666666999,0.097416666666667,0.094133333333333,0.08713333333333298,0.08008333333333299,0.0821,4.9
COM8,507,07-Feb-20,2020-02-07 04:00:00,0.38233333333333,0.3282,0.3023,0.29156666666666997,0.27258333333332996,0.25026666666667,0.25501666666667006,4.9
COM8,507,07-Feb-20,2020-02-07 05:00:00,0.29186666666667,0.21063333333332998,0.18663333333332996,0.17493333333332997,0.16038333333333,0.14496666666667002,0.14615,4.9
COM8,507,07-Feb-20,2020-02-07 06:00:00,0.13178333333333,0.12446666666667,0.11355,0.10768333333333001,0.09948333333333301,0.08786666666666701,0.090516666666667,4.9
COM8,507,07-Feb-20,2020-02-07 07:00:00,0.28293333333333,0.2517,0.23003333333332998,0.22106666666667002,0.20478333333332996,0.18706666666667005,0.18976666666667003,4.9
COM8,507,07-Feb-20,2020-02-07 08:00:00,0.5004,0.42093333333333,0.38208333333333,0.36543333333333,0.34033333333333,0.31023333333333003,0.31501666666667,4.9
COM8,507,07-Feb-20,2020-02-07 09:00:00,0.22765,0.21865,0.20165,0.19541666666667004,0.18366666666667003,0.16886666666667002,0.17226666666667004,4.9
COM8,507,07-Feb-20,2020-02-07 10:00:00,0.24736666666667004,0.237,0.2198,0.21291666666667003,0.20091666666667002,0.18543333333332998,0.18845,4.9
COM8,507,07-Feb-20,2020-02-07 11:00:00,0.44201666666667,0.38855,0.35395,0.3406,0.31458333333333,0.2847,0.28895,4.9
COM8,507,07-Feb-20,2020-02-07 12:00:00,0.7081833333333301,0.6128166666666701,0.56145,0.54063333333333,0.50315,0.46093333333333003,0.46996666666667,4.9
COM8,507,07-Feb-20,2020-02-07 13:00:00,0.6266,0.50548333333333,0.45151666666667,0.42968333333333003,0.39465,0.35295,0.35771666666667,4.9
COM8,507,07-Feb-20,2020-02-07 14:00:00,0.37043333333333,0.29591666666667,0.27068333333332995,0.26033333333333,0.2428,0.21598333333332997,0.22255,4.625
COM8,507,07-Feb-20,2020-02-07 15:00:00,0.73365,0.63738333333333,0.60833333333333,0.6007166666666701,0.58031666666667,0.5617,0.5753,5.0
COM8,507,07-Feb-20,2020-02-07 16:00:00,0.26605,0.2357,0.22133333333332997,0.21436666666667004,0.20161666666667002,0.18661666666667004,0.1899,5.0
COM8,507,07-Feb-20,2020-02-07 17:00:00,0.61161666666667,0.6010166666666701,0.56668333333333,0.5542833333333299,0.53361666666667,0.51735,0.53033333333333,5.0
COM8,507,07-Feb-20,2020-02-07 18:00:00,1.78705,1.67625,1.5687333333333,1.5312333333333001,1.46805,1.4182333333333002,1.4553166666667,5.0
COM8,507,07-Feb-20,2020-02-07 19:00:00,2.0334666666667,1.7775166666667,1.6471,1.5984,1.5192166666667,1.4407666666666998,1.4735666666667,5.0
COM8,507,07-Feb-20,2020-02-07 20:00:00,2.4599333333332996,2.0067,1.8417833333333,1.7722,1.6707,1.5648666666667,1.5984166666667,5.0
COM8,507,07-Feb-20,2020-02-07 21:00:00,2.1216,1.6030666666667,1.4375833333333001,1.3507,1.2494333333333,1.1476333333333,1.17035,5.0
COM8,507,07-Feb-20,2020-02-07 22:00:00,0.9549,0.72253333333333,0.64565,0.6042,0.55945,0.50271666666667,0.51098333333333,4.9066666666667
COM8,507,07-Feb-20,2020-02-07 23:00:00,1.93025,1.56025,1.3947666666667,1.3194,1.2089166666667,1.0362,1.0401833333333002,4.9
