COM8,507,02-Oct-19,2019-10-02 00:00:00,0.33374576271185996,0.32237288135593,0.30483050847458,0.30076271186440995,0.28788135593220004,0.27638983050847,0.28396610169492,5.1
COM8,507,02-Oct-19,2019-10-02 01:00:00,0.34101666666667,0.32471666666667,0.30715,0.30318333333333003,0.29003333333333,0.27858333333333,0.28638333333333,5.1
COM8,507,02-Oct-19,2019-10-02 02:00:00,0.29706666666667,0.28263333333333,0.26563333333332995,0.26198333333332996,0.25098333333332995,0.24176666666667004,0.248,5.1
COM8,507,02-Oct-19,2019-10-02 03:00:00,0.3416,0.31556666666667,0.29618333333333,0.2912,0.2783,0.26731666666667003,0.27395,5.1
COM8,507,02-Oct-19,2019-10-02 04:00:00,0.35818333333333,0.33126666666667,0.31083333333333,0.30585,0.2923,0.2798,0.2875,5.1
COM8,507,02-Oct-19,2019-10-02 05:00:00,0.44758333333333,0.41861666666666997,0.39355,0.38855,0.37193333333333,0.35811666666666997,0.368,5.1
COM8,507,02-Oct-19,2019-10-02 06:00:00,0.65676666666667,0.61713333333333,0.5817833333333299,0.5746666666666701,0.55095,0.53293333333333,0.54883333333333,5.1
COM8,507,02-Oct-19,2019-10-02 07:00:00,0.78438333333333,0.73998333333333,0.69643333333333,0.68981666666667,0.65948333333333,0.63735,0.65595,5.1
COM8,507,02-Oct-19,2019-10-02 08:00:00,0.653,0.6225333333333299,0.5879,0.58225,0.5580833333333299,0.54021666666667,0.5564,5.1
COM8,507,02-Oct-19,2019-10-02 09:00:00,0.60228333333333,0.5817833333333299,0.55155,0.54796666666667,0.52498333333333,0.5071,0.5216,5.1
COM8,507,02-Oct-19,2019-10-02 10:00:00,0.48266666666667,0.46103333333333,0.43378333333333,0.42906666666667,0.40836666666667,0.39511666666667,0.4072,5.1
COM8,507,02-Oct-19,2019-10-02 11:00:00,0.5204,0.50731666666667,0.48223333333333,0.48101666666667,0.4599,0.44795,0.45888333333333,5.1
COM8,507,02-Oct-19,2019-10-02 12:00:00,0.34855,0.3301,0.31016666666667,0.30838333333333,0.29211666666667,0.2831,0.28966666666667,5.1
COM8,507,02-Oct-19,2019-10-02 13:00:00,0.23863333333332998,0.2078,0.19373333333332995,0.19055,0.18313333333332996,0.17528333333332996,0.1841,4.7633333333333
COM8,507,02-Oct-19,2019-10-02 14:00:00,0.32283333333333003,0.25201666666667005,0.2418,0.24026666666667004,0.23403333333332996,0.23155,0.23818333333332997,5.1
COM8,507,02-Oct-19,2019-10-02 15:00:00,0.23241666666667002,0.21435,0.2044,0.20223333333332996,0.19623333333332996,0.19176666666667003,0.19699999999999998,5.1
COM8,507,02-Oct-19,2019-10-02 16:00:00,0.20188333333332997,0.20433333333332998,0.19413333333332997,0.19178333333332998,0.18616666666667003,0.18398333333332997,0.18908333333332997,5.1
COM8,507,02-Oct-19,2019-10-02 17:00:00,0.26703333333332996,0.26535,0.25233333333332997,0.24936666666667004,0.24236666666667003,0.23896666666667002,0.24553333333332997,5.1
COM8,507,02-Oct-19,2019-10-02 18:00:00,0.47225,0.4642,0.43945,0.43303333333333,0.41806666666667,0.405,0.41571666666667,5.1
COM8,507,02-Oct-19,2019-10-02 19:00:00,0.77178333333333,0.70988333333333,0.6574666666666701,0.63866666666667,0.6099833333333299,0.5822,0.5963333333333299,5.1
COM8,507,02-Oct-19,2019-10-02 20:00:00,0.70921666666667,0.6605666666666701,0.6148666666666701,0.59775,0.5707666666666701,0.542,0.5554166666666701,5.1
COM7,507,02-Oct-19,2019-10-02 21:00:00,NaN,NaN,NaN,NaN,NaN,NaN,NaN,NaN
COM7,507,02-Oct-19,2019-10-02 22:00:00,NaN,NaN,NaN,NaN,NaN,NaN,NaN,NaN
COM7,507,02-Oct-19,2019-10-02 23:00:00,NaN,NaN,NaN,NaN,NaN,NaN,NaN,NaN
