COM8,507,12-Aug-19,2019-08-12 00:00:00,0.33345762711864,0.21611864406779996,0.18808474576270998,0.16761016949153001,0.15150847457626998,0.13655932203389998,0.13915254237288,5.0
COM8,507,12-Aug-19,2019-08-12 01:00:00,0.15461666666667,0.15085,0.14053333333332999,0.13666666666667,0.12975,0.12298333333333,0.12605,5.0
COM8,507,12-Aug-19,2019-08-12 02:00:00,0.15186666666667,0.14756666666667,0.13853333333332998,0.13593333333333,0.13031666666667,0.12448333333333,0.12705,5.0
COM8,507,12-Aug-19,2019-08-12 03:00:00,0.15028333333333,0.14361666666667,0.1349,0.13323333333333,0.12705,0.12088333333333001,0.12356666666666999,5.0
COM8,507,12-Aug-19,2019-08-12 04:00:00,0.185,0.16068333333333,0.14773333333333,0.1428,0.13548333333333,0.12538333333333002,0.1277,5.0
COM8,507,12-Aug-19,2019-08-12 05:00:00,0.31968333333333,0.29673333333333,0.27855,0.2751,0.26351666666667,0.25368333333333,0.26118333333333,5.0
COM8,507,12-Aug-19,2019-08-12 06:00:00,0.5015166666666699,0.48393333333333,0.45703333333333,0.45151666666667,0.43545,0.42156666666667,0.43235,5.0
COM8,507,12-Aug-19,2019-08-12 07:00:00,0.49136666666667,0.47663333333333,0.4517,0.44688333333333,0.43045,0.41783333333333,0.42913333333333,5.0
COM8,507,12-Aug-19,2019-08-12 08:00:00,0.96663333333333,0.93673333333333,0.88775,0.8805333333333301,0.84798333333333,0.83146666666667,0.85596666666667,5.0
COM8,507,12-Aug-19,2019-08-12 09:00:00,0.71828333333333,0.68405,0.6456166666666701,0.6381,0.6115833333333299,0.5923,0.6094333333333299,5.0
COM8,507,12-Aug-19,2019-08-12 10:00:00,0.52868333333333,0.50096666666667,0.47316666666667,0.4689,0.44915,0.43225,0.44416666666667,5.0
COM8,507,12-Aug-19,2019-08-12 11:00:00,0.75093333333333,0.70788333333333,0.6706666666666701,0.6659333333333299,0.639,0.62076666666667,0.6389666666666701,4.9383333333333
COM8,507,12-Aug-19,2019-08-12 12:00:00,0.6744,0.62071666666667,0.5837,0.5752,0.55068333333333,0.52901666666667,0.54485,4.9
COM8,507,12-Aug-19,2019-08-12 13:00:00,0.71068333333333,0.65196666666667,0.61246666666667,0.6018,0.57578333333333,0.55316666666667,0.57185,4.9
COM8,507,12-Aug-19,2019-08-12 14:00:00,0.40271666666667,0.35873333333333,0.33163333333333,0.32505,0.30796666666667,0.29071666666667,0.29843333333333,4.9
COM8,507,12-Aug-19,2019-08-12 15:00:00,0.4704,0.43223333333333,0.40545,0.39945,0.37915,0.36048333333333,0.37053333333333,4.9
COM8,507,12-Aug-19,2019-08-12 16:00:00,0.4983,0.45526666666667,0.4273,0.42098333333333,0.39985,0.38093333333333,0.3918,4.7366666666667
COM8,507,12-Aug-19,2019-08-12 17:00:00,0.52753333333333,0.45316666666667,0.43088333333333,0.42681666666667,0.41405,0.40041666666667,0.41323333333333,4.8333333333333
COM8,507,12-Aug-19,2019-08-12 18:00:00,0.44986666666666997,0.43051666666667,0.40888333333333,0.40485,0.39188333333333003,0.38146666666667,0.39018333333333,5.0
COM8,507,12-Aug-19,2019-08-12 19:00:00,0.47,0.44443333333333,0.41818333333333,0.41033333333333,0.39433333333333,0.37953333333333,0.38851666666667,5.0
COM8,507,12-Aug-19,2019-08-12 20:00:00,0.65001666666667,0.61456666666667,0.5753,0.5638666666666701,0.54015,0.51833333333333,0.53046666666667,5.0
COM8,507,12-Aug-19,2019-08-12 21:00:00,0.77928333333333,0.74978333333333,0.71033333333333,0.70115,0.6756,0.65643333333333,0.67315,5.0
COM8,507,12-Aug-19,2019-08-12 22:00:00,0.67723333333333,0.6086,0.5683833333333299,0.55383333333333,0.5275,0.50401666666667,0.51675,5.0
COM8,507,12-Aug-19,2019-08-12 23:00:00,0.4585,0.38735,0.35401666666667,0.34018333333333,0.32035,0.30071666666667,0.30763333333333,5.0
