COM8,507,05-Sep-19,2019-09-05 00:00:00,0.17452542372881,0.16349152542373002,0.15477966101695,0.15333898305085,0.14772881355932002,0.14418644067796998,0.14762711864407002,5.1
COM8,507,05-Sep-19,2019-09-05 01:00:00,0.16005,0.1493,0.14093333333333,0.13816666666667002,0.13261666666667,0.12778333333333,0.13033333333333,5.1
COM8,507,05-Sep-19,2019-09-05 02:00:00,0.14241666666667002,0.13618333333333,0.12988333333333,0.12861666666667,0.1244,0.12211666666667,0.12518333333333,5.1
COM8,507,05-Sep-19,2019-09-05 03:00:00,0.28611666666667,0.27635,0.2629,0.26153333333332995,0.25408333333332994,0.2506,0.25848333333332996,5.1
COM8,507,05-Sep-19,2019-09-05 04:00:00,0.2905,0.28436666666667,0.27233333333333,0.2712,0.264,0.26201666666667,0.26948333333332997,5.1
COM8,507,05-Sep-19,2019-09-05 05:00:00,0.41243333333333,0.40796666666667,0.39136666666666997,0.39083333333333,0.3793,0.37228333333333,0.38335,5.1
COM8,507,05-Sep-19,2019-09-05 06:00:00,0.5785833333333299,0.5637,0.5351,0.53005,0.5105666666666699,0.49421666666666997,0.50748333333333,5.1
COM8,507,05-Sep-19,2019-09-05 07:00:00,0.82678333333333,0.8059666666666699,0.7614,0.75206666666667,0.72315,0.69743333333333,0.71673333333333,5.1
COM8,507,05-Sep-19,2019-09-05 08:00:00,0.83453333333333,0.83096666666667,0.79525,0.79346666666667,0.76771666666667,0.75178333333333,0.77291666666667,5.1
COM8,507,05-Sep-19,2019-09-05 09:00:00,0.39005,0.37013333333333,0.3497,0.34483333333333,0.32918333333333,0.30955,0.31716666666667,5.1
COM8,507,05-Sep-19,2019-09-05 10:00:00,0.65165,0.61966666666667,0.5821833333333299,0.57178333333333,0.5467,0.52821666666667,0.54355,5.1
COM8,507,05-Sep-19,2019-09-05 11:00:00,1.0515,0.9995,0.9403,0.9236,0.88091666666667,0.84523333333333,0.87045,5.1
COM8,507,05-Sep-19,2019-09-05 12:00:00,0.92658333333333,0.86891666666667,0.81168333333333,0.79501666666667,0.75525,0.71896666666667,0.73985,5.1
COM8,507,05-Sep-19,2019-09-05 13:00:00,0.48966666666666997,0.43881666666667,0.41033333333333,0.40073333333333,0.38358333333333,0.3651,0.37856666666667,4.7183333333333
COM8,507,05-Sep-19,2019-09-05 14:00:00,0.40686666666667,0.35935,0.34185,0.33776666666667,0.32713333333333,0.3185,0.32745,5.1
COM8,507,05-Sep-19,2019-09-05 15:00:00,0.28878333333333,0.28323333333333,0.2696,0.26651666666667,0.25845,0.25418333333333,0.26135,5.1
COM8,507,05-Sep-19,2019-09-05 16:00:00,0.26388333333333,0.26393333333332997,0.25141666666667,0.24813333333332996,0.24003333333332996,0.23421666666667004,0.23973333333332997,5.1
COM8,507,05-Sep-19,2019-09-05 17:00:00,0.30703333333333,0.31251666666667,0.29885,0.2964,0.28868333333333,0.28298333333333,0.29003333333333,5.1
COM8,507,05-Sep-19,2019-09-05 18:00:00,0.56425,0.49496666666667,0.44995,0.4279,0.40108333333333,0.37161666666667,0.3793,5.1
COM8,507,05-Sep-19,2019-09-05 19:00:00,0.32158333333333,0.29523333333333,0.27361666666667,0.2653,0.25336666666667,0.24506666666667004,0.25085,5.1
COM8,507,05-Sep-19,2019-09-05 20:00:00,0.18363333333332996,0.1732,0.16463333333333,0.16183333333333,0.1563,0.15266666666667,0.15566666666667,5.1
COM8,507,05-Sep-19,2019-09-05 21:00:00,0.20786666666667003,0.2001,0.19058333333332997,0.18855,0.18225,0.17745,0.18285,5.1
COM8,507,05-Sep-19,2019-09-05 22:00:00,0.32668333333333,0.31921666666667,0.30493333333333,0.30318333333333003,0.29451666666667,0.2912,0.29906666666667,5.1
COM8,507,05-Sep-19,2019-09-05 23:00:00,0.36278333333333,0.3517,0.33603333333333,0.33281666666667,0.32213333333333,0.3152,0.32406666666667,5.1
