COM7,0507,25-Nov-18,2018-11-25 00:00:00,0.3291186440678,0.23994915254237,0.2121186440678,0.19701694915254,0.18127118644068,0.16279661016949,0.1655593220339,5,0,0,0,0,0,0,0,0,0,0,0,0,0,0,0,0,0,0,0,0,0,0,0,0,0,0,0,0,0,0,0,0,0,0,0,0,0,0,0,0,0,0
COM7,0507,25-Nov-18,2018-11-25 01:00:00,0.70303333333333,0.41136666666667,0.34063333333333,0.29951666666667,0.26588333333333,0.22736666666667,0.22973333333333,4.9583333333333,0,0,0,0,0,0,0,0,0,0,0,0,0,0,0,0,0,0,0,0,0,0,0,0,0,0,0,0,0,0,0,0,0,0,0,0,0,0,0,0,0,0
COM7,0507,25-Nov-18,2018-11-25 02:00:00,0.1903,0.18025,0.1628,0.15015,0.1401,0.1268,0.12975,4.9,0,0,0,0,0,0,0,0,0,0,0,0,0,0,0,0,0,0,0,0,0,0,0,0,0,0,0,0,0,0,0,0,0,0,0,0,0,0,0,0,0,0
COM7,0507,25-Nov-18,2018-11-25 03:00:00,0.095883333333333,0.1077,0.098466666666667,0.091983333333333,0.085166666666667,0.07585,0.0776,4.9,0,0,0,0,0,0,0,0,0,0,0,0,0,0,0,0,0,0,0,0,0,0,0,0,0,0,0,0,0,0,0,0,0,0,0,0,0,0,0,0,0,0
COM7,0507,25-Nov-18,2018-11-25 04:00:00,0.12015,0.11281666666667,0.10145,0.095633333333333,0.087833333333333,0.078916666666667,0.080583333333333,4.9,0,0,0,0,0,0,0,0,0,0,0,0,0,0,0,0,0,0,0,0,0,0,0,0,0,0,0,0,0,0,0,0,0,0,0,0,0,0,0,0,0,0
COM7,0507,25-Nov-18,2018-11-25 05:00:00,0.15666666666667,0.12335,0.10656666666667,0.098,0.089516666666667,0.07745,0.079183333333333,4.9,0,0,0,0,0,0,0,0,0,0,0,0,0,0,0,0,0,0,0,0,0,0,0,0,0,0,0,0,0,0,0,0,0,0,0,0,0,0,0,0,0,0
COM7,0507,25-Nov-18,2018-11-25 06:00:00,0.15283333333333,0.13263333333333,0.11928333333333,0.11276666666667,0.10478333333333,0.0953,0.097033333333333,4.9,0,0,0,0,0,0,0,0,0,0,0,0,0,0,0,0,0,0,0,0,0,0,0,0,0,0,0,0,0,0,0,0,0,0,0,0,0,0,0,0,0,0
COM7,0507,25-Nov-18,2018-11-25 07:00:00,0.21073333333333,0.16646666666667,0.14541666666667,0.13531666666667,0.12296666666667,0.10945,0.11123333333333,4.9,0,0,0,0,0,0,0,0,0,0,0,0,0,0,0,0,0,0,0,0,0,0,0,0,0,0,0,0,0,0,0,0,0,0,0,0,0,0,0,0,0,0
COM7,0507,25-Nov-18,2018-11-25 08:00:00,0.38943333333333,0.3524,0.32833333333333,0.32101666666667,0.30355,0.28241666666667,0.28653333333333,4.9,0,0,0,0,0,0,0,0,0,0,0,0,0,0,0,0,0,0,0,0,0,0,0,0,0,0,0,0,0,0,0,0,0,0,0,0,0,0,0,0,0,0
COM7,0507,25-Nov-18,2018-11-25 09:00:00,0.30216666666667,0.23645,0.21925,0.2138,0.20218333333333,0.18946666666667,0.19713333333333,4.6266666666667,0,0,0,0,0,0,0,0,0,0,0,0,0,0,0,0,0,0,0,0,0,0,0,0,0,0,0,0,0,0,0,0,0,0,0,0,0,0,0,0,0,0
COM7,0507,25-Nov-18,2018-11-25 10:00:00,0.25571666666667,0.18845,0.17586666666667,0.17168333333333,0.16038333333333,0.15588333333333,0.15643333333333,5,0,0,0,0,0,0,0,0,0,0,0,0,0,0,0,0,0,0,0,0,0,0,0,0,0,0,0,0,0,0,0,0,0,0,0,0,0,0,0,0,0,0
COM7,0507,25-Nov-18,2018-11-25 11:00:00,0.20901666666667,0.19538333333333,0.18201666666667,0.17836666666667,0.16755,0.16516666666667,0.16635,5,0,0,0,0,0,0,0,0,0,0,0,0,0,0,0,0,0,0,0,0,0,0,0,0,0,0,0,0,0,0,0,0,0,0,0,0,0,0,0,0,0,0
COM7,0507,25-Nov-18,2018-11-25 12:00:00,0.24876666666667,0.23641666666667,0.22141666666667,0.21818333333333,0.20651666666667,0.20155,0.20368333333333,5,0,0,0,0,0,0,0,0,0,0,0,0,0,0,0,0,0,0,0,0,0,0,0,0,0,0,0,0,0,0,0,0,0,0,0,0,0,0,0,0,0,0
COM7,0507,25-Nov-18,2018-11-25 13:00:00,0.2328,0.21858333333333,0.20501666666667,0.20108333333333,0.19153333333333,0.185,0.18851666666667,5,0,0,0,0,0,0,0,0,0,0,0,0,0,0,0,0,0,0,0,0,0,0,0,0,0,0,0,0,0,0,0,0,0,0,0,0,0,0,0,0,0,0
COM7,0507,25-Nov-18,2018-11-25 14:00:00,0.24645,0.22685,0.21166666666667,0.20721666666667,0.19816666666667,0.1872,0.19105,5,0,0,0,0,0,0,0,0,0,0,0,0,0,0,0,0,0,0,0,0,0,0,0,0,0,0,0,0,0,0,0,0,0,0,0,0,0,0,0,0,0,0
COM7,0507,25-Nov-18,2018-11-25 15:00:00,0.21905,0.2048,0.19226666666667,0.1877,0.18045,0.16895,0.17378333333333,5,0,0,0,0,0,0,0,0,0,0,0,0,0,0,0,0,0,0,0,0,0,0,0,0,0,0,0,0,0,0,0,0,0,0,0,0,0,0,0,0,0,0
COM7,0507,25-Nov-18,2018-11-25 16:00:00,0.26235,0.2498,0.23625,0.23285,0.22433333333333,0.21736666666667,0.22343333333333,5,0,0,0,0,0,0,0,0,0,0,0,0,0,0,0,0,0,0,0,0,0,0,0,0,0,0,0,0,0,0,0,0,0,0,0,0,0,0,0,0,0,0
COM7,0507,25-Nov-18,2018-11-25 17:00:00,0.92815,0.71313333333333,0.63558333333333,0.5966,0.55001666666667,0.49655,0.50386666666667,5,0,0,0,0,0,0,0,0,0,0,0,0,0,0,0,0,0,0,0,0,0,0,0,0,0,0,0,0,0,0,0,0,0,0,0,0,0,0,0,0,0,0
COM7,0507,25-Nov-18,2018-11-25 18:00:00,1.3265,0.9968,0.89611666666667,0.84378333333333,0.7843,0.71775,0.73241666666667,5,0,0,0,0,0,0,0,0,0,0,0,0,0,0,0,0,0,0,0,0,0,0,0,0,0,0,0,0,0,0,0,0,0,0,0,0,0,0,0,0,0,0
COM7,0507,25-Nov-18,2018-11-25 19:00:00,1.61445,1.02095,0.86131666666667,0.76883333333333,0.68145,0.58266666666667,0.58913333333333,5,0,0,0,0,0,0,0,0,0,0,0,0,0,0,0,0,0,0,0,0,0,0,0,0,0,0,0,0,0,0,0,0,0,0,0,0,0,0,0,0,0,0
COM7,0507,25-Nov-18,2018-11-25 20:00:00,1.40475,0.9769,0.85953333333333,0.79605,0.72738333333333,0.64808333333333,0.6585,4.99,0,0,0,0,0,0,0,0,0,0,0,0,0,0,0,0,0,0,0,0,0,0,0,0,0,0,0,0,0,0,0,0,0,0,0,0,0,0,0,0,0,0
COM7,0507,25-Nov-18,2018-11-25 21:00:00,0.7951,0.65446666666667,0.58741666666667,0.55725,0.51826666666667,0.47451666666667,0.4853,4.9016666666667,0,0,0,0,0,0,0,0,0,0,0,0,0,0,0,0,0,0,0,0,0,0,0,0,0,0,0,0,0,0,0,0,0,0,0,0,0,0,0,0,0,0
COM7,0507,25-Nov-18,2018-11-25 22:00:00,0.2169,0.3095,0.28806666666667,0.27763333333333,0.2609,0.24105,0.24615,4.9,0,0,0,0,0,0,0,0,0,0,0,0,0,0,0,0,0,0,0,0,0,0,0,0,0,0,0,0,0,0,0,0,0,0,0,0,0,0,0,0,0,0
COM7,0507,25-Nov-18,2018-11-25 23:00:00,0.34305,0.33366666666667,0.30273333333333,0.28838333333333,0.26615,0.24245,0.24683333333333,4.9,0,0,0,0,0,0,0,0,0,0,0,0,0,0,0,0,0,0,0,0,0,0,0,0,0,0,0,0,0,0,0,0,0,0,0,0,0,0,0,0,0,0
