COM7,0507,13-Dec-18,2018-12-13 00:00:00,0.28396610169492,0.22403389830508,0.20233898305085,0.19210169491525,0.17952542372881,0.16618644067797,0.16916949152542,5,0,0,0,0,0,0,0,0,0,0,0,0,0,0,0,0,0,0,0,0,0,0,0,0,0,0,0,0,0,0,0,0,0,0,0,0,0,0,0,0,0,0
COM7,0507,13-Dec-18,2018-12-13 01:00:00,0.24228333333333,0.21253333333333,0.19528333333333,0.18733333333333,0.17686666666667,0.1656,0.16878333333333,5,0,0,0,0,0,0,0,0,0,0,0,0,0,0,0,0,0,0,0,0,0,0,0,0,0,0,0,0,0,0,0,0,0,0,0,0,0,0,0,0,0,0
COM7,0507,13-Dec-18,2018-12-13 02:00:00,0.097716666666667,0.10818333333333,0.10231666666667,0.10098333333333,0.097366666666667,0.094016666666667,0.096816666666667,5,0,0,0,0,0,0,0,0,0,0,0,0,0,0,0,0,0,0,0,0,0,0,0,0,0,0,0,0,0,0,0,0,0,0,0,0,0,0,0,0,0,0
COM7,0507,13-Dec-18,2018-12-13 03:00:00,0.18198333333333,0.13241666666667,0.1211,0.11638333333333,0.10995,0.10511666666667,0.10703333333333,5,0,0,0,0,0,0,0,0,0,0,0,0,0,0,0,0,0,0,0,0,0,0,0,0,0,0,0,0,0,0,0,0,0,0,0,0,0,0,0,0,0,0
COM7,0507,13-Dec-18,2018-12-13 04:00:00,0.15931666666667,0.15326666666667,0.14361666666667,0.14031666666667,0.13381666666667,0.1301,0.13415,5,0,0,0,0,0,0,0,0,0,0,0,0,0,0,0,0,0,0,0,0,0,0,0,0,0,0,0,0,0,0,0,0,0,0,0,0,0,0,0,0,0,0
COM7,0507,13-Dec-18,2018-12-13 05:00:00,0.18831666666667,0.17203333333333,0.15793333333333,0.15265,0.14405,0.138,0.14105,5,0,0,0,0,0,0,0,0,0,0,0,0,0,0,0,0,0,0,0,0,0,0,0,0,0,0,0,0,0,0,0,0,0,0,0,0,0,0,0,0,0,0
COM7,0507,13-Dec-18,2018-12-13 06:00:00,0.3734,0.33273333333333,0.30995,0.30153333333333,0.28813333333333,0.2771,0.28441666666667,5,0,0,0,0,0,0,0,0,0,0,0,0,0,0,0,0,0,0,0,0,0,0,0,0,0,0,0,0,0,0,0,0,0,0,0,0,0,0,0,0,0,0
COM7,0507,13-Dec-18,2018-12-13 07:00:00,0.65505,0.61738333333333,0.5827,0.5732,0.54745,0.52648333333333,0.53848333333333,5,0,0,0,0,0,0,0,0,0,0,0,0,0,0,0,0,0,0,0,0,0,0,0,0,0,0,0,0,0,0,0,0,0,0,0,0,0,0,0,0,0,0
COM7,0507,13-Dec-18,2018-12-13 08:00:00,0.95081666666667,0.88358333333333,0.83145,0.81555,0.77685,0.74563333333333,0.76336666666667,5,0,0,0,0,0,0,0,0,0,0,0,0,0,0,0,0,0,0,0,0,0,0,0,0,0,0,0,0,0,0,0,0,0,0,0,0,0,0,0,0,0,0
COM7,0507,13-Dec-18,2018-12-13 09:00:00,0.81181666666667,0.78025,0.73626666666667,0.72505,0.6926,0.66565,0.68253333333333,5,0,0,0,0,0,0,0,0,0,0,0,0,0,0,0,0,0,0,0,0,0,0,0,0,0,0,0,0,0,0,0,0,0,0,0,0,0,0,0,0,0,0
COM7,0507,13-Dec-18,2018-12-13 10:00:00,1.0535666666667,1.0228833333333,0.96791666666667,0.95561666666667,0.91411666666667,0.89203333333333,0.91568333333333,5,0,0,0,0,0,0,0,0,0,0,0,0,0,0,0,0,0,0,0,0,0,0,0,0,0,0,0,0,0,0,0,0,0,0,0,0,0,0,0,0,0,0
COM7,0507,13-Dec-18,2018-12-13 11:00:00,0.83258333333333,0.82275,0.78295,0.77701666666667,0.74435,0.72751666666667,0.74636666666667,5,0,0,0,0,0,0,0,0,0,0,0,0,0,0,0,0,0,0,0,0,0,0,0,0,0,0,0,0,0,0,0,0,0,0,0,0,0,0,0,0,0,0
COM7,0507,13-Dec-18,2018-12-13 12:00:00,1.0470666666667,1.0225666666667,0.97223333333333,0.9628,0.92138333333333,0.90498333333333,0.93118333333333,4.9166666666667,0,0,0,0,0,0,0,0,0,0,0,0,0,0,0,0,0,0,0,0,0,0,0,0,0,0,0,0,0,0,0,0,0,0,0,0,0,0,0,0,0,0
COM7,0507,13-Dec-18,2018-12-13 13:00:00,1.02405,0.9365,0.89136666666667,0.87318333333333,0.84301666666667,0.82325,0.84931666666667,4.75,0,0,0,0,0,0,0,0,0,0,0,0,0,0,0,0,0,0,0,0,0,0,0,0,0,0,0,0,0,0,0,0,0,0,0
COM7,0507,13-Dec-18,2018-12-13 14:00:00,1.0634833333333,1.0117,0.95193333333333,0.9317,0.89613333333333,0.87743333333333,0.901,5,0,0,0,0,0,0,0,0,0,0,0,0,0,0,0,0,0,0,0,0,0,0,0,0,0,0,0,0,0,0,0,0,0,0,0,0,0,0,0,0,0,0
COM7,0507,13-Dec-18,2018-12-13 15:00:00,0.71408333333333,0.70193333333333,0.66316666666667,0.65135,0.62806666666667,0.615,0.6318,5,0,0,0,0,0,0,0,0,0,0,0,0,0,0,0,0,0,0,0,0,0,0,0,0,0,0,0,0,0,0,0,0,0,0,0,0,0,0,0,0,0,0
COM7,0507,13-Dec-18,2018-12-13 16:00:00,0.84445,0.8216,0.77286666666667,0.75646666666667,0.72901666666667,0.71896666666667,0.74,5,0,0,0,0,0,0,0,0,0,0,0,0,0,0,0,0,0,0,0,0,0,0,0,0,0,0,0,0,0,0,0,0,0,0,0,0,0,0,0,0,0,0
COM7,0507,13-Dec-18,2018-12-13 17:00:00,1.1121333333333,1.0486666666667,0.98013333333333,0.956,0.91278333333333,0.88308333333333,0.9053,5,0,0,0,0,0,0,0,0,0,0,0,0,0,0,0,0,0,0,0,0,0,0,0,0,0,0,0,0,0,0,0,0,0,0,0,0,0,0,0,0,0,0
COM7,0507,13-Dec-18,2018-12-13 18:00:00,1.5018,1.3681333333333,1.2777,1.2460833333333,1.1870166666667,1.1389333333333,1.1681333333333,5,0,0,0,0,0,0,0,0,0,0,0,0,0,0,0,0,0,0,0,0,0,0,0,0,0,0,0,0,0,0,0,0,0,0,0,0,0,0,0,0,0,0
COM7,0507,13-Dec-18,2018-12-13 19:00:00,1.6295333333333,1.3577333333333,1.2461166666667,1.2012666666667,1.1296166666667,1.0649333333333,1.0893666666667,5,0,0,0,0,0,0,0,0,0,0,0,0,0,0,0,0,0,0,0,0,0,0,0,0,0,0,0,0,0,0,0,0,0,0,0,0,0,0,0,0,0,0
COM7,0507,13-Dec-18,2018-12-13 20:00:00,3.2205166666667,2.0889333333333,1.83215,1.71045,1.5621333333333,1.4025,1.4256166666667,5,0,0,0,0,0,0,0,0,0,0,0,0,0,0,0,0,0,0,0,0,0,0,0,0,0,0,0,0,0,0,0,0,0,0,0,0,0,0,0,0,0,0
COM7,0507,13-Dec-18,2018-12-13 21:00:00,2.0641833333333,1.4703166666667,1.31395,1.2137333333333,1.1022166666667,0.9938,1.0124666666667,4.9583333333333,0,0,0,0,0,0,0,0,0,0,0,0,0,0,0,0,0,0,0,0,0,0,0,0,0,0,0,0,0,0,0,0,0,0,0,0,0,0,0,0,0,0
COM7,0507,13-Dec-18,2018-12-13 22:00:00,2.0903666666667,1.5219333333333,1.35785,1.26845,1.1575833333333,1.0483833333333,1.0685666666667,4.9,0,0,0,0,0,0,0,0,0,0,0,0,0,0,0,0,0,0,0,0,0,0,0,0,0,0,0,0,0,0,0,0,0,0,0,0,0,0,0,0,0,0
COM7,0507,13-Dec-18,2018-12-13 23:00:00,2.2269333333333,1.5726333333333,1.3804666666667,1.2811666666667,1.1617833333333,1.0474166666667,1.0700666666667,4.9,0,0,0,0,0,0,0,0,0,0,0,0,0,0,0,0,0,0,0,0,0,0,0,0,0,0,0,0,0,0,0,0,0,0,0,0,0,0,0,0,0,0
