COM8,507,04-Oct-19,2019-10-04 00:00:00,0.08347457627118599,0.07801694915254201,0.07413559322033901,0.07306779661017,0.070220338983051,0.068372881355932,0.069847457627119,5.1
COM8,507,04-Oct-19,2019-10-04 01:00:00,0.0759,0.0715,0.066666666666667,0.065566666666667,0.0625,0.061466666666666996,0.063266666666667,5.1
COM8,507,04-Oct-19,2019-10-04 02:00:00,0.081766666666667,0.07765,0.073216666666667,0.071183333333333,0.069116666666667,0.068316666666667,0.06986666666666701,5.1
COM8,507,04-Oct-19,2019-10-04 03:00:00,0.0949,0.088033333333333,0.082783333333333,0.0811,0.077783333333333,0.07533333333333299,0.077716666666667,5.0483333333333
COM8,507,04-Oct-19,2019-10-04 04:00:00,0.08615,0.07935,0.074316666666667,0.0723,0.06995,0.066033333333333,0.06885,5.0
COM8,507,04-Oct-19,2019-10-04 05:00:00,0.15598333333332998,0.14923333333333,0.14088333333332997,0.1398,0.13408333333333,0.1313,0.13455,5.0
COM8,507,04-Oct-19,2019-10-04 06:00:00,0.20765,0.20158333333332998,0.1916,0.18875,0.18218333333332998,0.1789,0.18493333333332998,5.0
COM8,507,04-Oct-19,2019-10-04 07:00:00,0.28103333333333,0.27408333333332996,0.25881666666667,0.25653333333332995,0.24828333333332997,0.24441666666667003,0.25165,5.0
COM8,507,04-Oct-19,2019-10-04 08:00:00,0.34236666666667,0.3408,0.32611666666667,0.32631666666667,0.31633333333333,0.3136,0.32348333333333,5.0
COM8,507,04-Oct-19,2019-10-04 09:00:00,0.26526666666667004,0.26348333333332996,0.25156666666667005,0.25053333333332994,0.24296666666667002,0.24345,0.25056666666667005,5.0
COM8,507,04-Oct-19,2019-10-04 10:00:00,0.30073333333333,0.28091666666667,0.26258333333332995,0.25746666666667,0.24403333333332997,0.23278333333332996,0.23936666666667003,5.0
COM8,507,04-Oct-19,2019-10-04 11:00:00,0.3279,0.30306666666667,0.28061666666667,0.27125,0.25865,0.25261666666667004,0.26028333333333,5.0
COM8,507,04-Oct-19,2019-10-04 12:00:00,0.24306666666667004,0.22208333333332997,0.20696666666667002,0.20236666666667003,0.19223333333332998,0.18178333333332997,0.18696666666667003,5.0
COM8,507,04-Oct-19,2019-10-04 13:00:00,0.21815,0.18416666666667003,0.17046666666667004,0.1669,0.16081666666667002,0.15473333333332998,0.1631,4.6866666666667
COM8,507,04-Oct-19,2019-10-04 14:00:00,0.2786,0.17968333333332998,0.1653,0.16011666666667002,0.15343333333332998,0.14888333333332998,0.15358333333333,5.1
COM8,507,04-Oct-19,2019-10-04 15:00:00,0.20536666666667003,0.15596666666667,0.14151666666667,0.13601666666667,0.12991666666666998,0.12778333333333,0.13083333333333,5.1
COM8,507,04-Oct-19,2019-10-04 16:00:00,0.11695,0.11213333333333,0.10466666666666999,0.10123333333333001,0.09775,0.096533333333333,0.09936666666666699,5.1
COM8,507,04-Oct-19,2019-10-04 17:00:00,0.094666666666667,0.08775,0.081366666666667,0.078766666666667,0.07565,0.07303333333333299,0.07545,5.1
COM8,507,04-Oct-19,2019-10-04 18:00:00,0.11383333333333001,0.10548333333333,0.099133333333333,0.0972,0.0938,0.0909,0.09356666666666699,5.1533333333333
COM8,507,04-Oct-19,2019-10-04 19:00:00,0.08085,0.076816666666667,0.072166666666667,0.070083333333333,0.0675,0.0639,0.06571666666666699,5.2
COM8,507,04-Oct-19,2019-10-04 20:00:00,0.068666666666667,0.06446666666666699,0.06025,0.0586,0.05658333333333301,0.0534,0.055333333333333005,5.2
COM8,507,04-Oct-19,2019-10-04 21:00:00,0.04895,0.0461,0.04285,0.041533333333333,0.040316666666667,0.038266666666667,0.039283333333333,5.2
COM8,507,04-Oct-19,2019-10-04 22:00:00,0.043633333333333,0.03875,0.0364,0.035583333333333,0.03351666666666701,0.031066666666667006,0.03208333333333299,5.1983333333332995
COM8,507,04-Oct-19,2019-10-04 23:00:00,0.11608333333333,0.09785,0.089933333333333,0.08628333333333299,0.0821,0.07816666666666701,0.080583333333333,5.2
