COM8,507,23-Jan-20,2020-01-23 00:00:00,1.0040847457627,0.84566101694915,0.78933898305085,0.7766779661016899,0.7441864406779699,0.71701694915254,0.7354576271186399,5.0
COM8,507,23-Jan-20,2020-01-23 01:00:00,0.84133333333333,0.72886666666667,0.68156666666667,0.67205,0.6431,0.62138333333333,0.63866666666667,5.0
COM8,507,23-Jan-20,2020-01-23 02:00:00,0.7996,0.77211666666667,0.73595,0.73513333333333,0.70965,0.69405,0.71411666666667,5.0
COM8,507,23-Jan-20,2020-01-23 03:00:00,0.81085,0.7747,0.73816666666667,0.7352,0.71071666666667,0.69223333333333,0.71133333333333,5.0
COM8,507,23-Jan-20,2020-01-23 04:00:00,0.80521666666667,0.74161666666667,0.70166666666667,0.6970666666666699,0.66911666666667,0.64605,0.6626666666666701,5.0
COM8,507,23-Jan-20,2020-01-23 05:00:00,0.81833333333333,0.74361666666667,0.69826666666667,0.69113333333333,0.6623333333333299,0.63765,0.6561333333333299,4.9166666666667
COM8,507,23-Jan-20,2020-01-23 06:00:00,0.77705,0.72728333333333,0.6898,0.68771666666667,0.65805,0.63665,0.6534166666666701,4.9
COM8,507,23-Jan-20,2020-01-23 07:00:00,0.85781666666667,0.82356666666667,0.78363333333333,0.78111666666667,0.74981666666667,0.72413333333333,0.74246666666667,4.9
COM8,507,23-Jan-20,2020-01-23 08:00:00,2.2190833333332995,2.0601333333333,1.9094333333333,1.8646833333333002,1.7714166666667,1.71345,1.7657,4.9
COM8,507,23-Jan-20,2020-01-23 09:00:00,1.8650833333333001,1.7953666666666999,1.6778666666667,1.6463,1.56085,1.5022666666667,1.54645,4.9
COM8,507,23-Jan-20,2020-01-23 10:00:00,0.87931666666667,0.95355,0.9229,0.92021666666667,0.88635,0.86488333333333,0.89211666666667,4.9
COM8,507,23-Jan-20,2020-01-23 11:00:00,1.0122333333333,1.06285,1.0236833333333,1.0240833333333001,0.98061666666667,0.94726666666667,0.97361666666667,4.9
COM8,507,23-Jan-20,2020-01-23 12:00:00,0.81975,0.89465,0.87311666666667,0.87935,0.84613333333333,0.81873333333333,0.84041666666667,4.9
COM8,507,23-Jan-20,2020-01-23 13:00:00,0.74683333333333,0.82351666666667,0.8099,0.81991666666667,0.79171666666667,0.76895,0.79165,4.9
COM8,507,23-Jan-20,2020-01-23 14:00:00,1.2279333333333,1.15205,1.1009833333333001,1.0917666666666999,1.06355,1.04565,1.0758333333333001,4.7
COM8,507,23-Jan-20,2020-01-23 15:00:00,1.5083166666667,1.46285,1.3817666666667,1.36435,1.3267333333333,1.3181166666667,1.3555166666667,5.0
COM8,507,23-Jan-20,2020-01-23 16:00:00,1.43925,1.3669666666667,1.2667,1.2336666666667,1.18915,1.1784833333333,1.2136666666667,5.0
COM8,507,23-Jan-20,2020-01-23 17:00:00,1.4781333333333,1.41685,1.3243666666667,1.2960333333333,1.2518666666667,1.2385,1.27415,5.0
COM8,507,23-Jan-20,2020-01-23 18:00:00,2.0090833333333,1.84285,1.7433,1.71705,1.65205,1.6010833333333,1.6415666666667,5.0
COM8,507,23-Jan-20,2020-01-23 19:00:00,1.34655,1.1886666666666998,1.117,1.09925,1.05615,1.0218666666667,1.0476166666667,5.0
COM8,507,23-Jan-20,2020-01-23 20:00:00,0.98295,0.88441666666667,0.82833333333333,0.80843333333333,0.77021666666667,0.73958333333333,0.75833333333333,5.0
COM8,507,23-Jan-20,2020-01-23 21:00:00,0.84293333333333,0.7197,0.6633166666666701,0.6421833333333299,0.6074,0.5709,0.58388333333333,5.0
COM8,507,23-Jan-20,2020-01-23 22:00:00,0.75073333333333,0.5599,0.50361666666667,0.47773333333333,0.44743333333333,0.41901666666667,0.42833333333333,5.0
COM8,507,23-Jan-20,2020-01-23 23:00:00,0.94093333333333,0.70641666666667,0.62923333333333,0.5942166666666701,0.5474,0.49275,0.50086666666667,5.0
