COM7,0507,12-Feb-19,2019-02-12 00:00:00,0.92036206896552,0.59610344827586,0.50996551724138,0.4721724137931,0.42958620689655,0.38546551724138,0.38886206896552,4.9,0,0,0,0,0,0,0,0,0,0,0,0,0,0,0,0,0,0,0,0,0,0,0,0,0,0,0,0,0,0,0,0,0,0,0,0,0,0,0,0,0,0
COM7,0507,12-Feb-19,2019-02-12 01:00:00,0.58425,0.44095,0.3845,0.3558,0.32348333333333,0.29143333333333,0.29353333333333,4.9,0,0,0,0,0,0,0,0,0,0,0,0,0,0,0,0,0,0,0,0,0,0,0,0,0,0,0,0,0,0,0,0,0,0,0,0,0,0,0,0,0,0
COM7,0507,12-Feb-19,2019-02-12 02:00:00,0.22298333333333,0.27285,0.24981666666667,0.23615,0.21696666666667,0.19703333333333,0.19803333333333,4.9,0,0,0,0,0,0,0,0,0,0,0,0,0,0,0,0,0,0,0,0,0,0,0,0,0,0,0,0,0,0,0,0,0,0,0,0,0,0,0,0,0,0
COM7,0507,12-Feb-19,2019-02-12 03:00:00,0.2286,0.2348,0.2107,0.19901666666667,0.18063333333333,0.16356666666667,0.16401666666667,4.9,0,0,0,0,0,0,0,0,0,0,0,0,0,0,0,0,0,0,0,0,0,0,0,0,0,0,0,0,0,0,0,0,0,0,0,0,0,0,0,0,0,0
COM7,0507,12-Feb-19,2019-02-12 04:00:00,0.34133333333333,0.29105,0.25705,0.24298333333333,0.22008333333333,0.20086666666667,0.20103333333333,4.9,0,0,0,0,0,0,0,0,0,0,0,0,0,0,0,0,0,0,0,0,0,0,0,0,0,0,0,0,0,0,0,0,0,0,0,0,0,0,0,0,0,0
COM7,0507,12-Feb-19,2019-02-12 05:00:00,0.44871666666667,0.34836666666667,0.30348333333333,0.28538333333333,0.2582,0.2314,0.23285,4.9,0,0,0,0,0,0,0,0,0,0,0,0,0,0,0,0,0,0,0,0,0,0,0,0,0,0,0,0,0,0,0,0,0,0,0,0,0,0,0,0,0,0
COM7,0507,12-Feb-19,2019-02-12 06:00:00,0.76633333333333,0.61856666666667,0.55613333333333,0.53745,0.50038333333333,0.46721666666667,0.47201666666667,4.9,0,0,0,0,0,0,0,0,0,0,0,0,0,0,0,0,0,0,0,0,0,0,0,0,0,0,0,0,0,0,0,0,0,0,0,0,0,0,0,0,0,0
COM7,0507,12-Feb-19,2019-02-12 07:00:00,1.4744,1.1506166666667,1.036,0.99826666666667,0.93175,0.86306666666667,0.87415,4.9,0,0,0,0,0,0,0,0,0,0,0,0,0,0,0,0,0,0,0,0,0,0,0,0,0,0,0,0,0,0,0,0,0,0,0,0,0,0,0,0,0,0
COM7,0507,12-Feb-19,2019-02-12 08:00:00,1.4535166666667,1.2775166666667,1.1683,1.1338833333333,1.05535,0.95188333333333,0.95928333333333,4.8116666666667,0,0,0,0,0,0,0,0,0,0,0,0,0,0,0,0,0,0,0,0,0,0,0,0,0,0,0,0,0,0,0,0,0,0,0,0,0,0,0,0,0,0
COM7,0507,12-Feb-19,2019-02-12 09:00:00,0.3847,0.43113333333333,0.40011666666667,0.39055,0.36645,0.32915,0.3331,4.8,0,0,0,0,0,0,0,0,0,0,0,0,0,0,0,0,0,0,0,0,0,0,0,0,0,0,0,0,0,0,0,0,0,0,0,0,0,0,0,0,0,0
COM7,0507,12-Feb-19,2019-02-12 10:00:00,0.45628333333333,0.45271666666667,0.42,0.40705,0.3859,0.3381,0.34673333333333,4.8,0,0,0,0,0,0,0,0,0,0,0,0,0,0,0,0,0,0,0,0,0,0,0,0,0,0,0,0,0,0,0,0,0,0,0,0,0,0,0,0,0,0
COM7,0507,12-Feb-19,2019-02-12 11:00:00,0.49738333333333,0.4323,0.40926666666667,0.40308333333333,0.39805,0.379,0.40095,4.5283333333333,0,0,0,0,0,0,0,0,0,0,0,0,0,0,0,0,0,0,0,0,0,0,0,0,0,0,0,0,0,0,0,0,0,0,0,0,0,0,0,0,0,0
COM7,0507,12-Feb-19,2019-02-12 12:00:00,0.9513,0.87378333333333,0.83526666666667,0.82576666666667,0.81313333333333,0.80741666666667,0.83966666666667,4.9,0,0,0,0,0,0,0,0,0,0,0,0,0,0,0,0,0,0,0,0,0,0,0,0,0,0,0,0,0,0,0,0,0,0,0,0,0,0,0,0,0,0
COM7,0507,12-Feb-19,2019-02-12 13:00:00,1.2502333333333,1.2474333333333,1.1853333333333,1.1653333333333,1.1439333333333,1.1257166666667,1.1683333333333,4.9,0,0,0,0,0,0,0,0,0,0,0,0,0,0,0,0,0,0,0,0,0,0,0,0,0,0,0,0,0,0,0,0,0,0,0,0,0,0,0,0,0,0
COM7,0507,12-Feb-19,2019-02-12 14:00:00,0.78355,0.77401666666667,0.73738333333333,0.72573333333333,0.71576666666667,0.69505,0.72651666666667,4.87,0,0,0,0,0,0,0,0,0,0,0,0,0,0,0,0,0,0,0,0,0,0,0,0,0,0,0,0,0,0,0,0,0,0,0,0,0,0,0,0,0,0
COM7,0507,12-Feb-19,2019-02-12 15:00:00,0.66525,0.63923333333333,0.6068,0.59291666666667,0.58145,0.54438333333333,0.56796666666667,4.8,0,0,0,0,0,0,0,0,0,0,0,0,0,0,0,0,0,0,0,0,0,0,0,0,0,0,0,0,0,0,0,0,0,0,0,0,0,0,0,0,0,0
COM7,0507,12-Feb-19,2019-02-12 16:00:00,0.15768333333333,0.16271666666667,0.1551,0.15103333333333,0.14173333333333,0.14383333333333,0.14365,4.8,0,0,0,0,0,0,0,0,0,0,0,0,0,0,0,0,0,0,0,0,0,0,0,0,0,0,0,0,0,0,0,0,0,0,0,0,0,0,0,0,0,0
COM7,0507,12-Feb-19,2019-02-12 17:00:00,1.4075666666667,1.4814833333333,1.4176333333333,1.4302666666667,1.3584833333333,1.3847666666667,1.384,4.8733333333333,0,0,0,0,0,0,0,0,0,0,0,0,0,0,0,0,0,0,0,0,0,0,0,0,0,0,0,0,0,0,0,0,0,0,0,0,0,0,0,0,0,0
COM7,0507,12-Feb-19,2019-02-12 18:00:00,3.3707833333333,2.5737833333333,2.3796666666667,2.3571333333333,2.2555666666667,2.22025,2.24895,4.9,0,0,0,0,0,0,0,0,0,0,0,0,0,0,0,0,0,0,0,0,0,0,0,0,0,0,0,0,0,0,0,0,0,0,0,0,0,0,0,0,0,0
COM7,0507,12-Feb-19,2019-02-12 19:00:00,0.6797,0.57585,0.5149,0.48726666666667,0.4413,0.41666666666667,0.4135,4.9,0,0,0,0,0,0,0,0,0,0,0,0,0,0,0,0,0,0,0,0,0,0,0,0,0,0,0,0,0,0,0,0,0,0,0,0,0,0,0,0,0,0
COM7,0507,12-Feb-19,2019-02-12 20:00:00,1.21315,1.01975,0.93036666666667,0.89486666666667,0.83373333333333,0.777,0.78065,4.9,0,0,0,0,0,0,0,0,0,0,0,0,0,0,0,0,0,0,0,0,0,0,0,0,0,0,0,0,0,0,0,0,0,0,0,0,0,0,0,0,0,0
COM7,0507,12-Feb-19,2019-02-12 21:00:00,2.3467666666667,1.8350333333333,1.6616833333333,1.5961333333333,1.4824833333333,1.3596833333333,1.3720833333333,4.81,0,0,0,0,0,0,0,0,0,0,0,0,0,0,0,0,0,0,0,0,0,0,0,0,0,0,0,0,0,0,0,0,0,0,0,0,0,0,0,0,0,0
COM7,0507,12-Feb-19,2019-02-12 22:00:00,2.5759166666667,1.8855166666667,1.6758,1.5876333333333,1.4599666666667,1.3118,1.32005,4.8,0,0,0,0,0,0,0,0,0,0,0,0,0,0,0,0,0,0,0,0,0,0,0,0,0,0,0,0,0,0,0,0,0,0,0,0,0,0,0,0,0,0
COM7,0507,12-Feb-19,2019-02-12 23:00:00,1.6849333333333,1.33665,1.1916166666667,1.1308833333333,1.0352333333333,0.92705,0.93386666666667,4.8,0,0,0,0,0,0,0,0,0,0,0,0,0,0,0,0,0,0,0,0,0,0,0,0,0,0,0,0,0,0,0,0,0,0,0,0,0,0,0,0,0,0
