COM8,507,31-Aug-19,2019-08-31 00:00:00,0.38218644067797,0.36938983050846996,0.3485593220339,0.3431694915254199,0.32961016949153005,0.31403389830508,0.32291525423729,5.0118644067797
COM8,507,31-Aug-19,2019-08-31 01:00:00,0.43175,0.42005,0.39838333333333,0.39441666666666997,0.37945,0.36663333333333,0.37645,5.0
COM8,507,31-Aug-19,2019-08-31 02:00:00,0.47895,0.46586666666667,0.44285,0.43955,0.42421666666667,0.409,0.42065,5.0
COM8,507,31-Aug-19,2019-08-31 03:00:00,0.49123333333333,0.46916666666667,0.44441666666667,0.44071666666667,0.42238333333333,0.40531666666667,0.41691666666667,5.0
COM8,507,31-Aug-19,2019-08-31 04:00:00,0.45238333333333003,0.426,0.4023,0.39518333333333,0.3793,0.36401666666667,0.37425,5.0
COM8,507,31-Aug-19,2019-08-31 05:00:00,0.5392,0.5067,0.47831666666667,0.47116666666667,0.45068333333333,0.43206666666667,0.44485,5.0
COM8,507,31-Aug-19,2019-08-31 06:00:00,0.90826666666667,0.841,0.78703333333333,0.77043333333333,0.73458333333333,0.70121666666667,0.72173333333333,5.0
COM8,507,31-Aug-19,2019-08-31 07:00:00,0.83053333333333,0.77706666666667,0.73218333333333,0.72558333333333,0.69593333333333,0.67096666666667,0.69105,5.0
COM8,507,31-Aug-19,2019-08-31 08:00:00,0.8408,0.8170333333333301,0.78138333333333,0.78415,0.76041666666667,0.745,0.76885,5.0
COM8,507,31-Aug-19,2019-08-31 09:00:00,0.79316666666667,0.7342,0.68738333333333,0.67703333333333,0.64495,0.6132666666666701,0.6319666666666701,5.0
COM8,507,31-Aug-19,2019-08-31 10:00:00,0.7873,0.72743333333333,0.6814,0.67106666666667,0.63995,0.6068833333333299,0.6239166666666701,5.0
COM8,507,31-Aug-19,2019-08-31 11:00:00,0.54271666666667,0.48526666666667,0.44745,0.43653333333333,0.40923333333333,0.37618333333333,0.3866,5.0
COM8,507,31-Aug-19,2019-08-31 12:00:00,0.32193333333333,0.2825,0.25871666666667004,0.24848333333332998,0.23308333333332998,0.2135,0.2192,5.0
COM8,507,31-Aug-19,2019-08-31 13:00:00,0.23275,0.18755,0.17093333333332997,0.16808333333332998,0.15921666666667,0.14648333333333,0.15401666666667002,4.705
COM8,507,31-Aug-19,2019-08-31 14:00:00,0.22353333333332998,0.1634,0.15488333333333,0.151,0.14688333333332998,0.14196666666667002,0.14581666666667,5.1
COM8,507,31-Aug-19,2019-08-31 15:00:00,0.18423333333332997,0.17611666666667003,0.16561666666667002,0.16271666666667,0.15608333333333,0.15086666666667,0.15456666666667002,5.1
COM8,507,31-Aug-19,2019-08-31 16:00:00,0.1896,0.18283333333332996,0.17208333333332998,0.16883333333332998,0.16246666666667,0.15741666666667,0.16141666666667,5.1
COM8,507,31-Aug-19,2019-08-31 17:00:00,0.40443333333333,0.40206666666667,0.3814,0.376,0.36291666666667,0.34935,0.35663333333333,5.1
COM8,507,31-Aug-19,2019-08-31 18:00:00,1.0182333333333,1.0062166666666998,0.94896666666667,0.92736666666667,0.88391666666667,0.82891666666667,0.84461666666667,5.1
COM8,507,31-Aug-19,2019-08-31 19:00:00,0.4707,0.43125,0.4021,0.38856666666667,0.36833333333333,0.34495,0.35151666666667,5.1
COM8,507,31-Aug-19,2019-08-31 20:00:00,0.89521666666667,0.83756666666667,0.78643333333333,0.76705,0.73156666666667,0.69468333333333,0.71013333333333,5.1
COM8,507,31-Aug-19,2019-08-31 21:00:00,0.63225,0.5964833333333299,0.56431666666667,0.55595,0.53358333333333,0.51401666666667,0.52621666666667,5.1
COM8,507,31-Aug-19,2019-08-31 22:00:00,1.1859333333333,1.0555833333333,0.98553333333333,0.96131666666667,0.91545,0.86858333333333,0.88951666666667,5.1
COM8,507,31-Aug-19,2019-08-31 23:00:00,0.5970666666666701,0.5409,0.5065,0.49435,0.4704,0.44503333333333,0.45576666666667,5.1
