COM8,507,05-Oct-19,2019-10-05 00:00:00,0.12732203389830998,0.10513559322034,0.09615254237288098,0.09210169491525401,0.08696610169491499,0.081966101694915,0.084220338983051,5.196610169491501
COM8,507,05-Oct-19,2019-10-05 01:00:00,0.10513333333333001,0.08723333333333298,0.07983333333333299,0.0764,0.073,0.067633333333333,0.07065,5.1983333333332995
COM8,507,05-Oct-19,2019-10-05 02:00:00,0.10853333333333001,0.094866666666667,0.08776666666666702,0.08458333333333298,0.0815,0.077616666666667,0.07925,5.165
COM8,507,05-Oct-19,2019-10-05 03:00:00,0.08388333333333299,0.07265,0.06686666666666699,0.064666666666667,0.06115,0.05758333333333301,0.05966666666666699,5.1016666666667
COM8,507,05-Oct-19,2019-10-05 04:00:00,0.051883333333333004,0.0446,0.04135,0.04035,0.038583333333333,0.035766666666667,0.036966666666667,5.1
COM8,507,05-Oct-19,2019-10-05 05:00:00,0.047966666666667,0.04325,0.040566666666667,0.039533333333333,0.038316666666667,0.036883333333333,0.037816666666667,5.1016666666667
COM8,507,05-Oct-19,2019-10-05 06:00:00,0.12688333333333002,0.11261666666667,0.10355,0.1004,0.095016666666667,0.090266666666667,0.09195,5.1
COM8,507,05-Oct-19,2019-10-05 07:00:00,0.19175,0.17751666666667004,0.16511666666667002,0.16051666666667003,0.15311666666667,0.14656666666667,0.15006666666667,5.1
COM8,507,05-Oct-19,2019-10-05 08:00:00,0.15116666666667,0.14858333333333,0.14068333333333,0.1382,0.1333,0.13218333333333002,0.1354,5.1
COM8,507,05-Oct-19,2019-10-05 09:00:00,0.1077,0.10515,0.0986,0.0984,0.092366666666667,0.0912,0.09215,5.1116666666667
COM8,507,05-Oct-19,2019-10-05 10:00:00,0.12183333333333,0.11581666666667,0.10956666666666999,0.10793333333333001,0.10191666666667,0.10071666666667,0.1005,5.1
COM8,507,05-Oct-19,2019-10-05 11:00:00,0.29111666666667,0.25255,0.23031666666667003,0.22361666666667004,0.2104,0.2022,0.20546666666667004,5.1
COM8,507,05-Oct-19,2019-10-05 12:00:00,0.16933333333332998,0.15361666666667,0.14181666666667,0.13765,0.13075,0.12418333333333001,0.12696666666667,5.1
COM8,507,05-Oct-19,2019-10-05 13:00:00,0.0912,0.07326666666666701,0.068166666666667,0.06755,0.06575,0.06115,0.06545,4.7783333333333
COM8,507,05-Oct-19,2019-10-05 14:00:00,0.14725,0.075666666666667,0.072416666666667,0.07178333333333299,0.07161666666666701,0.071,0.07443333333333299,5.2
COM8,507,05-Oct-19,2019-10-05 15:00:00,0.1215,0.0873,0.08321666666666701,0.0828,0.080883333333333,0.081366666666667,0.083833333333333,5.2
COM8,507,05-Oct-19,2019-10-05 16:00:00,0.088333333333333,0.0952,0.090733333333333,0.08913333333333301,0.0859,0.08375,0.08653333333333299,5.185
COM8,507,05-Oct-19,2019-10-05 17:00:00,0.25883333333333,0.25525,0.24018333333332997,0.23586666666667003,0.22815,0.2237,0.2289,5.1166666666667
COM8,507,05-Oct-19,2019-10-05 18:00:00,0.41041666666667,0.35046666666667,0.32165,0.31015,0.29468333333333,0.2792,0.2867,5.1
COM8,507,05-Oct-19,2019-10-05 19:00:00,0.94601666666667,0.6484666666666701,0.563,0.52126666666667,0.48123333333333,0.4381,0.44578333333333,5.1
COM8,507,05-Oct-19,2019-10-05 20:00:00,3.0080666666667004,2.9086333333332997,2.7977333333332997,2.7913833333333,2.6999,2.5834166666667002,2.6432333333332996,5.1
COM8,507,05-Oct-19,2019-10-05 21:00:00,1.0325666666667,0.71255,0.6228833333333299,0.5814833333333299,0.53846666666667,0.49206666666667,0.50431666666667,5.1
COM8,507,05-Oct-19,2019-10-05 22:00:00,0.53886666666667,0.47646666666667,0.43866666666667,0.42253333333333,0.39658333333333,0.36515,0.37446666666667,5.1
COM8,507,05-Oct-19,2019-10-05 23:00:00,0.495,0.44616666666667,0.41268333333333,0.39978333333333,0.37576666666666997,0.34996666666667,0.35838333333333,5.1
