COM8,507,22-Oct-19,2019-10-22 00:00:00,0.15501694915254,0.17389830508475,0.16683050847458,0.16789830508474998,0.15908474576271,0.15171186440678,0.15559322033898002,5.1
COM8,507,22-Oct-19,2019-10-22 01:00:00,0.17386666666667003,0.17876666666667004,0.16993333333332997,0.1688,0.16166666666667,0.15421666666667003,0.15943333333332999,5.1
COM8,507,22-Oct-19,2019-10-22 02:00:00,0.17318333333332997,0.1686,0.15855,0.15591666666667,0.1489,0.142,0.1457,5.1
COM8,507,22-Oct-19,2019-10-22 03:00:00,0.24753333333332997,0.2064,0.18818333333332996,0.18273333333332997,0.17228333333332996,0.16101666666667,0.16538333333333,5.1
COM8,507,22-Oct-19,2019-10-22 04:00:00,0.21345,0.20591666666667002,0.1939,0.19116666666667004,0.18233333333332996,0.17361666666667003,0.17813333333332998,5.1
COM8,507,22-Oct-19,2019-10-22 05:00:00,0.2387,0.2235,0.20845,0.20566666666667002,0.19535,0.18353333333332997,0.1885,5.1
COM8,507,22-Oct-19,2019-10-22 06:00:00,0.35876666666667,0.3204,0.29796666666667,0.29326666666667,0.27923333333333,0.26603333333332996,0.27381666666667004,5.1
COM8,507,22-Oct-19,2019-10-22 07:00:00,1.0553333333333001,0.92731666666667,0.8603,0.84506666666667,0.80473333333333,0.76681666666667,0.7898166666666699,5.1
COM8,507,22-Oct-19,2019-10-22 08:00:00,2.4966666666667003,2.41085,2.2798833333333,2.2525,2.1823166666666998,2.1454833333333,2.2112833333333,4.8316666666667
COM8,507,22-Oct-19,2019-10-22 09:00:00,1.6835833333333001,1.6473,1.5728833333333,1.5634166666667,1.5199,1.50435,1.5509666666667,5.2
COM8,507,22-Oct-19,2019-10-22 10:00:00,0.54505,0.5357833333333301,0.51173333333333,0.50851666666667,0.4936,0.48233333333333,0.49878333333333,5.2
COM8,507,22-Oct-19,2019-10-22 11:00:00,0.37316666666667,0.36738333333333,0.34966666666667,0.34658333333333,0.33621666666667,0.32916666666667,0.34036666666667,5.2
COM8,507,22-Oct-19,2019-10-22 12:00:00,0.29608333333333,0.28661666666667,0.27088333333333,0.2695,0.26051666666667,0.25413333333333,0.26321666666667004,5.1983333333332995
COM8,507,22-Oct-19,2019-10-22 13:00:00,0.2962,0.28541666666667,0.27123333333333,0.26826666666667004,0.26086666666667,0.25486666666667,0.26303333333332996,5.1083333333333
COM8,507,22-Oct-19,2019-10-22 14:00:00,0.46555,0.4528,0.43136666666667,0.42845,0.41573333333333,0.40603333333333,0.42115,5.1
COM8,507,22-Oct-19,2019-10-22 15:00:00,0.66996666666667,0.6393166666666701,0.6042666666666701,0.59923333333333,0.57915,0.56911666666667,0.5885333333333299,5.1
COM8,507,22-Oct-19,2019-10-22 16:00:00,0.76143333333333,0.67661666666667,0.6306,0.6205,0.5941166666666701,0.5753333333333299,0.5949166666666701,5.1
COM8,507,22-Oct-19,2019-10-22 17:00:00,1.4755666666667,1.2094,1.10395,1.0556,0.98708333333333,0.91768333333333,0.94243333333333,5.1
COM8,507,22-Oct-19,2019-10-22 18:00:00,1.1558666666667,0.98366666666667,0.90145,0.87421666666667,0.82415,0.77431666666667,0.79595,5.1
COM8,507,22-Oct-19,2019-10-22 19:00:00,1.2929833333333,1.0006333333333,0.9007166666666699,0.8654166666666699,0.81018333333333,0.75621666666667,0.77713333333333,5.1
COM8,507,22-Oct-19,2019-10-22 20:00:00,1.0814666666666999,0.74255,0.65091666666667,0.6197,0.57326666666667,0.52933333333333,0.5441,5.1
COM8,507,22-Oct-19,2019-10-22 21:00:00,0.6437333333333299,0.48758333333333,0.43758333333333,0.42196666666667,0.39285,0.36966666666667,0.37935,5.1
COM8,507,22-Oct-19,2019-10-22 22:00:00,0.56983333333333,0.43351666666667,0.38788333333333,0.36873333333333,0.34338333333333,0.32181666666666997,0.33005,5.1
COM8,507,22-Oct-19,2019-10-22 23:00:00,0.51746666666667,0.47536666666667,0.44051666666667,0.43256666666667,0.40851666666666997,0.39001666666667,0.40206666666667,5.1
