COM8,507,05-May-19,2019-05-05 00:00:00,1.0011525423729002,0.7383220338983101,0.66016949152542,0.62028813559322,0.59233898305085,0.5829830508474599,0.60335593220339,4.8
COM8,507,05-May-19,2019-05-05 01:00:00,0.38881666666667,0.30463333333333,0.27101666666667,0.25451666666667006,0.23751666666667004,0.21843333333332998,0.2233,4.8
COM8,507,05-May-19,2019-05-05 02:00:00,0.38426666666667,0.29583333333333,0.26271666666667004,0.24491666666667003,0.22711666666667002,0.20578333333332996,0.20965,4.8
COM8,507,05-May-19,2019-05-05 03:00:00,0.41706666666666997,0.29308333333333003,0.25436666666667,0.23413333333332997,0.21461666666667004,0.18805,0.1901,4.8
COM8,507,05-May-19,2019-05-05 04:00:00,0.33528333333333,0.23731666666667003,0.20808333333332996,0.19323333333332998,0.17743333333332997,0.15553333333333,0.15776666666667002,4.8
COM8,507,05-May-19,2019-05-05 05:00:00,0.3813,0.26756666666667,0.23313333333332997,0.21565,0.19733333333332997,0.17323333333332996,0.17558333333332996,4.8
COM8,507,05-May-19,2019-05-05 06:00:00,0.28215,0.23495,0.21145,0.20195,0.19066666666667004,0.17176666666667004,0.17416666666667002,4.8
COM8,507,05-May-19,2019-05-05 07:00:00,0.22783333333332997,0.21296666666667002,0.19355,0.18831666666667002,0.17671666666667002,0.1611,0.16295,4.8
COM8,507,05-May-19,2019-05-05 08:00:00,0.29051666666667,0.25776666666667003,0.23456666666667003,0.22668333333332996,0.21095,0.19108333333332997,0.19211666666667004,4.8
COM8,507,05-May-19,2019-05-05 09:00:00,0.3097,0.27163333333332995,0.24726666666667002,0.24018333333332997,0.22303333333332998,0.20476666666667004,0.20633333333332995,4.7183333333333
COM8,507,05-May-19,2019-05-05 10:00:00,0.19888333333332997,0.18225,0.16733333333332998,0.16293333333333,0.15255,0.13771666666667,0.1381,4.7
COM8,507,05-May-19,2019-05-05 11:00:00,0.19793333333332996,0.18221666666667002,0.16718333333333,0.16336666666667002,0.15316666666667,0.13873333333333,0.14068333333333,4.7
COM8,507,05-May-19,2019-05-05 12:00:00,0.14341666666667002,0.1134,0.10488333333333001,0.10248333333333001,0.09811666666666699,0.08698333333333298,0.092483333333333,4.4466666666667
COM8,507,05-May-19,2019-05-05 13:00:00,0.20341666666667002,0.11663333333333001,0.11058333333333001,0.10751666666667,0.10405,0.10265,0.10551666666666999,4.9
COM8,507,05-May-19,2019-05-05 14:00:00,0.12998333333333,0.10463333333333001,0.09783333333333301,0.095283333333333,0.0904,0.08555,0.08718333333333299,4.9
COM8,507,05-May-19,2019-05-05 15:00:00,0.11796666666667,0.1108,0.1034,0.10048333333333001,0.097166666666667,0.092633333333333,0.0954,4.9
COM8,507,05-May-19,2019-05-05 16:00:00,0.2222,0.1823,0.16195,0.15103333333333,0.14055,0.1274,0.12856666666667,4.9
COM8,507,05-May-19,2019-05-05 17:00:00,0.15038333333332998,0.1548,0.14541666666667002,0.14081666666667,0.1351,0.13568333333333,0.1402,4.9
COM8,507,05-May-19,2019-05-05 18:00:00,0.096133333333333,0.08938333333333301,0.08388333333333299,0.0805,0.07705,0.06955,0.070583333333333,4.9
COM8,507,05-May-19,2019-05-05 19:00:00,0.094883333333333,0.083866666666667,0.07775,0.07555,0.07253333333333299,0.0699,0.072333333333333,4.9
COM8,507,05-May-19,2019-05-05 20:00:00,0.11291666666667,0.10335,0.09665,0.09305,0.089933333333333,0.08665,0.08900000000000001,4.9
COM8,507,05-May-19,2019-05-05 21:00:00,0.20628333333332996,0.18378333333332997,0.17126666666667004,0.16655,0.16063333333333,0.15855,0.16276666666667,4.9
COM8,507,05-May-19,2019-05-05 22:00:00,0.21375,0.19368333333332996,0.18121666666667002,0.17728333333332996,0.17013333333332997,0.16303333333332998,0.16695,4.9
COM8,507,05-May-19,2019-05-05 23:00:00,0.14453333333333,0.11898333333333,0.10913333333333,0.10471666666667,0.09908333333333301,0.092333333333333,0.09381666666666699,4.9
