COM8,507,26-Nov-19,2019-11-26 00:00:00,0.20211864406779997,0.17830508474576,0.16522033898305,0.16016949152542,0.15240677966101998,0.14422033898304998,0.14676271186441,5.1
COM8,507,26-Nov-19,2019-11-26 01:00:00,0.1933,0.1704,0.15735,0.15303333333333,0.14568333333332997,0.13755,0.1408,5.1
COM8,507,26-Nov-19,2019-11-26 02:00:00,0.18465,0.16436666666667002,0.15261666666667,0.1482,0.14088333333332997,0.1338,0.13605,5.1
COM8,507,26-Nov-19,2019-11-26 03:00:00,0.16251666666667,0.14455,0.13378333333333,0.12938333333333,0.1238,0.11696666666667,0.11866666666667,5.1
COM8,507,26-Nov-19,2019-11-26 04:00:00,0.21921666666667003,0.19413333333332997,0.17893333333332997,0.1741,0.1655,0.15673333333332998,0.16083333333333,5.1
COM8,507,26-Nov-19,2019-11-26 05:00:00,0.20246666666667004,0.18315,0.17045,0.16621666666667,0.15853333333332997,0.15096666666667002,0.15385,5.1
COM8,507,26-Nov-19,2019-11-26 06:00:00,0.33453333333333,0.31241666666667,0.2935,0.28753333333333003,0.27663333333333,0.2649,0.27061666666667006,5.1
COM8,507,26-Nov-19,2019-11-26 07:00:00,0.4513,0.40433333333333,0.3768,0.36838333333333,0.35221666666667,0.33428333333333,0.34166666666667,5.1
COM8,507,26-Nov-19,2019-11-26 08:00:00,0.89811666666667,0.77213333333333,0.71611666666667,0.6948,0.6621666666666701,0.62848333333333,0.6413666666666701,5.1
COM8,507,26-Nov-19,2019-11-26 09:00:00,0.6067166666666701,0.6138833333333299,0.58525,0.5770000000000001,0.5570833333333299,0.54058333333333,0.55526666666667,5.1
COM8,507,26-Nov-19,2019-11-26 10:00:00,0.82673333333333,0.85053333333333,0.81351666666667,0.80705,0.78331666666667,0.76516666666667,0.78675,5.085
COM8,507,26-Nov-19,2019-11-26 11:00:00,0.5273,0.54771666666667,0.52555,0.5216666666666699,0.5055,0.49296666666667,0.50671666666667,5.0
COM8,507,26-Nov-19,2019-11-26 12:00:00,0.53605,0.54138333333333,0.51753333333333,0.5132,0.50053333333333,0.48700000000000004,0.50425,4.675
COM8,507,26-Nov-19,2019-11-26 13:00:00,0.41768333333333,0.3461,0.33308333333333,0.33095,0.32326666666667,0.31645,0.32656666666667,5.1
COM8,507,26-Nov-19,2019-11-26 14:00:00,0.32583333333333003,0.27813333333333,0.26635,0.26381666666667003,0.2547,0.24896666666667003,0.25478333333333,5.1
COM8,507,26-Nov-19,2019-11-26 15:00:00,0.28715,0.28661666666667,0.2727,0.27016666666667005,0.2619,0.25596666666667,0.26283333333333,5.1
COM8,507,26-Nov-19,2019-11-26 16:00:00,0.25953333333332995,0.26578333333333,0.25276666666667,0.24985,0.24246666666667002,0.23856666666667004,0.24455,5.1
COM8,507,26-Nov-19,2019-11-26 17:00:00,0.36783333333333,0.32636666666666997,0.30276666666667,0.29458333333333003,0.28121666666667,0.26943333333332997,0.27523333333333,5.1
COM8,507,26-Nov-19,2019-11-26 18:00:00,0.31325,0.29821666666667,0.28031666666667,0.27483333333333,0.26273333333333,0.24983333333332997,0.25526666666667003,5.1
COM8,507,26-Nov-19,2019-11-26 19:00:00,2.1172,1.1678666666667,0.96376666666667,0.85781666666667,0.7603,0.6307333333333299,0.6312,5.1
COM8,507,26-Nov-19,2019-11-26 20:00:00,1.2116333333333,0.88848333333333,0.77053333333333,0.69228333333333,0.6194833333333299,0.52586666666667,0.52935,5.1
COM8,507,26-Nov-19,2019-11-26 21:00:00,0.63555,0.44265,0.3731,0.31468333333333,0.26788333333333,0.20905,0.20773333333332997,5.0083333333333
COM8,507,26-Nov-19,2019-11-26 22:00:00,0.026783333333332996,0.15606666666667002,0.15243333333332998,0.13888333333333,0.12426666666667,0.10851666666667,0.11121666666666999,5.0
COM8,507,26-Nov-19,2019-11-26 23:00:00,-0.06896666666666701,0.041783333333333,0.04675,0.044583333333333,0.040933333333333,0.0391,0.03955,5.0
