COM8,507,09-Jun-19,2019-06-09 00:00:00,0.23035593220339,0.19766101694915,0.17716949152542003,0.16364406779660998,0.14961016949153,0.13418644067797,0.13761016949153002,4.9
COM8,507,09-Jun-19,2019-06-09 01:00:00,0.24903333333332997,0.20676666666667004,0.18416666666667003,0.1731,0.16021666666667,0.14555,0.14881666666667,4.9
COM8,507,09-Jun-19,2019-06-09 02:00:00,0.40905,0.22993333333332996,0.19436666666667002,0.17441666666667002,0.15573333333332998,0.13658333333333,0.13886666666667002,4.9
COM8,507,09-Jun-19,2019-06-09 03:00:00,0.11383333333333001,0.1194,0.1085,0.10041666666667,0.092383333333333,0.08213333333333299,0.08453333333333299,4.9
COM8,507,09-Jun-19,2019-06-09 04:00:00,0.03615,0.065283333333333,0.059233333333333006,0.058166666666667,0.054466666666666996,0.05065,0.051233333333333006,4.9
COM8,507,09-Jun-19,2019-06-09 05:00:00,0.053066666666667,0.067183333333333,0.060916666666666994,0.059633333333333004,0.0561,0.051433333333333005,0.052833333333333,4.9
COM8,507,09-Jun-19,2019-06-09 06:00:00,0.06835,0.08298333333333299,0.07555,0.07585,0.0708,0.065816666666667,0.06745,4.9
COM8,507,09-Jun-19,2019-06-09 07:00:00,0.16123333333332998,0.14575,0.12678333333333,0.12048333333333,0.11241666666667,0.10625,0.10816666666666999,4.9
COM8,507,09-Jun-19,2019-06-09 08:00:00,0.31648333333333,0.25828333333333,0.22821666666667004,0.21853333333332997,0.20725,0.20973333333332997,0.21805,4.9
COM8,507,09-Jun-19,2019-06-09 09:00:00,0.09693333333333301,0.097766666666667,0.08748333333333298,0.08638333333333298,0.080583333333333,0.078,0.0789,4.9
COM8,507,09-Jun-19,2019-06-09 10:00:00,0.10556666666667,0.10465,0.09495,0.094266666666667,0.088783333333333,0.08771666666666701,0.0896,4.9
COM8,507,09-Jun-19,2019-06-09 11:00:00,0.16491666666667001,0.14906666666667,0.1344,0.13106666666667,0.12581666666667,0.12726666666667,0.13281666666667,4.9
COM8,507,09-Jun-19,2019-06-09 12:00:00,0.1741,0.15066666666667,0.1373,0.134,0.12963333333333,0.13485,0.13921666666667,4.9
COM8,507,09-Jun-19,2019-06-09 13:00:00,0.14408333333332998,0.12678333333333,0.11485,0.113,0.10715,0.10341666666667,0.10581666666667,4.9
COM8,507,09-Jun-19,2019-06-09 14:00:00,0.3166,0.28558333333333,0.26325,0.25625,0.24241666666667003,0.22296666666667003,0.22861666666667002,4.9
COM8,507,09-Jun-19,2019-06-09 15:00:00,0.24551666666667002,0.20911666666667003,0.19196666666667003,0.1868,0.17603333333332996,0.16185,0.16596666666667,4.8533333333333
COM8,507,09-Jun-19,2019-06-09 16:00:00,0.16248333333332998,0.14471666666667002,0.13291666666666999,0.12965,0.12211666666667,0.11223333333333001,0.11486666666666999,4.8
COM8,507,09-Jun-19,2019-06-09 17:00:00,0.21025,0.19051666666667003,0.17655,0.17353333333332996,0.16415,0.15345,0.15736666666667,4.8
COM8,507,09-Jun-19,2019-06-09 18:00:00,0.16963333333332997,0.1418,0.12905,0.12475,0.11856666666667,0.11128333333333,0.11326666666667,4.8
COM8,507,09-Jun-19,2019-06-09 19:00:00,0.22766666666667004,0.16215,0.1492,0.14433333333332998,0.13981666666667,0.13321666666667,0.14145,4.58
COM8,507,09-Jun-19,2019-06-09 20:00:00,0.44876666666667,0.30463333333333,0.27591666666667,0.26193333333332997,0.2469,0.23523333333332996,0.24056666666667004,5.0
COM8,507,09-Jun-19,2019-06-09 21:00:00,1.29375,0.94123333333333,0.83936666666667,0.79308333333333,0.74403333333333,0.69268333333333,0.70553333333333,5.0
COM8,507,09-Jun-19,2019-06-09 22:00:00,0.8855,0.58825,0.5058,0.46473333333333,0.42651666666667,0.38611666666667,0.39143333333333,4.955
COM8,507,09-Jun-19,2019-06-09 23:00:00,0.17363333333332998,0.1838,0.17075,0.16266666666667,0.15125,0.13711666666667,0.14005,4.9
