COM7,507,01-Mar-19,2019-03-01 00:00:00,0.75810344827586,0.69989655172414,0.65334482758621,0.6348275862069,0.599,0.56268965517241,0.57481034482759,4.9,0,0,0,0,0,0,0,0,0,0,0,0,0,0,0,0,0,0,0,0,0,0,0,0,0,0,0,0,0,0,0,0,0,0,0,0,0,0,0,0,0,0
COM7,507,01-Mar-19,2019-03-01 01:00:00,0.45226666666667,0.3731,0.34316666666667,0.33086666666667,0.31055,0.28756666666667,0.2928,4.9,0,0,0,0,0,0,0,0,0,0,0,0,0,0,0,0,0,0,0,0,0,0,0,0,0,0,0,0,0,0,0,0,0,0,0,0,0,0,0,0,0,0
COM7,507,01-Mar-19,2019-03-01 02:00:00,0.56311666666667,0.53488333333333,0.50446666666667,0.49378333333333,0.46658333333333,0.4372,0.44555,4.9,0,0,0,0,0,0,0,0,0,0,0,0,0,0,0,0,0,0,0,0,0,0,0,0,0,0,0,0,0,0,0,0,0,0,0,0,0,0,0,0,0,0
COM7,507,01-Mar-19,2019-03-01 03:00:00,0.19325,0.19233333333333,0.18361666666667,0.17981666666667,0.17011666666667,0.15786666666667,0.16096666666667,4.9,0,0,0,0,0,0,0,0,0,0,0,0,0,0,0,0,0,0,0,0,0,0,0,0,0,0,0,0,0,0,0,0,0,0,0,0,0,0,0,0,0,0
COM7,507,01-Mar-19,2019-03-01 04:00:00,0.12985,0.13526666666667,0.13021666666667,0.12878333333333,0.12168333333333,0.11333333333333,0.11545,4.9,0,0,0,0,0,0,0,0,0,0,0,0,0,0,0,0,0,0,0,0,0,0,0,0,0,0,0,0,0,0,0,0,0,0,0,0,0,0,0,0,0,0
COM7,507,01-Mar-19,2019-03-01 05:00:00,0.14155,0.13968333333333,0.13323333333333,0.13021666666667,0.1236,0.11341666666667,0.11553333333333,4.9,0,0,0,0,0,0,0,0,0,0,0,0,0,0,0,0,0,0,0,0,0,0,0,0,0,0,0,0,0,0,0,0,0,0,0,0,0,0,0,0,0,0
COM7,507,01-Mar-19,2019-03-01 06:00:00,0.16431666666667,0.16033333333333,0.15221666666667,0.14963333333333,0.14126666666667,0.13163333333333,0.13381666666667,4.9,0,0,0,0,0,0,0,0,0,0,0,0,0,0,0,0,0,0,0,0,0,0,0,0,0,0,0,0,0,0,0,0,0,0,0,0,0,0,0,0,0,0
COM7,507,01-Mar-19,2019-03-01 07:00:00,0.2955,0.28328333333333,0.26593333333333,0.26146666666667,0.24455,0.22821666666667,0.23305,4.9,0,0,0,0,0,0,0,0,0,0,0,0,0,0,0,0,0,0,0,0,0,0,0,0,0,0,0,0,0,0,0,0,0,0,0,0,0,0,0,0,0,0
COM7,507,01-Mar-19,2019-03-01 08:00:00,1.2479166666667,1.2199,1.1605833333333,1.14435,1.0875,1.0294833333333,1.0512666666667,4.9,0,0,0,0,0,0,0,0,0,0,0,0,0,0,0,0,0,0,0,0,0,0,0,0,0,0,0,0,0,0,0,0,0,0,0,0,0,0,0,0,0,0
COM7,507,01-Mar-19,2019-03-01 09:00:00,0.67706666666667,0.66291666666667,0.62981666666667,0.62271666666667,0.586,0.5461,0.55776666666667,4.8983333333333,0,0,0,0,0,0,0,0,0,0,0,0,0,0,0,0,0,0,0,0,0,0,0,0,0,0,0,0,0,0,0,0,0,0,0,0,0,0,0,0,0,0
COM7,507,01-Mar-19,2019-03-01 10:00:00,0.41708333333333,0.40733333333333,0.38615,0.3796,0.35646666666667,0.32885,0.33446666666667,4.8133333333333,0,0,0,0,0,0,0,0,0,0,0,0,0,0,0,0,0,0,0,0,0,0,0,0,0,0,0,0,0,0,0,0,0,0,0,0,0,0,0,0,0,0
COM7,507,01-Mar-19,2019-03-01 11:00:00,0.42861666666667,0.4189,0.39766666666667,0.3932,0.36761666666667,0.34003333333333,0.34456666666667,4.8,0,0,0,0,0,0,0,0,0,0,0,0,0,0,0,0,0,0,0,0,0,0,0,0,0,0,0,0,0,0,0,0,0,0,0,0,0,0,0,0,0,0
COM7,507,01-Mar-19,2019-03-01 12:00:00,0.40961666666667,0.39683333333333,0.37718333333333,0.37088333333333,0.34608333333333,0.3191,0.32403333333333,4.8,0,0,0,0,0,0,0,0,0,0,0,0,0,0,0,0,0,0,0,0,0,0,0,0,0,0,0,0,0,0,0,0,0,0,0,0,0,0,0,0,0,0
COM7,507,01-Mar-19,2019-03-01 13:00:00,0.37456666666667,0.35628333333333,0.33601666666667,0.33101666666667,0.30768333333333,0.2834,0.28685,4.8,0,0,0,0,0,0,0,0,0,0,0,0,0,0,0,0,0,0,0,0,0,0,0,0,0,0,0,0,0,0,0,0,0,0,0,0,0,0,0,0,0,0
COM7,507,01-Mar-19,2019-03-01 14:00:00,0.37846666666667,0.33563333333333,0.31358333333333,0.30791666666667,0.28725,0.26331666666667,0.26858333333333,4.485,0,0,0,0,0,0,0,0,0,0,0,0,0,0,0,0,0,0,0,0,0,0,0,0,0,0,0,0,0,0,0,0,0,0,0,0,0,0,0,0,0,0
COM7,507,01-Mar-19,2019-03-01 15:00:00,0.29155,0.20325,0.19171666666667,0.1893,0.1864,0.18785,0.1952,4.9,0,0,0,0,0,0,0,0,0,0,0,0,0,0,0,0,0,0,0,0,0,0,0,0,0,0,0,0,0,0,0,0,0,0,0,0,0,0,0,0,0,0
COM7,507,01-Mar-19,2019-03-01 16:00:00,0.26745,0.19268333333333,0.18093333333333,0.17798333333333,0.17338333333333,0.17471666666667,0.1793,4.9,0,0,0,0,0,0,0,0,0,0,0,0,0,0,0,0,0,0,0,0,0,0,0,0,0,0,0,0,0,0,0,0,0,0,0,0,0,0,0,0,0,0
COM7,507,01-Mar-19,2019-03-01 17:00:00,0.4242,0.3866,0.36541666666667,0.36163333333333,0.35201666666667,0.3497,0.3604,4.9,0,0,0,0,0,0,0,0,0,0,0,0,0,0,0,0,0,0,0,0,0,0,0,0,0,0,0,0,0,0,0,0,0,0,0,0,0,0,0,0,0,0
COM7,507,01-Mar-19,2019-03-01 18:00:00,0.68221666666667,0.64846666666667,0.61303333333333,0.60431666666667,0.58688333333333,0.58486666666667,0.60245,4.9,0,0,0,0,0,0,0,0,0,0,0,0,0,0,0,0,0,0,0,0,0,0,0,0,0,0,0,0,0,0,0,0,0,0,0,0,0,0,0,0,0,0
COM7,507,01-Mar-19,2019-03-01 19:00:00,1.049,0.89888333333333,0.82955,0.8046,0.76693333333333,0.73695,0.75485,4.9,0,0,0,0,0,0,0,0,0,0,0,0,0,0,0,0,0,0,0,0,0,0,0,0,0,0,0,0,0,0,0,0,0,0,0,0,0,0,0,0,0,0
COM7,507,01-Mar-19,2019-03-01 20:00:00,1.2105166666667,1.0205,0.93046666666667,0.89653333333333,0.84676666666667,0.79875,0.8154,4.9,0,0,0,0,0,0,0,0,0,0,0,0,0,0,0,0,0,0,0,0,0,0,0,0,0,0,0,0,0,0,0,0,0,0,0,0,0,0,0,0,0,0
COM7,507,01-Mar-19,2019-03-01 21:00:00,0.81933333333333,0.71376666666667,0.66033333333333,0.64011666666667,0.60598333333333,0.56933333333333,0.58148333333333,4.88,0,0,0,0,0,0,0,0,0,0,0,0,0,0,0,0,0,0,0,0,0,0,0,0,0,0,0,0,0,0,0,0,0,0,0,0,0,0,0,0,0,0
COM7,507,01-Mar-19,2019-03-01 22:00:00,0.62023333333333,0.58676666666667,0.54905,0.53663333333333,0.50745,0.47771666666667,0.48755,4.8,0,0,0,0,0,0,0,0,0,0,0,0,0,0,0,0,0,0,0,0,0,0,0,0,0,0,0,0,0,0,0,0,0,0,0,0,0,0,0,0,0,0
COM7,507,01-Mar-19,2019-03-01 23:00:00,0.6121,0.56785,0.53268333333333,0.51973333333333,0.49295,0.46378333333333,0.47321666666667,4.8,0,0,0,0,0,0,0,0,0,0,0,0,0,0,0,0,0,0,0,0,0,0,0,0,0,0,0,0,0,0,0,0,0,0,0,0,0,0,0,0,0,0
