COM8,507,30-Dec-19,2019-12-30 00:00:00,0.30906779661017,0.28476271186441,0.25584745762711997,0.24223728813559,0.22535593220339,0.20438983050847,0.20786440677965998,5.1
COM8,507,30-Dec-19,2019-12-30 01:00:00,0.39403333333333,0.35475,0.32425,0.31186666666667,0.29385,0.27231666666667004,0.27841666666667,5.1
COM8,507,30-Dec-19,2019-12-30 02:00:00,0.401,0.33783333333333,0.30686666666667,0.29401666666667,0.2759,0.2549,0.25978333333333,5.1
COM8,507,30-Dec-19,2019-12-30 03:00:00,0.38086666666667,0.32138333333333,0.2937,0.28115,0.26401666666667,0.24386666666667003,0.24865,5.1
COM8,507,30-Dec-19,2019-12-30 04:00:00,0.23208333333332998,0.23163333333332997,0.21641666666667003,0.21141666666667003,0.19973333333332996,0.18883333333332997,0.19256666666667002,5.1
COM8,507,30-Dec-19,2019-12-30 05:00:00,0.2371,0.2129,0.19663333333332997,0.19036666666667004,0.17998333333332997,0.16768333333333,0.17188333333332997,5.1
COM8,507,30-Dec-19,2019-12-30 06:00:00,0.30308333333333,0.26558333333332995,0.2445,0.23735,0.22461666666667005,0.20968333333332997,0.21451666666667002,5.1
COM8,507,30-Dec-19,2019-12-30 07:00:00,0.3905,0.35381666666667,0.33215,0.32718333333333,0.31448333333333,0.30621666666666997,0.31573333333333,5.1
COM8,507,30-Dec-19,2019-12-30 08:00:00,0.40576666666667,0.36706666666667,0.34248333333333003,0.33561666666667,0.31955,0.3039,0.31135,5.1
COM8,507,30-Dec-19,2019-12-30 09:00:00,0.60833333333333,0.51871666666667,0.45518333333333,0.42421666666667,0.39275,0.36981666666667,0.38076666666667,5.1
COM8,507,30-Dec-19,2019-12-30 10:00:00,0.50586666666667,0.45875,0.41468333333333,0.39491666666666997,0.37116666666667,0.35145,0.3622,5.1
COM8,507,30-Dec-19,2019-12-30 11:00:00,0.6379666666666701,0.54848333333333,0.48866666666666997,0.46061666666667,0.43131666666667,0.40785,0.41873333333333,5.1
COM8,507,30-Dec-19,2019-12-30 12:00:00,0.584,0.50083333333333,0.44671666666667,0.4211,0.39458333333333,0.37263333333333,0.3837,5.0966666666667
COM8,507,30-Dec-19,2019-12-30 13:00:00,0.36081666666667,0.31135,0.28800000000000003,0.28013333333333,0.26798333333332996,0.25708333333332994,0.26828333333333,4.748333333333299
COM8,507,30-Dec-19,2019-12-30 14:00:00,0.46918333333333,0.40473333333333,0.39148333333333,0.38516666666667,0.37296666666667,0.37125,0.38236666666667,5.2
COM8,507,30-Dec-19,2019-12-30 15:00:00,0.6829999999999999,0.64586666666667,0.61235,0.6057833333333299,0.58483333333333,0.57088333333333,0.58521666666667,5.2
COM8,507,30-Dec-19,2019-12-30 16:00:00,1.0070666666666999,0.98321666666667,0.93516666666667,0.92635,0.89473333333333,0.86385,0.88518333333333,5.2
COM8,507,30-Dec-19,2019-12-30 17:00:00,1.2665166666667,1.1795333333333,1.1116333333333,1.0955333333333002,1.0540166666667,1.0155666666667,1.0405333333333,5.1983333333332995
COM8,507,30-Dec-19,2019-12-30 18:00:00,1.1021833333333,1.0400166666667,0.98126666666667,0.96913333333333,0.93131666666667,0.89916666666667,0.92326666666667,5.11
COM8,507,30-Dec-19,2019-12-30 19:00:00,0.93786666666667,0.84735,0.79593333333333,0.7825,0.74683333333333,0.70996666666667,0.72698333333333,5.1
COM8,507,30-Dec-19,2019-12-30 20:00:00,0.99806666666667,0.86475,0.80643333333333,0.78915,0.74993333333333,0.70655,0.72356666666667,5.1
COM8,507,30-Dec-19,2019-12-30 21:00:00,0.96416666666667,0.84755,0.79253333333333,0.77666666666667,0.73695,0.69388333333333,0.71111666666667,5.1
COM8,507,30-Dec-19,2019-12-30 22:00:00,1.2628833333333,1.1199333333333001,1.0537666666667,1.04105,0.99398333333333,0.95223333333333,0.98046666666667,5.1
COM8,507,30-Dec-19,2019-12-30 23:00:00,0.61228333333333,0.54618333333333,0.5122,0.50266666666667,0.47718333333333,0.4497,0.46153333333333,5.1
