COM7,0507,10-Jan-19,2019-01-10 00:00:00,0.45937288135593,0.40823728813559,0.36845762711864,0.34937288135593,0.32235593220339,0.29359322033898,0.29930508474576,4.9,0,0,0,0,0,0,0,0,0,0,0,0,0,0,0,0,0,0,0,0,0,0,0,0,0,0,0,0,0,0,0,0,0,0,0,0,0,0,0,0,0,0
COM7,0507,10-Jan-19,2019-01-10 01:00:00,0.43226666666667,0.38406666666667,0.35036666666667,0.33416666666667,0.31275,0.28838333333333,0.2957,4.9,0,0,0,0,0,0,0,0,0,0,0,0,0,0,0,0,0,0,0,0,0,0,0,0,0,0,0,0,0,0,0,0,0,0,0,0,0,0,0,0,0,0
COM7,0507,10-Jan-19,2019-01-10 02:00:00,0.55836666666667,0.43595,0.39303333333333,0.37608333333333,0.34966666666667,0.32403333333333,0.331,4.9,0,0,0,0,0,0,0,0,0,0,0,0,0,0,0,0,0,0,0,0,0,0,0,0,0,0,0,0,0,0,0,0,0,0,0,0,0,0,0,0,0,0
COM7,0507,10-Jan-19,2019-01-10 03:00:00,0.80998333333333,0.5366,0.47565,0.45055,0.41678333333333,0.38321666666667,0.3902,4.9,0,0,0,0,0,0,0,0,0,0,0,0,0,0,0,0,0,0,0,0,0,0,0,0,0,0,0,0,0,0,0,0,0,0,0,0,0,0,0,0,0,0
COM7,0507,10-Jan-19,2019-01-10 04:00:00,0.71853333333333,0.56766666666667,0.5163,0.49606666666667,0.46125,0.42998333333333,0.44033333333333,4.8416666666667,0,0,0,0,0,0,0,0,0,0,0,0,0,0,0,0,0,0,0,0,0,0,0,0,0,0,0,0,0,0,0,0,0,0,0,0,0,0,0,0,0,0
COM7,0507,10-Jan-19,2019-01-10 05:00:00,0.24263333333333,0.2742,0.25436666666667,0.24145,0.22376666666667,0.20673333333333,0.21066666666667,4.8,0,0,0,0,0,0,0,0,0,0,0,0,0,0,0,0,0,0,0,0,0,0,0,0,0,0,0,0,0,0,0,0,0,0,0,0,0,0,0,0,0,0
COM7,0507,10-Jan-19,2019-01-10 06:00:00,0.51321666666667,0.4707,0.42973333333333,0.40793333333333,0.37595,0.34331666666667,0.35085,4.8,0,0,0,0,0,0,0,0,0,0,0,0,0,0,0,0,0,0,0,0,0,0,0,0,0,0,0,0,0,0,0,0,0,0,0,0,0,0,0,0,0,0
COM7,0507,10-Jan-19,2019-01-10 07:00:00,1.4979833333333,1.3412666666667,1.2355,1.195,1.1137666666667,1.0220333333333,1.0426166666667,4.8,0,0,0,0,0,0,0,0,0,0,0,0,0,0,0,0,0,0,0,0,0,0,0,0,0,0,0,0,0,0,0,0,0,0,0,0,0,0,0,0,0,0
COM7,0507,10-Jan-19,2019-01-10 08:00:00,2.8312833333333,2.6431833333333,2.4575666666667,2.403,2.2703333333333,2.1627,2.2224666666667,4.8,0,0,0,0,0,0,0,0,0,0,0,0,0,0,0,0,0,0,0,0,0,0,0,0,0,0,0,0,0,0,0,0,0,0,0,0,0,0,0,0,0,0
COM7,0507,10-Jan-19,2019-01-10 09:00:00,2.9621,2.8485166666667,2.6607166666667,2.6057166666667,2.4564166666667,2.3281166666667,2.38995,4.8,0,0,0,0,0,0,0,0,0,0,0,0,0,0,0,0,0,0,0,0,0,0,0,0,0,0,0,0,0,0,0,0,0,0,0,0,0,0,0,0,0,0
COM7,0507,10-Jan-19,2019-01-10 10:00:00,1.5631,1.6302833333333,1.5249,1.4955333333333,1.4044833333333,1.3246666666667,1.3582833333333,4.64,0,0,0,0,0,0,0,0,0,0,0,0,0,0,0,0,0,0,0,0,0,0,0,0,0,0,0,0,0,0,0,0,0,0,0,0,0,0,0,0,0,0
COM7,0507,10-Jan-19,2019-01-10 11:00:00,1.40855,1.3157833333333,1.2553333333333,1.2417166666667,1.20215,1.1736,1.2068666666667,4.8333333333333,0,0,0,0,0,0,0,0,0,0,0,0,0,0,0,0,0,0,0,0,0,0,0,0,0,0,0,0,0,0,0,0,0,0,0
COM7,0507,10-Jan-19,2019-01-10 12:00:00,1.0639833333333,1.0133666666667,0.95623333333333,0.938,0.90361666666667,0.8848,0.9065,5,0,0,0,0,0,0,0,0,0,0,0,0,0,0,0,0,0,0,0,0,0,0,0,0,0,0,0,0,0,0,0,0,0,0,0,0,0,0,0,0,0,0
COM7,0507,10-Jan-19,2019-01-10 13:00:00,1.4158833333333,1.4713833333333,1.4158833333333,1.4115,1.3735,1.3665833333333,1.4037666666667,4.9583333333333,0,0,0,0,0,0,0,0,0,0,0,0,0,0,0,0,0,0,0,0,0,0,0,0,0,0,0,0,0,0,0,0,0,0,0,0,0,0,0,0,0,0
COM7,0507,10-Jan-19,2019-01-10 14:00:00,1.1845166666667,1.2217166666667,1.1709833333333,1.1631166666667,1.1278333333333,1.118,1.1489,4.9,0,0,0,0,0,0,0,0,0,0,0,0,0,0,0,0,0,0,0,0,0,0,0,0,0,0,0,0,0,0,0,0,0,0,0,0,0,0,0,0,0,0
COM7,0507,10-Jan-19,2019-01-10 15:00:00,0.95436666666667,0.9608,0.912,0.89785,0.86471666666667,0.85015,0.87483333333333,4.9,0,0,0,0,0,0,0,0,0,0,0,0,0,0,0,0,0,0,0,0,0,0,0,0,0,0,0,0,0,0,0,0,0,0,0,0,0,0,0,0,0,0
COM7,0507,10-Jan-19,2019-01-10 16:00:00,2.1739166666667,2.14675,2.0329166666667,1.99935,1.9235833333333,1.8935166666667,1.94795,4.9,0,0,0,0,0,0,0,0,0,0,0,0,0,0,0,0,0,0,0,0,0,0,0,0,0,0,0,0,0,0,0,0,0,0,0,0,0,0,0,0,0,0
COM7,0507,10-Jan-19,2019-01-10 17:00:00,2.2691166666667,2.2404666666667,2.1342833333333,2.1135,2.0353666666667,1.9889833333333,2.0443833333333,4.9,0,0,0,0,0,0,0,0,0,0,0,0,0,0,0,0,0,0,0,0,0,0,0,0,0,0,0,0,0,0,0,0,0,0,0,0,0,0,0,0,0,0
COM7,0507,10-Jan-19,2019-01-10 18:00:00,2.7457166666667,2.52285,2.3624333333333,2.31085,2.1965333333333,2.1062666666667,2.1613333333333,4.9,0,0,0,0,0,0,0,0,0,0,0,0,0,0,0,0,0,0,0,0,0,0,0,0,0,0,0,0,0,0,0,0,0,0,0,0,0,0,0,0,0,0
COM7,0507,10-Jan-19,2019-01-10 19:00:00,2.7293166666667,2.4348666666667,2.2535666666667,2.1901,2.0623166666667,1.9523333333333,2.00235,4.9,0,0,0,0,0,0,0,0,0,0,0,0,0,0,0,0,0,0,0,0,0,0,0,0,0,0,0,0,0,0,0,0,0,0,0,0,0,0,0,0,0,0
COM7,0507,10-Jan-19,2019-01-10 20:00:00,2.8784666666667,2.4758666666667,2.2835166666667,2.2077166666667,2.0736333333333,1.9561833333333,2.0055833333333,4.9,0,0,0,0,0,0,0,0,0,0,0,0,0,0,0,0,0,0,0,0,0,0,0,0,0,0,0,0,0,0,0,0,0,0,0,0,0,0,0,0,0,0
COM7,0507,10-Jan-19,2019-01-10 21:00:00,2.78195,2.4902333333333,2.3111166666667,2.25125,2.1239333333333,2.0195833333333,2.0728666666667,4.9,0,0,0,0,0,0,0,0,0,0,0,0,0,0,0,0,0,0,0,0,0,0,0,0,0,0,0,0,0,0,0,0,0,0,0,0,0,0,0,0,0,0
COM7,0507,10-Jan-19,2019-01-10 22:00:00,2.15515,2.0149333333333,1.8827333333333,1.8531666666667,1.75635,1.6789,1.7249,4.8083333333333,0,0,0,0,0,0,0,0,0,0,0,0,0,0,0,0,0,0,0,0,0,0,0,0,0,0,0,0,0,0,0,0,0,0,0,0,0,0,0,0,0,0
COM7,0507,10-Jan-19,2019-01-10 23:00:00,1.83105,1.7330666666667,1.6202,1.5957,1.51055,1.4373833333333,1.4755666666667,4.8,0,0,0,0,0,0,0,0,0,0,0,0,0,0,0,0,0,0,0,0,0,0,0,0,0,0,0,0,0,0,0,0,0,0,0,0,0,0,0,0,0,0
