COM8,507,23-Nov-19,2019-11-23 00:00:00,0.78357627118644,0.7129152542372901,0.64549152542373,0.61747457627119,0.57383050847458,0.5300508474576301,0.54247457627119,5.1
COM8,507,23-Nov-19,2019-11-23 01:00:00,1.2070166666667,0.98675,0.88793333333333,0.84693333333333,0.78545,0.71568333333333,0.73188333333333,5.1
COM8,507,23-Nov-19,2019-11-23 02:00:00,1.2684333333333,0.96466666666667,0.85296666666667,0.8036,0.7412,0.66901666666667,0.68273333333333,5.1
COM8,507,23-Nov-19,2019-11-23 03:00:00,0.98231666666667,0.7459,0.66305,0.62743333333333,0.5793833333333299,0.52895,0.5396,5.1
COM8,507,23-Nov-19,2019-11-23 04:00:00,0.6409,0.5625166666666701,0.5029,0.47918333333333,0.44141666666667,0.40133333333333,0.40963333333333,5.1
COM8,507,23-Nov-19,2019-11-23 05:00:00,0.56965,0.5274,0.47395,0.45128333333333,0.41756666666666997,0.38033333333333,0.38846666666667,5.1
COM8,507,23-Nov-19,2019-11-23 06:00:00,0.39376666666667,0.40623333333333,0.36816666666667,0.35205,0.32626666666667,0.29871666666667,0.30526666666667,5.1
COM8,507,23-Nov-19,2019-11-23 07:00:00,0.39338333333333003,0.37973333333333,0.33776666666667,0.32055,0.29441666666667,0.26315,0.26821666666667004,5.1
COM8,507,23-Nov-19,2019-11-23 08:00:00,1.39715,1.0877333333333001,0.95371666666667,0.8899,0.8039333333333301,0.68623333333333,0.6909,5.1
COM8,507,23-Nov-19,2019-11-23 09:00:00,0.88338333333333,0.83366666666667,0.7673,0.74078333333333,0.69256666666667,0.6317833333333299,0.64525,5.1
COM8,507,23-Nov-19,2019-11-23 10:00:00,0.6224166666666701,0.6430833333333299,0.59803333333333,0.58195,0.5508666666666701,0.50905,0.52328333333333,5.1
COM8,507,23-Nov-19,2019-11-23 11:00:00,0.8279,0.71806666666667,0.655,0.6268333333333299,0.58755,0.53213333333333,0.54451666666667,5.0233333333333
COM8,507,23-Nov-19,2019-11-23 12:00:00,0.43028333333333,0.4165,0.39236666666666997,0.38378333333333,0.36518333333333003,0.3374,0.35001666666667,4.6933333333333
COM8,507,23-Nov-19,2019-11-23 13:00:00,0.50495,0.40733333333333,0.39323333333333,0.39008333333333,0.3799,0.37113333333333,0.38176666666667,5.2
COM8,507,23-Nov-19,2019-11-23 14:00:00,0.44533333333333003,0.40723333333333,0.38506666666667,0.38095,0.36793333333333,0.35793333333333,0.3664,5.2
COM8,507,23-Nov-19,2019-11-23 15:00:00,0.36505,0.35433333333333,0.33516666666667,0.33031666666667,0.32031666666666997,0.31,0.31771666666667,5.2
COM8,507,23-Nov-19,2019-11-23 16:00:00,0.3753,0.35818333333333,0.33851666666667,0.33381666666667,0.32305,0.31266666666667,0.31963333333333,5.2
COM8,507,23-Nov-19,2019-11-23 17:00:00,0.70608333333333,0.5926333333333299,0.54925,0.53488333333333,0.5115,0.48941666666667,0.50005,5.2
COM8,507,23-Nov-19,2019-11-23 18:00:00,2.0582333333333,1.6585833333333,1.4956166666667,1.4253666666667,1.33175,1.19755,1.2093166666667,5.2
COM8,507,23-Nov-19,2019-11-23 19:00:00,1.6166833333333,1.3071666666667,1.19755,1.1463166666667,1.0798833333333,1.0078833333333002,1.0266333333333,5.2
COM8,507,23-Nov-19,2019-11-23 20:00:00,1.9275333333333,1.4612166666667,1.3271166666667,1.2631,1.1829833333333,1.0950333333333,1.11545,5.131666666666701
COM8,507,23-Nov-19,2019-11-23 21:00:00,2.0822166666667,1.66295,1.5054666666667,1.4225333333333001,1.3156833333333,1.1687833333333,1.1796833333333,5.1
COM8,507,23-Nov-19,2019-11-23 22:00:00,0.7217,0.7092,0.6565166666666701,0.62213333333333,0.58085,0.53896666666667,0.55045,5.1
COM8,507,23-Nov-19,2019-11-23 23:00:00,1.0244833333333,0.8519,0.76238333333333,0.71256666666667,0.6541666666666701,0.5886333333333299,0.5988833333333299,5.1
