COM8,507,19-Dec-19,2019-12-19 00:00:00,1.5729661016948997,1.1998983050847,1.0350169491525,0.96479661016949,0.88035593220339,0.78625423728814,0.8062372881355899,4.9
COM8,507,19-Dec-19,2019-12-19 01:00:00,1.3659833333333,1.1745833333333,1.0113833333333,0.94271666666667,0.85496666666667,0.73678333333333,0.74651666666667,4.9
COM8,507,19-Dec-19,2019-12-19 02:00:00,0.56516666666667,0.6188,0.54385,0.50548333333333,0.46771666666667,0.41328333333333,0.42305,4.9
COM8,507,19-Dec-19,2019-12-19 03:00:00,1.6819,1.24115,1.075,1.0094833333333,0.91445,0.81443333333333,0.83176666666667,4.9
COM8,507,19-Dec-19,2019-12-19 04:00:00,2.1282666666667,1.61975,1.4276166666666998,1.3466666666667,1.2317666666667,1.1066333333333,1.13255,4.9
COM8,507,19-Dec-19,2019-12-19 05:00:00,1.6375333333333,1.2795166666667,1.1265666666667,1.05945,0.96618333333333,0.87013333333333,0.88965,4.9
COM8,507,19-Dec-19,2019-12-19 06:00:00,1.6063833333333,1.3401333333333,1.19405,1.1334333333333,1.0429833333333,0.94356666666667,0.9644,4.881666666666701
COM8,507,19-Dec-19,2019-12-19 07:00:00,1.7842166666666999,1.3592333333333,1.1859333333333,1.11575,1.0167166666667,0.9017,0.92198333333333,4.8016666666667005
COM8,507,19-Dec-19,2019-12-19 08:00:00,2.2161,1.90365,1.6845666666666999,1.5923,1.4631166666667,1.31215,1.3422333333333,4.8
COM8,507,19-Dec-19,2019-12-19 09:00:00,2.549,2.4992,2.2652666666667,2.1777,2.0064166666667,1.8184833333333001,1.86195,4.8
COM8,507,19-Dec-19,2019-12-19 10:00:00,2.3066,2.3578166666667,2.1760833333333,2.10255,1.9463166666667,1.7457,1.7799166666667,4.8
COM8,507,19-Dec-19,2019-12-19 11:00:00,2.8568166666667003,2.7019,2.4583666666667003,2.3581,2.1724833333333002,1.9476333333333,1.9885666666667,4.8
COM8,507,19-Dec-19,2019-12-19 12:00:00,2.8143166666667003,2.5509333333332997,2.3044666666667,2.2021166666667003,2.02325,1.80605,1.8407666666667,4.8
COM8,507,19-Dec-19,2019-12-19 13:00:00,1.9016333333333,1.7182666666667,1.58735,1.5357666666667,1.44915,1.3633666666667,1.40005,4.7066666666667
COM8,507,19-Dec-19,2019-12-19 14:00:00,1.5750833333333,1.3768166666666999,1.2875666666667,1.26615,1.2249333333333001,1.20345,1.2362166666667,5.163333333333299
COM8,507,19-Dec-19,2019-12-19 15:00:00,1.2264333333333,1.1707166666667,1.10235,1.0864166666667,1.0508333333333,1.0322,1.0605833333333001,5.1
COM8,507,19-Dec-19,2019-12-19 16:00:00,1.6877666666667,1.6818666666667,1.5985166666667,1.5860833333333,1.5417666666667,1.5293333333333001,1.57445,5.1
COM8,507,19-Dec-19,2019-12-19 17:00:00,2.1871666666667,2.1011,1.9825,1.9555833333333001,1.8879333333333002,1.8631333333333,1.9190666666667,5.1
COM8,507,19-Dec-19,2019-12-19 18:00:00,2.4368,2.2226,2.08805,2.0510333333333,1.96715,1.9057833333333,1.9568833333333,5.1
COM8,507,19-Dec-19,2019-12-19 19:00:00,1.9287666666667,1.6105166666667,1.4795333333333,1.43545,1.35975,1.29345,1.3262333333333,5.1
COM8,507,19-Dec-19,2019-12-19 20:00:00,2.3008833333333,1.8710333333333,1.7023166666667,1.6358833333333,1.5341666666667,1.4331333333333,1.46935,5.0516666666667005
COM8,507,19-Dec-19,2019-12-19 21:00:00,1.6815333333333,1.3841,1.25755,1.2078666666667,1.1337,1.0626666666667,1.0874333333333,5.0
COM8,507,19-Dec-19,2019-12-19 22:00:00,1.5666166666666999,1.3069666666667,1.1927666666666998,1.1533666666667,1.0853833333333,1.0082166666666998,1.0294,5.0
COM8,507,19-Dec-19,2019-12-19 23:00:00,1.79795,1.4866666666666999,1.34845,1.2990000000000002,1.2230833333333,1.1477333333333,1.1784333333333001,5.0
