COM8,507,26-Sep-19,2019-09-26 00:00:00,0.38540677966102005,0.3711186440678,0.35223728813559,0.3475593220339,0.33403389830508,0.32052542372881,0.32850847457627,5.1
COM8,507,26-Sep-19,2019-09-26 01:00:00,0.34453333333333,0.32895,0.31101666666667,0.3065,0.29431666666667,0.28106666666667,0.2894,5.1
COM8,507,26-Sep-19,2019-09-26 02:00:00,0.32411666666667,0.30728333333333,0.28953333333333,0.28565,0.273,0.26086666666667,0.26841666666667,5.1
COM8,507,26-Sep-19,2019-09-26 03:00:00,0.3242,0.30748333333333,0.28955,0.28556666666667,0.27363333333332995,0.26105,0.2685,5.1
COM8,507,26-Sep-19,2019-09-26 04:00:00,0.34208333333333,0.32088333333333,0.3023,0.29706666666667,0.2839,0.27066666666667005,0.27836666666667,5.1
COM8,507,26-Sep-19,2019-09-26 05:00:00,0.4814,0.45636666666667,0.42946666666667,0.42348333333333,0.4056,0.38915,0.40108333333333,5.1
COM8,507,26-Sep-19,2019-09-26 06:00:00,0.94973333333333,0.88768333333333,0.83431666666667,0.82186666666667,0.78601666666667,0.75715,0.7819,5.1
COM8,507,26-Sep-19,2019-09-26 07:00:00,1.0354666666666998,1.00785,0.9533,0.94375,0.9065,0.8777,0.90651666666667,5.1
COM8,507,26-Sep-19,2019-09-26 08:00:00,0.66211666666667,0.65681666666667,0.62171666666667,0.6163666666666701,0.5885833333333299,0.5678166666666701,0.5834833333333299,5.1
COM8,507,26-Sep-19,2019-09-26 09:00:00,1.0100666666667,0.95116666666667,0.88625,0.86916666666667,0.8246,0.7928,0.81533333333333,5.1
COM8,507,26-Sep-19,2019-09-26 10:00:00,1.2911333333333002,1.1948166666667,1.1079666666666999,1.08175,1.0225833333333,0.97561666666667,1.0032833333333,5.1
COM8,507,26-Sep-19,2019-09-26 11:00:00,0.71265,0.64968333333333,0.5976833333333299,0.5792833333333299,0.54455,0.50896666666667,0.52283333333333,5.0433333333333
COM8,507,26-Sep-19,2019-09-26 12:00:00,0.59056666666667,0.53575,0.49171666666667,0.47668333333333,0.44633333333333003,0.41513333333333,0.42700000000000005,5.0
COM8,507,26-Sep-19,2019-09-26 13:00:00,0.37958333333333,0.32851666666667,0.3031,0.29421666666667,0.28175,0.26356666666667006,0.27553333333333,4.7
COM8,507,26-Sep-19,2019-09-26 14:00:00,0.2457,0.19216666666667004,0.1851,0.18403333333332997,0.17893333333332997,0.17536666666667003,0.18081666666667004,5.1
COM8,507,26-Sep-19,2019-09-26 15:00:00,0.16421666666667,0.16435,0.1567,0.15531666666667002,0.15011666666667,0.14625,0.14995,5.1
COM8,507,26-Sep-19,2019-09-26 16:00:00,0.2031,0.20075,0.19028333333332997,0.18623333333332998,0.18081666666667004,0.17431666666667003,0.17908333333332996,5.1
COM8,507,26-Sep-19,2019-09-26 17:00:00,0.2743,0.26085,0.24425,0.2385,0.22923333333332996,0.22248333333332998,0.2281,5.1
COM8,507,26-Sep-19,2019-09-26 18:00:00,0.51671666666667,0.48286666666667,0.44998333333333,0.4375,0.41853333333333,0.40121666666667,0.41045,5.1
COM8,507,26-Sep-19,2019-09-26 19:00:00,0.4828,0.44686666666667,0.41668333333333,0.40775,0.39238333333333003,0.3785,0.38821666666667,5.1
COM8,507,26-Sep-19,2019-09-26 20:00:00,0.71308333333333,0.61438333333333,0.5661333333333299,0.5436,0.5159,0.48866666666666997,0.49985,5.1
COM8,507,26-Sep-19,2019-09-26 21:00:00,0.38551666666667,0.3934,0.37671666666667,0.37196666666667,0.3592,0.3444,0.35306666666666997,5.1
COM8,507,26-Sep-19,2019-09-26 22:00:00,0.21186666666667003,0.20203333333332996,0.1903,0.18721666666667003,0.18065,0.1729,0.17796666666667002,5.1
COM8,507,26-Sep-19,2019-09-26 23:00:00,0.35805,0.35191666666667,0.3332,0.32881666666667,0.31675,0.30586666666667,0.31398333333333,5.1
