COM8,507,02-May-19,2019-05-02 00:00:00,0.27671186440678003,0.22805084745763,0.20823728813559,0.19947457627119,0.1874406779661,0.17098305084746,0.17352542372881,4.9
COM8,507,02-May-19,2019-05-02 01:00:00,0.1729,0.15066666666667,0.13828333333332998,0.13368333333333002,0.1245,0.11325,0.11511666666666999,4.9
COM8,507,02-May-19,2019-05-02 02:00:00,0.11585,0.1059,0.09665,0.0936,0.088533333333333,0.0792,0.080933333333333,4.9
COM8,507,02-May-19,2019-05-02 03:00:00,0.1588,0.14483333333332998,0.13415,0.13065,0.12311666666667,0.11473333333333001,0.1165,4.9
COM8,507,02-May-19,2019-05-02 04:00:00,0.3283,0.3123,0.29206666666666997,0.2875,0.27446666666667,0.25933333333333,0.26525,4.9
COM8,507,02-May-19,2019-05-02 05:00:00,0.46673333333333,0.42485,0.39765,0.38925,0.37223333333333003,0.3524,0.36031666666667,4.9
COM8,507,02-May-19,2019-05-02 06:00:00,0.77633333333333,0.70893333333333,0.6645666666666701,0.653,0.6232666666666701,0.58736666666667,0.59805,4.9
COM8,507,02-May-19,2019-05-02 07:00:00,0.29401666666667,0.28173333333333,0.26233333333333,0.2561,0.24203333333332996,0.22528333333332998,0.22778333333332998,4.9
COM8,507,02-May-19,2019-05-02 08:00:00,0.34278333333333,0.33076666666667,0.30993333333333,0.30461666666667,0.2877,0.27335,0.27688333333333,4.9
COM8,507,02-May-19,2019-05-02 09:00:00,0.43671666666667,0.41088333333333,0.38236666666667,0.37498333333333,0.35246666666667,0.33235,0.33525,4.9
COM8,507,02-May-19,2019-05-02 10:00:00,0.39828333333333,0.3755,0.35198333333333,0.34585,0.32786666666666997,0.31148333333333,0.3152,4.876666666666701
COM8,507,02-May-19,2019-05-02 11:00:00,0.22751666666667003,0.21738333333332996,0.20458333333332998,0.20256666666667003,0.1903,0.17865,0.18043333333332998,4.8016666666667005
COM8,507,02-May-19,2019-05-02 12:00:00,0.19506666666667002,0.166,0.15686666666667,0.15473333333332998,0.14988333333332998,0.13965,0.14535,4.515
COM8,507,02-May-19,2019-05-02 13:00:00,0.27771666666667,0.19506666666667002,0.18501666666667002,0.1832,0.17688333333332998,0.17408333333332998,0.1793,4.9
COM8,507,02-May-19,2019-05-02 14:00:00,0.18705,0.1546,0.1464,0.14375,0.13958333333332998,0.13763333333333,0.14086666666667003,4.9
COM8,507,02-May-19,2019-05-02 15:00:00,0.1107,0.11306666666667,0.10661666666667,0.1041,0.10036666666666999,0.092166666666667,0.09485,4.9
COM8,507,02-May-19,2019-05-02 16:00:00,0.11048333333333,0.11353333333333,0.10776666666667,0.10543333333333,0.10241666666667,0.098216666666667,0.10043333333333,4.9
COM8,507,02-May-19,2019-05-02 17:00:00,0.08708333333333299,0.08855,0.08355,0.082166666666667,0.07801666666666701,0.07236666666666701,0.074333333333333,4.9
COM8,507,02-May-19,2019-05-02 18:00:00,0.09973333333333301,0.09905,0.09305,0.090983333333333,0.08723333333333298,0.082033333333333,0.0845,4.9
COM8,507,02-May-19,2019-05-02 19:00:00,0.19048333333332998,0.17081666666667003,0.15765,0.15141666666667,0.1449,0.13678333333333,0.13978333333332998,4.9
COM8,507,02-May-19,2019-05-02 20:00:00,0.25136666666667,0.22815,0.21248333333332997,0.20648333333332997,0.19593333333332996,0.1837,0.18786666666667004,4.9
COM8,507,02-May-19,2019-05-02 21:00:00,0.2002,0.17675,0.16468333333333,0.15946666666667,0.15166666666667,0.14321666666667002,0.14531666666667,4.9
COM8,507,02-May-19,2019-05-02 22:00:00,0.37113333333333,0.30775,0.27971666666667,0.26645,0.25015,0.23061666666667002,0.2347,4.9
COM8,507,02-May-19,2019-05-02 23:00:00,0.24073333333332997,0.20485,0.18731666666667005,0.17933333333332996,0.168,0.15238333333332998,0.15533333333333,4.9
