COM8,507,02-Dec-19,2019-12-02 00:00:00,0.60310169491525,0.47574576271186003,0.40771186440678,0.37625423728814,0.34016949152542,0.29559322033898,0.3001186440678,5.1
COM8,507,02-Dec-19,2019-12-02 01:00:00,0.37041666666667,0.31306666666667,0.26725,0.24571666666667002,0.22101666666667003,0.19143333333332996,0.19401666666667003,5.1
COM8,507,02-Dec-19,2019-12-02 02:00:00,0.15158333333333,0.19008333333332997,0.16956666666667003,0.16115,0.1455,0.12633333333333,0.12935,5.1
COM8,507,02-Dec-19,2019-12-02 03:00:00,0.17261666666667003,0.21516666666667003,0.19545,0.185,0.16951666666667004,0.15055,0.15341666666667,5.1
COM8,507,02-Dec-19,2019-12-02 04:00:00,0.1228,0.16901666666667003,0.15655,0.15181666666667,0.14051666666667,0.12788333333333002,0.13028333333333,5.1
COM8,507,02-Dec-19,2019-12-02 05:00:00,0.35485,0.30408333333333,0.27116666666667005,0.25831666666667,0.2389,0.21738333333332996,0.22258333333332997,5.1
COM8,507,02-Dec-19,2019-12-02 06:00:00,0.579,0.42238333333333,0.37093333333333,0.35146666666667,0.32305,0.29255,0.29968333333333,5.1
COM8,507,02-Dec-19,2019-12-02 07:00:00,1.2919333333333,0.95688333333333,0.84335,0.80058333333333,0.74255,0.67968333333333,0.69613333333333,5.1
COM8,507,02-Dec-19,2019-12-02 08:00:00,1.9278166666667,1.5255666666667,1.3641,1.3047333333333,1.2131833333333,1.1179833333333,1.1478166666667,5.1
COM8,507,02-Dec-19,2019-12-02 09:00:00,1.1384,1.062,0.97661666666667,0.94876666666667,0.89483333333333,0.84148333333333,0.86601666666667,5.0716666666667
COM8,507,02-Dec-19,2019-12-02 10:00:00,1.1076833333333,1.01755,0.9315,0.90581666666667,0.8517,0.79503333333333,0.81963333333333,5.0
COM8,507,02-Dec-19,2019-12-02 11:00:00,1.0857,0.98708333333333,0.902,0.87326666666667,0.82168333333333,0.76846666666667,0.7933,5.0
COM8,507,02-Dec-19,2019-12-02 12:00:00,1.38645,1.2062,1.0881666666667,1.0439333333333,0.9769,0.91121666666667,0.94245,4.75
COM8,507,02-Dec-19,2019-12-02 13:00:00,1.3746166666667,1.2675333333333,1.19775,1.1777166666667,1.1424,1.1204833333333,1.1562666666666999,5.1133333333332995
COM8,507,02-Dec-19,2019-12-02 14:00:00,1.8871833333333001,1.7695666666667,1.6430333333333,1.6005166666667,1.5399833333333,1.5121833333333001,1.5556333333333001,5.16
COM8,507,02-Dec-19,2019-12-02 15:00:00,2.5910333333332995,2.6079666666667003,2.46685,2.43345,2.3568333333332996,2.32955,2.40405,5.1
COM8,507,02-Dec-19,2019-12-02 16:00:00,3.0197,2.9151166666667003,2.6950166666667004,2.6190666666667,2.5074,2.4495666666667004,2.5303,5.1
COM8,507,02-Dec-19,2019-12-02 17:00:00,4.3021666666667,4.13735,3.8359666666667,3.7372833333332998,3.5643166666667003,3.4443666666667,3.5592166666667002,5.1
COM8,507,02-Dec-19,2019-12-02 18:00:00,5.4731833333333,4.7118166666667,4.2497333333333,4.0481166666667,3.7824166666667,3.5523833333333,3.6622333333332997,5.1
COM8,507,02-Dec-19,2019-12-02 19:00:00,4.46075,3.7598833333333,3.3596,3.1880333333333,2.9694,2.7796666666667003,2.8667,5.055
COM8,507,02-Dec-19,2019-12-02 20:00:00,5.2426166666667005,4.4508166666667,3.97875,3.78495,3.5186333333333,3.2769166666667005,3.3728,5.0
COM8,507,02-Dec-19,2019-12-02 21:00:00,5.6014833333333005,4.76595,4.271533333333299,4.0732833333333,3.79825,3.5429,3.6447,5.0
COM8,507,02-Dec-19,2019-12-02 22:00:00,5.7435666666667,4.968583333333299,4.48975,4.3079166666667,4.0338833333333,3.7778166666667,3.8819333333332997,5.0
COM8,507,02-Dec-19,2019-12-02 23:00:00,2.6749,2.2533333333332997,2.00555,1.9075333333333,1.7783666666667,1.6576666666667,1.7034,4.9316666666667
