COM8,507,25-Aug-19,2019-08-25 00:00:00,0.39333898305084997,0.37362711864407006,0.35467796610169,0.34942372881356,0.33649152542373,0.32538983050847,0.33355932203390004,5.0
COM8,507,25-Aug-19,2019-08-25 01:00:00,0.2839,0.27396666666667,0.26095,0.25846666666667,0.24985,0.24271666666667002,0.24855,5.0
COM8,507,25-Aug-19,2019-08-25 02:00:00,0.26066666666667004,0.25091666666667,0.23911666666667003,0.23775,0.22993333333332996,0.22363333333332996,0.22986666666667002,5.0
COM8,507,25-Aug-19,2019-08-25 03:00:00,0.23791666666667002,0.21881666666667005,0.20475,0.20125,0.1936,0.18646666666667003,0.1913,5.0
COM8,507,25-Aug-19,2019-08-25 04:00:00,0.27998333333333003,0.2511,0.23551666666667004,0.22991666666667004,0.22096666666667003,0.21458333333332996,0.22016666666667004,5.0
COM8,507,25-Aug-19,2019-08-25 05:00:00,0.37603333333333,0.35613333333333,0.33725,0.33233333333333,0.31993333333333,0.30978333333333,0.3186,5.0
COM8,507,25-Aug-19,2019-08-25 06:00:00,0.25658333333332994,0.23951666666667004,0.22385,0.2199,0.21155,0.20655,0.21246666666667002,5.0
COM8,507,25-Aug-19,2019-08-25 07:00:00,0.2914,0.27886666666667,0.26511666666667005,0.26375,0.25591666666667,0.25246666666667006,0.25901666666667006,5.0
COM8,507,25-Aug-19,2019-08-25 08:00:00,0.18118333333332998,0.1662,0.15405,0.1504,0.14215,0.13258333333333,0.13493333333333002,5.0
COM8,507,25-Aug-19,2019-08-25 09:00:00,0.15511666666667,0.14076666666667,0.1304,0.12686666666666999,0.12005,0.11443333333333,0.11805,4.915
COM8,507,25-Aug-19,2019-08-25 10:00:00,0.17071666666667004,0.15445,0.14385,0.14058333333332998,0.13448333333333,0.12891666666666998,0.1329,4.9
COM8,507,25-Aug-19,2019-08-25 11:00:00,0.18281666666667004,0.16655,0.15405,0.15001666666667002,0.14305,0.13611666666667,0.13893333333333,4.9
COM8,507,25-Aug-19,2019-08-25 12:00:00,0.21278333333332997,0.1931,0.17995,0.17593333333332997,0.16706666666667,0.1566,0.1603,4.9
COM8,507,25-Aug-19,2019-08-25 13:00:00,0.25718333333333,0.23186666666667002,0.21478333333332997,0.20905,0.19926666666667003,0.18905,0.19401666666667003,4.9
COM8,507,25-Aug-19,2019-08-25 14:00:00,0.2967,0.26101666666667,0.23931666666667004,0.23135,0.2175,0.20175,0.207,4.9
COM8,507,25-Aug-19,2019-08-25 15:00:00,0.2729,0.2389,0.21938333333332996,0.21233333333332996,0.20103333333332996,0.18725,0.19143333333332996,4.9
COM8,507,25-Aug-19,2019-08-25 16:00:00,0.2689,0.23131666666667003,0.21061666666667003,0.2033,0.19098333333332998,0.17833333333332996,0.18273333333332997,4.9
COM8,507,25-Aug-19,2019-08-25 17:00:00,0.29995,0.21546666666667003,0.1978,0.19095,0.18326666666667002,0.17125,0.17845,4.6483333333333
COM8,507,25-Aug-19,2019-08-25 18:00:00,0.27678333333333,0.22266666666667004,0.2036,0.19635,0.18596666666667003,0.17645,0.18018333333332998,5.0
COM8,507,25-Aug-19,2019-08-25 19:00:00,0.31368333333333,0.28316666666667,0.26021666666667004,0.2518,0.23956666666667004,0.23005,0.23468333333332997,5.0
COM8,507,25-Aug-19,2019-08-25 20:00:00,0.46126666666667,0.41945,0.38573333333333,0.37198333333333,0.35431666666667,0.33776666666667,0.34515,5.0
COM8,507,25-Aug-19,2019-08-25 21:00:00,0.5951,0.56335,0.52938333333333,0.51861666666667,0.49561666666667,0.47611666666667,0.48651666666667,5.0
COM8,507,25-Aug-19,2019-08-25 22:00:00,0.4965,0.47151666666666997,0.4437,0.43546666666667,0.41806666666667,0.4006,0.40961666666667,5.0
COM8,507,25-Aug-19,2019-08-25 23:00:00,0.4716,0.44781666666666997,0.42238333333333,0.41515,0.3992,0.38488333333333,0.39446666666667,5.0
