COM8,507,24-Dec-19,2019-12-24 00:00:00,0.39303389830508,0.33211864406779995,0.29728813559322,0.27686440677966,0.25005084745763,0.21732203389830998,0.21966101694915,4.9661016949153
COM8,507,24-Dec-19,2019-12-24 01:00:00,0.4008,0.3153,0.28535,0.26558333333332995,0.24213333333332998,0.2122,0.21566666666667003,4.9
COM8,507,24-Dec-19,2019-12-24 02:00:00,0.2528,0.28545,0.26328333333333,0.24805,0.22811666666667002,0.20486666666667003,0.20955,4.9
COM8,507,24-Dec-19,2019-12-24 03:00:00,0.30728333333333,0.28608333333333,0.25836666666667,0.24471666666667002,0.22341666666667004,0.19783333333332997,0.20125,4.9
COM8,507,24-Dec-19,2019-12-24 04:00:00,0.094616666666667,0.14055,0.1357,0.13175,0.12336666666667,0.1115,0.11448333333333001,4.9
COM8,507,24-Dec-19,2019-12-24 05:00:00,-0.01855,0.063166666666667,0.06913333333333299,0.0727,0.07005,0.067666666666667,0.06865,4.9
COM8,507,24-Dec-19,2019-12-24 06:00:00,-0.0009,0.061316666666667,0.06595,0.06903333333333299,0.06508333333333301,0.061183333333333006,0.0636,4.9
COM8,507,24-Dec-19,2019-12-24 07:00:00,0.0906,0.11103333333333,0.10318333333333,0.097516666666667,0.0923,0.081466666666667,0.0828,4.9
COM8,507,24-Dec-19,2019-12-24 08:00:00,0.9929,0.88318333333333,0.79333333333333,0.75693333333333,0.7049,0.6606666666666701,0.67923333333333,4.9
COM8,507,24-Dec-19,2019-12-24 09:00:00,0.91158333333333,0.82143333333333,0.74585,0.7159,0.66773333333333,0.6174833333333299,0.6341333333333299,4.9
COM8,507,24-Dec-19,2019-12-24 10:00:00,0.11053333333333,0.1451,0.13815,0.13506666666667,0.1262,0.11588333333333001,0.11831666666667,4.9
COM8,507,24-Dec-19,2019-12-24 11:00:00,0.022066666666667005,0.063516666666667,0.062366666666666994,0.063816666666667,0.0604,0.050633333333333,0.0538,4.9
COM8,507,24-Dec-19,2019-12-24 12:00:00,0.0597,0.08281666666666701,0.078616666666667,0.073333333333333,0.073083333333333,0.061233333333333,0.065066666666667,4.9
COM8,507,24-Dec-19,2019-12-24 13:00:00,0.2555,0.21083333333332996,0.20031666666667003,0.19703333333332998,0.19058333333332997,0.1791,0.18871666666667003,4.67
COM8,507,24-Dec-19,2019-12-24 14:00:00,0.38785,0.32428333333333,0.31595,0.3137,0.30493333333333,0.3011,0.30956666666667,5.1
COM8,507,24-Dec-19,2019-12-24 15:00:00,0.30163333333333,0.28568333333333,0.2728,0.2691,0.25966666666667004,0.25538333333332996,0.2623,5.1
COM8,507,24-Dec-19,2019-12-24 16:00:00,0.40835,0.34518333333333,0.31736666666667,0.30515,0.29101666666667,0.28086666666667,0.28796666666667,5.1
COM8,507,24-Dec-19,2019-12-24 17:00:00,0.32556666666667,0.30123333333333,0.28193333333333,0.2743,0.26141666666667,0.25038333333332996,0.2547,5.1
COM8,507,24-Dec-19,2019-12-24 18:00:00,0.26305,0.20841666666667003,0.18591666666667003,0.17438333333332998,0.16138333333333,0.15025,0.15221666666667003,5.1
COM8,507,24-Dec-19,2019-12-24 19:00:00,0.43455,0.33603333333333,0.29993333333333,0.28338333333333,0.26403333333332996,0.24623333333332997,0.2509,5.1
COM8,507,24-Dec-19,2019-12-24 20:00:00,0.72165,0.5561833333333299,0.4969,0.47108333333333,0.44075,0.40718333333333,0.41445,5.1
COM8,507,24-Dec-19,2019-12-24 21:00:00,0.48801666666667,0.4085,0.37353333333333,0.3605,0.34211666666667,0.32376666666667,0.33016666666667,5.1
COM8,507,24-Dec-19,2019-12-24 22:00:00,0.52445,0.45953333333333,0.42736666666667,0.41655,0.39758333333333,0.37911666666667,0.38656666666667,5.1
COM8,507,24-Dec-19,2019-12-24 23:00:00,0.49568333333333,0.39153333333333,0.35361666666667,0.33683333333333,0.31646666666667,0.2918,0.29716666666667,5.0933333333333
