COM8,507,25-Feb-20,2020-02-25 00:00:00,0.10035593220339001,0.097033898305085,0.09177966101694901,0.090694915254237,0.088881355932203,0.08991525423728801,0.092830508474576,5.0016949152542
COM8,507,25-Feb-20,2020-02-25 01:00:00,0.13141666666666998,0.12248333333333,0.11575,0.11313333333333,0.10868333333333001,0.1059,0.1091,5.0
COM8,507,25-Feb-20,2020-02-25 02:00:00,0.10408333333333,0.099033333333333,0.093416666666667,0.09165,0.08776666666666702,0.0851,0.08641666666666702,5.0
COM8,507,25-Feb-20,2020-02-25 03:00:00,0.08538333333333299,0.078066666666667,0.073483333333333,0.07215,0.06996666666666701,0.0692,0.07086666666666701,5.005
COM8,507,25-Feb-20,2020-02-25 04:00:00,0.08091666666666701,0.07193333333333299,0.067166666666667,0.065133333333333,0.062,0.059716666666666994,0.061483333333333,5.025
COM8,507,25-Feb-20,2020-02-25 05:00:00,0.12066666666666999,0.09443333333333301,0.08605,0.0829,0.07845,0.0738,0.07508333333333299,5.0966666666667
COM8,507,25-Feb-20,2020-02-25 06:00:00,0.15456666666667002,0.15048333333333,0.14118333333333,0.13851666666667,0.13358333333333,0.1294,0.13185,5.1
COM8,507,25-Feb-20,2020-02-25 07:00:00,0.2982,0.2923,0.27665,0.27261666666667,0.26293333333332997,0.25516666666667004,0.26253333333332995,5.1
COM8,507,25-Feb-20,2020-02-25 08:00:00,0.2585,0.24836666666667004,0.2338,0.22913333333332997,0.22065,0.21423333333332997,0.21935,5.1
COM8,507,25-Feb-20,2020-02-25 09:00:00,0.1607,0.15616666666667,0.14695,0.14443333333333,0.13841666666667002,0.13401666666667,0.1374,5.1
COM8,507,25-Feb-20,2020-02-25 10:00:00,0.28113333333333,0.2755,0.2608,0.2569,0.2482,0.24108333333332996,0.24666666666667003,5.1
COM8,507,25-Feb-20,2020-02-25 11:00:00,0.39006666666667,0.38748333333333,0.36928333333333,0.36623333333333,0.35535,0.34808333333333,0.35711666666666997,5.0483333333333
COM8,507,25-Feb-20,2020-02-25 12:00:00,0.3585,0.36005,0.3442,0.3412,0.33181666666667,0.32415,0.33283333333333,5.0
COM8,507,25-Feb-20,2020-02-25 13:00:00,0.31556666666667,0.31338333333333,0.2994,0.2973,0.28743333333333,0.27915,0.28716666666667,5.0
COM8,507,25-Feb-20,2020-02-25 14:00:00,0.27756666666667,0.27598333333333,0.26291666666667,0.26015,0.25196666666667006,0.24498333333332997,0.25043333333332995,5.0
COM8,507,25-Feb-20,2020-02-25 15:00:00,0.3086,0.25486666666667,0.24156666666667004,0.24011666666667003,0.23541666666667002,0.22835,0.23833333333332996,4.725
COM8,507,25-Feb-20,2020-02-25 16:00:00,0.34761666666667,0.27415,0.26776666666667004,0.26645,0.26078333333333,0.26243333333332997,0.27058333333332996,5.1
COM8,507,25-Feb-20,2020-02-25 17:00:00,0.24148333333332997,0.2257,0.21521666666667003,0.21281666666667004,0.20673333333332997,0.20243333333332997,0.2087,5.1
COM8,507,25-Feb-20,2020-02-25 18:00:00,0.33843333333333003,0.34588333333333,0.32903333333333,0.32598333333333,0.3168,0.31265,0.32173333333333,5.1
COM8,507,25-Feb-20,2020-02-25 19:00:00,0.53058333333333,0.47138333333333,0.43673333333333003,0.42613333333333,0.40878333333333,0.39368333333333,0.40328333333333,5.1
COM8,507,25-Feb-20,2020-02-25 20:00:00,0.86266666666667,0.68465,0.6218,0.59618333333333,0.5642,0.53053333333333,0.54133333333333,5.1
COM8,507,25-Feb-20,2020-02-25 21:00:00,1.22085,0.89135,0.79055,0.74466666666667,0.69426666666667,0.63575,0.64768333333333,5.1
COM8,507,25-Feb-20,2020-02-25 22:00:00,0.425,0.41881666666667,0.38868333333333,0.37555,0.35846666666667,0.34338333333333,0.3515,5.1
COM8,507,25-Feb-20,2020-02-25 23:00:00,0.34027118644068005,0.35062711864407003,0.33050847457627003,0.32396610169491996,0.31174576271186,0.30198305084746,0.3105593220339,5.1
