COM8,507,15-Jul-19,2019-07-15 00:00:00,0.17174576271185998,0.16918644067797,0.16220338983051,0.16094915254237,0.15557627118644002,0.15027118644068,0.15340677966101998,5.0
COM8,507,15-Jul-19,2019-07-15 01:00:00,0.14358333333332998,0.13925,0.13253333333333,0.13121666666667,0.12481666666666999,0.11828333333333,0.11993333333333,5.0
COM8,507,15-Jul-19,2019-07-15 02:00:00,0.12355,0.11961666666667,0.11355,0.11218333333333,0.10713333333333,0.10061666666666999,0.1029,5.0
COM8,507,15-Jul-19,2019-07-15 03:00:00,0.11348333333333001,0.10893333333333001,0.1044,0.1031,0.099,0.093383333333333,0.094866666666667,5.0
COM8,507,15-Jul-19,2019-07-15 04:00:00,0.14558333333332998,0.14203333333333,0.13543333333333,0.13385,0.12785,0.12205,0.12408333333333,5.0
COM8,507,15-Jul-19,2019-07-15 05:00:00,8.154533333333301,6.027833333333301,5.490816666666699,5.3748166666667,5.1138833333333,4.8752,5.0006666666667,4.9716666666667
COM8,507,15-Jul-19,2019-07-15 06:00:00,1.14505,1.2228,1.17715,1.1713833333333001,1.1237666666666999,1.0938166666667,1.1264333333333,4.9
COM8,507,15-Jul-19,2019-07-15 07:00:00,1.3753833333333,1.4149,1.3759166666667,1.38535,1.3409666666667,1.3209166666667,1.3635666666667,4.9
COM8,507,15-Jul-19,2019-07-15 08:00:00,0.3951,0.42628333333333,0.40625,0.39531666666667,0.36723333333333,0.33045,0.33758333333333,4.9
COM8,507,15-Jul-19,2019-07-15 09:00:00,0.35526666666667,0.33236666666667,0.31183333333333,0.30013333333333003,0.27895,0.24998333333332998,0.25586666666667,4.9
COM8,507,15-Jul-19,2019-07-15 10:00:00,0.28356666666667,0.29416666666667,0.27638333333333,0.26591666666667,0.24831666666667004,0.22193333333332996,0.2277,4.9
COM8,507,15-Jul-19,2019-07-15 11:00:00,0.3092,0.29146666666667,0.27661666666667,0.27165,0.25506666666667005,0.23313333333332997,0.24088333333332998,4.5983333333333
COM8,507,15-Jul-19,2019-07-15 12:00:00,0.22628333333332998,0.16606666666667003,0.15773333333332998,0.15513333333333,0.15001666666667002,0.14268333333333,0.1463,5.0
COM8,507,15-Jul-19,2019-07-15 13:00:00,0.15521666666667,0.13621666666666998,0.12925,0.12758333333333,0.12246666666667,0.1185,0.12096666666667,5.0
COM8,507,15-Jul-19,2019-07-15 14:00:00,0.16061666666667002,0.15186666666667,0.14395,0.14256666666667,0.1375,0.13518333333333002,0.13901666666667,5.0
COM8,507,15-Jul-19,2019-07-15 15:00:00,0.14153333333332999,0.13275,0.1258,0.12465,0.1204,0.1173,0.1209,5.0
COM8,507,15-Jul-19,2019-07-15 16:00:00,0.12496666666667,0.11726666666666999,0.1113,0.10871666666667,0.10535,0.10203333333333,0.10461666666667,5.0
COM8,507,15-Jul-19,2019-07-15 17:00:00,0.1246,0.11945,0.11335,0.11185,0.10846666666667,0.10558333333333,0.10845,5.0
COM8,507,15-Jul-19,2019-07-15 18:00:00,0.12465,0.11735,0.11111666666667,0.10891666666666999,0.10493333333333,0.10161666666666999,0.10461666666667,5.0
COM8,507,15-Jul-19,2019-07-15 19:00:00,0.50205,0.46701666666667,0.43465,0.42143333333333,0.40145,0.38215,0.38983333333333,5.0
COM8,507,15-Jul-19,2019-07-15 20:00:00,0.5547166666666701,0.49361666666667,0.45555,0.43716666666667,0.41193333333333,0.38396666666667,0.39096666666667,5.0
COM8,507,15-Jul-19,2019-07-15 21:00:00,0.28216666666667,0.27386666666667003,0.2585,0.25353333333332995,0.24311666666667003,0.2335,0.23741666666667002,5.0
COM8,507,15-Jul-19,2019-07-15 22:00:00,0.31971666666667,0.31853333333333,0.30343333333333,0.30085,0.2893,0.27956666666667,0.28575,5.0
COM8,507,15-Jul-19,2019-07-15 23:00:00,0.21491666666667003,0.21118333333332998,0.20136666666667002,0.19998333333332996,0.19128333333332997,0.18386666666667004,0.1883,5.0
