COM8,507,28-Sep-19,2019-09-28 00:00:00,0.35133898305085,0.30916949152542,0.28793220338983005,0.28179661016949,0.26938983050847004,0.25262711864407,0.25810169491525004,5.0
COM8,507,28-Sep-19,2019-09-28 01:00:00,0.40218333333333,0.35168333333333,0.32818333333333,0.32273333333333,0.3057,0.28778333333333,0.29505,5.0
COM8,507,28-Sep-19,2019-09-28 02:00:00,0.46223333333333,0.41485,0.39068333333333,0.38698333333333,0.37133333333333,0.35531666666667,0.36388333333333,5.0
COM8,507,28-Sep-19,2019-09-28 03:00:00,0.2837,0.25761666666667005,0.24138333333332998,0.2372,0.225,0.21056666666667004,0.21585,5.0
COM8,507,28-Sep-19,2019-09-28 04:00:00,0.24408333333332996,0.22276666666667003,0.20906666666667004,0.20593333333332997,0.19553333333332998,0.18253333333332997,0.18625,5.0
COM8,507,28-Sep-19,2019-09-28 05:00:00,0.27531666666667,0.24803333333332997,0.23095,0.22761666666667002,0.21521666666667003,0.20199999999999999,0.20668333333332997,5.0
COM8,507,28-Sep-19,2019-09-28 06:00:00,0.29356666666667,0.26316666666667005,0.24606666666667004,0.24043333333332997,0.22765,0.21301666666667002,0.21698333333332998,5.0
COM8,507,28-Sep-19,2019-09-28 07:00:00,0.30495,0.27548333333333,0.25761666666667005,0.25331666666667,0.24063333333332998,0.22706666666667003,0.23233333333332998,5.0
COM8,507,28-Sep-19,2019-09-28 08:00:00,0.30428333333333,0.27836666666667,0.26213333333332994,0.25826666666667003,0.24576666666667002,0.23346666666667004,0.23886666666667003,5.0
COM8,507,28-Sep-19,2019-09-28 09:00:00,0.54271666666667,0.45801666666667,0.415,0.39683333333333,0.36783333333333,0.33258333333333,0.3396,4.998333333333299
COM8,507,28-Sep-19,2019-09-28 10:00:00,0.57183333333333,0.4448,0.3967,0.3746,0.34526666666667,0.31233333333333,0.3186,4.915
COM8,507,28-Sep-19,2019-09-28 11:00:00,0.3823,0.33023333333333,0.30263333333333,0.29218333333333,0.27298333333332997,0.25108333333333,0.25696666666667,4.9
COM8,507,28-Sep-19,2019-09-28 12:00:00,0.32855,0.27899999999999997,0.2522,0.2414,0.22595,0.21073333333332997,0.21576666666667002,4.9
COM8,507,28-Sep-19,2019-09-28 13:00:00,0.24276666666667004,0.1988,0.18308333333332996,0.17671666666667002,0.16935,0.15738333333333,0.16441666666667,4.6033333333333
COM8,507,28-Sep-19,2019-09-28 14:00:00,0.33299999999999996,0.27925,0.26696666666667,0.2636,0.2562,0.25251666666667005,0.2586,5.0
COM8,507,28-Sep-19,2019-09-28 15:00:00,0.27158333333332996,0.25513333333333,0.24061666666667003,0.23528333333332996,0.22691666666667004,0.22261666666667004,0.22808333333332997,5.0
COM8,507,28-Sep-19,2019-09-28 16:00:00,0.22523333333332995,0.2117,0.19881666666667003,0.19475,0.18678333333332997,0.17968333333332998,0.18386666666667004,5.0
COM8,507,28-Sep-19,2019-09-28 17:00:00,0.32791666666667,0.28651666666667,0.26271666666667004,0.2521,0.23871666666667002,0.22375,0.22866666666667004,5.0
COM8,507,28-Sep-19,2019-09-28 18:00:00,0.35555,0.33018333333333,0.30876666666667,0.30083333333333,0.28773333333333,0.27488333333333,0.28208333333333,5.0
COM8,507,28-Sep-19,2019-09-28 19:00:00,0.30375,0.28593333333333,0.26855,0.26186666666667,0.25163333333333,0.24095,0.24703333333332997,5.0
COM8,507,28-Sep-19,2019-09-28 20:00:00,0.24036666666667003,0.22005,0.20576666666667004,0.20043333333332997,0.1918,0.18291666666667003,0.18763333333332996,5.0
COM8,507,28-Sep-19,2019-09-28 21:00:00,0.44276666666667,0.37526666666666997,0.3427,0.32975,0.31246666666667,0.2926,0.29865,5.0
COM8,507,28-Sep-19,2019-09-28 22:00:00,0.20173333333332996,0.18551666666667002,0.17363333333332998,0.16838333333332997,0.162,0.15365,0.15781666666667002,5.0
COM8,507,28-Sep-19,2019-09-28 23:00:00,0.2807,0.25891666666667,0.24235,0.23735,0.22673333333332996,0.21663333333332996,0.22241666666667004,5.0
