COM8,507,25-Apr-19,2019-04-25 00:00:00,0.33305084745763003,0.19054237288135997,0.15998305084746,0.14193220338982998,0.12801694915254,0.11533898305085001,0.11554237288136,4.9
COM8,507,25-Apr-19,2019-04-25 01:00:00,0.050066666666666995,0.057633333333333,0.0534,0.0512,0.048166666666666996,0.04353333333333301,0.044433333333333005,4.9
COM8,507,25-Apr-19,2019-04-25 02:00:00,0.11599999999999999,0.09575,0.08723333333333298,0.0811,0.075416666666667,0.06915,0.07095,4.9
COM8,507,25-Apr-19,2019-04-25 03:00:00,0.12106666666667,0.09635,0.08613333333333299,0.07983333333333299,0.072916666666667,0.0666,0.067766666666667,4.9
COM8,507,25-Apr-19,2019-04-25 04:00:00,0.21646666666667003,0.18643333333332998,0.17245,0.1639,0.15438333333333,0.1466,0.15005,4.9
COM8,507,25-Apr-19,2019-04-25 05:00:00,0.5115833333333301,0.47396666666667,0.44551666666667,0.43615,0.41741666666667,0.40395,0.41478333333333,4.9
COM8,507,25-Apr-19,2019-04-25 06:00:00,0.82665,0.77896666666667,0.73545,0.72325,0.69481666666667,0.6732,0.6920000000000001,4.9
COM8,507,25-Apr-19,2019-04-25 07:00:00,0.7061333333333301,0.71511666666667,0.68571666666667,0.68553333333333,0.6634666666666701,0.648,0.6676,4.9
COM8,507,25-Apr-19,2019-04-25 08:00:00,0.51735,0.53641666666667,0.51915,0.52148333333333,0.5085833333333301,0.49828333333333,0.51371666666667,4.9
COM8,507,25-Apr-19,2019-04-25 09:00:00,0.90796666666667,0.88408333333333,0.83391666666667,0.82243333333333,0.7893,0.77278333333333,0.7964,4.9
COM8,507,25-Apr-19,2019-04-25 10:00:00,2.059,1.9480166666667,1.8245166666666999,1.7938166666667,1.7188,1.6788333333333,1.7334666666667,4.9
COM8,507,25-Apr-19,2019-04-25 11:00:00,1.2330166666667,1.16475,1.0924333333333,1.0734666666666999,1.0256166666667,0.98686666666667,1.0172666666666998,4.9
COM8,507,25-Apr-19,2019-04-25 12:00:00,0.76901666666667,0.70075,0.6571333333333299,0.6466166666666701,0.62061666666667,0.5966333333333299,0.6197333333333299,4.5483333333333
COM8,507,25-Apr-19,2019-04-25 13:00:00,0.43521666666666997,0.37891666666667,0.36071666666667,0.35553333333333,0.34633333333333,0.34258333333333,0.35341666666667,4.9
COM8,507,25-Apr-19,2019-04-25 14:00:00,0.3609,0.35385,0.33648333333333,0.33273333333333,0.32275,0.31473333333333,0.32371666666667,4.9
COM8,507,25-Apr-19,2019-04-25 15:00:00,0.28126666666667,0.29093333333333,0.27861666666667,0.27606666666667,0.26925,0.2651,0.27288333333333,4.9
COM8,507,25-Apr-19,2019-04-25 16:00:00,0.30003333333333,0.30498333333333,0.29163333333333,0.28878333333333,0.27886666666667,0.26903333333332996,0.276,4.9
COM8,507,25-Apr-19,2019-04-25 17:00:00,0.70286666666667,0.51846666666667,0.45683333333333,0.42445,0.3927,0.35788333333333,0.36545,4.9
COM8,507,25-Apr-19,2019-04-25 18:00:00,0.38831666666667,0.34198333333333003,0.31306666666667,0.29911666666667,0.28353333333333003,0.26811666666667006,0.27375,4.9
COM8,507,25-Apr-19,2019-04-25 19:00:00,0.48478333333333,0.42278333333333,0.38586666666667,0.37238333333333,0.3516,0.32961666666667,0.33595,4.9
COM8,507,25-Apr-19,2019-04-25 20:00:00,0.6378333333333299,0.5791833333333299,0.5381,0.5235,0.49903333333333,0.4731,0.4834,4.9
COM8,507,25-Apr-19,2019-04-25 21:00:00,0.50028333333333,0.46221666666667,0.43181666666667,0.42213333333333003,0.40235,0.38365,0.3916,4.9
COM8,507,25-Apr-19,2019-04-25 22:00:00,0.205,0.19926666666667003,0.18758333333332997,0.1836,0.17511666666667003,0.16553333333332998,0.16899999999999998,4.9
COM8,507,25-Apr-19,2019-04-25 23:00:00,0.0642,0.065816666666667,0.06105,0.060616666666667,0.056366666666666995,0.052266666666666996,0.053266666666667,4.9
