COM8,507,04-Dec-19,2019-12-04 00:00:00,4.5444915254237,3.6420169491525,3.2829322033897994,3.1238983050847,2.9121525423728998,2.7238813559322,2.7853389830508,4.9
COM8,507,04-Dec-19,2019-12-04 01:00:00,2.4997333333332996,2.0060833333333,1.79405,1.69745,1.5753666666666999,1.4639833333333,1.4971,4.9
COM8,507,04-Dec-19,2019-12-04 02:00:00,2.7716333333332996,2.3258333333333,2.09165,1.9866833333333,1.8479833333333,1.71635,1.7518833333333002,4.9
COM8,507,04-Dec-19,2019-12-04 03:00:00,2.6208833333332997,2.2228833333332996,1.9974166666667,1.9118666666667,1.7853333333333001,1.6562666666666999,1.69185,4.9
COM8,507,04-Dec-19,2019-12-04 04:00:00,2.8997666666667,2.4126833333332995,2.1564666666667,2.0474166666666997,1.8959833333333,1.7528666666666999,1.78645,4.9
COM8,507,04-Dec-19,2019-12-04 05:00:00,2.2845833333332997,1.9570166666667,1.7486166666667,1.6516333333333,1.5281,1.4070833333333002,1.4312666666667,4.8133333333333
COM8,507,04-Dec-19,2019-12-04 06:00:00,2.0606,1.82905,1.6407666666667,1.5554666666666999,1.4477333333333,1.3290166666667,1.3543666666667,4.8
COM8,507,04-Dec-19,2019-12-04 07:00:00,2.8875333333332995,2.4868833333333,2.2275666666667004,2.1281166666667,1.9693333333333,1.8120833333333,1.8472166666667,4.8
COM8,507,04-Dec-19,2019-12-04 08:00:00,4.8938333333332995,4.26825,3.8592333333332998,3.6914,3.4472833333332997,3.2156166666667003,3.2846166666667003,4.8
COM8,507,04-Dec-19,2019-12-04 09:00:00,4.34325,3.9339999999999997,3.5740833333333,3.44745,3.22025,2.99085,3.0480166666667,4.8
COM8,507,04-Dec-19,2019-12-04 10:00:00,4.103133333333299,3.74335,3.4278833333332996,3.3029833333333,3.1006833333332997,2.87445,2.9373166666667,4.7466666666667
COM8,507,04-Dec-19,2019-12-04 11:00:00,6.278633333333301,5.5496333333333006,5.034533333333299,4.8273833333333,4.5148,4.1741333333333,4.26215,4.7
COM8,507,04-Dec-19,2019-12-04 12:00:00,6.31195,5.475683333333301,4.9661833333333,4.7755166666667,4.4602166666667005,4.1379333333333,4.2219166666667,4.6216666666667
COM8,507,04-Dec-19,2019-12-04 13:00:00,2.5494833333332996,2.4416166666667003,2.3314,2.3113166666667,2.2532,2.227,2.2929666666667003,4.845
COM8,507,04-Dec-19,2019-12-04 14:00:00,2.3181166666667004,2.3138833333332998,2.2089333333332997,2.19,2.1378166666667,2.1286,2.1893,5.1
COM8,507,04-Dec-19,2019-12-04 15:00:00,2.86745,2.92335,2.8160333333332996,2.81265,2.75055,2.7479333333333,2.8318833333332996,5.0766666666667
COM8,507,04-Dec-19,2019-12-04 16:00:00,4.1216666666667,4.0915166666667,3.9122,3.8913333333332996,3.79145,3.7773166666667004,3.8961166666667,5.0
COM8,507,04-Dec-19,2019-12-04 17:00:00,4.6980166666667005,4.6650166666667,4.4592333333333,4.4369666666667005,4.3060666666667,4.2519666666667,4.3836666666667,4.998333333333299
COM8,507,04-Dec-19,2019-12-04 18:00:00,6.31125,6.0325333333333,5.6975833333333,5.6254666666667,5.4059666666667,5.2594166666667,5.4151333333333005,4.9
COM8,507,04-Dec-19,2019-12-04 19:00:00,7.5354666666667,6.965266666666699,6.4776,6.33895,6.0315333333333,5.7700166666667,5.9326166666667,4.9
COM8,507,04-Dec-19,2019-12-04 20:00:00,9.5241833333333,8.441,7.713766666666699,7.46655,7.0199833333333,6.5729666666667,6.742316666666699,4.8166666666667
COM8,507,04-Dec-19,2019-12-04 21:00:00,9.4363166666667,8.446766666666699,7.69135,7.45875,7.01295,6.59025,6.7615333333333005,4.8
COM8,507,04-Dec-19,2019-12-04 22:00:00,8.521466666666699,7.570066666666699,6.8440166666666995,6.5894,6.15505,5.7246833333333,5.86735,4.8
COM8,507,04-Dec-19,2019-12-04 23:00:00,8.1763833333333,7.1732166666667,6.4168833333333,6.12925,5.66755,5.180083333333299,5.2923166666667,4.7616666666667005
