COM7,0507,11-Jan-19,2019-01-11 00:00:00,2.5502711864407,2.3145254237288,2.1218644067797,2.0588644067797,1.9203220338983,1.7955762711864,1.8403898305085,4.8,0,0,0,0,0,0,0,0,0,0,0,0,0,0,0,0,0,0,0,0,0,0,0,0,0,0,0,0,0,0,0,0,0,0,0,0,0,0,0,0,0,0
COM7,0507,11-Jan-19,2019-01-11 01:00:00,3.0425,2.7138833333333,2.4842166666667,2.4072833333333,2.2398666666667,2.0822666666667,2.1336833333333,4.8,0,0,0,0,0,0,0,0,0,0,0,0,0,0,0,0,0,0,0,0,0,0,0,0,0,0,0,0,0,0,0,0,0,0,0,0,0,0,0,0,0,0
COM7,0507,11-Jan-19,2019-01-11 02:00:00,2.53175,2.23865,2.0413,1.97785,1.83665,1.7086166666667,1.74885,4.8,0,0,0,0,0,0,0,0,0,0,0,0,0,0,0,0,0,0,0,0,0,0,0,0,0,0,0,0,0,0,0,0,0,0,0,0,0,0,0,0,0,0
COM7,0507,11-Jan-19,2019-01-11 03:00:00,1.7828166666667,1.5523666666667,1.4077333333333,1.3555833333333,1.25205,1.1521833333333,1.1777333333333,4.8,0,0,0,0,0,0,0,0,0,0,0,0,0,0,0,0,0,0,0,0,0,0,0,0,0,0,0,0,0,0,0,0,0,0,0,0,0,0,0,0,0,0
COM7,0507,11-Jan-19,2019-01-11 04:00:00,1.4970333333333,1.3815,1.2773,1.25355,1.1746666666667,1.1063666666667,1.1342666666667,4.8,0,0,0,0,0,0,0,0,0,0,0,0,0,0,0,0,0,0,0,0,0,0,0,0,0,0,0,0,0,0,0,0,0,0,0,0,0,0,0,0,0,0
COM7,0507,11-Jan-19,2019-01-11 05:00:00,1.1081666666667,1.04475,0.96826666666667,0.9516,0.89568333333333,0.84176666666667,0.86566666666667,4.8,0,0,0,0,0,0,0,0,0,0,0,0,0,0,0,0,0,0,0,0,0,0,0,0,0,0,0,0,0,0,0,0,0,0,0,0,0,0,0,0,0,0
COM7,0507,11-Jan-19,2019-01-11 06:00:00,1.1296166666667,1.04965,0.96936666666667,0.9501,0.88728333333333,0.83571666666667,0.85341666666667,4.8,0,0,0,0,0,0,0,0,0,0,0,0,0,0,0,0,0,0,0,0,0,0,0,0,0,0,0,0,0,0,0,0,0,0,0,0,0,0,0,0,0,0
COM7,0507,11-Jan-19,2019-01-11 07:00:00,0.565,0.56003333333333,0.52356666666667,0.51535,0.47798333333333,0.43956666666667,0.4513,4.8,0,0,0,0,0,0,0,0,0,0,0,0,0,0,0,0,0,0,0,0,0,0,0,0,0,0,0,0,0,0,0,0,0,0,0,0,0,0,0,0,0,0
COM7,0507,11-Jan-19,2019-01-11 08:00:00,0.65048333333333,0.63483333333333,0.58621666666667,0.57295,0.53225,0.489,0.50013333333333,4.8,0,0,0,0,0,0,0,0,0,0,0,0,0,0,0,0,0,0,0,0,0,0,0,0,0,0,0,0,0,0,0,0,0,0,0,0,0,0,0,0,0,0
COM7,0507,11-Jan-19,2019-01-11 09:00:00,0.8836,0.81433333333333,0.75088333333333,0.73021666666667,0.6762,0.6215,0.63451666666667,4.775,0,0,0,0,0,0,0,0,0,0,0,0,0,0,0,0,0,0,0,0,0,0,0,0,0,0,0,0,0,0,0,0,0,0,0,0,0,0,0,0,0,0
COM7,0507,11-Jan-19,2019-01-11 10:00:00,0.75665,0.71385,0.65946666666667,0.64013333333333,0.59446666666667,0.54758333333333,0.55713333333333,4.6216666666667,0,0,0,0,0,0,0,0,0,0,0,0,0,0,0,0,0,0,0,0,0,0,0,0,0,0,0,0,0,0,0,0,0,0,0,0,0,0,0,0,0,0
COM7,0507,11-Jan-19,2019-01-11 11:00:00,0.79168333333333,0.70985,0.68338333333333,0.67831666666667,0.65856666666667,0.64515,0.66553333333333,4.75,0,0,0,0,0,0,0,0,0,0,0,0,0,0,0,0,0,0,0,0,0,0,0,0,0,0,0,0,0,0,0,0,0,0,0
COM7,0507,11-Jan-19,2019-01-11 12:00:00,0.83285,0.78666666666667,0.74463333333333,0.73383333333333,0.70628333333333,0.68991666666667,0.70636666666667,5,0,0,0,0,0,0,0,0,0,0,0,0,0,0,0,0,0,0,0,0,0,0,0,0,0,0,0,0,0,0,0,0,0,0,0,0,0,0,0,0,0,0
COM7,0507,11-Jan-19,2019-01-11 13:00:00,0.94318333333333,0.95868333333333,0.91363333333333,0.9039,0.87566666666667,0.86471666666667,0.88701666666667,4.98,0,0,0,0,0,0,0,0,0,0,0,0,0,0,0,0,0,0,0,0,0,0,0,0,0,0,0,0,0,0,0,0,0,0,0,0,0,0,0,0,0,0
COM7,0507,11-Jan-19,2019-01-11 14:00:00,1.0514666666667,1.0935166666667,1.0522166666667,1.04995,1.0211666666667,1.0126833333333,1.0383,4.9,0,0,0,0,0,0,0,0,0,0,0,0,0,0,0,0,0,0,0,0,0,0,0,0,0,0,0,0,0,0,0,0,0,0,0,0,0,0,0,0,0,0
COM7,0507,11-Jan-19,2019-01-11 15:00:00,0.97468333333333,1.0011833333333,0.96248333333333,0.95718333333333,0.93006666666667,0.92013333333333,0.94531666666667,4.9,0,0,0,0,0,0,0,0,0,0,0,0,0,0,0,0,0,0,0,0,0,0,0,0,0,0,0,0,0,0,0,0,0,0,0,0,0,0,0,0,0,0
COM7,0507,11-Jan-19,2019-01-11 16:00:00,1.3566333333333,1.3805666666667,1.3279333333333,1.3257666666667,1.2893666666667,1.2824666666667,1.3184166666667,4.9,0,0,0,0,0,0,0,0,0,0,0,0,0,0,0,0,0,0,0,0,0,0,0,0,0,0,0,0,0,0,0,0,0,0,0,0,0,0,0,0,0,0
COM7,0507,11-Jan-19,2019-01-11 17:00:00,1.2061666666667,1.2050666666667,1.1562833333333,1.1500333333333,1.1148166666667,1.0973,1.1269333333333,4.9,0,0,0,0,0,0,0,0,0,0,0,0,0,0,0,0,0,0,0,0,0,0,0,0,0,0,0,0,0,0,0,0,0,0,0,0,0,0,0,0,0,0
COM7,0507,11-Jan-19,2019-01-11 18:00:00,1.7243166666667,1.6166333333333,1.5288666666667,1.5083,1.44435,1.4038666666667,1.4411333333333,4.9,0,0,0,0,0,0,0,0,0,0,0,0,0,0,0,0,0,0,0,0,0,0,0,0,0,0,0,0,0,0,0,0,0,0,0,0,0,0,0,0,0,0
COM7,0507,11-Jan-19,2019-01-11 19:00:00,1.9961166666667,1.8102833333333,1.6996166666667,1.6621166666667,1.5844333333333,1.5252833333333,1.56315,4.9,0,0,0,0,0,0,0,0,0,0,0,0,0,0,0,0,0,0,0,0,0,0,0,0,0,0,0,0,0,0,0,0,0,0,0,0,0,0,0,0,0,0
COM7,0507,11-Jan-19,2019-01-11 20:00:00,2.60335,2.2013166666667,2.0412666666667,1.98315,1.87265,1.7820833333333,1.8262333333333,4.8433333333333,0,0,0,0,0,0,0,0,0,0,0,0,0,0,0,0,0,0,0,0,0,0,0,0,0,0,0,0,0,0,0,0,0,0,0,0,0,0,0,0,0,0
COM7,0507,11-Jan-19,2019-01-11 21:00:00,2.3630166666667,2.1000833333333,1.9629833333333,1.9078333333333,1.8032166666667,1.7235666666667,1.7672333333333,4.8,0,0,0,0,0,0,0,0,0,0,0,0,0,0,0,0,0,0,0,0,0,0,0,0,0,0,0,0,0,0,0,0,0,0,0,0,0,0,0,0,0,0
COM7,0507,11-Jan-19,2019-01-11 22:00:00,1.7867,1.5798833333333,1.4693666666667,1.4299,1.3469666666667,1.2693833333333,1.2992166666667,4.8,0,0,0,0,0,0,0,0,0,0,0,0,0,0,0,0,0,0,0,0,0,0,0,0,0,0,0,0,0,0,0,0,0,0,0,0,0,0,0,0,0,0
COM7,0507,11-Jan-19,2019-01-11 23:00:00,2.1335833333333,1.8836333333333,1.7481,1.69725,1.5958666666667,1.50745,1.54535,4.8,0,0,0,0,0,0,0,0,0,0,0,0,0,0,0,0,0,0,0,0,0,0,0,0,0,0,0,0,0,0,0,0,0,0,0,0,0,0,0,0,0,0
