COM8,507,15-Sep-19,2019-09-15 00:00:00,0.45503389830508,0.40033898305085,0.36901694915253996,0.35662711864407004,0.33632203389831,0.31586440677966,0.32381355932203004,5.1
COM8,507,15-Sep-19,2019-09-15 01:00:00,0.33653333333333,0.29965,0.27816666666667,0.27008333333332996,0.25536666666667,0.23843333333332997,0.24458333333332996,5.1
COM8,507,15-Sep-19,2019-09-15 02:00:00,0.28031666666667,0.26496666666667,0.24648333333332997,0.23871666666667002,0.22561666666667002,0.21145,0.21611666666667004,5.1
COM8,507,15-Sep-19,2019-09-15 03:00:00,0.27025,0.25051666666667005,0.23198333333332996,0.22585,0.21265,0.19778333333332998,0.20145,5.0683333333333
COM8,507,15-Sep-19,2019-09-15 04:00:00,0.298,0.27508333333333,0.2548,0.24881666666667004,0.23631666666667003,0.2217,0.2277,5.001666666666701
COM8,507,15-Sep-19,2019-09-15 05:00:00,0.33211666666667,0.30351666666667,0.28313333333333,0.2776,0.26313333333332994,0.24748333333332997,0.25391666666667,5.0
COM8,507,15-Sep-19,2019-09-15 06:00:00,0.39831666666667,0.36576666666667,0.34051666666667,0.33376666666667,0.31845,0.30241666666667,0.30993333333333,5.0
COM8,507,15-Sep-19,2019-09-15 07:00:00,0.3098,0.28698333333333,0.26588333333333,0.26076666666667003,0.24608333333332996,0.2308,0.23603333333332996,5.0
COM8,507,15-Sep-19,2019-09-15 08:00:00,0.39093333333333,0.37473333333333003,0.3539,0.35138333333333,0.33668333333333,0.32535,0.33293333333333003,5.0
COM8,507,15-Sep-19,2019-09-15 09:00:00,2.2020333333332998,2.0158333333333,1.8592666666667,1.7994,1.6790666666667,1.53295,1.5628833333333,5.0
COM8,507,15-Sep-19,2019-09-15 10:00:00,0.73675,0.58215,0.51496666666667,0.48745,0.44855,0.401,0.40843333333333,5.0
COM8,507,15-Sep-19,2019-09-15 11:00:00,0.35005,0.3086,0.28231666666667,0.27088333333333,0.25275,0.22445,0.22911666666667002,5.0
COM8,507,15-Sep-19,2019-09-15 12:00:00,0.25376666666667,0.21488333333332996,0.19285,0.18511666666667004,0.17105,0.15023333333333,0.15305,5.0
COM8,507,15-Sep-19,2019-09-15 13:00:00,0.23503333333332996,0.19258333333332997,0.17413333333332998,0.1666,0.15598333333332998,0.13561666666667,0.14101666666667,4.68
COM8,507,15-Sep-19,2019-09-15 14:00:00,0.27958333333333,0.18088333333332998,0.17068333333332997,0.16766666666667002,0.16166666666667,0.15335,0.15755,5.1
COM8,507,15-Sep-19,2019-09-15 15:00:00,0.21336666666667004,0.17001666666667004,0.15935,0.15551666666667002,0.14845,0.13865,0.14096666666667002,5.1
COM8,507,15-Sep-19,2019-09-15 16:00:00,0.19311666666667004,0.1782,0.16721666666667,0.16386666666667002,0.15698333333332998,0.14826666666667002,0.15191666666667,5.1
COM8,507,15-Sep-19,2019-09-15 17:00:00,0.19575,0.1843,0.17338333333332998,0.17003333333332996,0.1642,0.16013333333333,0.1635,5.1
COM8,507,15-Sep-19,2019-09-15 18:00:00,0.27255,0.25186666666667,0.2351,0.22803333333332998,0.2183,0.21088333333332998,0.2153,5.1
COM8,507,15-Sep-19,2019-09-15 19:00:00,0.16803333333332998,0.14636666666667,0.13575,0.13226666666667,0.12503333333333,0.11736666666666999,0.1192,5.1
COM8,507,15-Sep-19,2019-09-15 20:00:00,0.21875,0.1805,0.16466666666667001,0.15678333333333,0.14863333333332998,0.14113333333332997,0.14368333333333,5.1
COM8,507,15-Sep-19,2019-09-15 21:00:00,0.28766666666667,0.26108333333332995,0.24451666666667002,0.23878333333332996,0.22773333333332996,0.21705,0.22146666666667003,5.1
COM8,507,15-Sep-19,2019-09-15 22:00:00,0.21945,0.19525,0.18273333333332997,0.17835,0.16991666666667002,0.15885,0.162,5.1
COM8,507,15-Sep-19,2019-09-15 23:00:00,0.19899999999999998,0.17858333333332996,0.1681,0.16476666666667,0.15778333333333,0.14986666666667,0.15176666666667002,5.1
