COM8,507,15-Feb-20,2020-02-15 00:00:00,0.28489830508475,0.29222033898305,0.28042372881356004,0.27935593220339,0.26961016949153,0.26067796610169003,0.26583050847457995,5.0
COM8,507,15-Feb-20,2020-02-15 01:00:00,0.24123333333332997,0.24036666666667003,0.22868333333332996,0.2263,0.21616666666667003,0.20305,0.20646666666667005,5.0
COM8,507,15-Feb-20,2020-02-15 02:00:00,0.23221666666667004,0.21245,0.19943333333332997,0.1951,0.18673333333332998,0.17318333333332997,0.17531666666667003,5.0
COM8,507,15-Feb-20,2020-02-15 03:00:00,0.27215,0.2555,0.24103333333332996,0.23696666666667004,0.22548333333332995,0.21193333333332998,0.21505,5.0
COM8,507,15-Feb-20,2020-02-15 04:00:00,0.28626666666667,0.26973333333333,0.25513333333333,0.2515,0.24135,0.22736666666667002,0.2313,5.0
COM8,507,15-Feb-20,2020-02-15 05:00:00,0.24618333333332998,0.23406666666667003,0.22053333333332997,0.21806666666667004,0.2093,0.19581666666667003,0.19853333333332998,5.0
COM8,507,15-Feb-20,2020-02-15 06:00:00,0.24671666666667003,0.23461666666667003,0.22268333333332996,0.2197,0.20978333333332996,0.19643333333332996,0.20021666666667004,5.0
COM8,507,15-Feb-20,2020-02-15 07:00:00,0.4596,0.43115,0.40668333333333,0.40043333333333003,0.38218333333333,0.3544,0.35921666666667,5.0
COM8,507,15-Feb-20,2020-02-15 08:00:00,0.6509,0.59393333333333,0.5559,0.54543333333333,0.51831666666667,0.47988333333333,0.48561666666666997,5.0
COM8,507,15-Feb-20,2020-02-15 09:00:00,0.51673333333333,0.48331666666667,0.45116666666667,0.44135,0.42078333333333,0.3931,0.39981666666667,4.9383333333333
COM8,507,15-Feb-20,2020-02-15 10:00:00,0.5650833333333299,0.54155,0.51093333333333,0.50473333333333,0.48355,0.4535,0.46246666666666997,4.9
COM8,507,15-Feb-20,2020-02-15 11:00:00,0.6138666666666701,0.55973333333333,0.52013333333333,0.50645,0.48123333333333,0.4447,0.45138333333333003,4.9
COM8,507,15-Feb-20,2020-02-15 12:00:00,0.5657,0.53641666666667,0.5066,0.50045,0.47885,0.44338333333333,0.4529,4.9
COM8,507,15-Feb-20,2020-02-15 13:00:00,0.54,0.50413333333333,0.47546666666667,0.46635,0.44825,0.41335,0.42041666666667,4.9
COM8,507,15-Feb-20,2020-02-15 14:00:00,0.54813333333333,0.48093333333333,0.44831666666666997,0.43815,0.42163333333333003,0.39695,0.40981666666667,4.6116666666667
COM8,507,15-Feb-20,2020-02-15 15:00:00,0.50526666666667,0.40986666666667,0.39365,0.38718333333333,0.37426666666666997,0.36366666666666997,0.3737,5.0
COM8,507,15-Feb-20,2020-02-15 16:00:00,0.42331666666667,0.3793,0.3572,0.35051666666667,0.33598333333333,0.32298333333333,0.33085,5.0
COM8,507,15-Feb-20,2020-02-15 17:00:00,0.71511666666667,0.5986,0.5542,0.53753333333333,0.50918333333333,0.47838333333333,0.4882,5.0
COM8,507,15-Feb-20,2020-02-15 18:00:00,0.93478333333333,0.73333333333333,0.6623833333333299,0.63381666666667,0.5990666666666701,0.5654333333333299,0.5771833333333299,5.0
COM8,507,15-Feb-20,2020-02-15 19:00:00,1.3972166666666999,1.0030166666667,0.89421666666667,0.84978333333333,0.79841666666667,0.7456,0.75985,5.0
COM8,507,15-Feb-20,2020-02-15 20:00:00,1.4388333333333,1.0588,0.94953333333333,0.9079,0.85246666666667,0.79293333333333,0.80671666666667,5.0
COM8,507,15-Feb-20,2020-02-15 21:00:00,2.0248666666667,1.5830666666667,1.47625,1.4651833333333,1.4222166666667,1.3792166666666998,1.4115166666666998,4.93
COM8,507,15-Feb-20,2020-02-15 22:00:00,2.5316166666667,1.8129666666667,1.6640666666667,1.6383166666667,1.5783166666667,1.4888333333333001,1.5196,4.9
COM8,507,15-Feb-20,2020-02-15 23:00:00,3.6215166666667002,2.3329,2.11165,2.0605333333333,1.9696833333333001,1.8115,1.8441666666667,4.9
