COM8,507,24-Feb-20,2020-02-24 00:00:00,0.099406779661017,0.10532203389830999,0.10037288135592999,0.09933898305084699,0.095305084745763,0.09216949152542402,0.093610169491525,4.9
COM8,507,24-Feb-20,2020-02-24 01:00:00,0.1618,0.15333333333333,0.14418333333333,0.14076666666667,0.13576666666667,0.13463333333333,0.13836666666667002,4.9
COM8,507,24-Feb-20,2020-02-24 02:00:00,0.092016666666667,0.09095,0.083266666666667,0.078866666666667,0.07626666666666701,0.080116666666667,0.082933333333333,4.9
COM8,507,24-Feb-20,2020-02-24 03:00:00,0.04835,0.04435,0.041316666666667,0.041083333333333,0.036916666666667,0.03351666666666701,0.036333333333333,4.9
COM8,507,24-Feb-20,2020-02-24 04:00:00,0.061166666666666994,0.054383333333333006,0.05078333333333301,0.049616666666666996,0.050433333333333004,0.053983333333333,0.05505,4.9
COM8,507,24-Feb-20,2020-02-24 05:00:00,0.039066666666667,0.043383333333333,0.041966666666667,0.041533333333333,0.0413,0.04465,0.046066666666667,4.9
COM8,507,24-Feb-20,2020-02-24 06:00:00,0.08891666666666699,0.092466666666667,0.088183333333333,0.089083333333333,0.08765,0.09088333333333301,0.094083333333333,4.9
COM8,507,24-Feb-20,2020-02-24 07:00:00,0.15005,0.15465,0.14755,0.14773333333333,0.14426666666667,0.14605,0.15101666666667002,4.9
COM8,507,24-Feb-20,2020-02-24 08:00:00,0.16113333333333,0.16483333333332997,0.15836666666667001,0.15801666666667002,0.15461666666667,0.15541666666667,0.15925,4.9
COM8,507,24-Feb-20,2020-02-24 09:00:00,0.13626666666667,0.13865,0.13311666666667,0.13301666666667,0.12948333333333,0.12861666666667,0.13346666666666998,4.9
COM8,507,24-Feb-20,2020-02-24 10:00:00,0.12418333333333001,0.12205,0.1163,0.11461666666666999,0.11156666666666999,0.1082,0.11165,4.9
COM8,507,24-Feb-20,2020-02-24 11:00:00,0.07505,0.076966666666667,0.072983333333333,0.07285,0.07121666666666701,0.068316666666667,0.071166666666667,4.9
COM8,507,24-Feb-20,2020-02-24 12:00:00,0.06315,0.06415,0.06256666666666699,0.061633333333333006,0.0608,0.060366666666667,0.063483333333333,4.9
COM8,507,24-Feb-20,2020-02-24 13:00:00,0.06921666666666701,0.071633333333333,0.0691,0.069566666666667,0.06895,0.068466666666667,0.070433333333333,4.9
COM8,507,24-Feb-20,2020-02-24 14:00:00,0.089033333333333,0.07515,0.07013333333333299,0.070916666666667,0.070683333333333,0.069116666666667,0.07525,4.6166666666667
COM8,507,24-Feb-20,2020-02-24 15:00:00,0.14598245614035002,0.076140350877193,0.07036842105263201,0.07042105263157901,0.072964912280702,0.07340350877193,0.07996491228070199,4.4684210526316
COM8,507,24-Feb-20,2020-02-24 16:00:00,0.14725,0.0695,0.07021666666666701,0.071633333333333,0.07121666666666701,0.071816666666667,0.07558333333333299,5.1
COM8,507,24-Feb-20,2020-02-24 17:00:00,0.10381666666667,0.07285,0.07088333333333299,0.06945,0.068133333333333,0.065383333333333,0.06915,5.1
COM8,507,24-Feb-20,2020-02-24 18:00:00,0.11408333333333001,0.10575,0.0981,0.09353333333333301,0.0898,0.08576666666666702,0.08825,5.0766666666667
COM8,507,24-Feb-20,2020-02-24 19:00:00,0.096733333333333,0.09895,0.093116666666667,0.09181666666666699,0.0892,0.090266666666667,0.09328333333333301,5.0616666666667
COM8,507,24-Feb-20,2020-02-24 20:00:00,0.13968333333333,0.12806666666667,0.1187,0.11458333333333001,0.1098,0.10478333333333001,0.10735,5.0266666666667
COM8,507,24-Feb-20,2020-02-24 21:00:00,0.17078333333332996,0.15853333333332997,0.14821666666667002,0.14493333333333,0.13925,0.13765,0.14138333333332997,5.05
COM8,507,24-Feb-20,2020-02-24 22:00:00,0.2,0.19045,0.179,0.17551666666667004,0.16878333333332995,0.16485,0.16975,5.0516666666667005
COM8,507,24-Feb-20,2020-02-24 23:00:00,0.051033898305085,0.05471186440678,0.052915254237288,0.051610169491525006,0.050338983050847,0.04888135593220299,0.049898305084746,5.0118644067797
