COM7,0507,2019-03-19,2019-03-19 00:00:00,NaN,NaN,NaN,NaN,NaN,NaN,NaN,NaN
COM7,0507,2019-03-19,2019-03-19 01:00:00,NaN,NaN,NaN,NaN,NaN,NaN,NaN,NaN
COM7,0507,2019-03-19,2019-03-19 02:00:00,NaN,NaN,NaN,NaN,NaN,NaN,NaN,NaN
COM7,0507,2019-03-19,2019-03-19 03:00:00,NaN,NaN,NaN,NaN,NaN,NaN,NaN,NaN
COM7,0507,2019-03-19,2019-03-19 04:00:00,NaN,NaN,NaN,NaN,NaN,NaN,NaN,NaN
COM7,0507,2019-03-19,2019-03-19 05:00:00,NaN,NaN,NaN,NaN,NaN,NaN,NaN,NaN
COM7,0507,2019-03-19,2019-03-19 06:00:00,NaN,NaN,NaN,NaN,NaN,NaN,NaN,NaN
COM7,0507,2019-03-19,2019-03-19 07:00:00,NaN,NaN,NaN,NaN,NaN,NaN,NaN,NaN
COM7,0507,2019-03-19,2019-03-19 08:00:00,NaN,NaN,NaN,NaN,NaN,NaN,NaN,NaN
COM7,0507,2019-03-19,2019-03-19 09:00:00,NaN,NaN,NaN,NaN,NaN,NaN,NaN,NaN
COM7,0507,2019-03-19,2019-03-19 10:00:00,NaN,NaN,NaN,NaN,NaN,NaN,NaN,NaN
COM7,0507,2019-03-19,2019-03-19 11:00:00,NaN,NaN,NaN,NaN,NaN,NaN,NaN,NaN
COM7,0507,2019-03-19,2019-03-19 12:00:00,NaN,NaN,NaN,NaN,NaN,NaN,NaN,NaN
COM7,0507,2019-03-19,2019-03-19 13:00:00,NaN,NaN,NaN,NaN,NaN,NaN,NaN,NaN
COM7,0507,2019-03-19,2019-03-19 14:00:00,NaN,NaN,NaN,NaN,NaN,NaN,NaN,NaN
COM7,0507,2019-03-19,2019-03-19 15:00:00,NaN,NaN,NaN,NaN,NaN,NaN,NaN,NaN
COM7,0507,2019-03-19,2019-03-19 16:00:00,NaN,NaN,NaN,NaN,NaN,NaN,NaN,NaN
COM7,0507,2019-03-19,2019-03-19 17:00:00,NaN,NaN,NaN,NaN,NaN,NaN,NaN,NaN
COM7,0507,2019-03-19,2019-03-19 18:00:00,NaN,NaN,NaN,NaN,NaN,NaN,NaN,NaN
COM7,0507,2019-03-19,2019-03-19 19:00:00,NaN,NaN,NaN,NaN,NaN,NaN,NaN,NaN
COM7,0507,2019-03-19,2019-03-19 20:00:00,NaN,NaN,NaN,NaN,NaN,NaN,NaN,NaN
COM7,0507,2019-03-19,2019-03-19 21:00:00,NaN,NaN,NaN,NaN,NaN,NaN,NaN,NaN
COM7,0507,2019-03-19,2019-03-19 22:00:00,NaN,NaN,NaN,NaN,NaN,NaN,NaN,NaN
COM7,0507,2019-03-19,2019-03-19 23:00:00,NaN,NaN,NaN,NaN,NaN,NaN,NaN,NaN
