COM8,507,05-Mar-20,2020-03-05 00:00:00,0.34949152542373,0.36798305084746,0.35288135593220005,0.34854237288136,0.33561016949153005,0.32076271186440997,0.32806779661017,5.0
COM8,507,05-Mar-20,2020-03-05 01:00:00,0.44116666666667,0.36128333333333,0.33035,0.31771666666667,0.29881666666667,0.27578333333333,0.28123333333333,5.0
COM8,507,05-Mar-20,2020-03-05 02:00:00,0.34658333333333,0.31203333333333,0.29393333333333,0.28655,0.27106666666667,0.25418333333333,0.2595,5.0
COM8,507,05-Mar-20,2020-03-05 03:00:00,0.36495,0.35291666666667,0.33351666666667,0.32616666666667,0.31168333333333,0.29231666666667,0.2983,5.0
COM8,507,05-Mar-20,2020-03-05 04:00:00,0.38715,0.37556666666667,0.3566,0.34983333333333,0.33458333333333,0.31588333333333,0.32235,5.0
COM8,507,05-Mar-20,2020-03-05 05:00:00,0.39753333333333,0.384,0.3646,0.36028333333333,0.34533333333333,0.3269,0.33335,5.0
COM8,507,05-Mar-20,2020-03-05 06:00:00,0.6274,0.5958,0.5616333333333299,0.5544833333333299,0.53181666666667,0.50103333333333,0.51243333333333,5.0
COM8,507,05-Mar-20,2020-03-05 07:00:00,1.05145,0.9067666666666699,0.84203333333333,0.82151666666667,0.77733333333333,0.71618333333333,0.72906666666667,5.0
COM8,507,05-Mar-20,2020-03-05 08:00:00,1.0130833333333,0.98761666666667,0.93431666666667,0.92476666666667,0.8839,0.82691666666667,0.84461666666667,4.998333333333299
COM8,507,05-Mar-20,2020-03-05 09:00:00,1.3128333333333,1.1534666666667,1.0612666666666999,1.03325,0.97461666666667,0.88973333333333,0.9057,4.9016666666667
COM8,507,05-Mar-20,2020-03-05 10:00:00,0.90611666666667,0.85988333333333,0.80505,0.78926666666667,0.75248333333333,0.69523333333333,0.7091833333333301,4.9
COM8,507,05-Mar-20,2020-03-05 11:00:00,1.2627666666667,1.1858,1.1047833333333001,1.0829166666667,1.0270000000000001,0.94621666666667,0.9666,4.9
COM8,507,05-Mar-20,2020-03-05 12:00:00,2.6169666666667,2.1697333333333,1.9569666666667,1.8726833333333,1.7525,1.5772666666667,1.6042333333333,4.9
COM8,507,05-Mar-20,2020-03-05 13:00:00,1.4531666666667,1.1403166666667,1.01395,0.96743333333333,0.90286666666667,0.79883333333333,0.81578333333333,4.83
COM8,507,05-Mar-20,2020-03-05 14:00:00,0.25146666666667006,0.26313333333332994,0.24868333333332998,0.2426,0.2323,0.2073,0.21355,4.8
COM8,507,05-Mar-20,2020-03-05 15:00:00,0.16916666666667002,0.14836666666667,0.13843333333333,0.13551666666667,0.13281666666667,0.11993333333333,0.12713333333333002,4.5666666666667
COM8,507,05-Mar-20,2020-03-05 16:00:00,0.23181666666667003,0.14691666666667003,0.14555,0.1449,0.141,0.13546666666666998,0.13998333333333,5.0
COM8,507,05-Mar-20,2020-03-05 17:00:00,0.16351666666667,0.15043333333332998,0.14643333333332997,0.14535,0.14068333333333,0.13615,0.14001666666667,5.0
COM8,507,05-Mar-20,2020-03-05 18:00:00,0.89665,0.6484666666666701,0.56785,0.53746666666667,0.50686666666667,0.47888333333333,0.48801666666667,5.0
COM8,507,05-Mar-20,2020-03-05 19:00:00,0.701,0.50331666666667,0.43486666666667,0.39941666666667,0.3648,0.3302,0.33406666666667,5.0
COM8,507,05-Mar-20,2020-03-05 20:00:00,0.40895,0.36355,0.33121666666667,0.31683333333333,0.29603333333333,0.28071666666667,0.28493333333333,5.0
COM8,507,05-Mar-20,2020-03-05 21:00:00,0.9079,0.79358333333333,0.73408333333333,0.71361666666667,0.6813,0.65963333333333,0.67378333333333,5.0
COM8,507,05-Mar-20,2020-03-05 22:00:00,0.78768333333333,0.61325,0.5544666666666701,0.53243333333333,0.50258333333333,0.47773333333333,0.48746666666667,5.0
COM8,507,05-Mar-20,2020-03-05 23:00:00,0.45381355932203005,0.40027118644068005,0.37089830508474997,0.36149152542373003,0.34245762711864003,0.32654237288135995,0.33259322033898,5.0
