COM8,507,15-Dec-19,2019-12-15 00:00:00,0.028898305084746,0.11689830508475,0.11767796610169001,0.11432203389830999,0.10815254237288,0.10125423728814001,0.10430508474576,5.1
COM8,507,15-Dec-19,2019-12-15 01:00:00,0.0755,0.11183333333333001,0.10703333333333001,0.10343333333333,0.09621666666666699,0.0875,0.089733333333333,5.1
COM8,507,15-Dec-19,2019-12-15 02:00:00,0.076466666666667,0.09381666666666699,0.090466666666667,0.087966666666667,0.083366666666667,0.07808333333333299,0.07933333333333299,5.1
COM8,507,15-Dec-19,2019-12-15 03:00:00,0.32398333333333,0.2715,0.24745,0.24011666666667003,0.22548333333332995,0.20395,0.20621666666667005,5.1
COM8,507,15-Dec-19,2019-12-15 04:00:00,0.06826666666666699,0.08703333333333299,0.08365,0.08275,0.0773,0.072966666666667,0.0748,5.1
COM8,507,15-Dec-19,2019-12-15 05:00:00,0.17585,0.13866666666667002,0.125,0.12138333333333,0.1151,0.10716666666666999,0.10958333333333001,5.0316666666667
COM8,507,15-Dec-19,2019-12-15 06:00:00,0.32808333333333,0.21818333333332998,0.18908333333332997,0.17693333333332997,0.16265,0.14546666666667002,0.14788333333332998,5.015
COM8,507,15-Dec-19,2019-12-15 07:00:00,0.50068333333333,0.31058333333333,0.26118333333333,0.23945,0.21678333333332997,0.19061666666667004,0.19331666666667002,5.0116666666667005
COM8,507,15-Dec-19,2019-12-15 08:00:00,0.35091666666667,0.3047,0.27366666666667006,0.25878333333333,0.23863333333332998,0.21245,0.21561666666667004,5.0
COM8,507,15-Dec-19,2019-12-15 09:00:00,0.36633333333333,0.35928333333333,0.33728333333333,0.33025,0.31225,0.29278333333333,0.29951666666667,5.0
COM8,507,15-Dec-19,2019-12-15 10:00:00,0.19555,0.22135,0.21188333333332998,0.21003333333332996,0.20138333333332997,0.19316666666667004,0.19835,5.0
COM8,507,15-Dec-19,2019-12-15 11:00:00,0.23128333333332995,0.23745,0.22361666666667004,0.22231666666667002,0.21176666666667004,0.20226666666667004,0.20815,5.0
COM8,507,15-Dec-19,2019-12-15 12:00:00,0.3271,0.32833333333333,0.31366666666667,0.3105,0.30041666666667,0.29085,0.2999,5.0
COM8,507,15-Dec-19,2019-12-15 13:00:00,0.36483333333333,0.31313333333333,0.30181666666667,0.30141666666667,0.2929,0.28416666666667,0.29513333333333003,4.73
COM8,507,15-Dec-19,2019-12-15 14:00:00,0.29125,0.22881666666667003,0.21868333333332995,0.21628333333332997,0.20923333333332997,0.20395,0.20898333333332997,5.1
COM8,507,15-Dec-19,2019-12-15 15:00:00,0.23996666666667002,0.22135,0.20841666666667003,0.20461666666667003,0.19641666666667004,0.19026666666667003,0.19405,5.1
COM8,507,15-Dec-19,2019-12-15 16:00:00,0.19225,0.17375,0.1611,0.15643333333332998,0.1494,0.14233333333332998,0.14581666666667,5.1
COM8,507,15-Dec-19,2019-12-15 17:00:00,0.20016666666667005,0.17776666666667004,0.16441666666667,0.15991666666667,0.15181666666667,0.1457,0.14845,5.1
COM8,507,15-Dec-19,2019-12-15 18:00:00,0.12498333333333,0.11568333333333,0.10738333333333,0.10415,0.0988,0.093766666666667,0.095266666666667,5.1
COM8,507,15-Dec-19,2019-12-15 19:00:00,0.179,0.15361666666667,0.14176666666667,0.13665,0.12855,0.11961666666667,0.12165,5.1
COM8,507,15-Dec-19,2019-12-15 20:00:00,0.1636,0.14088333333332997,0.12991666666666998,0.12553333333333,0.11958333333333,0.11256666666666999,0.11501666666667,5.1
COM8,507,15-Dec-19,2019-12-15 21:00:00,0.21218333333332998,0.18345,0.16906666666667003,0.16441666666667,0.15606666666667002,0.14793333333332997,0.15113333333332998,5.1
COM8,507,15-Dec-19,2019-12-15 22:00:00,0.2111,0.1912,0.17885,0.17508333333332995,0.16678333333332998,0.15848333333332998,0.16201666666667,5.1
COM8,507,15-Dec-19,2019-12-15 23:00:00,0.24751666666667002,0.2076,0.1908,0.18541666666667003,0.17558333333332996,0.16565,0.16855,5.1
