COM8,507,16-Dec-19,2019-12-16 00:00:00,0.23083050847457998,0.19913559322034002,0.18386440677965998,0.17920338983051,0.16971186440678002,0.16013559322034,0.16357627118644,5.1
COM8,507,16-Dec-19,2019-12-16 01:00:00,0.22008333333332997,0.19121666666667003,0.17663333333332998,0.17156666666667003,0.16376666666667,0.15411666666667,0.1573,5.1
COM8,507,16-Dec-19,2019-12-16 02:00:00,0.2415,0.21035,0.19495,0.18951666666667003,0.18055,0.1706,0.17366666666667002,5.1
COM8,507,16-Dec-19,2019-12-16 03:00:00,0.17395,0.15476666666667002,0.14375,0.13965,0.13246666666667,0.12386666666667,0.12673333333333,5.1
COM8,507,16-Dec-19,2019-12-16 04:00:00,0.23478333333332996,0.2005,0.18576666666667002,0.18236666666667004,0.17343333333332997,0.16548333333332998,0.16885,5.1
COM8,507,16-Dec-19,2019-12-16 05:00:00,0.20263333333332997,0.18311666666667004,0.16963333333332997,0.1661,0.15771666666667,0.14896666666667002,0.15181666666667,5.1
COM8,507,16-Dec-19,2019-12-16 06:00:00,0.21953333333332997,0.2052,0.1917,0.18776666666667002,0.17948333333332997,0.1697,0.17386666666667003,5.1
COM8,507,16-Dec-19,2019-12-16 07:00:00,0.40845,0.3697,0.34423333333333,0.33583333333333,0.32026666666667,0.3055,0.31353333333333,5.1
COM8,507,16-Dec-19,2019-12-16 08:00:00,0.6109333333333299,0.54555,0.50701666666667,0.49488333333333,0.47045,0.44511666666667,0.45503333333333,5.1
COM8,507,16-Dec-19,2019-12-16 09:00:00,0.43586666666667,0.42986666666667,0.40661666666667,0.40201666666667,0.38538333333333,0.3727,0.38263333333333,5.1
COM8,507,16-Dec-19,2019-12-16 10:00:00,0.26798333333332996,0.26075,0.24628333333332997,0.24265,0.23141666666667005,0.22015,0.22598333333332996,5.1
COM8,507,16-Dec-19,2019-12-16 11:00:00,0.46263333333333,0.44423333333333,0.42025,0.41461666666667,0.4004,0.38973333333333,0.40165,5.1
COM8,507,16-Dec-19,2019-12-16 12:00:00,0.40131666666667,0.37651666666667,0.3524,0.34598333333333,0.32876666666667,0.31153333333333,0.32,5.1
COM8,507,16-Dec-19,2019-12-16 13:00:00,0.24651666666667002,0.188,0.17421666666667004,0.1702,0.16573333333332999,0.15688333333333,0.16426666666667,4.8216666666667
COM8,507,16-Dec-19,2019-12-16 14:00:00,0.24901666666667002,0.1821,0.17571666666667002,0.17425,0.16665,0.16181666666667002,0.16498333333332998,5.2
COM8,507,16-Dec-19,2019-12-16 15:00:00,0.21331666666667004,0.19311666666667004,0.1829,0.18013333333332998,0.17243333333332997,0.16913333333332997,0.1732,5.2
COM8,507,16-Dec-19,2019-12-16 16:00:00,0.18423333333332997,0.18436666666667004,0.17383333333332998,0.1705,0.1639,0.16025,0.16358333333333,5.2
COM8,507,16-Dec-19,2019-12-16 17:00:00,0.32278333333333,0.2934,0.27216666666667005,0.26461666666667005,0.25218333333333,0.24055,0.24561666666667004,5.2
COM8,507,16-Dec-19,2019-12-16 18:00:00,0.30558333333333,0.23791666666667002,0.21366666666667003,0.20293333333332997,0.1895,0.17541666666667002,0.17873333333332997,5.2
COM8,507,16-Dec-19,2019-12-16 19:00:00,0.78766666666667,0.54125,0.47365,0.44216666666667,0.409,0.36903333333333,0.37455,5.2
COM8,507,16-Dec-19,2019-12-16 20:00:00,0.9259,0.65753333333333,0.5750166666666701,0.53686666666667,0.49363333333333,0.43753333333333,0.44378333333333003,5.2
COM8,507,16-Dec-19,2019-12-16 21:00:00,0.98706666666667,0.6512166666666701,0.55383333333333,0.50643333333333,0.45965,0.40235,0.40743333333333,5.2
COM8,507,16-Dec-19,2019-12-16 22:00:00,1.4430166666667,0.8956666666666699,0.76278333333333,0.6991166666666699,0.6339833333333299,0.5565,0.5633833333333299,5.2
COM8,507,16-Dec-19,2019-12-16 23:00:00,0.83621666666667,0.564,0.49005,0.44515,0.40366666666667,0.3549,0.36008333333333,5.2
