COM8,507,18-Feb-20,2020-02-18 00:00:00,0.26098305084746,0.22330508474576,0.20474576271185999,0.19667796610169,0.18620338983051002,0.17428813559321998,0.17738983050847001,5.0
COM8,507,18-Feb-20,2020-02-18 01:00:00,0.21945,0.19906666666667003,0.18663333333332996,0.18100000000000002,0.1727,0.16251666666667,0.16615,5.0
COM8,507,18-Feb-20,2020-02-18 02:00:00,0.1653,0.14528333333333,0.13461666666667,0.12996666666667,0.12405,0.11699999999999999,0.11971666666667,5.0
COM8,507,18-Feb-20,2020-02-18 03:00:00,0.11599999999999999,0.10626666666666999,0.098016666666667,0.095416666666667,0.0898,0.083666666666667,0.08528333333333299,5.0
COM8,507,18-Feb-20,2020-02-18 04:00:00,0.1231,0.095483333333333,0.08728333333333299,0.083583333333333,0.078966666666667,0.073966666666667,0.07576666666666701,5.0
COM8,507,18-Feb-20,2020-02-18 05:00:00,0.26291666666667,0.22438333333332997,0.20203333333332996,0.1911,0.17795,0.15786666666667,0.15953333333332997,5.0
COM8,507,18-Feb-20,2020-02-18 06:00:00,0.22368333333332996,0.22686666666667002,0.21475,0.21066666666667003,0.20215,0.19221666666667003,0.1964,5.0
COM8,507,18-Feb-20,2020-02-18 07:00:00,0.3433,0.3305,0.31205,0.30753333333333,0.29518333333333,0.28255,0.28963333333333,5.0
COM8,507,18-Feb-20,2020-02-18 08:00:00,0.26238333333332997,0.25268333333333,0.23706666666667003,0.23131666666667003,0.22176666666667003,0.2107,0.2154,5.0
COM8,507,18-Feb-20,2020-02-18 09:00:00,0.23493333333332997,0.23661666666667003,0.22456666666667002,0.22046666666667003,0.21243333333332998,0.20951666666667004,0.21481666666667004,5.0
COM8,507,18-Feb-20,2020-02-18 10:00:00,0.44745,0.43365,0.40543333333333,0.39386666666667,0.37925,0.36916666666667,0.3805,5.0
COM8,507,18-Feb-20,2020-02-18 11:00:00,0.35756666666667,0.3454,0.3212,0.31101666666667,0.2988,0.28941666666667,0.29825,5.0
COM8,507,18-Feb-20,2020-02-18 12:00:00,0.31738333333333,0.30916666666667,0.28943333333333,0.28078333333333,0.26956666666667,0.26048333333332996,0.26941666666667,4.94
COM8,507,18-Feb-20,2020-02-18 13:00:00,0.26583333333333,0.26135,0.24691666666667003,0.2425,0.23246666666667004,0.22675,0.23251666666667004,4.9
COM8,507,18-Feb-20,2020-02-18 14:00:00,0.30498333333333,0.27176666666667004,0.2542,0.24965,0.24238333333332998,0.23473333333332996,0.24675,4.6066666666667
COM8,507,18-Feb-20,2020-02-18 15:00:00,0.43175,0.33458333333333,0.32148333333333,0.31498333333333,0.3058,0.29908333333333,0.30888333333333,5.0
COM8,507,18-Feb-20,2020-02-18 16:00:00,0.46426666666667,0.41011666666667,0.3855,0.37691666666667,0.36323333333333,0.3595,0.36925,5.0
COM8,507,18-Feb-20,2020-02-18 17:00:00,0.46045,0.46486666666667,0.44196666666667,0.43641666666667,0.42265,0.4196,0.43016666666667,5.0
COM8,507,18-Feb-20,2020-02-18 18:00:00,0.5662833333333299,0.57075,0.5418166666666699,0.53571666666667,0.51653333333333,0.50875,0.52036666666667,5.0
COM8,507,18-Feb-20,2020-02-18 19:00:00,0.84131666666667,0.75455,0.70516666666667,0.69066666666667,0.66463333333333,0.65155,0.6672333333333299,5.0
COM8,507,18-Feb-20,2020-02-18 20:00:00,1.0556833333333,0.90263333333333,0.83348333333333,0.80813333333333,0.76985,0.73325,0.74906666666667,5.0
COM8,507,18-Feb-20,2020-02-18 21:00:00,1.60175,1.2031666666667,1.0862166666667,1.03185,0.96671666666667,0.8946,0.90866666666667,5.0
COM8,507,18-Feb-20,2020-02-18 22:00:00,1.34755,1.0365666666667,0.94533333333333,0.90571666666667,0.84845,0.76423333333333,0.7719,4.9683333333333
COM8,507,18-Feb-20,2020-02-18 23:00:00,0.96466101694915,0.6883050847457599,0.61371186440678,0.5788644067796601,0.54023728813559,0.48984745762712,0.49674576271186,4.9
