COM8,507,08-Feb-20,2020-02-08 00:00:00,0.21472881355932,0.31727118644068,0.29493220338983,0.28166101694915,0.26362711864407,0.24391525423729002,0.24894915254237,4.9
COM8,507,08-Feb-20,2020-02-08 01:00:00,0.42953333333333,0.47066666666667,0.43996666666667,0.42653333333333,0.40105,0.3767,0.386,4.9
COM8,507,08-Feb-20,2020-02-08 02:00:00,0.13316666666666999,0.2089,0.19656666666667003,0.18903333333332997,0.17871666666667002,0.16523333333332998,0.16891666666667005,4.9
COM8,507,08-Feb-20,2020-02-08 03:00:00,0.38856666666667,0.37951666666667,0.35166666666667,0.3413,0.3172,0.29125,0.2967,4.9
COM8,507,08-Feb-20,2020-02-08 04:00:00,0.54595,0.48066666666667,0.43978333333333003,0.42375,0.39486666666667,0.35883333333333,0.3653,4.9
COM8,507,08-Feb-20,2020-02-08 05:00:00,0.78581666666667,0.6066,0.53855,0.51203333333333,0.46983333333333,0.42101666666667,0.42831666666667,4.9
COM8,507,08-Feb-20,2020-02-08 06:00:00,0.5574,0.5188,0.47661666666667,0.46251666666667,0.43258333333333,0.40055,0.4089,4.9
COM8,507,08-Feb-20,2020-02-08 07:00:00,2.3383166666667003,1.5869666666667,1.3671833333333,1.2727,1.1503666666666998,1.0105833333333,1.0249666666666999,4.9
COM8,507,08-Feb-20,2020-02-08 08:00:00,0.57803333333333,0.59793333333333,0.55065,0.52966666666667,0.4902,0.44575,0.45551666666667,4.825
COM8,507,08-Feb-20,2020-02-08 09:00:00,1.0630666666667,1.03205,0.9531166666666699,0.92656666666667,0.8649,0.79573333333333,0.81265,4.8
COM8,507,08-Feb-20,2020-02-08 10:00:00,0.72986666666667,0.76146666666667,0.70516666666667,0.68295,0.63648333333333,0.5842,0.59925,4.8
COM8,507,08-Feb-20,2020-02-08 11:00:00,-0.08721666666666701,0.05345,0.06795,0.07186666666666701,0.072466666666667,0.06826666666666699,0.07205,4.8
COM8,507,08-Feb-20,2020-02-08 12:00:00,0.05556666666666699,0.14038333333332997,0.14278333333333,0.14441666666667002,0.13755,0.12865,0.13245,4.8
COM8,507,08-Feb-20,2020-02-08 13:00:00,0.11415,0.17348333333332996,0.1686,0.16816666666667004,0.16086666666667002,0.1488,0.15423333333332997,4.8
COM8,507,08-Feb-20,2020-02-08 14:00:00,0.0664,0.05273333333333301,0.05563333333333301,0.058316666666666996,0.0577,0.051333333333333,0.05655,4.58
COM8,507,08-Feb-20,2020-02-08 15:00:00,0.13691666666667,0.066633333333333,0.069683333333333,0.07055,0.06861666666666699,0.070333333333333,0.072733333333333,5.0
COM8,507,08-Feb-20,2020-02-08 16:00:00,0.050266666666666994,0.0333,0.03495,0.0354,0.03258333333333299,0.031116666666667004,0.030683333333332993,5.0
COM8,507,08-Feb-20,2020-02-08 17:00:00,0.0353,0.038533333333333,0.037816666666667,0.0376,0.036416666666667,0.035516666666667,0.037183333333333,5.0
COM8,507,08-Feb-20,2020-02-08 18:00:00,0.072016666666667,0.075133333333333,0.07236666666666701,0.07121666666666701,0.069366666666667,0.071183333333333,0.072516666666667,5.0
COM8,507,08-Feb-20,2020-02-08 19:00:00,0.1742,0.15941666666667,0.14826666666667002,0.1438,0.13766666666667002,0.13328333333333,0.13606666666667,5.0
COM8,507,08-Feb-20,2020-02-08 20:00:00,0.1644,0.1498,0.13948333333333,0.13605,0.1302,0.12496666666667,0.12886666666667,5.0
COM8,507,08-Feb-20,2020-02-08 21:00:00,0.3782,0.29068333333333,0.26011666666667005,0.24600000000000002,0.22828333333332998,0.20945,0.2124,5.0
COM8,507,08-Feb-20,2020-02-08 22:00:00,0.2814,0.26448333333332996,0.24415,0.23513333333332997,0.22305,0.20541666666667002,0.20805,5.0
COM8,507,08-Feb-20,2020-02-08 23:00:00,0.31353333333333,0.2712,0.25193333333332996,0.24568333333332998,0.23688333333332998,0.23251666666667004,0.23923333333332997,5.0
