COM8,507,16-Jan-20,2020-01-16 00:00:00,0.48398305084746,0.44233898305084995,0.40213559322034004,0.37896610169492,0.35074576271186003,0.32218644067797,0.33140677966102,5.0
COM8,507,16-Jan-20,2020-01-16 01:00:00,0.72468333333333,0.49863333333333,0.44295,0.41631666666667,0.38198333333333,0.34653333333333003,0.35355,5.0
COM8,507,16-Jan-20,2020-01-16 02:00:00,0.3897,0.33941666666667,0.30503333333333,0.28281666666667,0.25828333333333,0.23121666666667004,0.23776666666667004,5.0
COM8,507,16-Jan-20,2020-01-16 03:00:00,0.17251666666667004,0.24366666666667003,0.22211666666667004,0.21145,0.1949,0.17913333333332998,0.18466666666667003,5.0
COM8,507,16-Jan-20,2020-01-16 04:00:00,0.19493333333332996,0.24541666666667003,0.2287,0.2163,0.20306666666667003,0.18698333333332998,0.19186666666667004,5.0
COM8,507,16-Jan-20,2020-01-16 05:00:00,0.3408,0.31776666666667,0.28873333333333,0.27668333333333,0.25401666666667005,0.23163333333332997,0.23726666666667004,5.0
COM8,507,16-Jan-20,2020-01-16 06:00:00,2.0777166666666997,1.5513166666667,1.3727,1.2963333333333,1.17895,1.03285,1.0497666666667,5.0
COM8,507,16-Jan-20,2020-01-16 07:00:00,1.7579,1.2866666666667,1.1296666666667,1.06175,0.96615,0.86108333333333,0.87913333333333,5.0
COM8,507,16-Jan-20,2020-01-16 08:00:00,2.1242833333333,1.7038666666667,1.5187833333333,1.44165,1.3245833333333001,1.1997833333333001,1.229,5.0
COM8,507,16-Jan-20,2020-01-16 09:00:00,0.86028333333333,0.8809999999999999,0.8077,0.77768333333333,0.71963333333333,0.6539833333333299,0.6690833333333299,5.0
COM8,507,16-Jan-20,2020-01-16 10:00:00,0.46673333333333,0.54355,0.5064,0.49348333333333,0.4567,0.41600000000000004,0.42723333333333,4.9516666666667
COM8,507,16-Jan-20,2020-01-16 11:00:00,0.85751666666667,0.82381666666667,0.75436666666667,0.72795,0.67831666666667,0.62948333333333,0.64805,4.9
COM8,507,16-Jan-20,2020-01-16 12:00:00,0.81733333333333,0.76076666666667,0.6951,0.6712,0.6239833333333299,0.57713333333333,0.5944833333333299,4.9
COM8,507,16-Jan-20,2020-01-16 13:00:00,1.6167666666667,1.4344,1.31095,1.2676166666667,1.19805,1.1386,1.17445,4.65
COM8,507,16-Jan-20,2020-01-16 14:00:00,1.0981,0.98768333333333,0.92851666666667,0.90745,0.87641666666667,0.86013333333333,0.88576666666667,5.1
COM8,507,16-Jan-20,2020-01-16 15:00:00,0.81345,0.7745,0.72856666666667,0.71651666666667,0.69326666666667,0.6819,0.70186666666667,5.1
COM8,507,16-Jan-20,2020-01-16 16:00:00,0.59036666666667,0.59295,0.5647,0.5600833333333299,0.5442,0.53565,0.55145,5.1
COM8,507,16-Jan-20,2020-01-16 17:00:00,0.30445,0.3067,0.29313333333333,0.29173333333333,0.28366666666667,0.27971666666667,0.28766666666667,5.1
COM8,507,16-Jan-20,2020-01-16 18:00:00,0.16331666666667002,0.16606666666667003,0.15873333333332998,0.15691666666667,0.15158333333333,0.14623333333333,0.14976666666667002,5.0933333333333
COM8,507,16-Jan-20,2020-01-16 19:00:00,0.11141666666667,0.10985,0.10443333333333,0.10295,0.098133333333333,0.0938,0.095133333333333,5.0266666666667
COM8,507,16-Jan-20,2020-01-16 20:00:00,0.46448333333333003,0.37603333333333,0.33578333333333,0.3164,0.29221666666667,0.25761666666667005,0.26026666666667003,5.0
COM8,507,16-Jan-20,2020-01-16 21:00:00,0.20316666666667002,0.16683333333332998,0.15088333333332998,0.14111666666667003,0.12938333333333,0.11488333333333,0.11646666666667,5.0
COM8,507,16-Jan-20,2020-01-16 22:00:00,0.08711666666666701,0.08235,0.0768,0.073566666666667,0.06945,0.064066666666667,0.06511666666666699,5.0
COM8,507,16-Jan-20,2020-01-16 23:00:00,0.10285,0.09923333333333301,0.093866666666667,0.09081666666666699,0.087,0.08306666666666701,0.083683333333333,5.0
