COM8,507,21-Jan-20,2020-01-21 00:00:00,2.0113050847458003,1.3058983050847,1.0919491525424,0.9924406779661,0.8766779661016899,0.71359322033898,0.71542372881356,4.9
COM8,507,21-Jan-20,2020-01-21 01:00:00,0.22616666666667004,0.37331666666667,0.35003333333333003,0.33958333333333,0.31445,0.28455,0.29265,4.9
COM8,507,21-Jan-20,2020-01-21 02:00:00,0.36535,0.42795,0.39438333333333003,0.37935,0.34978333333333,0.31831666666666997,0.3257,4.9
COM8,507,21-Jan-20,2020-01-21 03:00:00,0.22458333333332997,0.30645,0.28836666666667,0.27985,0.26031666666667,0.23493333333332997,0.24021666666667002,4.9
COM8,507,21-Jan-20,2020-01-21 04:00:00,0.22473333333332995,0.27781666666667,0.2626,0.25608333333332994,0.23683333333332998,0.2153,0.22136666666667004,4.9
COM8,507,21-Jan-20,2020-01-21 05:00:00,0.2999,0.29096666666667,0.2718,0.25968333333333,0.24198333333332997,0.2205,0.22503333333332998,4.9
COM8,507,21-Jan-20,2020-01-21 06:00:00,0.5812833333333299,0.48645,0.43698333333333,0.41873333333333,0.38715,0.35011666666667,0.35855,4.9
COM8,507,21-Jan-20,2020-01-21 07:00:00,0.36663333333333,0.408,0.38325,0.37393333333333,0.35041666666667,0.32568333333333,0.33261666666667,4.9
COM8,507,21-Jan-20,2020-01-21 08:00:00,0.86101666666667,0.8027,0.7399,0.71933333333333,0.67173333333333,0.62433333333333,0.6422,4.9
COM8,507,21-Jan-20,2020-01-21 09:00:00,2.5295833333332998,2.2367833333332996,2.017,1.9247833333333,1.7879333333333,1.66635,1.7128666666666998,4.9
COM8,507,21-Jan-20,2020-01-21 10:00:00,0.86583333333333,0.87341666666667,0.82331666666667,0.80266666666667,0.75356666666667,0.69771666666667,0.7161,4.8916666666667
COM8,507,21-Jan-20,2020-01-21 11:00:00,0.32023333333333,0.41526666666667,0.40278333333333,0.3953,0.37253333333333,0.34838333333333,0.35706666666667,4.81
COM8,507,21-Jan-20,2020-01-21 12:00:00,-0.0154,0.10613333333333,0.1135,0.1209,0.11563333333333001,0.10771666666667,0.11346666666666999,4.8
COM8,507,21-Jan-20,2020-01-21 13:00:00,0.02645,0.0736,0.08056666666666701,0.081016666666667,0.081616666666667,0.076716666666667,0.0819,4.57
COM8,507,21-Jan-20,2020-01-21 14:00:00,0.19253333333332998,0.14036666666667003,0.14081666666667,0.14148333333333,0.1372,0.13533333333333,0.13883333333332998,5.1
COM8,507,21-Jan-20,2020-01-21 15:00:00,0.095333333333333,0.097066666666667,0.094416666666667,0.09368333333333301,0.0906,0.089283333333333,0.09145,5.1
COM8,507,21-Jan-20,2020-01-21 16:00:00,0.16948333333332996,0.15181666666667,0.14133333333332998,0.13788333333333,0.13105,0.12346666666667,0.12628333333333,5.1
COM8,507,21-Jan-20,2020-01-21 17:00:00,0.22846666666667004,0.20933333333332996,0.19558333333332997,0.19078333333332997,0.18191666666667003,0.17263333333332997,0.17585,5.1
COM8,507,21-Jan-20,2020-01-21 18:00:00,0.43606666666667,0.3606,0.33003333333333,0.3174,0.30123333333333,0.28471666666667,0.29048333333333,5.1
COM8,507,21-Jan-20,2020-01-21 19:00:00,0.47523333333333,0.38953333333333,0.35263333333333,0.33651666666667,0.31661666666667,0.29226666666667,0.29756666666667,5.1
COM8,507,21-Jan-20,2020-01-21 20:00:00,0.48855,0.38113333333333,0.33886666666667,0.31915,0.29695,0.2699,0.27388333333333,5.1
COM8,507,21-Jan-20,2020-01-21 21:00:00,1.0885333333333,0.70893333333333,0.6221166666666701,0.5804833333333299,0.53675,0.48388333333333,0.49013333333333,5.1
COM8,507,21-Jan-20,2020-01-21 22:00:00,0.86713333333333,0.69575,0.6393666666666701,0.6088666666666701,0.57688333333333,0.54096666666667,0.5515,5.1
COM8,507,21-Jan-20,2020-01-21 23:00:00,0.97723333333333,0.78726666666667,0.72341666666667,0.69703333333333,0.66263333333333,0.6280666666666701,0.6403166666666701,5.1
