COM7,0507,06-Feb-19,2019-02-06 00:00:00,0.1913275862069,0.178,0.16718965517241,0.163,0.15693103448276,0.15270689655172,0.15684482758621,4.8,0,0,0,0,0,0,0,0,0,0,0,0,0,0,0,0,0,0,0,0,0,0,0,0,0,0,0,0,0,0,0,0,0,0,0,0,0,0,0,0,0,0
COM7,0507,06-Feb-19,2019-02-06 01:00:00,0.14871666666667,0.13965,0.13143333333333,0.12993333333333,0.12461666666667,0.12086666666667,0.12436666666667,4.8,0,0,0,0,0,0,0,0,0,0,0,0,0,0,0,0,0,0,0,0,0,0,0,0,0,0,0,0,0,0,0,0,0,0,0,0,0,0,0,0,0,0
COM7,0507,06-Feb-19,2019-02-06 02:00:00,0.063966666666667,0.05965,0.054883333333333,0.053966666666667,0.051183333333333,0.048383333333333,0.04915,4.8,0,0,0,0,0,0,0,0,0,0,0,0,0,0,0,0,0,0,0,0,0,0,0,0,0,0,0,0,0,0,0,0,0,0,0,0,0,0,0,0,0,0
COM7,0507,06-Feb-19,2019-02-06 03:00:00,0.027583333333333,0.028533333333333,0.028183333333333,0.027633333333333,0.026566666666667,0.026633333333333,0.027,4.8,0,0,0,0,0,0,0,0,0,0,0,0,0,0,0,0,0,0,0,0,0,0,0,0,0,0,0,0,0,0,0,0,0,0,0,0,0,0,0,0,0,0
COM7,0507,06-Feb-19,2019-02-06 04:00:00,0.12016666666667,0.12015,0.11416666666667,0.1134,0.10938333333333,0.10763333333333,0.11035,4.8,0,0,0,0,0,0,0,0,0,0,0,0,0,0,0,0,0,0,0,0,0,0,0,0,0,0,0,0,0,0,0,0,0,0,0,0,0,0,0,0,0,0
COM7,0507,06-Feb-19,2019-02-06 05:00:00,0.047083333333333,0.0476,0.045433333333333,0.04525,0.044116666666667,0.04255,0.04375,4.8,0,0,0,0,0,0,0,0,0,0,0,0,0,0,0,0,0,0,0,0,0,0,0,0,0,0,0,0,0,0,0,0,0,0,0,0,0,0,0,0,0,0
COM7,0507,06-Feb-19,2019-02-06 06:00:00,0.066133333333333,0.065716666666667,0.062866666666667,0.061716666666667,0.060366666666667,0.0583,0.061183333333333,4.8,0,0,0,0,0,0,0,0,0,0,0,0,0,0,0,0,0,0,0,0,0,0,0,0,0,0,0,0,0,0,0,0,0,0,0,0,0,0,0,0,0,0
COM7,0507,06-Feb-19,2019-02-06 07:00:00,0.11151666666667,0.10988333333333,0.10506666666667,0.10421666666667,0.09975,0.097416666666667,0.09905,4.8,0,0,0,0,0,0,0,0,0,0,0,0,0,0,0,0,0,0,0,0,0,0,0,0,0,0,0,0,0,0,0,0,0,0,0,0,0,0,0,0,0,0
COM7,0507,06-Feb-19,2019-02-06 08:00:00,0.17148333333333,0.1681,0.1575,0.15513333333333,0.14871666666667,0.14336666666667,0.14655,4.8,0,0,0,0,0,0,0,0,0,0,0,0,0,0,0,0,0,0,0,0,0,0,0,0,0,0,0,0,0,0,0,0,0,0,0,0,0,0,0,0,0,0
COM7,0507,06-Feb-19,2019-02-06 09:00:00,0.18885,0.1814,0.17043333333333,0.16735,0.16011666666667,0.15513333333333,0.15881666666667,4.8,0,0,0,0,0,0,0,0,0,0,0,0,0,0,0,0,0,0,0,0,0,0,0,0,0,0,0,0,0,0,0,0,0,0,0,0,0,0,0,0,0,0
COM7,0507,06-Feb-19,2019-02-06 10:00:00,0.23903333333333,0.23166666666667,0.21826666666667,0.21366666666667,0.20556666666667,0.19633333333333,0.20078333333333,4.8,0,0,0,0,0,0,0,0,0,0,0,0,0,0,0,0,0,0,0,0,0,0,0,0,0,0,0,0,0,0,0,0,0,0,0,0,0,0,0,0,0,0
COM7,0507,06-Feb-19,2019-02-06 11:00:00,0.16761666666667,0.12085,0.11513333333333,0.11338333333333,0.11011666666667,0.1021,0.10828333333333,4.48,0,0,0,0,0,0,0,0,0,0,0,0,0,0,0,0,0,0,0,0,0,0,0,0,0,0,0,0,0,0,0,0,0,0,0,0,0,0,0,0,0,0
COM7,0507,06-Feb-19,2019-02-06 12:00:00,0.26853333333333,0.18991666666667,0.17955,0.177,0.1699,0.16618333333333,0.17011666666667,4.8,0,0,0,0,0,0,0,0,0,0,0,0,0,0,0,0,0,0,0,0,0,0,0,0,0,0,0,0,0,0,0,0,0,0,0,0,0,0,0,0,0,0
COM7,0507,06-Feb-19,2019-02-06 13:00:00,0.219,0.1822,0.17058333333333,0.16695,0.15896666666667,0.15556666666667,0.15833333333333,4.8,0,0,0,0,0,0,0,0,0,0,0,0,0,0,0,0,0,0,0,0,0,0,0,0,0,0,0,0,0,0,0,0,0,0,0,0,0,0,0,0,0,0
COM7,0507,06-Feb-19,2019-02-06 14:00:00,0.15896666666667,0.15681666666667,0.14736666666667,0.14438333333333,0.13855,0.1341,0.1371,4.8,0,0,0,0,0,0,0,0,0,0,0,0,0,0,0,0,0,0,0,0,0,0,0,0,0,0,0,0,0,0,0,0,0,0,0,0,0,0,0,0,0,0
COM7,0507,06-Feb-19,2019-02-06 15:00:00,0.18176666666667,0.18348333333333,0.1719,0.16796666666667,0.16188333333333,0.1585,0.163,4.8,0,0,0,0,0,0,0,0,0,0,0,0,0,0,0,0,0,0,0,0,0,0,0,0,0,0,0,0,0,0,0,0,0,0,0,0,0,0,0,0,0,0
COM7,0507,06-Feb-19,2019-02-06 16:00:00,0.2558,0.2518,0.23635,0.23071666666667,0.22081666666667,0.21351666666667,0.21771666666667,4.8116666666667,0,0,0,0,0,0,0,0,0,0,0,0,0,0,0,0,0,0,0,0,0,0,0,0,0,0,0,0,0,0,0,0,0,0,0,0,0,0,0,0,0,0
COM7,0507,06-Feb-19,2019-02-06 17:00:00,0.18465,0.16965,0.15776666666667,0.15355,0.14633333333333,0.13881666666667,0.14181666666667,4.8833333333333,0,0,0,0,0,0,0,0,0,0,0,0,0,0,0,0,0,0,0,0,0,0,0,0,0,0,0,0,0,0,0,0,0,0,0,0,0,0,0,0,0,0
COM7,0507,06-Feb-19,2019-02-06 18:00:00,0.18763333333333,0.17485,0.16358333333333,0.15953333333333,0.15135,0.14376666666667,0.14675,4.9,0,0,0,0,0,0,0,0,0,0,0,0,0,0,0,0,0,0,0,0,0,0,0,0,0,0,0,0,0,0,0,0,0,0,0,0,0,0,0,0,0,0
COM7,0507,06-Feb-19,2019-02-06 19:00:00,0.24228333333333,0.21411666666667,0.19905,0.1932,0.18396666666667,0.17458333333333,0.17773333333333,4.9,0,0,0,0,0,0,0,0,0,0,0,0,0,0,0,0,0,0,0,0,0,0,0,0,0,0,0,0,0,0,0,0,0,0,0,0,0,0,0,0,0,0
COM7,0507,06-Feb-19,2019-02-06 20:00:00,0.32501666666667,0.29788333333333,0.27973333333333,0.27336666666667,0.26168333333333,0.25035,0.25543333333333,4.9,0,0,0,0,0,0,0,0,0,0,0,0,0,0,0,0,0,0,0,0,0,0,0,0,0,0,0,0,0,0,0,0,0,0,0,0,0,0,0,0,0,0
COM7,0507,06-Feb-19,2019-02-06 21:00:00,0.27513333333333,0.22963333333333,0.21165,0.20478333333333,0.19336666666667,0.18055,0.18441666666667,4.9,0,0,0,0,0,0,0,0,0,0,0,0,0,0,0,0,0,0,0,0,0,0,0,0,0,0,0,0,0,0,0,0,0,0,0,0,0,0,0,0,0,0
COM7,0507,06-Feb-19,2019-02-06 22:00:00,0.81865,0.6664,0.61503333333333,0.59458333333333,0.55993333333333,0.51535,0.52228333333333,4.8983333333333,0,0,0,0,0,0,0,0,0,0,0,0,0,0,0,0,0,0,0,0,0,0,0,0,0,0,0,0,0,0,0,0,0,0,0,0,0,0,0,0,0,0
COM7,0507,06-Feb-19,2019-02-06 23:00:00,0.6997,0.481,0.42446666666667,0.39791666666667,0.36901666666667,0.33578333333333,0.34043333333333,4.805,0,0,0,0,0,0,0,0,0,0,0,0,0,0,0,0,0,0,0,0,0,0,0,0,0,0,0,0,0,0,0,0,0,0,0,0,0,0,0,0,0,0
