COM8,507,07-Sep-19,2019-09-07 00:00:00,0.4474406779661,0.40577966101695,0.37869491525424,0.36942372881356,0.35045762711864004,0.33283050847458,0.34127118644068005,5.1
COM8,507,07-Sep-19,2019-09-07 01:00:00,0.46846666666667,0.39115,0.35908333333333,0.34861666666667,0.32993333333333,0.31211666666667,0.31991666666667,5.1
COM8,507,07-Sep-19,2019-09-07 02:00:00,0.33685,0.29901666666667,0.27618333333333,0.2686,0.253,0.2369,0.24223333333332997,5.1
COM8,507,07-Sep-19,2019-09-07 03:00:00,0.42513333333333003,0.3306,0.2985,0.28723333333333,0.2706,0.2537,0.26015,5.1
COM8,507,07-Sep-19,2019-09-07 04:00:00,0.41085,0.36006666666667,0.33235,0.32336666666667,0.305,0.28553333333333003,0.29293333333333,5.1
COM8,507,07-Sep-19,2019-09-07 05:00:00,0.5328,0.43538333333333,0.39596666666667,0.38255,0.35891666666667,0.33468333333333,0.34288333333333,5.1
COM8,507,07-Sep-19,2019-09-07 06:00:00,1.0963666666667,1.0284833333333,0.96375,0.9454,0.89618333333333,0.84205,0.86355,5.1
COM8,507,07-Sep-19,2019-09-07 07:00:00,0.79498333333333,0.73373333333333,0.68683333333333,0.67458333333333,0.6385166666666701,0.6014333333333299,0.61661666666667,5.1
COM8,507,07-Sep-19,2019-09-07 08:00:00,0.74613333333333,0.70425,0.66483333333333,0.6601333333333299,0.6309666666666701,0.6054,0.6218333333333299,5.1
COM8,507,07-Sep-19,2019-09-07 09:00:00,0.89316666666667,0.81885,0.7644,0.75116666666667,0.71295,0.67483333333333,0.69271666666667,5.1
COM8,507,07-Sep-19,2019-09-07 10:00:00,0.90463333333333,0.81443333333333,0.75766666666667,0.74105,0.69978333333333,0.6565666666666701,0.67323333333333,5.0733333333332995
COM8,507,07-Sep-19,2019-09-07 11:00:00,1.3243666666667,1.1681166666667,1.0765666666667,1.0456333333333,0.98355,0.91231666666667,0.93605,5.0
COM8,507,07-Sep-19,2019-09-07 12:00:00,0.92786666666667,0.82196666666667,0.75615,0.73473333333333,0.6876,0.6318833333333299,0.6487833333333299,5.0
COM8,507,07-Sep-19,2019-09-07 13:00:00,0.5268,0.45036666666666997,0.4132,0.3979,0.37488333333333,0.34238333333333,0.35445,4.6933333333333
COM8,507,07-Sep-19,2019-09-07 14:00:00,0.27381666666667004,0.222,0.21301666666667002,0.21138333333332998,0.20625,0.20111666666667002,0.20583333333332998,5.1
COM8,507,07-Sep-19,2019-09-07 15:00:00,0.40296666666666997,0.36215,0.33785,0.3306,0.31736666666667,0.30291666666667,0.30955,5.1
COM8,507,07-Sep-19,2019-09-07 16:00:00,0.9583,0.95643333333333,0.90728333333333,0.89283333333333,0.85643333333333,0.80531666666667,0.81975,5.1
COM8,507,07-Sep-19,2019-09-07 17:00:00,0.98353333333333,0.98926666666667,0.94641666666667,0.9377,0.90393333333333,0.85971666666667,0.8775,5.1
COM8,507,07-Sep-19,2019-09-07 18:00:00,0.77505,0.71565,0.6698,0.65476666666667,0.62638333333333,0.5913,0.6018833333333299,5.1
COM8,507,07-Sep-19,2019-09-07 19:00:00,1.0690333333333,0.91906666666667,0.8442,0.81325,0.77056666666667,0.7207,0.7353666666666699,5.1
COM8,507,07-Sep-19,2019-09-07 20:00:00,1.0643,0.93458333333333,0.85878333333333,0.82686666666667,0.78046666666667,0.73081666666667,0.74655,5.1
COM8,507,07-Sep-19,2019-09-07 21:00:00,0.82628333333333,0.73615,0.67975,0.66015,0.6254666666666701,0.5862333333333299,0.59975,5.02
COM8,507,07-Sep-19,2019-09-07 22:00:00,0.71516666666667,0.62638333333333,0.57483333333333,0.55685,0.52693333333333,0.49341666666667,0.50446666666667,5.0
COM8,507,07-Sep-19,2019-09-07 23:00:00,0.5911166666666701,0.50503333333333,0.45976666666667,0.44428333333333003,0.41823333333333,0.38813333333333,0.39631666666667,5.0
