COM8,507,15-Aug-19,2019-08-15 00:00:00,0.32259322033897997,0.30394915254237,0.28488135593220004,0.28098305084746006,0.26703389830507995,0.25140677966102,0.25784745762711997,4.9
COM8,507,15-Aug-19,2019-08-15 01:00:00,0.35491666666667,0.33288333333333,0.31315,0.30741666666667,0.29418333333333,0.27798333333333003,0.28513333333333,4.9
COM8,507,15-Aug-19,2019-08-15 02:00:00,0.42905,0.42935,0.41525,0.41773333333333,0.40453333333333,0.39183333333333,0.40246666666666997,4.9
COM8,507,15-Aug-19,2019-08-15 03:00:00,0.3903,0.37346666666667,0.35488333333333,0.35313333333333,0.33881666666667,0.32431666666667,0.3331,4.9
COM8,507,15-Aug-19,2019-08-15 04:00:00,0.41901666666667,0.39041666666667,0.36816666666667,0.36393333333333,0.34805,0.33328333333333,0.3416,4.9
COM8,507,15-Aug-19,2019-08-15 05:00:00,0.59675,0.5610833333333299,0.52838333333333,0.52301666666667,0.49948333333333,0.47826666666667,0.49235,4.9
COM8,507,15-Aug-19,2019-08-15 06:00:00,0.87161666666667,0.83125,0.78456666666667,0.77605,0.74336666666667,0.7151,0.73585,4.9
COM8,507,15-Aug-19,2019-08-15 07:00:00,0.92038333333333,0.90135,0.86205,0.86493333333333,0.84001666666667,0.82121666666667,0.84773333333333,4.9
COM8,507,15-Aug-19,2019-08-15 08:00:00,0.70021666666667,0.6588,0.61861666666667,0.6104833333333299,0.5795,0.54866666666667,0.5642333333333299,4.9
COM8,507,15-Aug-19,2019-08-15 09:00:00,1.5070666666666999,1.3876,1.2831333333333002,1.2506333333333,1.1792666666667,1.1137333333333002,1.1451166666666999,4.9
COM8,507,15-Aug-19,2019-08-15 10:00:00,1.9480000000000002,1.78975,1.6507,1.60615,1.51595,1.4230666666667,1.46445,4.9
COM8,507,15-Aug-19,2019-08-15 11:00:00,0.87126666666667,0.7795,0.71126666666667,0.6861,0.6388,0.58093333333333,0.59485,4.9
COM8,507,15-Aug-19,2019-08-15 12:00:00,1.3955,1.2778166666667,1.1799166666667,1.1469333333333,1.0788166666666998,1.0039166666666999,1.0323,4.9
COM8,507,15-Aug-19,2019-08-15 13:00:00,0.89596666666667,0.79661666666667,0.72651666666667,0.69966666666667,0.65075,0.5950166666666701,0.60961666666667,4.845
COM8,507,15-Aug-19,2019-08-15 14:00:00,0.53266666666667,0.46766666666667,0.4251,0.40665,0.3781,0.33901666666667,0.3489,4.8
COM8,507,15-Aug-19,2019-08-15 15:00:00,0.58183333333333,0.51371666666667,0.46721666666667,0.45008333333333,0.419,0.37778333333333003,0.38775,4.8
COM8,507,15-Aug-19,2019-08-15 16:00:00,0.78956666666667,0.7224,0.66553333333333,0.6432,0.6037166666666701,0.5520333333333299,0.5662833333333299,4.8
COM8,507,15-Aug-19,2019-08-15 17:00:00,0.55806666666667,0.47386666666667,0.44803333333333,0.44345,0.42826666666667,0.41,0.42363333333333003,4.663333333333299
COM8,507,15-Aug-19,2019-08-15 18:00:00,0.43898333333333,0.39405,0.3684,0.35953333333333,0.34385,0.33118333333333,0.33705,5.0
COM8,507,15-Aug-19,2019-08-15 19:00:00,0.5625666666666701,0.52735,0.49086666666667,0.47908333333333003,0.46038333333333,0.4415,0.45268333333333,5.0
COM8,507,15-Aug-19,2019-08-15 20:00:00,0.7998,0.73393333333333,0.68416666666667,0.6682,0.64205,0.6176,0.6319166666666701,5.0
COM8,507,15-Aug-19,2019-08-15 21:00:00,0.67271666666667,0.51921666666667,0.46915,0.43716666666667,0.40758333333333,0.38176666666667,0.38923333333333,5.0
COM8,507,15-Aug-19,2019-08-15 22:00:00,0.37816666666667,0.37818333333333,0.35933333333333,0.35563333333333,0.34265,0.32966666666667,0.33715,5.0
COM8,507,15-Aug-19,2019-08-15 23:00:00,0.59518333333333,0.5891,0.5607166666666701,0.5556,0.53703333333333,0.51906666666667,0.53138333333333,4.995
