COM8,507,21-Dec-19,2019-12-21 00:00:00,1.9364237288136001,1.4070847457626998,1.2308813559322,1.1550169491525,1.0600677966102,0.9607288135593199,0.98361016949153,5.0
COM8,507,21-Dec-19,2019-12-21 01:00:00,1.1929166666667,0.94211666666667,0.83978333333333,0.79791666666667,0.7407,0.68163333333333,0.7015,5.0
COM8,507,21-Dec-19,2019-12-21 02:00:00,0.9114,0.7832,0.69261666666667,0.64885,0.5996833333333299,0.54521666666667,0.5573,5.0
COM8,507,21-Dec-19,2019-12-21 03:00:00,1.0646666666667,0.73786666666667,0.63333333333333,0.5826166666666701,0.52621666666667,0.46608333333333,0.47623333333333,5.0
COM8,507,21-Dec-19,2019-12-21 04:00:00,0.95051666666667,0.70745,0.60935,0.5573666666666701,0.5085,0.4539,0.46399999999999997,4.9766666666667
COM8,507,21-Dec-19,2019-12-21 05:00:00,1.4325166666667,0.92341666666667,0.7965,0.73908333333333,0.67301666666667,0.6009666666666701,0.61428333333333,4.9
COM8,507,21-Dec-19,2019-12-21 06:00:00,1.0016,0.79058333333333,0.69476666666667,0.6486166666666701,0.5900166666666701,0.52848333333333,0.54065,4.9
COM8,507,21-Dec-19,2019-12-21 07:00:00,0.91248333333333,0.75188333333333,0.65606666666667,0.60946666666667,0.5564166666666701,0.49283333333333,0.50495,4.9
COM8,507,21-Dec-19,2019-12-21 08:00:00,1.2115,1.09175,0.97323333333333,0.9145,0.8415,0.7547,0.77203333333333,4.9
COM8,507,21-Dec-19,2019-12-21 09:00:00,0.91458333333333,1.0164166666667,0.92291666666667,0.88175,0.81116666666667,0.7299,0.74658333333333,4.9
COM8,507,21-Dec-19,2019-12-21 10:00:00,0.5186333333333301,0.73116666666667,0.67831666666667,0.65071666666667,0.60151666666667,0.53991666666667,0.55296666666667,4.9
COM8,507,21-Dec-19,2019-12-21 11:00:00,1.08885,1.1457666666667,1.0555166666667,1.01575,0.94926666666667,0.87508333333333,0.90125,4.9
COM8,507,21-Dec-19,2019-12-21 12:00:00,1.4384,1.2776,1.1359,1.0690166666667,0.97065,0.8556,0.87456666666667,4.8983333333333
COM8,507,21-Dec-19,2019-12-21 13:00:00,0.94963333333333,0.8371833333333301,0.76613333333333,0.73561666666667,0.69075,0.6371333333333299,0.65706666666667,4.685
COM8,507,21-Dec-19,2019-12-21 14:00:00,0.68216666666667,0.5888666666666701,0.56,0.5504333333333299,0.53188333333333,0.51751666666667,0.5319,5.105
COM8,507,21-Dec-19,2019-12-21 15:00:00,0.51545,0.46683333333333,0.43646666666667,0.42681666666667,0.40991666666667,0.39448333333333,0.40395,5.1
COM8,507,21-Dec-19,2019-12-21 16:00:00,0.85276666666667,0.75475,0.69436666666667,0.67255,0.64045,0.6076,0.62248333333333,5.1
COM8,507,21-Dec-19,2019-12-21 17:00:00,1.7367,1.5248666666667,1.4192,1.3829666666667,1.3240833333333,1.2682833333333001,1.2989666666667,5.1
COM8,507,21-Dec-19,2019-12-21 18:00:00,1.7002166666667,1.3182666666667,1.1940166666667,1.1406666666667,1.0724166666666999,0.99986666666667,1.0214166666667,5.1
COM8,507,21-Dec-19,2019-12-21 19:00:00,1.84585,1.4137666666667,1.2802166666666999,1.2199666666667,1.1459333333333002,1.06985,1.0947,5.1
COM8,507,21-Dec-19,2019-12-21 20:00:00,2.7541333333332996,1.8834,1.65325,1.5461166666667,1.4246666666667,1.28045,1.3031333333333,5.1
COM8,507,21-Dec-19,2019-12-21 21:00:00,1.9969999999999999,1.5018,1.3540666666666998,1.2833166666667,1.2003,1.1148666666667,1.14115,5.1
COM8,507,21-Dec-19,2019-12-21 22:00:00,NaN,NaN,NaN,NaN,NaN,NaN,NaN,NaN
COM8,507,21-Dec-19,2019-12-21 23:00:00,NaN,NaN,NaN,NaN,NaN,NaN,NaN,NaN
