COM8,507,20-Feb-20,2020-02-20 00:00:00,0.3185593220339,0.28650847457627004,0.26510169491525004,0.25583050847458,0.24222033898304998,0.22289830508474998,0.22696610169492,5.0
COM8,507,20-Feb-20,2020-02-20 01:00:00,0.6048166666666701,0.41193333333333,0.36388333333333,0.34245,0.3162,0.2777,0.28008333333333,5.0
COM8,507,20-Feb-20,2020-02-20 02:00:00,0.39283333333333,0.30655,0.27778333333333,0.2644,0.24693333333332998,0.22483333333332997,0.22816666666667004,5.0
COM8,507,20-Feb-20,2020-02-20 03:00:00,0.51345,0.3566,0.31936666666667,0.30136666666667,0.28113333333333,0.2514,0.25528333333333,5.0
COM8,507,20-Feb-20,2020-02-20 04:00:00,0.33063333333333,0.30303333333333,0.2776,0.26516666666667005,0.24781666666667004,0.22393333333332996,0.22785,5.0
COM8,507,20-Feb-20,2020-02-20 05:00:00,0.26105,0.29495,0.28086666666667,0.27305,0.26116666666667004,0.24305,0.24773333333332997,5.0
COM8,507,20-Feb-20,2020-02-20 06:00:00,0.37198333333333,0.35643333333333,0.33145,0.32435,0.30716666666667,0.28406666666667,0.28958333333333003,5.0
COM8,507,20-Feb-20,2020-02-20 07:00:00,0.79115,0.71998333333333,0.67385,0.65945,0.62955,0.58195,0.5917666666666701,5.0
COM8,507,20-Feb-20,2020-02-20 08:00:00,1.1444833333333,1.0430833333333,0.97195,0.95055,0.89825,0.8108,0.82401666666667,4.9966666666667
COM8,507,20-Feb-20,2020-02-20 09:00:00,1.1439166666667,1.06365,0.9903,0.96978333333333,0.91921666666667,0.82655,0.83755,4.9
COM8,507,20-Feb-20,2020-02-20 10:00:00,0.5125833333333301,0.5268,0.49526666666667,0.48771666666667,0.46186666666667,0.40971666666667,0.41598333333333,4.9
COM8,507,20-Feb-20,2020-02-20 11:00:00,0.48978333333333,0.48426666666667,0.45426666666667,0.44616666666667,0.42383333333333,0.37463333333333,0.38116666666667,4.9
COM8,507,20-Feb-20,2020-02-20 12:00:00,0.51531666666667,0.48743333333333,0.45156666666667,0.4399,0.41556666666666997,0.3672,0.37278333333333,4.9
COM8,507,20-Feb-20,2020-02-20 13:00:00,0.47371666666667,0.45331666666667,0.42406666666667,0.41556666666666997,0.3925,0.3488,0.3533,4.9
COM8,507,20-Feb-20,2020-02-20 14:00:00,0.6136833333333299,0.54915,0.50948333333333,0.49788333333333,0.4767,0.4409,0.45376666666667,4.6333333333333
COM8,507,20-Feb-20,2020-02-20 15:00:00,0.57205,0.47251666666666997,0.44803333333333,0.43725,0.42181666666667,0.41363333333333,0.42635,5.1
COM8,507,20-Feb-20,2020-02-20 16:00:00,0.56815,0.47796666666667,0.44381666666666997,0.43131666666667,0.41475,0.40605,0.41753333333333,5.0933333333333
COM8,507,20-Feb-20,2020-02-20 17:00:00,0.50965,0.47895,0.44948333333333,0.44078333333333003,0.4257,0.41675,0.42911666666667,5.005
COM8,507,20-Feb-20,2020-02-20 18:00:00,0.77523333333333,0.7253,0.67788333333333,0.6630333333333299,0.6382666666666701,0.61865,0.6341,5.0
COM8,507,20-Feb-20,2020-02-20 19:00:00,1.4153833333333001,1.2949666666667,1.21685,1.19455,1.1453166666666998,1.0822833333333,1.1032166666667,5.0
COM8,507,20-Feb-20,2020-02-20 20:00:00,1.9793166666667,1.5449,1.4114833333333001,1.3610666666667,1.2811,1.1652333333333,1.1836833333333001,5.0
COM8,507,20-Feb-20,2020-02-20 21:00:00,1.2665833333333,1.0243666666667,0.92571666666667,0.88715,0.81531666666667,0.72786666666667,0.73863333333333,5.0
COM8,507,20-Feb-20,2020-02-20 22:00:00,1.3753666666667,1.1360333333333001,1.0469666666667,1.0197,0.93718333333333,0.85191666666667,0.86668333333333,4.93
COM8,507,20-Feb-20,2020-02-20 23:00:00,1.0597457627119,0.8725593220339001,0.79967796610169,0.77384745762712,0.69993220338983,0.62608474576271,0.63603389830508,4.9
