COM8,507,30-Jul-19,2019-07-30 00:00:00,0.14871186440678,0.13357627118644,0.12435593220339,0.12150847457627001,0.11601694915253999,0.11045762711864,0.11284745762712,5.0
COM8,507,30-Jul-19,2019-07-30 01:00:00,0.13525,0.12268333333333001,0.11481666666667,0.11235,0.10861666666667,0.10601666666666999,0.10768333333333001,5.0
COM8,507,30-Jul-19,2019-07-30 02:00:00,0.12395,0.11558333333333,0.10888333333333,0.10738333333333,0.10338333333333001,0.1002,0.10335,5.0
COM8,507,30-Jul-19,2019-07-30 03:00:00,0.12426666666667,0.11205,0.10508333333333,0.10335,0.098766666666667,0.094983333333333,0.097166666666667,5.0
COM8,507,30-Jul-19,2019-07-30 04:00:00,0.16828333333332998,0.15443333333332998,0.14421666666667002,0.14095,0.13643333333333,0.13265,0.1356,5.0
COM8,507,30-Jul-19,2019-07-30 05:00:00,0.36151666666667,0.34823333333333,0.3279,0.32325,0.31075,0.30043333333333,0.30761666666667,5.0
COM8,507,30-Jul-19,2019-07-30 06:00:00,0.41901666666667,0.4244,0.40503333333333,0.4021,0.39105,0.38401666666667,0.39398333333333,5.0
COM8,507,30-Jul-19,2019-07-30 07:00:00,0.84446666666667,0.85586666666667,0.81525,0.80915,0.78333333333333,0.7617,0.78243333333333,5.0
COM8,507,30-Jul-19,2019-07-30 08:00:00,0.34338333333333,0.32781666666667,0.30755,0.30246666666667,0.28941666666667,0.27256666666667,0.27928333333333,5.0
COM8,507,30-Jul-19,2019-07-30 09:00:00,0.16788333333332997,0.14851666666667002,0.13808333333332998,0.13276666666667,0.1269,0.1179,0.12081666666667,5.0
COM8,507,30-Jul-19,2019-07-30 10:00:00,0.23541666666667002,0.20725,0.18603333333332997,0.18088333333332998,0.1766,0.15945,0.16351666666667,5.0
COM8,507,30-Jul-19,2019-07-30 11:00:00,0.27113333333332995,0.25623333333333,0.2409,0.23621666666667004,0.22533333333332997,0.21525,0.22153333333332997,5.0
COM8,507,30-Jul-19,2019-07-30 12:00:00,0.2046,0.19361666666667005,0.1824,0.17815,0.17016666666667002,0.15983333333333,0.16308333333333,4.998333333333299
COM8,507,30-Jul-19,2019-07-30 13:00:00,0.2429,0.23588333333332998,0.22456666666667002,0.22163333333332996,0.21423333333332997,0.20615,0.2128,4.91
COM8,507,30-Jul-19,2019-07-30 14:00:00,0.15768333333332998,0.14623333333333,0.13621666666666998,0.13363333333333,0.12766666666666998,0.12255,0.12596666666667,4.9
COM8,507,30-Jul-19,2019-07-30 15:00:00,0.1369,0.12836666666667,0.12026666666666999,0.11693333333333,0.11205,0.10745,0.11136666666667,4.9
COM8,507,30-Jul-19,2019-07-30 16:00:00,0.12071666666667,0.10221666666667,0.09593333333333301,0.094133333333333,0.09116666666666699,0.08761666666666701,0.09255,4.5916666666667005
COM8,507,30-Jul-19,2019-07-30 17:00:00,0.23198333333332996,0.16013333333333,0.15256666666667001,0.15143333333332998,0.14841666666667,0.14885,0.15381666666667002,5.0
COM8,507,30-Jul-19,2019-07-30 18:00:00,0.2528,0.23638333333332998,0.22195,0.21785,0.20938333333332998,0.20478333333332996,0.20986666666667003,5.0
COM8,507,30-Jul-19,2019-07-30 19:00:00,0.19273333333332998,0.18301666666667002,0.1708,0.16715,0.16006666666667002,0.1526,0.15665,5.0
COM8,507,30-Jul-19,2019-07-30 20:00:00,0.19825,0.19498333333332996,0.1841,0.18156666666667004,0.17600000000000002,0.17445,0.1781,5.0
COM8,507,30-Jul-19,2019-07-30 21:00:00,0.39671666666667,0.39758333333333,0.37773333333333,0.3732,0.36043333333333,0.35038333333333,0.35911666666666997,5.0
COM8,507,30-Jul-19,2019-07-30 22:00:00,0.31673333333333,0.29915,0.28105,0.27578333333333,0.26448333333332996,0.2563,0.26195,5.0
COM8,507,30-Jul-19,2019-07-30 23:00:00,0.27025,0.25331666666667,0.2375,0.23258333333332998,0.22378333333332998,0.21808333333332997,0.22278333333332997,5.0
