COM8,507,15-Nov-19,2019-11-15 00:00:00,0.91913559322034,0.84693220338983,0.76922033898305,0.74206779661017,0.69408474576271,0.6534406779661,0.67206779661017,4.8
COM8,507,15-Nov-19,2019-11-15 01:00:00,1.1877833333333,0.9437,0.84076666666667,0.80345,0.74288333333333,0.68115,0.69596666666667,4.8
COM8,507,15-Nov-19,2019-11-15 02:00:00,1.32495,1.0325666666667,0.91506666666667,0.86425,0.7925,0.7162166666666699,0.73321666666667,4.8
COM8,507,15-Nov-19,2019-11-15 03:00:00,1.1998,0.95316666666667,0.83915,0.7845,0.7159,0.6422,0.6572333333333299,4.8
COM8,507,15-Nov-19,2019-11-15 04:00:00,1.2524,0.99965,0.88125,0.82705,0.75916666666667,0.68373333333333,0.6974,4.8
COM8,507,15-Nov-19,2019-11-15 05:00:00,1.2471666666666998,1.0273666666666998,0.9097833333333301,0.85715,0.78533333333333,0.70771666666667,0.72358333333333,4.8
COM8,507,15-Nov-19,2019-11-15 06:00:00,1.5992833333333,1.2850333333333002,1.1405,1.0859166666667,0.9995166666666699,0.91291666666667,0.9372,4.8
COM8,507,15-Nov-19,2019-11-15 07:00:00,1.9298666666667,1.6689833333333,1.5154,1.4561,1.3598666666666999,1.2693666666666998,1.3038666666667,4.79
COM8,507,15-Nov-19,2019-11-15 08:00:00,2.0673666666667,1.9176666666667,1.7557166666667,1.6989333333333,1.5912666666667,1.4878833333333001,1.5330000000000001,4.7
COM8,507,15-Nov-19,2019-11-15 09:00:00,3.09495,2.8321333333333,2.57655,2.4761,2.3091666666667003,2.15765,2.227,4.7
COM8,507,15-Nov-19,2019-11-15 10:00:00,3.7198833333333,3.4727166666667,3.1990833333333,3.10155,2.9292,2.7776833333332998,2.8729333333333,4.7
COM8,507,15-Nov-19,2019-11-15 11:00:00,5.19755,4.6573,4.2720333333333,4.13925,3.8956666666667004,3.6720666666667,3.7938166666667,4.7
COM8,507,15-Nov-19,2019-11-15 12:00:00,3.70355,3.4039333333333,3.1469833333332997,3.06725,2.8992333333333,2.7546166666667005,2.8491,4.455
COM8,507,15-Nov-19,2019-11-15 13:00:00,0.40398333333333003,0.2935,0.27558333333333,0.27025,0.2616,0.25773333333333,0.2666,5.1
COM8,507,15-Nov-19,2019-11-15 14:00:00,0.34195,0.30265,0.2864,0.28248333333333,0.27696666666666997,0.28508333333333,0.29496666666667,5.1
COM8,507,15-Nov-19,2019-11-15 15:00:00,0.2518,0.22815,0.21048333333332997,0.204,0.19545,0.18833333333332997,0.19373333333332995,5.1
COM8,507,15-Nov-19,2019-11-15 16:00:00,0.42055,0.38401666666667,0.35098333333333,0.33873333333333,0.32208333333333,0.30578333333333,0.31193333333333,5.1
COM8,507,15-Nov-19,2019-11-15 17:00:00,0.74163333333333,0.71123333333333,0.6677,0.6542333333333299,0.6309333333333299,0.61195,0.62681666666667,5.1
COM8,507,15-Nov-19,2019-11-15 18:00:00,1.23555,1.1239666666666999,1.0476,1.0205,0.97718333333333,0.94183333333333,0.96486666666667,5.1
COM8,507,15-Nov-19,2019-11-15 19:00:00,1.8160666666667,1.6851666666667,1.58185,1.5506,1.48925,1.4388166666667,1.4742,5.1
COM8,507,15-Nov-19,2019-11-15 20:00:00,1.2625166666667,1.1389666666667,1.0636833333333,1.0384833333333001,0.99528333333333,0.96273333333333,0.9873,5.1
COM8,507,15-Nov-19,2019-11-15 21:00:00,1.3746166666667,1.2135166666666999,1.1328333333333,1.1089166666666999,1.0637333333333001,1.0311,1.0577833333333,5.1
COM8,507,15-Nov-19,2019-11-15 22:00:00,1.3253,1.1876666666667,1.1092,1.0849333333333,1.0386,0.99761666666667,1.01815,5.1
COM8,507,15-Nov-19,2019-11-15 23:00:00,0.78855,0.78431666666667,0.74215,0.73088333333333,0.69968333333333,0.67523333333333,0.68281666666667,5.1
