COM7,0507,23-Nov-18,2018-11-23 00:00:00,0.18233898305085,0.16208474576271,0.14650847457627,0.13740677966102,0.1254406779661,0.11269491525424,0.11420338983051,4.9,0,0,0,0,0,0,0,0,0,0,0,0,0,0,0,0,0,0,0,0,0,0,0,0,0,0,0,0,0,0,0,0,0,0,0,0,0,0,0,0,0,0
COM7,0507,23-Nov-18,2018-11-23 01:00:00,0.18196666666667,0.17723333333333,0.16268333333333,0.15458333333333,0.14316666666667,0.12868333333333,0.13056666666667,4.9,0,0,0,0,0,0,0,0,0,0,0,0,0,0,0,0,0,0,0,0,0,0,0,0,0,0,0,0,0,0,0,0,0,0,0,0,0,0,0,0,0,0
COM7,0507,23-Nov-18,2018-11-23 02:00:00,0.12633333333333,0.12838333333333,0.11976666666667,0.1162,0.1081,0.10031666666667,0.10171666666667,4.9,0,0,0,0,0,0,0,0,0,0,0,0,0,0,0,0,0,0,0,0,0,0,0,0,0,0,0,0,0,0,0,0,0,0,0,0,0,0,0,0,0,0
COM7,0507,23-Nov-18,2018-11-23 03:00:00,0.086066666666667,0.10023333333333,0.097183333333333,0.095983333333333,0.092016666666667,0.087516666666667,0.089283333333333,4.9,0,0,0,0,0,0,0,0,0,0,0,0,0,0,0,0,0,0,0,0,0,0,0,0,0,0,0,0,0,0,0,0,0,0,0,0,0,0,0,0,0,0
COM7,0507,23-Nov-18,2018-11-23 04:00:00,0.10296666666667,0.10903333333333,0.10365,0.1031,0.097283333333333,0.091833333333333,0.093466666666667,4.9,0,0,0,0,0,0,0,0,0,0,0,0,0,0,0,0,0,0,0,0,0,0,0,0,0,0,0,0,0,0,0,0,0,0,0,0,0,0,0,0,0,0
COM7,0507,23-Nov-18,2018-11-23 05:00:00,0.11923333333333,0.1213,0.11473333333333,0.11321666666667,0.10798333333333,0.10215,0.10386666666667,4.9,0,0,0,0,0,0,0,0,0,0,0,0,0,0,0,0,0,0,0,0,0,0,0,0,0,0,0,0,0,0,0,0,0,0,0,0,0,0,0,0,0,0
COM7,0507,23-Nov-18,2018-11-23 06:00:00,0.1093,0.12161666666667,0.1175,0.11713333333333,0.1136,0.10871666666667,0.11175,4.9,0,0,0,0,0,0,0,0,0,0,0,0,0,0,0,0,0,0,0,0,0,0,0,0,0,0,0,0,0,0,0,0,0,0,0,0,0,0,0,0,0,0
COM7,0507,23-Nov-18,2018-11-23 07:00:00,0.12121666666667,0.13113333333333,0.12585,0.12501666666667,0.12083333333333,0.11703333333333,0.12008333333333,4.9,0,0,0,0,0,0,0,0,0,0,0,0,0,0,0,0,0,0,0,0,0,0,0,0,0,0,0,0,0,0,0,0,0,0,0,0,0,0,0,0,0,0
COM7,0507,23-Nov-18,2018-11-23 08:00:00,0.13651666666667,0.13983333333333,0.13423333333333,0.13343333333333,0.12788333333333,0.12336666666667,0.12555,4.9,0,0,0,0,0,0,0,0,0,0,0,0,0,0,0,0,0,0,0,0,0,0,0,0,0,0,0,0,0,0,0,0,0,0,0,0,0,0,0,0,0,0
COM7,0507,23-Nov-18,2018-11-23 09:00:00,0.183,0.13860714285714,0.13242857142857,0.13241071428571,0.12892857142857,0.12171428571429,0.12925,4.3482142857143,0,0,0,0,0,0,0,0,0,0,0,0,0,0,0,0,0,0,0,0,0,0,0,0,0,0,0,0,0,0,0,0,0,0,0,0,0,0,0,0,0,0
COM7,0507,23-Nov-18,2018-11-23 10:00:00,0.1914,0.15338333333333,0.14881666666667,0.14775,0.14068333333333,0.13795,0.13941666666667,5,0,0,0,0,0,0,0,0,0,0,0,0,0,0,0,0,0,0,0,0,0,0,0,0,0,0,0,0,0,0,0,0,0,0,0,0,0,0,0,0,0,0
COM7,0507,23-Nov-18,2018-11-23 11:00:00,0.13535,0.13915,0.13313333333333,0.13136666666667,0.12511666666667,0.1213,0.12241666666667,5,0,0,0,0,0,0,0,0,0,0,0,0,0,0,0,0,0,0,0,0,0,0,0,0,0,0,0,0,0,0,0,0,0,0,0,0,0,0,0,0,0,0
COM7,0507,23-Nov-18,2018-11-23 12:00:00,0.16966666666667,0.17408333333333,0.16593333333333,0.16508333333333,0.15845,0.15548333333333,0.15805,4.9316666666667,0,0,0,0,0,0,0,0,0,0,0,0,0,0,0,0,0,0,0,0,0,0,0,0,0,0,0,0,0,0,0,0,0,0,0,0,0,0,0,0,0,0
COM7,0507,23-Nov-18,2018-11-23 13:00:00,0.11496666666667,0.11666666666667,0.11198333333333,0.11065,0.1068,0.1043,0.10641666666667,4.9,0,0,0,0,0,0,0,0,0,0,0,0,0,0,0,0,0,0,0,0,0,0,0,0,0,0,0,0,0,0,0,0,0,0,0,0,0,0,0,0,0,0
COM7,0507,23-Nov-18,2018-11-23 14:00:00,0.1285,0.12798333333333,0.12175,0.11988333333333,0.11548333333333,0.11103333333333,0.11311666666667,4.9,0,0,0,0,0,0,0,0,0,0,0,0,0,0,0,0,0,0,0,0,0,0,0,0,0,0,0,0,0,0,0,0,0,0,0,0,0,0,0,0,0,0
COM7,0507,23-Nov-18,2018-11-23 15:00:00,0.11141666666667,0.10728333333333,0.10245,0.10155,0.097016666666667,0.093416666666667,0.095716666666667,4.9,0,0,0,0,0,0,0,0,0,0,0,0,0,0,0,0,0,0,0,0,0,0,0,0,0,0,0,0,0,0,0,0,0,0,0,0,0,0,0,0,0,0
COM7,0507,23-Nov-18,2018-11-23 16:00:00,0.17451666666667,0.14865,0.13561666666667,0.12981666666667,0.1228,0.11485,0.11883333333333,4.9,0,0,0,0,0,0,0,0,0,0,0,0,0,0,0,0,0,0,0,0,0,0,0,0,0,0,0,0,0,0,0,0,0,0,0,0,0,0,0,0,0,0
COM7,0507,23-Nov-18,2018-11-23 17:00:00,0.11966666666667,0.1065,0.098866666666667,0.0937,0.08995,0.086133333333333,0.087016666666667,4.9,0,0,0,0,0,0,0,0,0,0,0,0,0,0,0,0,0,0,0,0,0,0,0,0,0,0,0,0,0,0,0,0,0,0,0,0,0,0,0,0,0,0
COM7,0507,23-Nov-18,2018-11-23 18:00:00,0.13081666666667,0.1215,0.11431666666667,0.11258333333333,0.10715,0.10553333333333,0.10891666666667,4.9,0,0,0,0,0,0,0,0,0,0,0,0,0,0,0,0,0,0,0,0,0,0,0,0,0,0,0,0,0,0,0,0,0,0,0,0,0,0,0,0,0,0
COM7,0507,23-Nov-18,2018-11-23 19:00:00,0.14675,0.11066666666667,0.099283333333333,0.093616666666667,0.088066666666667,0.079366666666667,0.081533333333333,4.9,0,0,0,0,0,0,0,0,0,0,0,0,0,0,0,0,0,0,0,0,0,0,0,0,0,0,0,0,0,0,0,0,0,0,0,0,0,0,0,0,0,0
COM7,0507,23-Nov-18,2018-11-23 20:00:00,0.05935,0.047933333333333,0.043666666666667,0.041633333333333,0.040216666666667,0.03545,0.037383333333333,4.9,0,0,0,0,0,0,0,0,0,0,0,0,0,0,0,0,0,0,0,0,0,0,0,0,0,0,0,0,0,0,0,0,0,0,0,0,0,0,0,0,0,0
COM7,0507,23-Nov-18,2018-11-23 21:00:00,0.04425,0.038916666666667,0.0374,0.035183333333333,0.034016666666667,0.032133333333333,0.032233333333333,4.9,0,0,0,0,0,0,0,0,0,0,0,0,0,0,0,0,0,0,0,0,0,0,0,0,0,0,0,0,0,0,0,0,0,0,0,0,0,0,0,0,0,0
COM7,0507,23-Nov-18,2018-11-23 22:00:00,0.057333333333333,0.049183333333333,0.044816666666667,0.0437,0.040733333333333,0.036816666666667,0.037416666666667,4.9,0,0,0,0,0,0,0,0,0,0,0,0,0,0,0,0,0,0,0,0,0,0,0,0,0,0,0,0,0,0,0,0,0,0,0,0,0,0,0,0,0,0
COM7,0507,23-Nov-18,2018-11-23 23:00:00,0.0841,0.075616666666667,0.071016666666667,0.06965,0.06645,0.06335,0.065683333333333,4.9,0,0,0,0,0,0,0,0,0,0,0,0,0,0,0,0,0,0,0,0,0,0,0,0,0,0,0,0,0,0,0,0,0,0,0,0,0,0,0,0,0,0
