COM7,0507,30-Nov-18,2018-11-30 00:00:00,0.10333898305085,0.095372881355932,0.087983050847458,0.082847457627119,0.076932203389831,0.06671186440678,0.068186440677966,4.8,0,0,0,0,0,0,0,0,0,0,0,0,0,0,0,0,0,0,0,0,0,0,0,0,0,0,0,0,0,0,0,0,0,0,0,0,0,0,0,0,0,0
COM7,0507,30-Nov-18,2018-11-30 01:00:00,0.01055,0.016866666666667,0.015816666666667,0.017866666666667,0.0154,0.014266666666667,0.01395,4.8,0,0,0,0,0,0,0,0,0,0,0,0,0,0,0,0,0,0,0,0,0,0,0,0,0,0,0,0,0,0,0,0,0,0,0,0,0,0,0,0,0,0
COM7,0507,30-Nov-18,2018-11-30 02:00:00,-0.0038333333333333,0.01175,0.013433333333333,0.014366666666667,0.013383333333333,0.013183333333333,0.013233333333333,4.8,0,0,0,0,0,0,0,0,0,0,0,0,0,0,0,0,0,0,0,0,0,0,0,0,0,0,0,0,0,0,0,0,0,0,0,0,0,0,0,0,0,0
COM7,0507,30-Nov-18,2018-11-30 03:00:00,0.021483333333333,0.024283333333333,0.023383333333333,0.02405,0.02165,0.020366666666667,0.02105,4.8,0,0,0,0,0,0,0,0,0,0,0,0,0,0,0,0,0,0,0,0,0,0,0,0,0,0,0,0,0,0,0,0,0,0,0,0,0,0,0,0,0,0
COM7,0507,30-Nov-18,2018-11-30 04:00:00,0.097116666666667,0.090883333333333,0.08745,0.08335,0.07875,0.07435,0.0755,4.8,0,0,0,0,0,0,0,0,0,0,0,0,0,0,0,0,0,0,0,0,0,0,0,0,0,0,0,0,0,0,0,0,0,0,0,0,0,0,0,0,0,0
COM7,0507,30-Nov-18,2018-11-30 05:00:00,0.20516666666667,0.18943333333333,0.17538333333333,0.17243333333333,0.16181666666667,0.15116666666667,0.15551666666667,4.8,0,0,0,0,0,0,0,0,0,0,0,0,0,0,0,0,0,0,0,0,0,0,0,0,0,0,0,0,0,0,0,0,0,0,0,0,0,0,0,0,0,0
COM7,0507,30-Nov-18,2018-11-30 06:00:00,0.33951666666667,0.31896666666667,0.29866666666667,0.29243333333333,0.27645,0.26355,0.26978333333333,4.8,0,0,0,0,0,0,0,0,0,0,0,0,0,0,0,0,0,0,0,0,0,0,0,0,0,0,0,0,0,0,0,0,0,0,0,0,0,0,0,0,0,0
COM7,0507,30-Nov-18,2018-11-30 07:00:00,0.3929,0.35306666666667,0.32816666666667,0.3187,0.29875,0.27933333333333,0.28633333333333,4.8,0,0,0,0,0,0,0,0,0,0,0,0,0,0,0,0,0,0,0,0,0,0,0,0,0,0,0,0,0,0,0,0,0,0,0,0,0,0,0,0,0,0
COM7,0507,30-Nov-18,2018-11-30 08:00:00,0.71003333333333,0.64868333333333,0.59841666666667,0.582,0.54553333333333,0.50908333333333,0.52018333333333,4.8,0,0,0,0,0,0,0,0,0,0,0,0,0,0,0,0,0,0,0,0,0,0,0,0,0,0,0,0,0,0,0,0,0,0,0,0,0,0,0,0,0,0
COM7,0507,30-Nov-18,2018-11-30 09:00:00,0.76438333333333,0.70721666666667,0.66846666666667,0.65616666666667,0.62861666666667,0.60275,0.62271666666667,4.525,0,0,0,0,0,0,0,0,0,0,0,0,0,0,0,0,0,0,0,0,0,0,0,0,0,0,0,0,0,0,0,0,0,0,0,0,0,0,0,0,0,0
COM7,0507,30-Nov-18,2018-11-30 10:00:00,0.28285,0.246,0.23521666666667,0.23216666666667,0.22401666666667,0.21885,0.22491666666667,4.9,0,0,0,0,0,0,0,0,0,0,0,0,0,0,0,0,0,0,0,0,0,0,0,0,0,0,0,0,0,0,0,0,0,0,0,0,0,0,0,0,0,0
COM7,0507,30-Nov-18,2018-11-30 11:00:00,0.26406666666667,0.26506666666667,0.25305,0.25151666666667,0.24278333333333,0.23891666666667,0.24448333333333,4.9,0,0,0,0,0,0,0,0,0,0,0,0,0,0,0,0,0,0,0,0,0,0,0,0,0,0,0,0,0,0,0,0,0,0,0,0,0,0,0,0,0,0
COM7,0507,30-Nov-18,2018-11-30 12:00:00,0.15645,0.15736666666667,0.15003333333333,0.148,0.14246666666667,0.14036666666667,0.14358333333333,4.9,0,0,0,0,0,0,0,0,0,0,0,0,0,0,0,0,0,0,0,0,0,0,0,0,0,0,0,0,0,0,0,0,0,0,0,0,0,0,0,0,0,0
COM7,0507,30-Nov-18,2018-11-30 13:00:00,0.10931666666667,0.11371666666667,0.10896666666667,0.10785,0.10385,0.10113333333333,0.10331666666667,4.9,0,0,0,0,0,0,0,0,0,0,0,0,0,0,0,0,0,0,0,0,0,0,0,0,0,0,0,0,0,0,0,0,0,0,0,0,0,0,0,0,0,0
COM7,0507,30-Nov-18,2018-11-30 14:00:00,0.10245,0.10266666666667,0.097633333333333,0.096633333333333,0.093033333333333,0.08965,0.091883333333333,4.9,0,0,0,0,0,0,0,0,0,0,0,0,0,0,0,0,0,0,0,0,0,0,0,0,0,0,0,0,0,0,0,0,0,0,0,0,0,0,0,0,0,0
COM7,0507,30-Nov-18,2018-11-30 15:00:00,0.14136666666667,0.13796666666667,0.1312,0.12875,0.1235,0.12036666666667,0.12298333333333,4.9,0,0,0,0,0,0,0,0,0,0,0,0,0,0,0,0,0,0,0,0,0,0,0,0,0,0,0,0,0,0,0,0,0,0,0,0,0,0,0,0,0,0
COM7,0507,30-Nov-18,2018-11-30 16:00:00,0.35036666666667,0.28203333333333,0.25446666666667,0.24116666666667,0.2244,0.20406666666667,0.2069,4.9,0,0,0,0,0,0,0,0,0,0,0,0,0,0,0,0,0,0,0,0,0,0,0,0,0,0,0,0,0,0,0,0,0,0,0,0,0,0,0,0,0,0
COM7,0507,30-Nov-18,2018-11-30 17:00:00,1.0962,0.88483333333333,0.79698333333333,0.75705,0.70728333333333,0.65075,0.66205,4.9,0,0,0,0,0,0,0,0,0,0,0,0,0,0,0,0,0,0,0,0,0,0,0,0,0,0,0,0,0,0,0,0,0,0,0,0,0,0,0,0,0,0
COM7,0507,30-Nov-18,2018-11-30 18:00:00,2.07885,1.6226,1.4672,1.4052166666667,1.3204833333333,1.2323333333333,1.2560666666667,4.9,0,0,0,0,0,0,0,0,0,0,0,0,0,0,0,0,0,0,0,0,0,0,0,0,0,0,0,0,0,0,0,0,0,0,0,0,0,0,0,0,0,0
COM7,0507,30-Nov-18,2018-11-30 19:00:00,1.4000333333333,1.1704833333333,1.0596666666667,1.01115,0.94756666666667,0.88221666666667,0.89913333333333,4.9,0,0,0,0,0,0,0,0,0,0,0,0,0,0,0,0,0,0,0,0,0,0,0,0,0,0,0,0,0,0,0,0,0,0,0,0,0,0,0,0,0,0
COM7,0507,30-Nov-18,2018-11-30 20:00:00,-0.1219,0.021416666666667,0.0346,0.035066666666667,0.03345,0.030816666666667,0.032383333333333,4.9,0,0,0,0,0,0,0,0,0,0,0,0,0,0,0,0,0,0,0,0,0,0,0,0,0,0,0,0,0,0,0,0,0,0,0,0,0,0,0,0,0,0
COM7,0507,30-Nov-18,2018-11-30 21:00:00,0.0094833333333333,0.069216666666667,0.0745,0.0735,0.069616666666667,0.066333333333333,0.067766666666667,4.9,0,0,0,0,0,0,0,0,0,0,0,0,0,0,0,0,0,0,0,0,0,0,0,0,0,0,0,0,0,0,0,0,0,0,0,0,0,0,0,0,0,0
COM7,0507,30-Nov-18,2018-11-30 22:00:00,0.043566666666667,0.060566666666667,0.058583333333333,0.056433333333333,0.05115,0.044733333333333,0.045733333333333,4.9,0,0,0,0,0,0,0,0,0,0,0,0,0,0,0,0,0,0,0,0,0,0,0,0,0,0,0,0,0,0,0,0,0,0,0,0,0,0,0,0,0,0
COM7,0507,30-Nov-18,2018-11-30 23:00:00,0.03905,0.043066666666667,0.040066666666667,0.037483333333333,0.033716666666667,0.026966666666667,0.027183333333333,4.9,0,0,0,0,0,0,0,0,0,0,0,0,0,0,0,0,0,0,0,0,0,0,0,0,0,0,0,0,0,0,0,0,0,0,0,0,0,0,0,0,0,0
