COM8,507,19-Nov-19,2019-11-19 00:00:00,0.97269491525424,0.9075423728813601,0.80986440677966,0.7598983050847501,0.69549152542373,0.6379661016949201,0.6513728813559301,4.9
COM8,507,19-Nov-19,2019-11-19 01:00:00,0.73923333333333,0.78253333333333,0.7053,0.66553333333333,0.6081,0.55868333333333,0.57136666666667,4.9
COM8,507,19-Nov-19,2019-11-19 02:00:00,0.76253333333333,0.74276666666667,0.6652333333333299,0.62576666666667,0.57036666666667,0.521,0.53201666666667,4.9
COM8,507,19-Nov-19,2019-11-19 03:00:00,0.77333333333333,0.71056666666667,0.6321833333333299,0.5961,0.54013333333333,0.49266666666667,0.5034,4.9
COM8,507,19-Nov-19,2019-11-19 04:00:00,0.81745,0.7142166666666699,0.6299333333333299,0.5946833333333299,0.54131666666667,0.49198333333333,0.5015333333333301,4.8933333333333
COM8,507,19-Nov-19,2019-11-19 05:00:00,1.0740166666667,0.87966666666667,0.7744,0.72828333333333,0.65896666666667,0.6021,0.6139666666666701,4.8
COM8,507,19-Nov-19,2019-11-19 06:00:00,1.6167666666667,1.3138666666667,1.1566166666667,1.0932666666667,1.00045,0.9216,0.9429,4.8
COM8,507,19-Nov-19,2019-11-19 07:00:00,2.15705,1.7489,1.5504833333333001,1.4728,1.35175,1.2522333333333,1.2817833333333,4.8
COM8,507,19-Nov-19,2019-11-19 08:00:00,2.20885,1.9438833333333,1.7614,1.6923166666667,1.5727666666667,1.4878,1.5254833333333,4.8
COM8,507,19-Nov-19,2019-11-19 09:00:00,0.92788333333333,0.96653333333333,0.88976666666667,0.86496666666667,0.81235,0.76908333333333,0.7941,4.8
COM8,507,19-Nov-19,2019-11-19 10:00:00,0.12475,0.25168333333333,0.24803333333332997,0.24158333333332996,0.22925,0.20521666666667004,0.2149,4.8
COM8,507,19-Nov-19,2019-11-19 11:00:00,0.26005,0.25776666666667003,0.23715,0.2234,0.20938333333332998,0.17465,0.18256666666667004,4.748333333333299
COM8,507,19-Nov-19,2019-11-19 12:00:00,0.3918,0.30345,0.26766666666667005,0.2478,0.23093333333332997,0.19698333333332996,0.207,4.4666666666667005
COM8,507,19-Nov-19,2019-11-19 13:00:00,0.45115,0.308,0.27836666666667,0.2644,0.2506,0.23196666666667004,0.23895,5.1
COM8,507,19-Nov-19,2019-11-19 14:00:00,0.40966666666667,0.33181666666667,0.30321666666667,0.2922,0.28108333333333,0.27563333333333,0.28408333333333,5.1
COM8,507,19-Nov-19,2019-11-19 15:00:00,0.41275,0.37515,0.34446666666667,0.3332,0.31866666666667,0.30741666666667,0.3148,5.0233333333333
COM8,507,19-Nov-19,2019-11-19 16:00:00,0.55863333333333,0.5306,0.49945,0.48966666666666997,0.4739,0.4659,0.47901666666667,5.0
COM8,507,19-Nov-19,2019-11-19 17:00:00,0.49988333333333,0.43461666666667,0.39711666666667,0.38233333333333,0.36456666666667,0.35358333333333003,0.36186666666667,5.0
COM8,507,19-Nov-19,2019-11-19 18:00:00,0.3094,0.28146666666667,0.25833333333333,0.24863333333332996,0.23735,0.23061666666667002,0.23553333333332996,5.0
COM8,507,19-Nov-19,2019-11-19 19:00:00,0.26911666666667006,0.23993333333332997,0.22075,0.2125,0.20055,0.19186666666667004,0.19548333333332996,5.0
COM8,507,19-Nov-19,2019-11-19 20:00:00,0.23638333333332998,0.19745,0.17958333333332996,0.16986666666667002,0.16076666666667,0.152,0.15468333333332998,5.0
COM8,507,19-Nov-19,2019-11-19 21:00:00,0.6348833333333299,0.5778,0.53833333333333,0.52586666666667,0.50516666666667,0.49051666666667,0.50176666666667,5.0
COM8,507,19-Nov-19,2019-11-19 22:00:00,1.0676833333333,0.98718333333333,0.92355,0.9042,0.86925,0.84763333333333,0.86913333333333,5.0
COM8,507,19-Nov-19,2019-11-19 23:00:00,0.91073333333333,0.76553333333333,0.69756666666667,0.6709833333333299,0.63576666666667,0.6079333333333299,0.62233333333333,5.0
