COM8,507,19-Sep-19,2019-09-19 00:00:00,0.063677966101695,0.061593220338983005,0.057610169491525004,0.056508474576271,0.055101694915254004,0.052847457627119,0.054050847457627005,5.1
COM8,507,19-Sep-19,2019-09-19 01:00:00,0.054733333333333,0.052633333333333004,0.0495,0.04838333333333301,0.046266666666667,0.04455,0.046483333333333,5.1
COM8,507,19-Sep-19,2019-09-19 02:00:00,0.050516666666666994,0.049666666666667,0.0463,0.045166666666666994,0.042833333333333,0.0407,0.041666666666667,5.1
COM8,507,19-Sep-19,2019-09-19 03:00:00,0.054733333333333,0.053233333333333,0.04965,0.049116666666666996,0.047766666666667,0.047866666666666995,0.049216666666667,5.1
COM8,507,19-Sep-19,2019-09-19 04:00:00,0.1214,0.11898333333333,0.11253333333333,0.11116666666667,0.10868333333333001,0.1096,0.11301666666667,5.0716666666667
COM8,507,19-Sep-19,2019-09-19 05:00:00,0.23468333333332997,0.23091666666667005,0.2187,0.21651666666667002,0.21003333333332996,0.20591666666667002,0.21185,5.0033333333333
COM8,507,19-Sep-19,2019-09-19 06:00:00,0.5736,0.56211666666667,0.53008333333333,0.52225,0.50426666666667,0.48931666666667,0.50298333333333,5.0
COM8,507,19-Sep-19,2019-09-19 07:00:00,1.0247833333333,1.0273333333333001,0.97758333333333,0.97188333333333,0.94181666666667,0.93116666666667,0.96036666666667,5.0
COM8,507,19-Sep-19,2019-09-19 08:00:00,1.21755,1.20305,1.1409,1.1345333333333,1.0993,1.0927833333333001,1.1292166666666998,5.0
COM8,507,19-Sep-19,2019-09-19 09:00:00,0.87668333333333,0.872,0.83018333333333,0.82898333333333,0.79973333333333,0.78895,0.81418333333333,5.0
COM8,507,19-Sep-19,2019-09-19 10:00:00,0.42573333333333,0.41626666666667,0.39468333333333,0.39213333333333,0.37713333333333,0.37026666666667,0.3815,5.0
COM8,507,19-Sep-19,2019-09-19 11:00:00,0.19588333333332997,0.18288333333332996,0.17156666666667003,0.16931666666667003,0.1631,0.15593333333332998,0.16121666666667,5.0
COM8,507,19-Sep-19,2019-09-19 12:00:00,0.22143333333332996,0.20600000000000002,0.19443333333332996,0.19215,0.18491666666667003,0.18161666666667003,0.18855,5.0
COM8,507,19-Sep-19,2019-09-19 13:00:00,0.27026666666667004,0.22725,0.21283333333332996,0.21005,0.20498333333332996,0.20083333333332998,0.21066666666667003,4.711666666666701
COM8,507,19-Sep-19,2019-09-19 14:00:00,0.41215,0.3408,0.32321666666667,0.3177,0.30815,0.30396666666667,0.31238333333333,5.0633333333333
COM8,507,19-Sep-19,2019-09-19 15:00:00,0.36995,0.34955,0.32916666666667,0.32151666666667,0.31178333333333,0.30945,0.31876666666667,5.0
COM8,507,19-Sep-19,2019-09-19 16:00:00,0.32556666666667,0.32576666666667,0.30708333333333,0.30148333333333,0.29316666666667,0.2923,0.30061666666667,5.0
COM8,507,19-Sep-19,2019-09-19 17:00:00,0.2034,0.19111666666667004,0.17881666666667004,0.17346666666667004,0.16713333333333,0.16423333333332998,0.16878333333332995,5.0
COM8,507,19-Sep-19,2019-09-19 18:00:00,0.15141666666667,0.14175,0.13081666666667,0.12786666666667,0.1228,0.12113333333333001,0.12433333333333,5.0
COM8,507,19-Sep-19,2019-09-19 19:00:00,0.11425,0.1053,0.09833333333333301,0.095483333333333,0.09206666666666699,0.0911,0.09418333333333301,5.0
COM8,507,19-Sep-19,2019-09-19 20:00:00,0.10026666666667,0.09445,0.088183333333333,0.08666666666666702,0.08305,0.08055,0.08245,5.0
COM8,507,19-Sep-19,2019-09-19 21:00:00,0.16731666666667,0.15693333333332998,0.14766666666667003,0.14351666666667,0.13913333333333,0.13521666666666998,0.13998333333333,5.0
COM8,507,19-Sep-19,2019-09-19 22:00:00,0.18445,0.17675,0.16678333333332998,0.16343333333333,0.15813333333333,0.155,0.15888333333333,5.0
COM8,507,19-Sep-19,2019-09-19 23:00:00,0.20281666666667003,0.17651666666667004,0.1573,0.14875,0.1417,0.13556666666667,0.14046666666667001,5.0
