COM7,0507,23-Dec-18,2018-12-23 00:00:00,0.82064406779661,0.656,0.57679661016949,0.54086440677966,0.4884406779661,0.44252542372881,0.44666101694915,4.9,0,0,0,0,0,0,0,0,0,0,0,0,0,0,0,0,0,0,0,0,0,0,0,0,0,0,0,0,0,0,0,0,0,0,0,0,0,0,0,0,0,0
COM7,0507,23-Dec-18,2018-12-23 01:00:00,0.56156666666667,0.42985,0.37575,0.35216666666667,0.31825,0.28896666666667,0.2918,4.9,0,0,0,0,0,0,0,0,0,0,0,0,0,0,0,0,0,0,0,0,0,0,0,0,0,0,0,0,0,0,0,0,0,0,0,0,0,0,0,0,0,0
COM7,0507,23-Dec-18,2018-12-23 02:00:00,0.44176666666667,0.40511666666667,0.36851666666667,0.355,0.32915,0.31571666666667,0.32386666666667,4.9,0,0,0,0,0,0,0,0,0,0,0,0,0,0,0,0,0,0,0,0,0,0,0,0,0,0,0,0,0,0,0,0,0,0,0,0,0,0,0,0,0,0
COM7,0507,23-Dec-18,2018-12-23 03:00:00,0.43708333333333,0.39051666666667,0.35273333333333,0.33428333333333,0.31036666666667,0.29725,0.30538333333333,4.9,0,0,0,0,0,0,0,0,0,0,0,0,0,0,0,0,0,0,0,0,0,0,0,0,0,0,0,0,0,0,0,0,0,0,0,0,0,0,0,0,0,0
COM7,0507,23-Dec-18,2018-12-23 04:00:00,0.40061666666667,0.32501666666667,0.28808333333333,0.27,0.24685,0.22731666666667,0.23296666666667,4.9,0,0,0,0,0,0,0,0,0,0,0,0,0,0,0,0,0,0,0,0,0,0,0,0,0,0,0,0,0,0,0,0,0,0,0,0,0,0,0,0,0,0
COM7,0507,23-Dec-18,2018-12-23 05:00:00,0.35861666666667,0.28555,0.252,0.23538333333333,0.21503333333333,0.19281666666667,0.19743333333333,4.9,0,0,0,0,0,0,0,0,0,0,0,0,0,0,0,0,0,0,0,0,0,0,0,0,0,0,0,0,0,0,0,0,0,0,0,0,0,0,0,0,0,0
COM7,0507,23-Dec-18,2018-12-23 06:00:00,0.4338,0.30511666666667,0.26358333333333,0.23963333333333,0.21613333333333,0.19178333333333,0.19621666666667,4.9,0,0,0,0,0,0,0,0,0,0,0,0,0,0,0,0,0,0,0,0,0,0,0,0,0,0,0,0,0,0,0,0,0,0,0,0,0,0,0,0,0,0
COM7,0507,23-Dec-18,2018-12-23 07:00:00,0.32708333333333,0.25365,0.21858333333333,0.19971666666667,0.17768333333333,0.15375,0.15715,4.9,0,0,0,0,0,0,0,0,0,0,0,0,0,0,0,0,0,0,0,0,0,0,0,0,0,0,0,0,0,0,0,0,0,0,0,0,0,0,0,0,0,0
COM7,0507,23-Dec-18,2018-12-23 08:00:00,0.2491,0.25633333333333,0.2363,0.22736666666667,0.20936666666667,0.19513333333333,0.19696666666667,4.9,0,0,0,0,0,0,0,0,0,0,0,0,0,0,0,0,0,0,0,0,0,0,0,0,0,0,0,0,0,0,0,0,0,0,0,0,0,0,0,0,0,0
COM7,0507,23-Dec-18,2018-12-23 09:00:00,0.22906666666667,0.25188333333333,0.23666666666667,0.2308,0.2126,0.19438333333333,0.19925,4.9,0,0,0,0,0,0,0,0,0,0,0,0,0,0,0,0,0,0,0,0,0,0,0,0,0,0,0,0,0,0,0,0,0,0,0,0,0,0,0,0,0,0
COM7,0507,23-Dec-18,2018-12-23 10:00:00,0.18391666666667,0.2016,0.19141666666667,0.18778333333333,0.17995,0.1672,0.17336666666667,4.9,0,0,0,0,0,0,0,0,0,0,0,0,0,0,0,0,0,0,0,0,0,0,0,0,0,0,0,0,0,0,0,0,0,0,0,0,0,0,0,0,0,0
COM7,0507,23-Dec-18,2018-12-23 11:00:00,0.26275,0.26075,0.24833333333333,0.24241666666667,0.23716666666667,0.21765,0.229,4.9,0,0,0,0,0,0,0,0,0,0,0,0,0,0,0,0,0,0,0,0,0,0,0,0,0,0,0,0,0,0,0,0,0,0,0,0,0,0,0,0,0,0
COM7,0507,23-Dec-18,2018-12-23 12:00:00,0.32013333333333,0.30185,0.2837,0.2758,0.2719,0.24578333333333,0.26365,4.8916666666667,0,0,0,0,0,0,0,0,0,0,0,0,0,0,0,0,0,0,0,0,0,0,0,0,0,0,0,0,0,0,0,0,0,0,0,0,0,0,0,0,0,0
COM7,0507,23-Dec-18,2018-12-23 13:00:00,0.38638333333333,0.29041666666667,0.28021666666667,0.2716,0.26761666666667,0.24618333333333,0.26218333333333,4.475,0,0,0,0,0,0,0,0,0,0,0,0,0,0,0,0,0,0,0,0,0,0,0,0,0,0,0,0,0,0,0,0,0,0,0,0,0,0,0,0,0,0
COM7,0507,23-Dec-18,2018-12-23 14:00:00,0.30448333333333,0.29125,0.27675,0.26976666666667,0.26773333333333,0.26328333333333,0.2783,4.9,0,0,0,0,0,0,0,0,0,0,0,0,0,0,0,0,0,0,0,0,0,0,0,0,0,0,0,0,0,0,0,0,0,0,0,0,0,0,0,0,0,0
COM7,0507,23-Dec-18,2018-12-23 15:00:00,0.463,0.42435,0.39993333333333,0.39006666666667,0.38335,0.37825,0.39401666666667,4.9,0,0,0,0,0,0,0,0,0,0,0,0,0,0,0,0,0,0,0,0,0,0,0,0,0,0,0,0,0,0,0,0,0,0,0,0,0,0,0,0,0,0
COM7,0507,23-Dec-18,2018-12-23 16:00:00,0.76395,0.67443333333333,0.62401666666667,0.6012,0.57708333333333,0.54663333333333,0.56453333333333,4.9,0,0,0,0,0,0,0,0,0,0,0,0,0,0,0,0,0,0,0,0,0,0,0,0,0,0,0,0,0,0,0,0,0,0,0,0,0,0,0,0,0,0
COM7,0507,23-Dec-18,2018-12-23 17:00:00,1.2072666666667,0.97895,0.88536666666667,0.84065,0.7947,0.73573333333333,0.75568333333333,4.9,0,0,0,0,0,0,0,0,0,0,0,0,0,0,0,0,0,0,0,0,0,0,0,0,0,0,0,0,0,0,0,0,0,0,0,0,0,0,0,0,0,0
COM7,0507,23-Dec-18,2018-12-23 18:00:00,1.2994666666667,1.1118833333333,1.0190666666667,0.97773333333333,0.93071666666667,0.87885,0.90478333333333,4.9,0,0,0,0,0,0,0,0,0,0,0,0,0,0,0,0,0,0,0,0,0,0,0,0,0,0,0,0,0,0,0,0,0,0,0,0,0,0,0,0,0,0
COM7,0507,23-Dec-18,2018-12-23 19:00:00,1.8143333333333,1.4130333333333,1.26055,1.1904,1.1147833333333,1.0204,1.047,4.9,0,0,0,0,0,0,0,0,0,0,0,0,0,0,0,0,0,0,0,0,0,0,0,0,0,0,0,0,0,0,0,0,0,0,0,0,0,0,0,0,0,0
COM7,0507,23-Dec-18,2018-12-23 20:00:00,1.3707666666667,1.0675,0.95491666666667,0.90603333333333,0.84731666666667,0.77446666666667,0.79768333333333,4.8533333333333,0,0,0,0,0,0,0,0,0,0,0,0,0,0,0,0,0,0,0,0,0,0,0,0,0,0,0,0,0,0,0,0,0,0,0,0,0,0,0,0,0,0
COM7,0507,23-Dec-18,2018-12-23 21:00:00,1.1115,0.88908333333333,0.79526666666667,0.75385,0.70561666666667,0.64316666666667,0.66353333333333,4.8,0,0,0,0,0,0,0,0,0,0,0,0,0,0,0,0,0,0,0,0,0,0,0,0,0,0,0,0,0,0,0,0,0,0,0,0,0,0,0,0,0,0
COM7,0507,23-Dec-18,2018-12-23 22:00:00,1.4104666666667,0.97448333333333,0.84678333333333,0.78983333333333,0.7274,0.65121666666667,0.66903333333333,4.8,0,0,0,0,0,0,0,0,0,0,0,0,0,0,0,0,0,0,0,0,0,0,0,0,0,0,0,0,0,0,0,0,0,0,0,0,0,0,0,0,0,0
COM7,0507,23-Dec-18,2018-12-23 23:00:00,1.8221833333333,1.2297,1.0654166666667,0.99355,0.91456666666667,0.81641666666667,0.84095,4.8,0,0,0,0,0,0,0,0,0,0,0,0,0,0,0,0,0,0,0,0,0,0,0,0,0,0,0,0,0,0,0,0,0,0,0,0,0,0,0,0,0,0
