COM8,507,21-Sep-19,2019-09-21 00:00:00,0.293,0.25901694915254003,0.23611864406779998,0.22471186440678,0.21064406779661,0.19562711864406998,0.19962711864406998,5.1
COM8,507,21-Sep-19,2019-09-21 01:00:00,0.22498333333332995,0.23845,0.22206666666667002,0.21551666666667002,0.20376666666667004,0.18836666666667004,0.1923,5.1
COM8,507,21-Sep-19,2019-09-21 02:00:00,0.2572,0.25863333333333,0.24063333333332998,0.23503333333332996,0.22196666666667003,0.20411666666667003,0.20865,5.1
COM8,507,21-Sep-19,2019-09-21 03:00:00,0.18443333333332998,0.19091666666667004,0.17983333333332996,0.1785,0.16961666666667002,0.15888333333333,0.16233333333333,5.1
COM8,507,21-Sep-19,2019-09-21 04:00:00,0.26078333333333,0.24835,0.2296,0.22303333333332998,0.21051666666667004,0.19418333333332996,0.19796666666667004,5.1
COM8,507,21-Sep-19,2019-09-21 05:00:00,0.27683333333333,0.2596,0.2409,0.23678333333332996,0.22441666666667004,0.2107,0.2149,5.1
COM8,507,21-Sep-19,2019-09-21 06:00:00,0.40493333333333,0.38026666666667,0.35838333333333,0.35445,0.3399,0.32491666666667,0.33391666666666997,5.1
COM8,507,21-Sep-19,2019-09-21 07:00:00,0.56068333333333,0.52361666666667,0.49441666666667,0.49126666666667,0.47161666666667,0.4542,0.46638333333333,5.1
COM8,507,21-Sep-19,2019-09-21 08:00:00,0.6331833333333299,0.63845,0.61615,0.6205333333333299,0.60203333333333,0.59021666666667,0.6077,5.1
COM8,507,21-Sep-19,2019-09-21 09:00:00,0.65575,0.65301666666667,0.625,0.6279166666666701,0.6054,0.5953833333333299,0.6124833333333299,5.1
COM8,507,21-Sep-19,2019-09-21 10:00:00,0.6809666666666699,0.6668833333333299,0.63675,0.6384,0.6137666666666701,0.6041166666666701,0.61961666666667,5.1
COM8,507,21-Sep-19,2019-09-21 11:00:00,0.56283333333333,0.5574166666666701,0.53866666666667,0.54376666666667,0.5254,0.51868333333333,0.53318333333333,5.1
COM8,507,21-Sep-19,2019-09-21 12:00:00,0.28363333333333,0.28605,0.27361666666667,0.27513333333333,0.2631,0.25313333333333,0.26043333333332996,5.1
COM8,507,21-Sep-19,2019-09-21 13:00:00,0.20896666666667002,0.18496666666667003,0.17603333333332996,0.17671666666667002,0.17313333333332998,0.16661666666667002,0.17468333333332997,4.76
COM8,507,21-Sep-19,2019-09-21 14:00:00,0.34271666666667,0.30105,0.29341666666667,0.29413333333333,0.28696666666667,0.28285,0.29066666666667,5.1
COM8,507,21-Sep-19,2019-09-21 15:00:00,0.28158333333333,0.28393333333333,0.27296666666667,0.27246666666667,0.266,0.26016666666667004,0.26713333333332995,5.1
COM8,507,21-Sep-19,2019-09-21 16:00:00,0.30183333333333,0.29901666666667,0.28631666666667,0.2844,0.27605,0.26928333333333,0.27596666666666997,5.1
COM8,507,21-Sep-19,2019-09-21 17:00:00,0.25796666666667,0.25571666666667003,0.2447,0.24346666666667002,0.23708333333332998,0.23121666666667004,0.23776666666667004,5.1
COM8,507,21-Sep-19,2019-09-21 18:00:00,1.66325,1.0067666666667,0.82628333333333,0.72481666666667,0.6371666666666701,0.52623333333333,0.52863333333333,5.1
COM8,507,21-Sep-19,2019-09-21 19:00:00,1.5095333333333,0.91361666666667,0.76163333333333,0.67425,0.6001166666666701,0.51621666666667,0.52315,5.1
COM8,507,21-Sep-19,2019-09-21 20:00:00,1.2871166666667,0.91403333333333,0.79626666666667,0.73483333333333,0.6721,0.59598333333333,0.60615,5.1
COM8,507,21-Sep-19,2019-09-21 21:00:00,0.85781666666667,0.63165,0.5527166666666701,0.51021666666667,0.46726666666667,0.4189,0.4264,5.1
COM8,507,21-Sep-19,2019-09-21 22:00:00,0.94986666666667,0.63186666666667,0.54051666666667,0.49216666666666997,0.44505,0.39308333333333,0.40103333333333,5.1
COM8,507,21-Sep-19,2019-09-21 23:00:00,0.44926666666667,0.3778,0.33145,0.307,0.28066666666667,0.24973333333332998,0.25491666666667,5.1
