COM8,507,16-Sep-19,2019-09-16 00:00:00,0.22161016949152998,0.20101694915254,0.1894406779661,0.18669491525424,0.17928813559322,0.17108474576271,0.17498305084746,5.1
COM8,507,16-Sep-19,2019-09-16 01:00:00,0.27301666666667,0.2498,0.23576666666667004,0.23176666666667003,0.22306666666667002,0.21366666666667003,0.21845,5.1
COM8,507,16-Sep-19,2019-09-16 02:00:00,0.24283333333332996,0.22185,0.20905,0.20568333333332997,0.19815,0.1885,0.19226666666667003,5.1
COM8,507,16-Sep-19,2019-09-16 03:00:00,0.22431666666667002,0.20508333333332998,0.19431666666667002,0.19148333333332998,0.1837,0.17408333333332998,0.17856666666667004,5.038333333333299
COM8,507,16-Sep-19,2019-09-16 04:00:00,0.19021666666667003,0.17401666666667004,0.16383333333333,0.1608,0.15475,0.14668333333332997,0.14893333333332998,5.0
COM8,507,16-Sep-19,2019-09-16 05:00:00,0.40826666666667,0.39743333333333003,0.37818333333333,0.37436666666667,0.36141666666667,0.35008333333333,0.35943333333333,5.0
COM8,507,16-Sep-19,2019-09-16 06:00:00,0.68951666666667,0.67771666666667,0.6433,0.63548333333333,0.61308333333333,0.5937333333333299,0.60936666666667,5.0
COM8,507,16-Sep-19,2019-09-16 07:00:00,1.20685,1.1979,1.1392,1.1292166666666998,1.0904166666667,1.0614,1.09275,5.0
COM8,507,16-Sep-19,2019-09-16 08:00:00,1.1777666666667,1.1789666666667,1.12275,1.1126333333333,1.07175,1.0390000000000001,1.06915,5.0
COM8,507,16-Sep-19,2019-09-16 09:00:00,0.49691666666667,0.47478333333333,0.4479,0.43911666666667,0.4212,0.40236666666667,0.41313333333333,5.0
COM8,507,16-Sep-19,2019-09-16 10:00:00,0.74626666666667,0.69538333333333,0.6436,0.6229166666666701,0.59735,0.5813,0.6018166666666701,5.0
COM8,507,16-Sep-19,2019-09-16 11:00:00,0.25396666666667,0.24013333333332998,0.22598333333332996,0.22048333333332998,0.21103333333332996,0.19566666666667004,0.20091666666667002,5.0
COM8,507,16-Sep-19,2019-09-16 12:00:00,0.31901666666667,0.30745,0.28931666666667,0.28423333333333,0.27175,0.25885,0.26698333333332996,5.0
COM8,507,16-Sep-19,2019-09-16 13:00:00,0.6821,0.60761666666667,0.5679166666666701,0.55916666666667,0.5469,0.53725,0.5674,4.211666666666701
COM8,507,16-Sep-19,2019-09-16 14:00:00,0.43065,0.39065,0.37418333333333,0.37063333333333,0.3613,0.35581666666667,0.36626666666667,5.1
COM8,507,16-Sep-19,2019-09-16 15:00:00,0.34418333333333,0.34876666666667,0.33516666666667,0.33521666666667,0.32628333333333,0.32423333333333,0.33281666666667,5.1
COM8,507,16-Sep-19,2019-09-16 16:00:00,0.23065,0.2273,0.21645,0.21396666666667002,0.20683333333332996,0.20103333333332996,0.20595,5.1
COM8,507,16-Sep-19,2019-09-16 17:00:00,0.2579,0.25138333333332996,0.23745,0.23355,0.22568333333332996,0.22006666666667002,0.2256,5.1
COM8,507,16-Sep-19,2019-09-16 18:00:00,0.35003333333333003,0.33353333333333,0.31425,0.30845,0.29701666666667,0.28813333333333,0.29558333333333,5.1
COM8,507,16-Sep-19,2019-09-16 19:00:00,0.3285,0.28271666666667,0.2571,0.24613333333332996,0.2328,0.21991666666667004,0.22521666666667003,5.1
COM8,507,16-Sep-19,2019-09-16 20:00:00,0.2156,0.1938,0.17866666666667003,0.17161666666667003,0.16398333333332998,0.15906666666667002,0.16305,5.1
COM8,507,16-Sep-19,2019-09-16 21:00:00,0.14888333333332998,0.13756666666667,0.12915,0.12561666666666998,0.12008333333333,0.11716666666667,0.11968333333333,5.1
COM8,507,16-Sep-19,2019-09-16 22:00:00,0.1268,0.11788333333333001,0.11046666666666999,0.10773333333333,0.10348333333333,0.098466666666667,0.10113333333333001,5.1
COM8,507,16-Sep-19,2019-09-16 23:00:00,0.09875,0.09116666666666699,0.0861,0.08375,0.079933333333333,0.077483333333333,0.07883333333333299,5.1
