COM8,507,26-Oct-19,2019-10-26 00:00:00,1.2420847457627,0.98177966101695,0.8751186440678,0.8341864406779699,0.7624406779660999,0.6931186440678,0.70977966101695,4.9
COM8,507,26-Oct-19,2019-10-26 01:00:00,1.444,1.1338,1.0175666666667,0.97436666666667,0.89885,0.8255,0.84388333333333,4.9
COM8,507,26-Oct-19,2019-10-26 02:00:00,1.2352833333333,0.93668333333333,0.85055,0.8259,0.7676,0.71205,0.73001666666667,4.9
COM8,507,26-Oct-19,2019-10-26 03:00:00,0.8307,0.67928333333333,0.6115833333333299,0.5805833333333299,0.53495,0.48551666666667,0.49663333333333,4.9
COM8,507,26-Oct-19,2019-10-26 04:00:00,0.53636666666667,0.51795,0.46715,0.44201666666667,0.40491666666667,0.36733333333333,0.37551666666667,4.9
COM8,507,26-Oct-19,2019-10-26 05:00:00,0.6099666666666701,0.53766666666667,0.47795,0.45428333333333,0.41356666666666997,0.37708333333333,0.38573333333333,4.9
COM8,507,26-Oct-19,2019-10-26 06:00:00,0.66596666666667,0.5689,0.5116,0.48661666666667,0.44985,0.40738333333333,0.41846666666667,4.9
COM8,507,26-Oct-19,2019-10-26 07:00:00,1.53635,0.99145,0.85635,0.79613333333333,0.71355,0.6235333333333299,0.63361666666667,4.8633333333332995
COM8,507,26-Oct-19,2019-10-26 08:00:00,2.5937666666667,2.1315666666667,1.9323166666667,1.8502666666667,1.7177666666667,1.5513833333333,1.5799833333333,4.675
COM8,507,26-Oct-19,2019-10-26 09:00:00,1.39035,1.2203,1.12775,1.0965166666667,1.0444,0.99288333333333,1.0148,5.1
COM8,507,26-Oct-19,2019-10-26 10:00:00,0.89175,0.86221666666667,0.81336666666667,0.80153333333333,0.77338333333333,0.74915,0.76918333333333,5.1
COM8,507,26-Oct-19,2019-10-26 11:00:00,0.5664833333333299,0.5067,0.46876666666667,0.45455,0.43466666666667,0.41316666666667,0.42408333333333,5.1
COM8,507,26-Oct-19,2019-10-26 12:00:00,0.37003333333333,0.33185,0.30603333333333,0.29746666666667,0.28541666666667,0.27143333333333,0.27983333333333,5.1
COM8,507,26-Oct-19,2019-10-26 13:00:00,0.70813333333333,0.58245,0.52456666666667,0.50258333333333,0.47508333333333,0.44573333333333,0.45765,5.1
COM8,507,26-Oct-19,2019-10-26 14:00:00,0.71465,0.60841666666667,0.55435,0.53226666666667,0.50098333333333,0.46299999999999997,0.47381666666667,5.0566666666667
COM8,507,26-Oct-19,2019-10-26 15:00:00,0.51268333333333,0.47473333333333,0.44245,0.4285,0.4061,0.37866666666667,0.38818333333333,5.0
COM8,507,26-Oct-19,2019-10-26 16:00:00,0.45811666666667,0.43733333333333,0.41086666666667,0.40165,0.3836,0.36635,0.3775,5.0
COM8,507,26-Oct-19,2019-10-26 17:00:00,0.26066666666667004,0.23903333333332996,0.22103333333332997,0.2158,0.20418333333332997,0.19588333333332997,0.19966666666667005,5.0
COM8,507,26-Oct-19,2019-10-26 18:00:00,0.32403333333333,0.29323333333333,0.27361666666667,0.2675,0.25178333333333,0.23676666666667004,0.2408,5.0
COM8,507,26-Oct-19,2019-10-26 19:00:00,0.31615,0.28881666666667,0.27026666666667004,0.26436666666667,0.2494,0.23715,0.24273333333332997,5.0
COM8,507,26-Oct-19,2019-10-26 20:00:00,0.24418333333332998,0.22333333333332997,0.20775,0.20255,0.19085,0.1845,0.18806666666667002,5.0
COM8,507,26-Oct-19,2019-10-26 21:00:00,0.24008333333332996,0.20636666666667003,0.1879,0.18101666666667005,0.1704,0.16395,0.16745,5.0
COM8,507,26-Oct-19,2019-10-26 22:00:00,0.26901666666667,0.22658333333332997,0.20703333333332996,0.19899999999999998,0.18616666666667003,0.17663333333332998,0.18116666666667003,5.0
COM8,507,26-Oct-19,2019-10-26 23:00:00,0.31516666666667,0.26943333333332997,0.24673333333332997,0.23825,0.22616666666667004,0.21586666666667004,0.2209,5.0
