COM8,507,29-Jan-20,2020-01-29 00:00:00,1.1800508474576001,0.80945762711864,0.69013559322034,0.63464406779661,0.5704406779661,0.46894915254236996,0.46654237288135997,4.925423728813599
COM8,507,29-Jan-20,2020-01-29 01:00:00,0.50691666666667,0.40263333333333,0.35481666666667,0.33543333333333003,0.311,0.27368333333332995,0.27571666666667,4.9
COM8,507,29-Jan-20,2020-01-29 02:00:00,0.082616666666667,0.18273333333332997,0.17966666666667003,0.17885,0.16916666666667002,0.1561,0.15818333333332998,4.9
COM8,507,29-Jan-20,2020-01-29 03:00:00,0.19903333333332998,0.24266666666667003,0.23131666666667003,0.22468333333332996,0.21285,0.19706666666667003,0.20036666666667002,4.9
COM8,507,29-Jan-20,2020-01-29 04:00:00,0.37103333333333,0.38001666666667,0.3564,0.34463333333333,0.32646666666667,0.30286666666667,0.3076,4.9
COM8,507,29-Jan-20,2020-01-29 05:00:00,0.45011666666667,0.4462,0.42316666666667,0.41363333333333,0.39436666666667,0.36573333333333,0.37145,4.9
COM8,507,29-Jan-20,2020-01-29 06:00:00,0.52388333333333,0.523,0.4939,0.48485,0.46193333333333003,0.42883333333333,0.43675,4.9
COM8,507,29-Jan-20,2020-01-29 07:00:00,0.19436666666667002,0.228,0.2173,0.2142,0.2035,0.18673333333332998,0.18938333333332996,4.9
COM8,507,29-Jan-20,2020-01-29 08:00:00,0.31383333333333,0.33231666666667,0.31775,0.31371666666667,0.29763333333333003,0.27225,0.27608333333333,4.9
COM8,507,29-Jan-20,2020-01-29 09:00:00,0.46596666666666997,0.4816,0.4599,0.45348333333333,0.43255,0.39978333333333,0.40573333333333,4.9
COM8,507,29-Jan-20,2020-01-29 10:00:00,0.3645,0.38431666666666997,0.36818333333333003,0.36293333333333,0.34646666666667,0.31596666666667,0.32056666666667,4.9
COM8,507,29-Jan-20,2020-01-29 11:00:00,0.38773333333333,0.41198333333333,0.3956,0.39205,0.37491666666667,0.3463,0.35133333333333,4.9
COM8,507,29-Jan-20,2020-01-29 12:00:00,0.43625,0.4595,0.43813333333333,0.43208333333333,0.41431666666667,0.38036666666667,0.38648333333333,4.9
COM8,507,29-Jan-20,2020-01-29 13:00:00,0.50921666666667,0.53146666666667,0.50948333333333,0.50321666666667,0.48261666666666997,0.4445,0.4523,4.9
COM8,507,29-Jan-20,2020-01-29 14:00:00,0.46605,0.41203333333333003,0.40451666666667,0.40561666666667,0.39371666666667,0.37715,0.3892,4.6466666666667
COM8,507,29-Jan-20,2020-01-29 15:00:00,0.50941666666667,0.45971666666667,0.44895,0.44701666666667,0.43286666666667,0.42301666666667,0.43313333333333,5.0
COM8,507,29-Jan-20,2020-01-29 16:00:00,0.32853333333333,0.32531666666667,0.31405,0.31061666666667,0.30081666666667,0.29266666666667,0.29948333333333,5.0
COM8,507,29-Jan-20,2020-01-29 17:00:00,0.29926666666667,0.29845,0.28521666666667,0.28273333333333,0.27306666666667,0.26598333333332996,0.27225,5.0
COM8,507,29-Jan-20,2020-01-29 18:00:00,0.44005,0.41636666666667,0.39306666666667,0.38636666666667,0.3719,0.35965,0.3687,5.0
COM8,507,29-Jan-20,2020-01-29 19:00:00,0.78996666666667,0.67935,0.6270333333333299,0.6057,0.5762333333333299,0.54446666666667,0.5552,5.0
COM8,507,29-Jan-20,2020-01-29 20:00:00,0.91775,0.8476,0.79245,0.7732,0.74058333333333,0.70446666666667,0.71908333333333,5.0
COM8,507,29-Jan-20,2020-01-29 21:00:00,0.78731666666667,0.69811666666667,0.64943333333333,0.6329,0.60236666666667,0.56631666666667,0.5764333333333299,5.0
COM8,507,29-Jan-20,2020-01-29 22:00:00,0.78655,0.73233333333333,0.69093333333333,0.6793,0.65201666666667,0.6193,0.63085,5.0
COM8,507,29-Jan-20,2020-01-29 23:00:00,0.92646666666667,0.79905,0.7468,0.73116666666667,0.69796666666667,0.6555166666666701,0.6675166666666701,5.0
