COM8,507,10-Oct-19,2019-10-10 00:00:00,0.15710169491525,0.13147457627119,0.11986440677966001,0.11557627118644001,0.10928813559322,0.10437288135593,0.10603389830507999,5.1
COM8,507,10-Oct-19,2019-10-10 01:00:00,0.15383333333333,0.1291,0.11878333333333001,0.11415,0.10903333333333,0.10603333333333001,0.10896666666667,5.1
COM8,507,10-Oct-19,2019-10-10 02:00:00,0.14631666666667,0.12473333333333,0.11381666666667,0.10988333333333,0.10465,0.09995,0.10188333333333001,5.1
COM8,507,10-Oct-19,2019-10-10 03:00:00,0.11233333333333001,0.10143333333333,0.093766666666667,0.09178333333333301,0.08781666666666701,0.08433333333333298,0.08698333333333298,5.1
COM8,507,10-Oct-19,2019-10-10 04:00:00,0.12313333333333,0.11371666666666999,0.10651666666666999,0.1041,0.0994,0.0956,0.0975,5.1
COM8,507,10-Oct-19,2019-10-10 05:00:00,0.23443333333332997,0.22508333333332997,0.21278333333332997,0.21026666666667004,0.20306666666667003,0.19901666666667003,0.204,5.1
COM8,507,10-Oct-19,2019-10-10 06:00:00,0.4115,0.39945,0.37653333333333,0.37041666666667,0.35835,0.35301666666667,0.36336666666667,5.1016666666667
COM8,507,10-Oct-19,2019-10-10 07:00:00,0.34853333333333003,0.33968333333333,0.31958333333333,0.31445,0.30356666666667,0.29666666666667,0.30576666666667,5.105
COM8,507,10-Oct-19,2019-10-10 08:00:00,0.34395,0.33828333333333,0.31988333333333,0.31646666666667,0.30418333333333003,0.29458333333333003,0.30273333333333,5.14
COM8,507,10-Oct-19,2019-10-10 09:00:00,0.40765,0.37131666666667,0.34895,0.341,0.32705,0.31341666666667,0.32185,5.1033333333333
COM8,507,10-Oct-19,2019-10-10 10:00:00,0.52576666666667,0.5208,0.4949,0.48603333333333,0.46653333333333,0.44181666666667,0.45345,5.1
COM8,507,10-Oct-19,2019-10-10 11:00:00,0.28238333333333,0.25668333333333,0.23913333333332998,0.23246666666667004,0.22111666666667004,0.2097,0.21583333333332996,5.1
COM8,507,10-Oct-19,2019-10-10 12:00:00,0.21953333333332997,0.19338333333332997,0.17888333333332998,0.17323333333332996,0.16546666666667,0.15771666666667,0.16385,5.1
COM8,507,10-Oct-19,2019-10-10 13:00:00,0.309,0.19699999999999998,0.17493333333332997,0.16699999999999998,0.15985,0.14955,0.15688333333333,4.835
COM8,507,10-Oct-19,2019-10-10 14:00:00,0.28785,0.21085,0.19966666666667005,0.19336666666667005,0.18556666666667004,0.18065,0.18511666666667004,5.2
COM8,507,10-Oct-19,2019-10-10 15:00:00,0.22711666666667002,0.2041,0.19115,0.1861,0.17768333333332997,0.17193333333332997,0.17651666666667004,5.2
COM8,507,10-Oct-19,2019-10-10 16:00:00,0.23923333333332997,0.22751666666667003,0.21316666666667003,0.20846666666667002,0.20001666666667003,0.19505,0.20035,5.2
COM8,507,10-Oct-19,2019-10-10 17:00:00,0.21576666666667002,0.20848333333332997,0.19385,0.18731666666667005,0.17888333333332998,0.17096666666667004,0.17468333333332997,5.2
COM8,507,10-Oct-19,2019-10-10 18:00:00,0.317,0.29638333333333,0.27653333333333,0.2688,0.25598333333332995,0.24365,0.24848333333332998,5.2
COM8,507,10-Oct-19,2019-10-10 19:00:00,0.2323,0.20976666666667004,0.19296666666667003,0.18686666666667004,0.17776666666667004,0.1729,0.17598333333332997,5.2
COM8,507,10-Oct-19,2019-10-10 20:00:00,0.25398333333332995,0.21356666666667004,0.19533333333332997,0.1874,0.17731666666667004,0.16783333333332998,0.1714,5.2
COM8,507,10-Oct-19,2019-10-10 21:00:00,0.3453,0.24746666666667003,0.2199,0.20718333333332997,0.19313333333332997,0.1811,0.18428333333332997,5.2
COM8,507,10-Oct-19,2019-10-10 22:00:00,0.19835,0.17103333333332996,0.15575,0.147,0.13633333333333,0.12646666666667,0.12833333333333,5.2
COM8,507,10-Oct-19,2019-10-10 23:00:00,0.17803333333332996,0.13681666666667,0.12186666666667,0.11411666666666999,0.10563333333333001,0.09718333333333301,0.098783333333333,5.2
