COM8,507,03-Mar-20,2020-03-03 00:00:00,0.2455593220339,0.23662711864407,0.22081355932202998,0.21510169491525002,0.20481355932203,0.19094915254237,0.19469491525424,5.0
COM8,507,03-Mar-20,2020-03-03 01:00:00,0.25708333333332994,0.25118333333333,0.23655,0.23141666666667005,0.22113333333332996,0.2076,0.21156666666667004,5.0
COM8,507,03-Mar-20,2020-03-03 02:00:00,0.1845,0.17271666666667004,0.16153333333332998,0.15773333333332998,0.15025,0.13965,0.14263333333332998,5.0
COM8,507,03-Mar-20,2020-03-03 03:00:00,0.15158333333333,0.14923333333333,0.1396,0.13725,0.1308,0.12146666666667,0.12425,5.0
COM8,507,03-Mar-20,2020-03-03 04:00:00,0.281,0.23193333333332997,0.20943333333332997,0.20203333333332996,0.18963333333332996,0.17033333333332998,0.17226666666667004,5.0
COM8,507,03-Mar-20,2020-03-03 05:00:00,0.32706666666667,0.29351666666667,0.26875,0.25993333333332996,0.24471666666667002,0.22153333333332997,0.2244,5.0
COM8,507,03-Mar-20,2020-03-03 06:00:00,0.43005,0.38021666666667,0.35161666666667,0.34301666666666997,0.32508333333333,0.29736666666667,0.30181666666667,5.0
COM8,507,03-Mar-20,2020-03-03 07:00:00,1.0026333333333,0.89443333333333,0.83161666666667,0.81145,0.76953333333333,0.69821666666667,0.71035,5.0
COM8,507,03-Mar-20,2020-03-03 08:00:00,1.0253333333333001,0.95518333333333,0.89488333333333,0.87961666666667,0.83431666666667,0.7552,0.76635,5.0
COM8,507,03-Mar-20,2020-03-03 09:00:00,0.4849,0.48751666666667,0.4621,0.45478333333333,0.43296666666667,0.39218333333333,0.39846666666667,4.9916666666667
COM8,507,03-Mar-20,2020-03-03 10:00:00,0.39745,0.39876666666667,0.37545,0.3707,0.35326666666667,0.31871666666667,0.32475,4.9
COM8,507,03-Mar-20,2020-03-03 11:00:00,1.1159999999999999,1.0476333333333,0.98643333333333,0.97246666666667,0.92921666666667,0.84531666666667,0.86031666666667,4.9
COM8,507,03-Mar-20,2020-03-03 12:00:00,1.0752166666667,1.0116,0.95345,0.9428,0.90018333333333,0.81016666666667,0.82456666666667,4.9
COM8,507,03-Mar-20,2020-03-03 13:00:00,0.61641666666667,0.5928,0.56111666666667,0.55421666666667,0.52881666666667,0.47838333333333,0.48725,4.9
COM8,507,03-Mar-20,2020-03-03 14:00:00,0.49126666666667,0.47941666666667,0.45245,0.44691666666667,0.42766666666666997,0.38565,0.39251666666667,4.9
COM8,507,03-Mar-20,2020-03-03 15:00:00,0.53111666666667,0.44938333333333,0.42200000000000004,0.4124,0.39583333333333,0.36686666666667,0.37788333333333,4.62
COM8,507,03-Mar-20,2020-03-03 16:00:00,0.4852,0.41853333333333,0.40726666666667,0.40501666666667,0.39505,0.39136666666666997,0.40265,5.0
COM8,507,03-Mar-20,2020-03-03 17:00:00,0.55083333333333,0.54078333333333,0.51848333333333,0.51675,0.50385,0.49778333333333,0.51143333333333,5.0
COM8,507,03-Mar-20,2020-03-03 18:00:00,0.68026666666667,0.65345,0.61935,0.6126833333333299,0.59445,0.5805166666666701,0.5953833333333299,5.0
COM8,507,03-Mar-20,2020-03-03 19:00:00,0.5962166666666701,0.5788666666666701,0.54921666666667,0.54343333333333,0.5267166666666699,0.51086666666667,0.52365,5.0
COM8,507,03-Mar-20,2020-03-03 20:00:00,0.99411666666667,0.85488333333333,0.79576666666667,0.7744,0.74105,0.7025,0.71753333333333,5.0
COM8,507,03-Mar-20,2020-03-03 21:00:00,0.9017333333333301,0.68183333333333,0.6264166666666701,0.5958333333333299,0.5625666666666701,0.52555,0.53573333333333,5.0
COM8,507,03-Mar-20,2020-03-03 22:00:00,0.70561666666667,0.4894,0.44383333333333,0.41343333333333,0.38413333333333,0.35046666666667,0.35596666666667,5.0
COM8,507,03-Mar-20,2020-03-03 23:00:00,0.79010169491525,0.5739830508474599,0.5172033898305101,0.483,0.44740677966102005,0.39447457627119,0.39927118644068005,5.0
