COM8,507,12-Jan-20,2020-01-12 00:00:00,0.37325423728814,0.26949152542373,0.24162711864407,0.22833898305085,0.21422033898304998,0.19772881355932,0.20142372881356002,5.1
COM8,507,12-Jan-20,2020-01-12 01:00:00,0.46343333333333003,0.35005,0.31433333333333,0.29923333333333,0.28035,0.25651666666667006,0.261,5.1
COM8,507,12-Jan-20,2020-01-12 02:00:00,0.1632,0.18371666666667003,0.1752,0.17346666666667004,0.16705,0.15996666666667,0.16366666666667,5.1
COM8,507,12-Jan-20,2020-01-12 03:00:00,0.0617,0.08255,0.08016666666666701,0.07995,0.076716666666667,0.07401666666666701,0.0755,5.1
COM8,507,12-Jan-20,2020-01-12 04:00:00,0.055716666666667,0.062166666666666995,0.059166666666667,0.058066666666666995,0.05613333333333301,0.05311666666666699,0.054783333333333004,5.1
COM8,507,12-Jan-20,2020-01-12 05:00:00,0.1127,0.096133333333333,0.088566666666667,0.08655,0.08116666666666701,0.076366666666667,0.077783333333333,5.1
COM8,507,12-Jan-20,2020-01-12 06:00:00,0.12033333333333,0.10923333333333,0.10061666666666999,0.097383333333333,0.09256666666666699,0.08665,0.088583333333333,5.1
COM8,507,12-Jan-20,2020-01-12 07:00:00,0.73625,0.44113333333333,0.3726,0.33741666666667,0.30441666666667,0.26148333333332996,0.26331666666667003,5.1
COM8,507,12-Jan-20,2020-01-12 08:00:00,0.1484,0.17743333333332997,0.16873333333332996,0.16435,0.15746666666667,0.15071666666667002,0.15473333333332998,5.1
COM8,507,12-Jan-20,2020-01-12 09:00:00,0.14636666666667,0.16716666666667002,0.15876666666667003,0.15508333333333,0.14766666666667003,0.13878333333332998,0.14166666666667002,5.1
COM8,507,12-Jan-20,2020-01-12 10:00:00,0.035983333333333,0.06143333333333301,0.06098333333333301,0.060816666666667,0.057483333333333005,0.053483333333333,0.054616666666666994,5.1
COM8,507,12-Jan-20,2020-01-12 11:00:00,0.10786666666667,0.097416666666667,0.0901,0.08768333333333299,0.082833333333333,0.0749,0.07645,5.1
COM8,507,12-Jan-20,2020-01-12 12:00:00,0.067266666666667,0.07501666666666701,0.072233333333333,0.07088333333333299,0.06808333333333301,0.065166666666667,0.06661666666666699,5.1
COM8,507,12-Jan-20,2020-01-12 13:00:00,0.17715,0.1222,0.11091666666667,0.10771666666667,0.10291666666667,0.09505,0.10031666666667,4.76
COM8,507,12-Jan-20,2020-01-12 14:00:00,0.23033333333332998,0.13785,0.13161666666667,0.12698333333333,0.1201,0.1138,0.11586666666666999,5.1
COM8,507,12-Jan-20,2020-01-12 15:00:00,0.13831666666667,0.11016666666667,0.10256666666667,0.098633333333333,0.09285,0.08708333333333299,0.089216666666667,5.1
COM8,507,12-Jan-20,2020-01-12 16:00:00,0.08706666666666701,0.08493333333333299,0.079683333333333,0.07701666666666701,0.07293333333333299,0.069366666666667,0.0704,5.1
COM8,507,12-Jan-20,2020-01-12 17:00:00,0.1941,0.15971666666667,0.14278333333333,0.13595,0.12498333333333,0.11153333333333,0.11296666666666999,5.1
COM8,507,12-Jan-20,2020-01-12 18:00:00,0.24796666666667003,0.15763333333333,0.13268333333333002,0.11763333333333001,0.1047,0.08676666666666702,0.08711666666666701,5.1
COM8,507,12-Jan-20,2020-01-12 19:00:00,0.30665,0.15205,0.11883333333333,0.099666666666667,0.08553333333333299,0.06986666666666701,0.0699,5.1
COM8,507,12-Jan-20,2020-01-12 20:00:00,0.58915,0.3028,0.2439,0.21135,0.1846,0.15261666666667,0.15306666666667001,5.1
COM8,507,12-Jan-20,2020-01-12 21:00:00,0.72475,0.46555,0.39955,0.36268333333333,0.33155,0.298,0.30301666666667,5.1
COM8,507,12-Jan-20,2020-01-12 22:00:00,0.93641666666667,0.57945,0.49245,0.4484,0.408,0.35741666666667,0.36096666666667,5.1
COM8,507,12-Jan-20,2020-01-12 23:00:00,1.3461166666667,0.738,0.5984333333333299,0.52798333333333,0.46735,0.39256666666667,0.39408333333333,5.1
