COM8,507,05-Nov-19,2019-11-05 00:00:00,1.2744745762712,0.89786440677966,0.80528813559322,0.7670169491525399,0.71071186440678,0.6551864406779699,0.66689830508475,4.9
COM8,507,05-Nov-19,2019-11-05 01:00:00,0.80765,0.71373333333333,0.65171666666667,0.6250833333333299,0.5834833333333299,0.54075,0.5542833333333299,4.8166666666667
COM8,507,05-Nov-19,2019-11-05 02:00:00,0.77515,0.74128333333333,0.67795,0.6518333333333299,0.6107,0.5675166666666701,0.5797833333333299,4.8
COM8,507,05-Nov-19,2019-11-05 03:00:00,0.86303333333333,0.77928333333333,0.70881666666667,0.68301666666667,0.63805,0.59023333333333,0.60335,4.8
COM8,507,05-Nov-19,2019-11-05 04:00:00,0.88786666666667,0.77075,0.70371666666667,0.67946666666667,0.63361666666667,0.58615,0.59955,4.8
COM8,507,05-Nov-19,2019-11-05 05:00:00,0.79105,0.7389,0.67766666666667,0.65701666666667,0.61551666666667,0.57088333333333,0.5866,4.8
COM8,507,05-Nov-19,2019-11-05 06:00:00,1.1266666666667,1.0270833333333,0.9454,0.92035,0.86885,0.81263333333333,0.83395,4.8
COM8,507,05-Nov-19,2019-11-05 07:00:00,1.5896666666666999,1.4332666666667,1.3234833333333,1.2896166666667,1.21635,1.1416833333333,1.1721166666667,4.8
COM8,507,05-Nov-19,2019-11-05 08:00:00,1.8624,1.7090333333333,1.59715,1.5708666666667,1.4956333333333,1.4326833333333,1.47575,4.6733333333333
COM8,507,05-Nov-19,2019-11-05 09:00:00,2.25795,2.1413,2.0161166666667,1.9809999999999999,1.9117333333333,1.87985,1.9316333333333,5.2
COM8,507,05-Nov-19,2019-11-05 10:00:00,2.7234666666667002,2.70415,2.5734,2.55215,2.4781166666667,2.448,2.5191166666667004,5.2
COM8,507,05-Nov-19,2019-11-05 11:00:00,2.44755,2.4253833333332997,2.3093666666667003,2.2921333333333,2.2231833333332998,2.1874166666667,2.2551166666667,5.14
COM8,507,05-Nov-19,2019-11-05 12:00:00,2.2155333333333,2.1667,2.05735,2.0360833333333,1.9684333333333,1.92295,1.9849333333333001,5.1
COM8,507,05-Nov-19,2019-11-05 13:00:00,1.7465666666667,1.6641666666666999,1.5636166666667,1.53695,1.4737333333333,1.4255666666667,1.4740333333333,5.1
COM8,507,05-Nov-19,2019-11-05 14:00:00,0.79126666666667,0.74645,0.696,0.67983333333333,0.6514166666666701,0.6322,0.6563833333333299,5.1
COM8,507,05-Nov-19,2019-11-05 15:00:00,0.79951666666667,0.75885,0.70905,0.69095,0.6637666666666701,0.6460666666666701,0.67198333333333,5.1
COM8,507,05-Nov-19,2019-11-05 16:00:00,1.91395,1.8064,1.6851666666667,1.6511,1.5832,1.5383666666667,1.5939333333333001,5.0966666666667
COM8,507,05-Nov-19,2019-11-05 17:00:00,1.9463166666667,1.7726333333333,1.6293166666667,1.57815,1.49605,1.44215,1.4964166666667,5.0033333333333
COM8,507,05-Nov-19,2019-11-05 18:00:00,2.316,2.0193666666667,1.8397166666667,1.7710833333333,1.6696833333333,1.594,1.6468333333333,5.0
COM8,507,05-Nov-19,2019-11-05 19:00:00,2.1448666666667,1.8098166666667,1.6573666666667,1.6017333333333001,1.50635,1.4198166666667,1.4645833333333,5.0
COM8,507,05-Nov-19,2019-11-05 20:00:00,3.4286166666667004,2.5495,2.30345,2.2077833333332997,2.0600333333333,1.9064666666666998,1.9588166666667,5.0
COM8,507,05-Nov-19,2019-11-05 21:00:00,2.50115,1.8107,1.62335,1.5470166666667,1.4431333333333,1.34165,1.3810333333333,5.0
COM8,507,05-Nov-19,2019-11-05 22:00:00,2.2256833333332997,1.6289666666667,1.4629833333333,1.3973666666667,1.3027666666667,1.2174,1.2521666666667,5.0
COM8,507,05-Nov-19,2019-11-05 23:00:00,1.2606166666667,1.0639833333333,0.96096666666667,0.91588333333333,0.85696666666667,0.79983333333333,0.82295,4.965
