COM7,0507,20-Dec-18,2018-12-20 00:00:00,0.42230508474576,0.36493220338983,0.33286440677966,0.31476271186441,0.29449152542373,0.27671186440678,0.28284745762712,5,0,0,0,0,0,0,0,0,0,0,0,0,0,0,0,0,0,0,0,0,0,0,0,0,0,0,0,0,0,0,0,0,0,0,0,0,0,0,0,0,0,0
COM7,0507,20-Dec-18,2018-12-20 01:00:00,0.43313333333333,0.32856666666667,0.2951,0.27585,0.2562,0.23625,0.24223333333333,5,0,0,0,0,0,0,0,0,0,0,0,0,0,0,0,0,0,0,0,0,0,0,0,0,0,0,0,0,0,0,0,0,0,0,0,0,0,0,0,0,0,0
COM7,0507,20-Dec-18,2018-12-20 02:00:00,0.27956666666667,0.27526666666667,0.25623333333333,0.24403333333333,0.22918333333333,0.21571666666667,0.22038333333333,5,0,0,0,0,0,0,0,0,0,0,0,0,0,0,0,0,0,0,0,0,0,0,0,0,0,0,0,0,0,0,0,0,0,0,0,0,0,0,0,0,0,0
COM7,0507,20-Dec-18,2018-12-20 03:00:00,0.70876666666667,0.48786666666667,0.42831666666667,0.39301666666667,0.35528333333333,0.31533333333333,0.32071666666667,5,0,0,0,0,0,0,0,0,0,0,0,0,0,0,0,0,0,0,0,0,0,0,0,0,0,0,0,0,0,0,0,0,0,0,0,0,0,0,0,0,0,0
COM7,0507,20-Dec-18,2018-12-20 04:00:00,0.49216666666667,0.37386666666667,0.33598333333333,0.3102,0.28346666666667,0.25846666666667,0.26398333333333,5,0,0,0,0,0,0,0,0,0,0,0,0,0,0,0,0,0,0,0,0,0,0,0,0,0,0,0,0,0,0,0,0,0,0,0,0,0,0,0,0,0,0
COM7,0507,20-Dec-18,2018-12-20 05:00:00,0.40743333333333,0.34011666666667,0.30405,0.27865,0.25546666666667,0.23213333333333,0.23711666666667,5,0,0,0,0,0,0,0,0,0,0,0,0,0,0,0,0,0,0,0,0,0,0,0,0,0,0,0,0,0,0,0,0,0,0,0,0,0,0,0,0,0,0
COM7,0507,20-Dec-18,2018-12-20 06:00:00,0.73131666666667,0.67591666666667,0.62818333333333,0.60493333333333,0.57053333333333,0.54433333333333,0.55881666666667,5,0,0,0,0,0,0,0,0,0,0,0,0,0,0,0,0,0,0,0,0,0,0,0,0,0,0,0,0,0,0,0,0,0,0,0,0,0,0,0,0,0,0
COM7,0507,20-Dec-18,2018-12-20 07:00:00,0.79468333333333,0.76345,0.71545,0.69508333333333,0.65935,0.63185,0.64881666666667,5,0,0,0,0,0,0,0,0,0,0,0,0,0,0,0,0,0,0,0,0,0,0,0,0,0,0,0,0,0,0,0,0,0,0,0,0,0,0,0,0,0,0
COM7,0507,20-Dec-18,2018-12-20 08:00:00,0.97295,0.90208333333333,0.84291666666667,0.82055,0.77743333333333,0.74161666666667,0.76163333333333,5,0,0,0,0,0,0,0,0,0,0,0,0,0,0,0,0,0,0,0,0,0,0,0,0,0,0,0,0,0,0,0,0,0,0,0,0,0,0,0,0,0,0
COM7,0507,20-Dec-18,2018-12-20 09:00:00,0.70281666666667,0.71746666666667,0.67633333333333,0.66488333333333,0.63175,0.60251666666667,0.61808333333333,5,0,0,0,0,0,0,0,0,0,0,0,0,0,0,0,0,0,0,0,0,0,0,0,0,0,0,0,0,0,0,0,0,0,0,0,0,0,0,0,0,0,0
COM7,0507,20-Dec-18,2018-12-20 10:00:00,1.21475,1.1813833333333,1.1121,1.0910666666667,1.0377166666667,0.99865,1.0262666666667,5,0,0,0,0,0,0,0,0,0,0,0,0,0,0,0,0,0,0,0,0,0,0,0,0,0,0,0,0,0,0,0,0,0,0,0,0,0,0,0,0,0,0
COM7,0507,20-Dec-18,2018-12-20 11:00:00,1.1251,1.0833666666667,1.0158666666667,0.99318333333333,0.94056666666667,0.90246666666667,0.92708333333333,5,0,0,0,0,0,0,0,0,0,0,0,0,0,0,0,0,0,0,0,0,0,0,0,0,0,0,0,0,0,0,0,0,0,0,0,0,0,0,0,0,0,0
COM7,0507,20-Dec-18,2018-12-20 12:00:00,2.9152166666667,2.7322333333333,2.55075,2.4913,2.3622666666667,2.2831833333333,2.3508833333333,4.9383333333333,0,0,0,0,0,0,0,0,0,0,0,0,0,0,0,0,0,0,0,0,0,0,0,0,0,0,0,0,0,0,0,0,0,0,0,0,0,0,0,0,0,0
COM7,0507,20-Dec-18,2018-12-20 13:00:00,1.80185,1.7447166666667,1.6685333333333,1.6529,1.6014666666667,1.5732833333333,1.61875,4.6566666666667,0,0,0,0,0,0,0,0,0,0,0,0,0,0,0,0,0,0,0,0,0,0,0,0,0,0,0,0,0,0,0,0,0,0,0,0,0,0,0,0,0,0
COM7,0507,20-Dec-18,2018-12-20 14:00:00,1.7938333333333,1.8157833333333,1.7441166666667,1.73595,1.6860833333333,1.6686166666667,1.7146333333333,5,0,0,0,0,0,0,0,0,0,0,0,0,0,0,0,0,0,0,0,0,0,0,0,0,0,0,0,0,0,0,0,0,0,0,0,0,0,0,0,0,0,0
COM7,0507,20-Dec-18,2018-12-20 15:00:00,1.7063333333333,1.7461833333333,1.6787333333333,1.6735833333333,1.62665,1.6155333333333,1.6616166666667,5,0,0,0,0,0,0,0,0,0,0,0,0,0,0,0,0,0,0,0,0,0,0,0,0,0,0,0,0,0,0,0,0,0,0,0,0,0,0,0,0,0,0
COM7,0507,20-Dec-18,2018-12-20 16:00:00,1.7609666666667,1.7318166666667,1.6369,1.6093666666667,1.5481166666667,1.52695,1.57385,5,0,0,0,0,0,0,0,0,0,0,0,0,0,0,0,0,0,0,0,0,0,0,0,0,0,0,0,0,0,0,0,0,0,0,0,0,0,0,0,0,0,0
COM7,0507,20-Dec-18,2018-12-20 17:00:00,2.6889333333333,2.5702333333333,2.3963166666667,2.3342666666667,2.2281333333333,2.1875833333333,2.2585666666667,5,0,0,0,0,0,0,0,0,0,0,0,0,0,0,0,0,0,0,0,0,0,0,0,0,0,0,0,0,0,0,0,0,0,0,0,0,0,0,0,0,0,0
COM7,0507,20-Dec-18,2018-12-20 18:00:00,3.0858833333333,2.793,2.5898333333333,2.5164166666667,2.38105,2.2844,2.3521,4.95,0,0,0,0,0,0,0,0,0,0,0,0,0,0,0,0,0,0,0,0,0,0,0,0,0,0,0,0,0,0,0,0,0,0,0,0,0,0,0,0,0,0
COM7,0507,20-Dec-18,2018-12-20 19:00:00,3.009,2.4925,2.2731833333333,2.18175,2.0379333333333,1.9146,1.9673666666667,4.9,0,0,0,0,0,0,0,0,0,0,0,0,0,0,0,0,0,0,0,0,0,0,0,0,0,0,0,0,0,0,0,0,0,0,0,0,0,0,0,0,0,0
COM7,0507,20-Dec-18,2018-12-20 20:00:00,2.7723,2.2293333333333,2.0158833333333,1.9222666666667,1.78325,1.66465,1.7123666666667,4.9,0,0,0,0,0,0,0,0,0,0,0,0,0,0,0,0,0,0,0,0,0,0,0,0,0,0,0,0,0,0,0,0,0,0,0,0,0,0,0,0,0,0
COM7,0507,20-Dec-18,2018-12-20 21:00:00,2.9852,2.3013333333333,2.0506833333333,1.9359833333333,1.7760166666667,1.6165833333333,1.6567,4.9,0,0,0,0,0,0,0,0,0,0,0,0,0,0,0,0,0,0,0,0,0,0,0,0,0,0,0,0,0,0,0,0,0,0,0,0,0,0,0,0,0,0
COM7,0507,20-Dec-18,2018-12-20 22:00:00,2.48665,1.8482833333333,1.6287833333333,1.5278666666667,1.3996166666667,1.2712333333333,1.305,4.9,0,0,0,0,0,0,0,0,0,0,0,0,0,0,0,0,0,0,0,0,0,0,0,0,0,0,0,0,0,0,0,0,0,0,0,0,0,0,0,0,0,0
COM7,0507,20-Dec-18,2018-12-20 23:00:00,2.4275833333333,1.8172666666667,1.6047333333333,1.5143,1.3885166666667,1.27025,1.30445,4.8983333333333,0,0,0,0,0,0,0,0,0,0,0,0,0,0,0,0,0,0,0,0,0,0,0,0,0,0,0,0,0,0,0,0,0,0,0,0,0,0,0,0,0,0
