COM8,507,10-Jun-19,2019-06-10 00:00:00,0.10322033898305001,0.12511864406780002,0.11944067796610001,0.11654237288136,0.10979661016949,0.10323728813559,0.10579661016949,4.9
COM8,507,10-Jun-19,2019-06-10 01:00:00,0.1062,0.11588333333333001,0.10955,0.10661666666667,0.10153333333333,0.094916666666667,0.09633333333333301,4.9
COM8,507,10-Jun-19,2019-06-10 02:00:00,0.12778333333333,0.12816666666666998,0.11978333333333001,0.11735,0.11178333333333,0.10416666666666999,0.10698333333333,4.9
COM8,507,10-Jun-19,2019-06-10 03:00:00,0.13338333333333,0.12903333333333,0.12058333333333,0.11811666666666999,0.11185,0.10426666666666999,0.10643333333333001,4.9
COM8,507,10-Jun-19,2019-06-10 04:00:00,0.14321666666667002,0.13546666666666998,0.12638333333333002,0.12418333333333001,0.11856666666667,0.11103333333333,0.11336666666666999,4.9
COM8,507,10-Jun-19,2019-06-10 05:00:00,0.28563333333333,0.26705,0.25101666666667005,0.2475,0.23755,0.22855,0.23431666666667003,4.9
COM8,507,10-Jun-19,2019-06-10 06:00:00,0.52038333333333,0.49936666666667,0.47133333333333,0.4658,0.44693333333333,0.42781666666667,0.43873333333333,4.9
COM8,507,10-Jun-19,2019-06-10 07:00:00,0.29565,0.29141666666667,0.27565,0.27328333333333,0.26286666666667,0.25455,0.2609,4.9
COM8,507,10-Jun-19,2019-06-10 08:00:00,0.31023333333333003,0.29578333333333,0.2791,0.27738333333333,0.26601666666667,0.25833333333333,0.26428333333333,4.9
COM8,507,10-Jun-19,2019-06-10 09:00:00,0.89228333333333,0.8509,0.8056,0.79885,0.76835,0.75381666666667,0.77453333333333,4.9
COM8,507,10-Jun-19,2019-06-10 10:00:00,1.0186,0.94768333333333,0.89268333333333,0.88166666666667,0.84486666666667,0.8216,0.84543333333333,4.9
COM8,507,10-Jun-19,2019-06-10 11:00:00,0.91038333333333,0.81425,0.75988333333333,0.74671666666667,0.71153333333333,0.68816666666667,0.7083,4.9
COM8,507,10-Jun-19,2019-06-10 12:00:00,0.62474137931034,0.5362758620689699,0.49918965517240993,0.49148275862069,0.47591379310345,0.4542413793103401,0.47843103448276,3.6810344827586
COM8,507,10-Jun-19,2019-06-10 13:00:00,0.43885,0.35895,0.33821666666667,0.33295,0.32288333333333,0.31625,0.32478333333333,5.0
COM8,507,10-Jun-19,2019-06-10 14:00:00,0.36075,0.33336666666667,0.31538333333333,0.31043333333333,0.30026666666667,0.2968,0.30451666666667,5.0
COM8,507,10-Jun-19,2019-06-10 15:00:00,0.16106666666667002,0.14775,0.13711666666667,0.13371666666666998,0.12828333333333,0.12243333333333001,0.1265,4.99
COM8,507,10-Jun-19,2019-06-10 16:00:00,0.35666666666667,0.32448333333333,0.29868333333333,0.28685,0.2737,0.2623,0.26891666666667,4.9066666666667
COM8,507,10-Jun-19,2019-06-10 17:00:00,0.47686666666667,0.47116666666667,0.44493333333333,0.43658333333333,0.42091666666667,0.40845,0.41905,4.9
COM8,507,10-Jun-19,2019-06-10 18:00:00,1.0210333333333002,0.82073333333333,0.74161666666667,0.70338333333333,0.6552833333333299,0.60145,0.6127666666666701,4.9
COM8,507,10-Jun-19,2019-06-10 19:00:00,1.29815,1.12705,1.0382166666666999,0.99411666666667,0.93421666666667,0.8689,0.88713333333333,4.9
COM8,507,10-Jun-19,2019-06-10 20:00:00,0.70126666666667,0.67355,0.63456666666667,0.6253166666666701,0.59915,0.5754833333333299,0.5906666666666701,4.9
COM8,507,10-Jun-19,2019-06-10 21:00:00,0.83915,0.7607,0.71178333333333,0.6970833333333301,0.66153333333333,0.6273666666666701,0.6429833333333299,4.9
COM8,507,10-Jun-19,2019-06-10 22:00:00,0.58088333333333,0.52865,0.49413333333333,0.48643333333333,0.46195,0.43785,0.449,4.9
COM8,507,10-Jun-19,2019-06-10 23:00:00,0.46146666666667,0.42833333333333,0.40395,0.40043333333333003,0.3826,0.36508333333333,0.37596666666667,4.9
