COM8,507,29-May-19,2019-05-29 00:00:00,0.15033898305085003,0.13345762711864,0.12167796610169002,0.11630508474576,0.109,0.10111864406780001,0.10354237288135999,4.9
COM8,507,29-May-19,2019-05-29 01:00:00,0.14461666666667,0.1258,0.11558333333333,0.11131666666666999,0.10478333333333001,0.09736666666666699,0.1009,4.9
COM8,507,29-May-19,2019-05-29 02:00:00,0.168,0.138,0.12493333333333001,0.11908333333333,0.11246666666666999,0.10575,0.1078,4.9
COM8,507,29-May-19,2019-05-29 03:00:00,0.12988333333333,0.10228333333333,0.09141666666666699,0.08716666666666702,0.081666666666667,0.075616666666667,0.07718333333333299,4.9
COM8,507,29-May-19,2019-05-29 04:00:00,0.10396666666667,0.095916666666667,0.08895,0.08696666666666701,0.083283333333333,0.07875,0.08085,4.9
COM8,507,29-May-19,2019-05-29 05:00:00,0.2804,0.27401666666667,0.25995,0.25716666666667004,0.24731666666667004,0.2384,0.24485,4.9
COM8,507,29-May-19,2019-05-29 06:00:00,0.69228333333333,0.69475,0.66786666666667,0.6697,0.65168333333333,0.64335,0.6623333333333299,4.9
COM8,507,29-May-19,2019-05-29 07:00:00,0.50116666666667,0.49736666666667,0.4764,0.47648333333333,0.45946666666667,0.45023333333333,0.46346666666666997,4.9
COM8,507,29-May-19,2019-05-29 08:00:00,0.96498333333333,0.91943333333333,0.86871666666667,0.86195,0.82798333333333,0.81665,0.8409,4.9
COM8,507,29-May-19,2019-05-29 09:00:00,0.47688333333333,0.45591666666666997,0.42996666666667,0.42606666666667,0.4072,0.39823333333333,0.4086,4.9
COM8,507,29-May-19,2019-05-29 10:00:00,0.33763333333333,0.31775,0.29843333333333,0.29455,0.27916666666667,0.2719,0.2792,4.9
COM8,507,29-May-19,2019-05-29 11:00:00,0.3479,0.31491666666667,0.29356666666667,0.28803333333333003,0.27246666666667,0.26241666666667,0.26901666666667,4.9
COM8,507,29-May-19,2019-05-29 12:00:00,0.32176666666667,0.29725,0.27895,0.2758,0.26351666666667,0.25678333333333,0.26426666666667004,4.9
COM8,507,29-May-19,2019-05-29 13:00:00,0.29615,0.23781666666667003,0.2239,0.2227,0.2155,0.20571666666667004,0.21556666666667004,4.5733333333332995
COM8,507,29-May-19,2019-05-29 14:00:00,0.27923333333333,0.22051666666667002,0.21036666666667003,0.20698333333332997,0.20483333333332998,0.21685,0.22538333333332997,4.9
COM8,507,29-May-19,2019-05-29 15:00:00,0.068683333333333,0.06565,0.062766666666667,0.06275,0.0605,0.058116666666667,0.05965,4.9
COM8,507,29-May-19,2019-05-29 16:00:00,0.0965,0.0917,0.08673333333333298,0.08505,0.08273333333333299,0.0813,0.0847,4.9
COM8,507,29-May-19,2019-05-29 17:00:00,0.1799,0.17366666666667002,0.16211666666667002,0.15563333333333,0.15083333333333,0.1471,0.15146666666667002,4.9
COM8,507,29-May-19,2019-05-29 18:00:00,0.2096,0.21593333333332998,0.20671666666667002,0.20545,0.19941666666667004,0.19591666666667004,0.20078333333332996,4.9
COM8,507,29-May-19,2019-05-29 19:00:00,0.23693333333332997,0.2314,0.21708333333332996,0.2133,0.2056,0.1972,0.20186666666667002,4.9
COM8,507,29-May-19,2019-05-29 20:00:00,0.3318,0.28513333333333,0.26138333333332997,0.2502,0.23556666666667003,0.21935,0.2233,4.9
COM8,507,29-May-19,2019-05-29 21:00:00,0.26541666666667,0.24458333333332996,0.22871666666667004,0.22365,0.21308333333332996,0.20248333333332996,0.20793333333332997,4.9
COM8,507,29-May-19,2019-05-29 22:00:00,0.26061666666667005,0.24195,0.22733333333332997,0.2224,0.21325,0.20361666666667003,0.20838333333332998,4.9
COM8,507,29-May-19,2019-05-29 23:00:00,0.36886666666667,0.2652,0.23336666666667003,0.21708333333332996,0.2013,0.184,0.18786666666667004,4.9
