COM8,507,01-Nov-19,2019-11-01 00:00:00,0.33677966101695,0.35511864406779997,0.31125423728814,0.28522033898305,0.26077966101695,0.23850847457626997,0.24479661016948998,5.0
COM8,507,01-Nov-19,2019-11-01 01:00:00,0.5004833333333301,0.4841,0.42725,0.40001666666667,0.36596666666667,0.33423333333333,0.34126666666667,5.0
COM8,507,01-Nov-19,2019-11-01 02:00:00,0.91916666666667,0.7479,0.6603666666666701,0.62225,0.57395,0.5269,0.54131666666667,5.0
COM8,507,01-Nov-19,2019-11-01 03:00:00,1.2477666666667,0.90943333333333,0.8003,0.7607,0.69811666666667,0.63676666666667,0.6523166666666701,5.0
COM8,507,01-Nov-19,2019-11-01 04:00:00,1.0297333333333,0.78631666666667,0.69893333333333,0.6592166666666701,0.60955,0.5592,0.57393333333333,5.0
COM8,507,01-Nov-19,2019-11-01 05:00:00,1.8750833333333001,1.5487666666667,1.3972166666666999,1.3492666666667,1.2623833333333,1.1888833333333,1.22665,4.9333333333333
COM8,507,01-Nov-19,2019-11-01 06:00:00,1.4543333333333,1.1712666666667,1.04155,0.98301666666667,0.9087,0.8372166666666699,0.86045,4.9
COM8,507,01-Nov-19,2019-11-01 07:00:00,1.59785,1.4121,1.2736166666667,1.2221666666667,1.1361,1.0537833333333,1.0849333333333,4.9
COM8,507,01-Nov-19,2019-11-01 08:00:00,1.5841,1.4936833333333,1.3977833333333,1.37775,1.3215833333333,1.2873333333333001,1.3282333333333,4.7383333333332995
COM8,507,01-Nov-19,2019-11-01 09:00:00,1.82405,1.7013,1.60105,1.5716666666666999,1.5115833333333,1.4637666666667,1.4997833333333002,5.2
COM8,507,01-Nov-19,2019-11-01 10:00:00,1.83055,1.73975,1.6288333333333,1.5967333333333,1.53735,1.4970166666667,1.5385,5.2
COM8,507,01-Nov-19,2019-11-01 11:00:00,1.2319,1.1251,1.0372333333333001,1.0074833333333,0.96236666666667,0.92785,0.95503333333333,5.2
COM8,507,01-Nov-19,2019-11-01 12:00:00,0.91261666666667,0.84546666666667,0.7835,0.76291666666667,0.7306,0.70238333333333,0.72348333333333,5.12
COM8,507,01-Nov-19,2019-11-01 13:00:00,1.1664333333333001,1.0863666666667,1.0108333333333,0.98901666666667,0.9496,0.91966666666667,0.94866666666667,5.1
COM8,507,01-Nov-19,2019-11-01 14:00:00,1.2383833333333,1.1234,1.03615,1.0099,0.96511666666667,0.92768333333333,0.95746666666667,5.1
COM8,507,01-Nov-19,2019-11-01 15:00:00,1.4013666666667,1.28025,1.18605,1.15615,1.1022166666667,1.0542333333333,1.0863833333333,5.1
COM8,507,01-Nov-19,2019-11-01 16:00:00,1.3377833333333,1.2852166666667,1.20895,1.193,1.1497166666667,1.1230833333333001,1.16165,5.04
COM8,507,01-Nov-19,2019-11-01 17:00:00,1.1379833333333,1.0569666666667,0.98851666666667,0.97213333333333,0.93256666666667,0.90746666666667,0.93753333333333,5.0
COM8,507,01-Nov-19,2019-11-01 18:00:00,2.56085,1.985,1.8096666666666998,1.755,1.6610166666667,1.58635,1.62975,5.0
COM8,507,01-Nov-19,2019-11-01 19:00:00,3.20185,2.2799333333333,2.04095,1.9407333333333001,1.8044,1.6831,1.7265833333333,5.0
COM8,507,01-Nov-19,2019-11-01 20:00:00,3.1513666666667004,2.1323833333333,1.8859,1.7699,1.6306,1.5081166666666999,1.5443166666666999,4.99
COM8,507,01-Nov-19,2019-11-01 21:00:00,2.0724833333333,1.5663,1.4107833333333,1.33605,1.2406,1.15955,1.1876166666666998,4.9
COM8,507,01-Nov-19,2019-11-01 22:00:00,0.96916666666667,0.8904,0.79706666666667,0.74153333333333,0.68448333333333,0.63333333333333,0.64845,4.9
COM8,507,01-Nov-19,2019-11-01 23:00:00,1.5790333333333,1.2284666666667,1.0854833333333,1.0155666666667,0.93613333333333,0.851,0.86873333333333,4.9
