COM7,0507,27-Feb-19,2019-02-27 00:00:00,0.096172413793103,0.099637931034483,0.095603448275862,0.093413793103448,0.088224137931034,0.081448275862069,0.082431034482759,4.9,0,0,0,0,0,0,0,0,0,0,0,0,0,0,0,0,0,0,0,0,0,0,0,0,0,0,0,0,0,0,0,0,0,0,0,0,0,0,0,0,0,0
COM7,0507,27-Feb-19,2019-02-27 01:00:00,0.0998,0.10155,0.0966,0.093883333333333,0.089383333333333,0.082716666666667,0.084283333333333,4.9,0,0,0,0,0,0,0,0,0,0,0,0,0,0,0,0,0,0,0,0,0,0,0,0,0,0,0,0,0,0,0,0,0,0,0,0,0,0,0,0,0,0
COM7,0507,27-Feb-19,2019-02-27 02:00:00,0.10566666666667,0.10476666666667,0.0994,0.097383333333333,0.091833333333333,0.085266666666667,0.086316666666667,4.9,0,0,0,0,0,0,0,0,0,0,0,0,0,0,0,0,0,0,0,0,0,0,0,0,0,0,0,0,0,0,0,0,0,0,0,0,0,0,0,0,0,0
COM7,0507,27-Feb-19,2019-02-27 03:00:00,0.096066666666667,0.09565,0.091183333333333,0.08905,0.084433333333333,0.078233333333333,0.079766666666667,4.9,0,0,0,0,0,0,0,0,0,0,0,0,0,0,0,0,0,0,0,0,0,0,0,0,0,0,0,0,0,0,0,0,0,0,0,0,0,0,0,0,0,0
COM7,0507,27-Feb-19,2019-02-27 04:00:00,0.17616666666667,0.16806666666667,0.15898333333333,0.15545,0.14676666666667,0.13748333333333,0.14,4.9,0,0,0,0,0,0,0,0,0,0,0,0,0,0,0,0,0,0,0,0,0,0,0,0,0,0,0,0,0,0,0,0,0,0,0,0,0,0,0,0,0,0
COM7,0507,27-Feb-19,2019-02-27 05:00:00,0.14331666666667,0.13903333333333,0.13116666666667,0.12826666666667,0.12053333333333,0.11141666666667,0.11243333333333,4.9,0,0,0,0,0,0,0,0,0,0,0,0,0,0,0,0,0,0,0,0,0,0,0,0,0,0,0,0,0,0,0,0,0,0,0,0,0,0,0,0,0,0
COM7,0507,27-Feb-19,2019-02-27 06:00:00,0.17443333333333,0.16906666666667,0.15968333333333,0.15588333333333,0.14703333333333,0.13553333333333,0.1383,4.9,0,0,0,0,0,0,0,0,0,0,0,0,0,0,0,0,0,0,0,0,0,0,0,0,0,0,0,0,0,0,0,0,0,0,0,0,0,0,0,0,0,0
COM7,0507,27-Feb-19,2019-02-27 07:00:00,0.57203333333333,0.58043333333333,0.55576666666667,0.55136666666667,0.52596666666667,0.50455,0.51621666666667,4.9,0,0,0,0,0,0,0,0,0,0,0,0,0,0,0,0,0,0,0,0,0,0,0,0,0,0,0,0,0,0,0,0,0,0,0,0,0,0,0,0,0,0
COM7,0507,27-Feb-19,2019-02-27 08:00:00,0.38611666666667,0.38098333333333,0.36093333333333,0.3548,0.33451666666667,0.31635,0.32301666666667,4.9,0,0,0,0,0,0,0,0,0,0,0,0,0,0,0,0,0,0,0,0,0,0,0,0,0,0,0,0,0,0,0,0,0,0,0,0,0,0,0,0,0,0
COM7,0507,27-Feb-19,2019-02-27 09:00:00,0.86545,0.84111666666667,0.79456666666667,0.7801,0.73406666666667,0.69098333333333,0.70503333333333,4.9,0,0,0,0,0,0,0,0,0,0,0,0,0,0,0,0,0,0,0,0,0,0,0,0,0,0,0,0,0,0,0,0,0,0,0,0,0,0,0,0,0,0
COM7,0507,27-Feb-19,2019-02-27 10:00:00,0.60975,0.58435,0.54685,0.53091666666667,0.49383333333333,0.45806666666667,0.4673,4.8983333333333,0,0,0,0,0,0,0,0,0,0,0,0,0,0,0,0,0,0,0,0,0,0,0,0,0,0,0,0,0,0,0,0,0,0,0,0,0,0,0,0,0,0
COM7,0507,27-Feb-19,2019-02-27 11:00:00,0.46211666666667,0.44533333333333,0.42006666666667,0.40821666666667,0.3824,0.35421666666667,0.36138333333333,4.8583333333333,0,0,0,0,0,0,0,0,0,0,0,0,0,0,0,0,0,0,0,0,0,0,0,0,0,0,0,0,0,0,0,0,0,0,0,0,0,0,0,0,0,0
COM7,0507,27-Feb-19,2019-02-27 12:00:00,0.25876666666667,0.25838333333333,0.24596666666667,0.24266666666667,0.22733333333333,0.21481666666667,0.21806666666667,4.8083333333333,0,0,0,0,0,0,0,0,0,0,0,0,0,0,0,0,0,0,0,0,0,0,0,0,0,0,0,0,0,0,0,0,0,0,0,0,0,0,0,0,0,0
COM7,0507,27-Feb-19,2019-02-27 13:00:00,0.15943333333333,0.15816666666667,0.15176666666667,0.1482,0.13741666666667,0.12501666666667,0.12715,4.8,0,0,0,0,0,0,0,0,0,0,0,0,0,0,0,0,0,0,0,0,0,0,0,0,0,0,0,0,0,0,0,0,0,0,0,0,0,0,0,0,0,0
COM7,0507,27-Feb-19,2019-02-27 14:00:00,0.15608333333333,0.14695,0.13951666666667,0.13528333333333,0.12761666666667,0.11336666666667,0.11873333333333,4.4883333333333,0,0,0,0,0,0,0,0,0,0,0,0,0,0,0,0,0,0,0,0,0,0,0,0,0,0,0,0,0,0,0,0,0,0,0,0,0,0,0,0,0,0
COM7,0507,27-Feb-19,2019-02-27 15:00:00,0.20443333333333,0.13476666666667,0.12868333333333,0.12755,0.12066666666667,0.10986666666667,0.11251666666667,4.9,0,0,0,0,0,0,0,0,0,0,0,0,0,0,0,0,0,0,0,0,0,0,0,0,0,0,0,0,0,0,0,0,0,0,0,0,0,0,0,0,0,0
COM7,0507,27-Feb-19,2019-02-27 16:00:00,0.18316666666667,0.14531666666667,0.13956666666667,0.13788333333333,0.13263333333333,0.12805,0.13028333333333,4.9,0,0,0,0,0,0,0,0,0,0,0,0,0,0,0,0,0,0,0,0,0,0,0,0,0,0,0,0,0,0,0,0,0,0,0,0,0,0,0,0,0,0
COM7,0507,27-Feb-19,2019-02-27 17:00:00,0.33398333333333,0.32243333333333,0.30261666666667,0.2939,0.28191666666667,0.2749,0.28191666666667,4.9,0,0,0,0,0,0,0,0,0,0,0,0,0,0,0,0,0,0,0,0,0,0,0,0,0,0,0,0,0,0,0,0,0,0,0,0,0,0,0,0,0,0
COM7,0507,27-Feb-19,2019-02-27 18:00:00,0.37565,0.37178333333333,0.35065,0.34501666666667,0.32998333333333,0.31843333333333,0.32606666666667,4.9,0,0,0,0,0,0,0,0,0,0,0,0,0,0,0,0,0,0,0,0,0,0,0,0,0,0,0,0,0,0,0,0,0,0,0,0,0,0,0,0,0,0
COM7,0507,27-Feb-19,2019-02-27 19:00:00,0.57015,0.52611666666667,0.49126666666667,0.47788333333333,0.45396666666667,0.43128333333333,0.44006666666667,4.9,0,0,0,0,0,0,0,0,0,0,0,0,0,0,0,0,0,0,0,0,0,0,0,0,0,0,0,0,0,0,0,0,0,0,0,0,0,0,0,0,0,0
COM7,0507,27-Feb-19,2019-02-27 20:00:00,1.7442666666667,1.4817666666667,1.3634666666667,1.3134166666667,1.2274,1.1225833333333,1.1399166666667,4.9,0,0,0,0,0,0,0,0,0,0,0,0,0,0,0,0,0,0,0,0,0,0,0,0,0,0,0,0,0,0,0,0,0,0,0,0,0,0,0,0,0,0
COM7,0507,27-Feb-19,2019-02-27 21:00:00,0.72141666666667,0.67816666666667,0.63283333333333,0.61608333333333,0.57936666666667,0.54315,0.55385,4.9,0,0,0,0,0,0,0,0,0,0,0,0,0,0,0,0,0,0,0,0,0,0,0,0,0,0,0,0,0,0,0,0,0,0,0,0,0,0,0,0,0,0
COM7,0507,27-Feb-19,2019-02-27 22:00:00,0.59866666666667,0.51616666666667,0.47538333333333,0.45901666666667,0.4273,0.39308333333333,0.40033333333333,4.9,0,0,0,0,0,0,0,0,0,0,0,0,0,0,0,0,0,0,0,0,0,0,0,0,0,0,0,0,0,0,0,0,0,0,0,0,0,0,0,0,0,0
COM7,0507,27-Feb-19,2019-02-27 23:00:00,0.64398333333333,0.50325,0.45608333333333,0.43393333333333,0.40098333333333,0.3636,0.36941666666667,4.9,0,0,0,0,0,0,0,0,0,0,0,0,0,0,0,0,0,0,0,0,0,0,0,0,0,0,0,0,0,0,0,0,0,0,0,0,0,0,0,0,0,0
