COM8,507,02-Mar-20,2020-03-02 00:00:00,0.23979661016948997,0.213,0.19362711864406998,0.18498305084746,0.17496610169492002,0.16216949152542,0.16571186440678,5.0
COM8,507,02-Mar-20,2020-03-02 01:00:00,0.14305,0.1505,0.14223333333333,0.13898333333333,0.13375,0.12656666666667,0.12898333333333,5.0
COM8,507,02-Mar-20,2020-03-02 02:00:00,0.18376666666667002,0.17835,0.16785,0.16515,0.15721666666667,0.14873333333333,0.15203333333333,5.0
COM8,507,02-Mar-20,2020-03-02 03:00:00,0.20606666666667003,0.19621666666667004,0.18356666666667004,0.18046666666667002,0.17198333333332996,0.16333333333333,0.16593333333333,5.0
COM8,507,02-Mar-20,2020-03-02 04:00:00,0.26866666666667005,0.25678333333333,0.2423,0.23883333333332996,0.2294,0.21951666666667002,0.22506666666667002,5.0
COM8,507,02-Mar-20,2020-03-02 05:00:00,0.17453333333332996,0.16921666666667004,0.15878333333332997,0.15828333333332997,0.15095,0.14693333333332997,0.15048333333333,5.0
COM8,507,02-Mar-20,2020-03-02 06:00:00,0.26008333333332995,0.25568333333333,0.2414,0.23755,0.23073333333332996,0.22406666666667002,0.23005,5.0
COM8,507,02-Mar-20,2020-03-02 07:00:00,0.59451666666667,0.5512833333333299,0.51175,0.49805,0.47605,0.46373333333333,0.47588333333333,5.0
COM8,507,02-Mar-20,2020-03-02 08:00:00,1.3897333333333,1.2662,1.1496833333333,1.0972166666667,1.0360833333333002,0.99098333333333,1.0173833333333,5.0
COM8,507,02-Mar-20,2020-03-02 09:00:00,0.39991666666667,0.40758333333333,0.3887,0.38596666666667,0.37243333333333,0.35331666666667,0.36025,5.0
COM8,507,02-Mar-20,2020-03-02 10:00:00,0.36105,0.36398333333333,0.34943333333333,0.34646666666667,0.3349,0.31413333333333,0.32028333333333,5.0
COM8,507,02-Mar-20,2020-03-02 11:00:00,0.59698305084746,0.59145762711864,0.56471186440678,0.56152542372881,0.5431186440678,0.50783050847458,0.51779661016949,4.9440677966102005
COM8,507,02-Mar-20,2020-03-02 12:00:00,0.48596666666667,0.4824,0.46303333333333,0.46093333333333003,0.44428333333333003,0.4115,0.41991666666667,4.9
COM8,507,02-Mar-20,2020-03-02 13:00:00,0.42801666666667,0.43343333333333,0.41423333333333,0.41198333333333,0.39361666666667,0.3662,0.37096666666667,4.9
COM8,507,02-Mar-20,2020-03-02 14:00:00,0.3941,0.39143333333333,0.3716,0.37011666666667,0.35198333333333,0.3264,0.33008333333333,4.9
COM8,507,02-Mar-20,2020-03-02 15:00:00,0.49061666666667,0.45341666666667,0.43283333333333,0.43038333333333,0.418,0.39995,0.4134,4.6216666666667
COM8,507,02-Mar-20,2020-03-02 16:00:00,0.52736666666667,0.45901666666667,0.44581666666666997,0.44425,0.43156666666667,0.42603333333333,0.4368,5.0
COM8,507,02-Mar-20,2020-03-02 17:00:00,0.35453333333333,0.33405,0.31886666666667,0.31713333333333,0.30661666666667,0.30035,0.30765,5.0
COM8,507,02-Mar-20,2020-03-02 18:00:00,0.30838333333333,0.30956666666667,0.29495,0.29248333333333,0.28366666666667,0.27746666666666997,0.28465,5.0
COM8,507,02-Mar-20,2020-03-02 19:00:00,0.33941666666667,0.31915,0.2998,0.29491666666667,0.28341666666667,0.27286666666667003,0.2781,5.0
COM8,507,02-Mar-20,2020-03-02 20:00:00,0.78393333333333,0.58923333333333,0.53386666666667,0.5021,0.4679,0.42766666666666997,0.43485,5.0
COM8,507,02-Mar-20,2020-03-02 21:00:00,0.53145,0.47161666666667,0.43811666666667,0.42381666666667,0.4047,0.38291666666667,0.39136666666666997,5.0
COM8,507,02-Mar-20,2020-03-02 22:00:00,0.63466666666667,0.52445,0.48021666666667,0.46496666666666997,0.441,0.4096,0.41798333333333,5.0
COM8,507,02-Mar-20,2020-03-02 23:00:00,0.42442372881356,0.37903389830508,0.34979661016949,0.33818644067797,0.32086440677966,0.29922033898305,0.30418644067796996,5.0
