COM8,507,23-Oct-19,2019-10-23 00:00:00,0.6642372881355899,0.59269491525424,0.54954237288136,0.53757627118644,0.50691525423729,0.48364406779661,0.49871186440678,5.1
COM8,507,23-Oct-19,2019-10-23 01:00:00,0.67823333333333,0.59415,0.54891666666667,0.53516666666667,0.50505,0.47676666666667,0.49146666666667,5.1
COM8,507,23-Oct-19,2019-10-23 02:00:00,0.5816666666666701,0.50023333333333,0.4603,0.44815,0.42098333333333,0.39675,0.4081,5.1
COM8,507,23-Oct-19,2019-10-23 03:00:00,0.42425,0.37086666666667,0.34131666666667,0.33221666666667,0.31265,0.2947,0.30446666666667,5.0916666666667005
COM8,507,23-Oct-19,2019-10-23 04:00:00,0.3825,0.33336666666667,0.30503333333333,0.29801666666667,0.28013333333333,0.26481666666667003,0.27295,5.015
COM8,507,23-Oct-19,2019-10-23 05:00:00,0.54673333333333,0.48383333333333,0.44678333333333,0.43635,0.41195,0.38911666666667,0.40266666666667,5.0
COM8,507,23-Oct-19,2019-10-23 06:00:00,1.6163166666667,1.4631833333333,1.3630000000000002,1.34495,1.2809166666667,1.24145,1.2861,5.0
COM8,507,23-Oct-19,2019-10-23 07:00:00,1.7463,1.5665666666667,1.4532,1.4280833333333,1.3558666666666999,1.3071333333333,1.3544666666667,5.0
COM8,507,23-Oct-19,2019-10-23 08:00:00,1.35555,1.1853,1.1009,1.0779333333333,1.0312833333333,0.99091666666667,1.02245,4.8066666666667
COM8,507,23-Oct-19,2019-10-23 09:00:00,1.32445,1.3022333333333,1.2441166666666998,1.2344,1.1998333333333,1.1820333333333,1.2143166666667,5.2
COM8,507,23-Oct-19,2019-10-23 10:00:00,1.0388833333333,1.0084833333333,0.95568333333333,0.94318333333333,0.91236666666667,0.8922,0.91908333333333,5.2
COM8,507,23-Oct-19,2019-10-23 11:00:00,0.14183333333332998,0.12668333333333,0.11806666666667,0.11446666666666999,0.11195,0.10863333333333,0.11318333333333,5.1366666666667005
COM8,507,23-Oct-19,2019-10-23 12:00:00,0.14243333333333,0.13331666666667,0.1238,0.12036666666667,0.11698333333333001,0.11376666666667,0.11771666666667,5.1
COM8,507,23-Oct-19,2019-10-23 13:00:00,0.1549,0.14046666666667001,0.13011666666667,0.1259,0.1204,0.11375,0.11773333333333001,5.1
COM8,507,23-Oct-19,2019-10-23 14:00:00,0.1555,0.13726666666667,0.12561666666666998,0.12165,0.11676666666666999,0.11236666666667,0.11613333333333001,5.1
COM8,507,23-Oct-19,2019-10-23 15:00:00,0.15516666666667,0.13366666666667,0.12103333333333001,0.11698333333333001,0.10968333333333001,0.10248333333333001,0.10496666666667,5.1
COM8,507,23-Oct-19,2019-10-23 16:00:00,0.18265,0.15546666666667,0.14185,0.13615,0.12918333333333,0.12285,0.12548333333333,5.1
COM8,507,23-Oct-19,2019-10-23 17:00:00,0.24338333333332998,0.20543333333332997,0.18651666666667002,0.17911666666667003,0.16928333333332996,0.16146666666667,0.16465,5.1
COM8,507,23-Oct-19,2019-10-23 18:00:00,0.33191666666666997,0.27816666666667,0.25205,0.24271666666667002,0.22801666666667003,0.21638333333332996,0.22055,5.1
COM8,507,23-Oct-19,2019-10-23 19:00:00,0.48375,0.38985,0.35555,0.34078333333333,0.32085,0.30286666666667,0.30961666666667,5.1
COM8,507,23-Oct-19,2019-10-23 20:00:00,0.41518333333333,0.32091666666667,0.28908333333333003,0.2742,0.25751666666667006,0.24091666666667003,0.24568333333332998,5.1
COM8,507,23-Oct-19,2019-10-23 21:00:00,0.30993333333333,0.24393333333332998,0.22005,0.21151666666667004,0.19773333333332996,0.18585,0.19093333333332996,5.1
COM8,507,23-Oct-19,2019-10-23 22:00:00,0.36483333333333,0.31586666666667,0.2908,0.2805,0.265,0.25188333333332996,0.25725,5.1
COM8,507,23-Oct-19,2019-10-23 23:00:00,0.35695,0.31145,0.28586666666667,0.27573333333333,0.25938333333332997,0.2449,0.25051666666667005,5.1
