COM8,507,06-Oct-19,2019-10-06 00:00:00,0.42650847457627,0.38303389830508,0.35603389830508003,0.34786440677965996,0.32908474576271,0.31132203389831,0.31933898305084996,5.1
COM8,507,06-Oct-19,2019-10-06 01:00:00,0.45746666666667,0.38871666666667,0.3574,0.34726666666667,0.32866666666667,0.30755,0.31601666666667,5.1
COM8,507,06-Oct-19,2019-10-06 02:00:00,0.42471666666667,0.36338333333333,0.33533333333333,0.32648333333333,0.30648333333333,0.28665,0.29538333333333,5.1
COM8,507,06-Oct-19,2019-10-06 03:00:00,0.35908333333333,0.3047,0.27823333333333,0.26983333333333,0.2553,0.23783333333332995,0.24436666666667003,5.1
COM8,507,06-Oct-19,2019-10-06 04:00:00,0.31508333333333,0.26503333333332996,0.24276666666667004,0.2364,0.22208333333332997,0.20600000000000002,0.21225,5.1
COM8,507,06-Oct-19,2019-10-06 05:00:00,0.28151666666666997,0.23341666666667002,0.21323333333332997,0.20446666666667004,0.1928,0.17661666666667003,0.18276666666667002,5.1
COM8,507,06-Oct-19,2019-10-06 06:00:00,0.20961666666667003,0.18273333333332997,0.16573333333332999,0.16058333333333,0.15098333333333,0.13843333333333,0.1424,5.1
COM8,507,06-Oct-19,2019-10-06 07:00:00,0.16373333333332998,0.1444,0.13313333333333,0.12881666666667,0.12196666666667,0.11306666666667,0.11683333333333,5.1
COM8,507,06-Oct-19,2019-10-06 08:00:00,0.20148333333332996,0.18183333333332996,0.16643333333333,0.16246666666667,0.15061666666667,0.13973333333333,0.14288333333332998,5.1
COM8,507,06-Oct-19,2019-10-06 09:00:00,0.17533333333332995,0.16785,0.15673333333332998,0.15573333333332998,0.14221666666667002,0.1381,0.13778333333332998,5.1
COM8,507,06-Oct-19,2019-10-06 10:00:00,0.20538333333332998,0.1962,0.18363333333332996,0.18223333333332997,0.1718,0.1677,0.16998333333332996,5.1
COM8,507,06-Oct-19,2019-10-06 11:00:00,0.1672,0.15766666666667,0.14716666666667003,0.14598333333333,0.13485,0.12725,0.1288,5.1
COM8,507,06-Oct-19,2019-10-06 12:00:00,0.2008,0.18335,0.1713,0.16855,0.15891666666667,0.15036666666667,0.15488333333333,5.038333333333299
COM8,507,06-Oct-19,2019-10-06 13:00:00,0.1199,0.10245,0.09296666666666699,0.091683333333333,0.088533333333333,0.08145,0.08635,4.7
COM8,507,06-Oct-19,2019-10-06 14:00:00,0.23125,0.14466666666667002,0.13483333333333,0.13021666666667,0.12535,0.11921666666667,0.12286666666667,5.2
COM8,507,06-Oct-19,2019-10-06 15:00:00,0.16271666666667,0.1257,0.1166,0.11333333333333001,0.1081,0.10266666666667,0.10523333333333,5.2
COM8,507,06-Oct-19,2019-10-06 16:00:00,0.2026,0.1894,0.17611666666667003,0.17166666666667002,0.16485,0.15858333333333,0.16295,5.2
COM8,507,06-Oct-19,2019-10-06 17:00:00,0.22778333333332998,0.20973333333332997,0.19423333333332995,0.1877,0.18006666666667004,0.17135,0.1751,5.2
COM8,507,06-Oct-19,2019-10-06 18:00:00,0.6350333333333299,0.48418333333333,0.43445,0.41381666666667,0.38896666666667,0.3619,0.36843333333333,5.2
COM8,507,06-Oct-19,2019-10-06 19:00:00,0.78803333333333,0.6250166666666701,0.5667666666666701,0.54318333333333,0.51466666666667,0.47931666666667,0.49001666666667,5.2
COM8,507,06-Oct-19,2019-10-06 20:00:00,0.8270000000000001,0.6053833333333299,0.53656666666667,0.50448333333333,0.4709,0.43251666666667,0.44125,5.2
COM8,507,06-Oct-19,2019-10-06 21:00:00,0.49685,0.37696666666667,0.33925,0.3232,0.30476666666667,0.2822,0.28988333333333,5.2
COM8,507,06-Oct-19,2019-10-06 22:00:00,0.31588333333333,0.28261666666667,0.26051666666667,0.25218333333333,0.23935,0.22433333333332997,0.22921666666667004,5.1483333333333
COM8,507,06-Oct-19,2019-10-06 23:00:00,0.21641666666667003,0.20236666666667003,0.18675,0.18146666666667002,0.17223333333332996,0.15905,0.1631,5.1
