COM8,507,20-Sep-19,2019-09-20 00:00:00,0.13627118644067998,0.12501694915254,0.11610169491525,0.11386440677966,0.10877966101695,0.10481355932203,0.10713559322034,5.0
COM8,507,20-Sep-19,2019-09-20 01:00:00,0.10713333333333,0.0958,0.08935,0.08583333333333298,0.08295,0.078866666666667,0.081683333333333,5.0
COM8,507,20-Sep-19,2019-09-20 02:00:00,0.10756666666666999,0.10071666666667,0.093366666666667,0.091183333333333,0.08748333333333298,0.08495,0.0877,5.0
COM8,507,20-Sep-19,2019-09-20 03:00:00,0.1189,0.11175,0.1051,0.10366666666667,0.09983333333333301,0.096983333333333,0.1003,5.0
COM8,507,20-Sep-19,2019-09-20 04:00:00,0.1307,0.12401666666667,0.11701666666666999,0.11436666666666999,0.1107,0.10773333333333,0.11041666666667,5.0
COM8,507,20-Sep-19,2019-09-20 05:00:00,0.20506666666667003,0.19888333333332997,0.18906666666667002,0.18751666666667002,0.18163333333332995,0.17701666666667004,0.18235,5.0
COM8,507,20-Sep-19,2019-09-20 06:00:00,0.35975,0.35231666666667,0.33311666666667,0.32986666666666997,0.32051666666667,0.31781666666666997,0.32791666666667,5.0
COM8,507,20-Sep-19,2019-09-20 07:00:00,0.17851666666667004,0.17671666666667002,0.1692,0.16823333333332996,0.16376666666667,0.16235,0.16715,5.0
COM8,507,20-Sep-19,2019-09-20 08:00:00,0.14061666666667003,0.14156666666667,0.1354,0.13483333333333,0.12971666666667,0.1244,0.12786666666667,5.0
COM8,507,20-Sep-19,2019-09-20 09:00:00,0.15245,0.15478333333333,0.14855,0.14823333333333,0.14405,0.13898333333333,0.14231666666667,5.0
COM8,507,20-Sep-19,2019-09-20 10:00:00,0.09428333333333301,0.096033333333333,0.0926,0.09195,0.088283333333333,0.08365,0.08593333333333299,5.0
COM8,507,20-Sep-19,2019-09-20 11:00:00,0.13913333333333,0.1434,0.13846666666667,0.13875,0.13548333333333,0.13841666666667002,0.14198333333333,5.0
COM8,507,20-Sep-19,2019-09-20 12:00:00,0.16803333333332998,0.17083333333332998,0.16371666666667,0.16256666666667002,0.15506666666667002,0.14711666666667,0.15023333333333,5.0
COM8,507,20-Sep-19,2019-09-20 13:00:00,0.13616666666667,0.10451666666666999,0.1001,0.10005,0.098466666666667,0.092916666666667,0.0984,4.71
COM8,507,20-Sep-19,2019-09-20 14:00:00,0.18801666666667002,0.1537,0.1503,0.15056666666667,0.14631666666667,0.14531666666667,0.149,5.1
COM8,507,20-Sep-19,2019-09-20 15:00:00,0.19648333333332996,0.20185,0.19305,0.1923,0.18615,0.18248333333332997,0.18661666666667004,5.1
COM8,507,20-Sep-19,2019-09-20 16:00:00,0.20928333333332996,0.21196666666667002,0.2018,0.19961666666667002,0.19253333333332998,0.18553333333332997,0.18995,5.1
COM8,507,20-Sep-19,2019-09-20 17:00:00,0.22415,0.22803333333332998,0.21815,0.21533333333332996,0.20871666666667002,0.20481666666667003,0.2104,5.1
COM8,507,20-Sep-19,2019-09-20 18:00:00,0.28085,0.27135,0.25631666666667,0.25311666666667004,0.24365,0.23401666666667004,0.23953333333332996,5.1
COM8,507,20-Sep-19,2019-09-20 19:00:00,0.54508333333333,0.48343333333333,0.45025,0.43771666666667,0.41806666666667,0.39786666666667,0.4068,5.1
COM8,507,20-Sep-19,2019-09-20 20:00:00,1.0389833333333,0.77618333333333,0.69628333333333,0.6653666666666701,0.6281333333333299,0.58951666666667,0.60231666666667,5.1
COM8,507,20-Sep-19,2019-09-20 21:00:00,0.73821666666667,0.6503666666666701,0.6038333333333299,0.5882333333333299,0.55955,0.52498333333333,0.5367,5.1
COM8,507,20-Sep-19,2019-09-20 22:00:00,0.45928333333333,0.3938,0.36108333333333,0.34586666666667,0.3255,0.3019,0.30821666666666997,5.1
COM8,507,20-Sep-19,2019-09-20 23:00:00,0.6360833333333299,0.42223333333333,0.37038333333333,0.34031666666667,0.3137,0.28571666666667,0.29121666666667,5.1
