COM8,507,07-Dec-19,2019-12-07 00:00:00,0.8623220338983101,0.68193220338983,0.6056271186440699,0.57025423728814,0.52586440677966,0.47840677966102,0.48744067796609997,5.1
COM8,507,07-Dec-19,2019-12-07 01:00:00,0.42418333333333,0.38205,0.33785,0.31685,0.2902,0.26093333333332996,0.26498333333332996,5.1
COM8,507,07-Dec-19,2019-12-07 02:00:00,0.39091666666667,0.3297,0.29173333333333,0.27491666666667,0.2507,0.22195,0.2249,5.1
COM8,507,07-Dec-19,2019-12-07 03:00:00,0.35343333333333,0.3084,0.27618333333333,0.25721666666667004,0.23215,0.20173333333332996,0.20415,5.1
COM8,507,07-Dec-19,2019-12-07 04:00:00,0.25831666666667,0.21846666666667003,0.19161666666667004,0.17415,0.15423333333332997,0.12706666666667,0.12823333333333,5.1
COM8,507,07-Dec-19,2019-12-07 05:00:00,0.2243,0.21035,0.18778333333332997,0.17451666666667004,0.1581,0.13546666666666998,0.13623333333333001,5.1
COM8,507,07-Dec-19,2019-12-07 06:00:00,0.36083333333333,0.26836666666667003,0.23435,0.21906666666667002,0.19781666666667003,0.17335,0.17606666666667004,5.1
COM8,507,07-Dec-19,2019-12-07 07:00:00,1.0659666666667,0.73851666666667,0.64486666666667,0.6003833333333299,0.54293333333333,0.46853333333333,0.47381666666667,5.035
COM8,507,07-Dec-19,2019-12-07 08:00:00,0.73911666666667,0.6084333333333299,0.54196666666667,0.50566666666667,0.46283333333333,0.40481666666667,0.40981666666667,5.0
COM8,507,07-Dec-19,2019-12-07 09:00:00,0.6026333333333299,0.5122,0.45098333333333,0.42096666666667,0.38113333333333,0.33605,0.3423,5.0
COM8,507,07-Dec-19,2019-12-07 10:00:00,0.42355,0.40198333333333003,0.36285,0.34301666666666997,0.3176,0.28995,0.29708333333333,5.0
COM8,507,07-Dec-19,2019-12-07 11:00:00,0.022383333333332995,0.12381666666666999,0.12721666666667,0.12813333333333002,0.12198333333333,0.11356666666667,0.11748333333333001,5.0
COM8,507,07-Dec-19,2019-12-07 12:00:00,-0.03755,0.045283333333333,0.05365,0.056933333333333,0.05765,0.052033333333333,0.0538,5.0
COM8,507,07-Dec-19,2019-12-07 13:00:00,0.13113333333333,0.083416666666667,0.08445,0.08615,0.08483333333333298,0.08045,0.088283333333333,4.743333333333299
COM8,507,07-Dec-19,2019-12-07 14:00:00,0.1349,0.09406666666666699,0.09295,0.092366666666667,0.089716666666667,0.08661666666666701,0.089833333333333,5.1
COM8,507,07-Dec-19,2019-12-07 15:00:00,0.16675,0.16326666666667,0.15431666666667002,0.15135,0.14671666666667002,0.14173333333333,0.1461,5.1
COM8,507,07-Dec-19,2019-12-07 16:00:00,0.18221666666667002,0.17276666666667004,0.16215,0.1585,0.15213333333332998,0.14565,0.1496,5.1
COM8,507,07-Dec-19,2019-12-07 17:00:00,0.22743333333332996,0.21755,0.20518333333332997,0.20116666666667002,0.19411666666667002,0.18716666666667003,0.19186666666667004,5.1
COM8,507,07-Dec-19,2019-12-07 18:00:00,0.088066666666667,0.08138333333333299,0.075416666666667,0.071816666666667,0.06765,0.06355,0.0649,5.1
COM8,507,07-Dec-19,2019-12-07 19:00:00,0.1452,0.13111666666667,0.12178333333333001,0.1186,0.11211666666667,0.10798333333333,0.10956666666666999,5.1
COM8,507,07-Dec-19,2019-12-07 20:00:00,0.088683333333333,0.08768333333333299,0.08306666666666701,0.08035,0.07615,0.072333333333333,0.07405,5.1
COM8,507,07-Dec-19,2019-12-07 21:00:00,0.07038333333333299,0.06136666666666699,0.056866666666666996,0.054716666666666997,0.051466666666666994,0.0491,0.04925,5.1
COM8,507,07-Dec-19,2019-12-07 22:00:00,0.090466666666667,0.08275,0.0774,0.074083333333333,0.06985,0.067133333333333,0.06938333333333299,5.1
COM8,507,07-Dec-19,2019-12-07 23:00:00,0.15263333333332998,0.14071666666667001,0.13125,0.1275,0.12196666666667,0.1167,0.11846666666667,5.1
