COM7,0507,12-Dec-18,2018-12-12 00:00:00,0.70420338983051,0.70040677966102,0.67093220338983,0.67074576271186,0.64213559322034,0.62708474576271,0.64567796610169,4.7,0,0,0,0,0,0,0,0,0,0,0,0,0,0,0,0,0,0,0,0,0,0,0,0,0,0,0,0,0,0,0,0,0,0,0,0,0,0,0,0,0,0
COM7,0507,12-Dec-18,2018-12-12 01:00:00,0.64851666666667,0.63836666666667,0.60976666666667,0.60821666666667,0.58165,0.56286666666667,0.57925,4.7,0,0,0,0,0,0,0,0,0,0,0,0,0,0,0,0,0,0,0,0,0,0,0,0,0,0,0,0,0,0,0,0,0,0,0,0,0,0,0,0,0,0
COM7,0507,12-Dec-18,2018-12-12 02:00:00,0.56528333333333,0.55543333333333,0.52766666666667,0.52605,0.50101666666667,0.48585,0.50003333333333,4.7,0,0,0,0,0,0,0,0,0,0,0,0,0,0,0,0,0,0,0,0,0,0,0,0,0,0,0,0,0,0,0,0,0,0,0,0,0,0,0,0,0,0
COM7,0507,12-Dec-18,2018-12-12 03:00:00,0.52206666666667,0.49741666666667,0.47211666666667,0.47123333333333,0.45228333333333,0.45488333333333,0.47115,4.7,0,0,0,0,0,0,0,0,0,0,0,0,0,0,0,0,0,0,0,0,0,0,0,0,0,0,0,0,0,0,0,0,0,0,0,0,0,0,0,0,0,0
COM7,0507,12-Dec-18,2018-12-12 04:00:00,0.48406666666667,0.46321666666667,0.43988333333333,0.43646666666667,0.41458333333333,0.39706666666667,0.40785,4.7,0,0,0,0,0,0,0,0,0,0,0,0,0,0,0,0,0,0,0,0,0,0,0,0,0,0,0,0,0,0,0,0,0,0,0,0,0,0,0,0,0,0
COM7,0507,12-Dec-18,2018-12-12 05:00:00,0.28696666666667,0.27115,0.25426666666667,0.2518,0.23741666666667,0.22648333333333,0.23236666666667,4.7,0,0,0,0,0,0,0,0,0,0,0,0,0,0,0,0,0,0,0,0,0,0,0,0,0,0,0,0,0,0,0,0,0,0,0,0,0,0,0,0,0,0
COM7,0507,12-Dec-18,2018-12-12 06:00:00,0.3938,0.37801666666667,0.35726666666667,0.35285,0.33411666666667,0.32016666666667,0.32995,4.7,0,0,0,0,0,0,0,0,0,0,0,0,0,0,0,0,0,0,0,0,0,0,0,0,0,0,0,0,0,0,0,0,0,0,0,0,0,0,0,0,0,0
COM7,0507,12-Dec-18,2018-12-12 07:00:00,0.9707,0.92171666666667,0.87366666666667,0.86973333333333,0.82611666666667,0.79681666666667,0.8186,4.69,0,0,0,0,0,0,0,0,0,0,0,0,0,0,0,0,0,0,0,0,0,0,0,0,0,0,0,0,0,0,0,0,0,0,0,0,0,0,0,0,0,0
COM7,0507,12-Dec-18,2018-12-12 08:00:00,1.40175,1.3443166666667,1.2711833333333,1.2650666666667,1.2017,1.16385,1.1960666666667,4.6033333333333,0,0,0,0,0,0,0,0,0,0,0,0,0,0,0,0,0,0,0,0,0,0,0,0,0,0,0,0,0,0,0,0,0,0,0,0,0,0,0,0,0,0
COM7,0507,12-Dec-18,2018-12-12 09:00:00,0.56898333333333,0.59258333333333,0.56681666666667,0.56973333333333,0.55121666666667,0.55853333333333,0.5788,4.6,0,0,0,0,0,0,0,0,0,0,0,0,0,0,0,0,0,0,0,0,0,0,0,0,0,0,0,0,0,0,0,0,0,0,0,0,0,0,0,0,0,0
COM7,0507,12-Dec-18,2018-12-12 10:00:00,1.5486333333333,1.5339833333333,1.4636666666667,1.4668166666667,1.4217666666667,1.4547666666667,1.5139333333333,4.6,0,0,0,0,0,0,0,0,0,0,0,0,0,0,0,0,0,0,0,0,0,0,0,0,0,0,0,0,0,0,0,0,0,0,0,0,0,0,0,0,0,0
COM7,0507,12-Dec-18,2018-12-12 11:00:00,2.0104666666667,1.9827,1.8917,1.9023,1.8328166666667,1.8560166666667,1.9244333333333,4.6,0,0,0,0,0,0,0,0,0,0,0,0,0,0,0,0,0,0,0,0,0,0,0,0,0,0,0,0,0,0,0,0,0,0,0,0,0,0,0,0,0,0
COM7,0507,12-Dec-18,2018-12-12 12:00:00,0.90316666666667,0.90406666666667,0.86438333333333,0.86863333333333,0.82585,0.80288333333333,0.8281,4.4466666666667,0,0,0,0,0,0,0,0,0,0,0,0,0,0,0,0,0,0,0,0,0,0,0,0,0,0,0,0,0,0,0,0,0,0,0,0,0,0,0,0,0,0
COM7,0507,12-Dec-18,2018-12-12 13:00:00,0.89001666666667,0.81651666666667,0.7928,0.79175,0.78875,0.83915,0.88071666666667,4.8333333333333,0,0,0,0,0,0,0,0,0,0,0,0,0,0,0,0,0,0,0,0,0,0,0,0,0,0,0,0,0,0,0,0,0,0,0
COM7,0507,12-Dec-18,2018-12-12 14:00:00,0.46416666666667,0.44266666666667,0.4258,0.42553333333333,0.42453333333333,0.4596,0.48145,5,0,0,0,0,0,0,0,0,0,0,0,0,0,0,0,0,0,0,0,0,0,0,0,0,0,0,0,0,0,0,0,0,0,0,0,0,0,0,0,0,0,0
COM7,0507,12-Dec-18,2018-12-12 15:00:00,0.32673333333333,0.32626666666667,0.31195,0.30991666666667,0.3054,0.32376666666667,0.33666666666667,5,0,0,0,0,0,0,0,0,0,0,0,0,0,0,0,0,0,0,0,0,0,0,0,0,0,0,0,0,0,0,0,0,0,0,0,0,0,0,0,0,0,0
COM7,0507,12-Dec-18,2018-12-12 16:00:00,0.21818333333333,0.22148333333333,0.21066666666667,0.20763333333333,0.20158333333333,0.2023,0.20885,5,0,0,0,0,0,0,0,0,0,0,0,0,0,0,0,0,0,0,0,0,0,0,0,0,0,0,0,0,0,0,0,0,0,0,0,0,0,0,0,0,0,0
COM7,0507,12-Dec-18,2018-12-12 17:00:00,0.20621666666667,0.2019,0.19046666666667,0.18706666666667,0.1791,0.17378333333333,0.17843333333333,5,0,0,0,0,0,0,0,0,0,0,0,0,0,0,0,0,0,0,0,0,0,0,0,0,0,0,0,0,0,0,0,0,0,0,0,0,0,0,0,0,0,0
COM7,0507,12-Dec-18,2018-12-12 18:00:00,0.15196666666667,0.14355,0.13496666666667,0.13266666666667,0.12775,0.12423333333333,0.12666666666667,5,0,0,0,0,0,0,0,0,0,0,0,0,0,0,0,0,0,0,0,0,0,0,0,0,0,0,0,0,0,0,0,0,0,0,0,0,0,0,0,0,0,0
COM7,0507,12-Dec-18,2018-12-12 19:00:00,0.26021666666667,0.207,0.18743333333333,0.17843333333333,0.1673,0.15523333333333,0.15901666666667,5,0,0,0,0,0,0,0,0,0,0,0,0,0,0,0,0,0,0,0,0,0,0,0,0,0,0,0,0,0,0,0,0,0,0,0,0,0,0,0,0,0,0
COM7,0507,12-Dec-18,2018-12-12 20:00:00,0.24403333333333,0.21751666666667,0.20156666666667,0.19535,0.18781666666667,0.18416666666667,0.18953333333333,5,0,0,0,0,0,0,0,0,0,0,0,0,0,0,0,0,0,0,0,0,0,0,0,0,0,0,0,0,0,0,0,0,0,0,0,0,0,0,0,0,0,0
COM7,0507,12-Dec-18,2018-12-12 21:00:00,0.33803333333333,0.25565,0.22895,0.21603333333333,0.20145,0.1863,0.18975,5,0,0,0,0,0,0,0,0,0,0,0,0,0,0,0,0,0,0,0,0,0,0,0,0,0,0,0,0,0,0,0,0,0,0,0,0,0,0,0,0,0,0
COM7,0507,12-Dec-18,2018-12-12 22:00:00,0.19948333333333,0.16218333333333,0.14623333333333,0.13923333333333,0.12961666666667,0.12033333333333,0.12171666666667,5,0,0,0,0,0,0,0,0,0,0,0,0,0,0,0,0,0,0,0,0,0,0,0,0,0,0,0,0,0,0,0,0,0,0,0,0,0,0,0,0,0,0
COM7,0507,12-Dec-18,2018-12-12 23:00:00,0.25641666666667,0.18406666666667,0.16326666666667,0.15325,0.14393333333333,0.13301666666667,0.13616666666667,5,0,0,0,0,0,0,0,0,0,0,0,0,0,0,0,0,0,0,0,0,0,0,0,0,0,0,0,0,0,0,0,0,0,0,0,0,0,0,0,0,0,0
