COM8,507,19-Aug-19,2019-08-19 00:00:00,0.069491525423729,0.067135593220339,0.062593220338983,0.06086440677966099,0.059016949152542,0.057593220338983,0.059372881355932,5.0
COM8,507,19-Aug-19,2019-08-19 01:00:00,0.073583333333333,0.069266666666667,0.064016666666667,0.06278333333333301,0.060366666666667,0.058816666666666996,0.060116666666667,5.0
COM8,507,19-Aug-19,2019-08-19 02:00:00,0.06915,0.065533333333333,0.06211666666666699,0.06111666666666699,0.059883333333333004,0.060566666666667,0.062733333333333,5.0
COM8,507,19-Aug-19,2019-08-19 03:00:00,0.0702,0.06798333333333301,0.065,0.064233333333333,0.06275,0.0642,0.06583333333333301,4.9966666666667
COM8,507,19-Aug-19,2019-08-19 04:00:00,0.14048333333333,0.13428333333333,0.12523333333333,0.12441666666666999,0.11868333333333,0.11266666666667,0.11545,4.9333333333333
COM8,507,19-Aug-19,2019-08-19 05:00:00,0.2426,0.23886666666667003,0.22736666666667002,0.22411666666667004,0.21763333333332996,0.21383333333332996,0.22013333333332996,4.9
COM8,507,19-Aug-19,2019-08-19 06:00:00,0.43753333333333,0.43211666666667,0.40795,0.40261666666667,0.38928333333333,0.37823333333333,0.38808333333333,4.9
COM8,507,19-Aug-19,2019-08-19 07:00:00,0.6526,0.6584166666666701,0.6253166666666701,0.62025,0.6007666666666701,0.58616666666667,0.60308333333333,4.9
COM8,507,19-Aug-19,2019-08-19 08:00:00,0.25933333333333,0.2401,0.22243333333332996,0.21685,0.20578333333332996,0.19323333333332998,0.19786666666667002,4.9
COM8,507,19-Aug-19,2019-08-19 09:00:00,0.26293333333332997,0.24253333333332996,0.22551666666667003,0.22025,0.21115,0.20186666666667002,0.20743333333332997,4.9
COM8,507,19-Aug-19,2019-08-19 10:00:00,0.20433333333332998,0.18823333333332998,0.17545,0.17025,0.16383333333333,0.1556,0.16003333333332997,4.9
COM8,507,19-Aug-19,2019-08-19 11:00:00,0.15368333333332998,0.1407,0.13195,0.12863333333333002,0.12408333333333,0.1168,0.12195,4.9
COM8,507,19-Aug-19,2019-08-19 12:00:00,0.13666666666667,0.126,0.1172,0.11451666666667,0.11021666666666999,0.10386666666667,0.10745,4.9
COM8,507,19-Aug-19,2019-08-19 13:00:00,1.0729166666667,0.93326666666667,0.83243333333333,0.7816,0.74266666666667,0.73,0.75888333333333,4.9
COM8,507,19-Aug-19,2019-08-19 14:00:00,0.13031666666667,0.1182,0.10938333333333,0.10673333333333,0.10125,0.094833333333333,0.098016666666667,4.9
COM8,507,19-Aug-19,2019-08-19 15:00:00,0.13253333333333,0.12316666666666999,0.1144,0.11248333333333001,0.106,0.10398333333333,0.10666666666666999,4.9
COM8,507,19-Aug-19,2019-08-19 16:00:00,0.14011666666667003,0.1293,0.12033333333333,0.11651666666666999,0.11073333333333,0.10556666666667,0.10781666666666999,4.9
COM8,507,19-Aug-19,2019-08-19 17:00:00,0.24291666666667003,0.17195,0.16271666666667,0.16238333333333,0.15843333333332998,0.15291666666667,0.161,4.6583333333332995
COM8,507,19-Aug-19,2019-08-19 18:00:00,0.19781666666667003,0.15581666666667002,0.14863333333332998,0.14725,0.1432,0.1459,0.14938333333332998,5.0
COM8,507,19-Aug-19,2019-08-19 19:00:00,0.9531333333333301,0.75726666666667,0.6612666666666701,0.6133,0.5676,0.49726666666667,0.50308333333333,5.0
COM8,507,19-Aug-19,2019-08-19 20:00:00,0.48895,0.38401666666667,0.34136666666667,0.32285,0.304,0.2874,0.2934,5.0
COM8,507,19-Aug-19,2019-08-19 21:00:00,0.24953333333332997,0.2442,0.22966666666667004,0.22521666666667003,0.21485,0.20778333333332996,0.21276666666667005,5.0
COM8,507,19-Aug-19,2019-08-19 22:00:00,0.18468333333332998,0.18128333333332997,0.171,0.16921666666667004,0.1629,0.15985,0.16401666666667,5.0
COM8,507,19-Aug-19,2019-08-19 23:00:00,0.14356666666667,0.13966666666667002,0.13108333333333,0.12903333333333,0.12323333333333,0.11723333333333001,0.11958333333333,5.0
