COM8,507,16-Feb-20,2020-02-16 00:00:00,3.0123050847457997,2.0377966101695,1.8436779661017,1.8066949152541998,1.7260677966101998,1.5753559322033999,1.5994237288136002,4.9
COM8,507,16-Feb-20,2020-02-16 01:00:00,2.7111333333333,1.95075,1.76575,1.7187333333333001,1.6305166666667,1.4663333333333,1.4843166666667,4.8583333333333
COM8,507,16-Feb-20,2020-02-16 02:00:00,3.0603333333332996,2.0919833333333,1.8598666666666999,1.78775,1.6799166666667,1.4968333333333002,1.5065333333333,4.8
COM8,507,16-Feb-20,2020-02-16 03:00:00,2.99025,2.0408333333333,1.8061333333333,1.7307666666666999,1.6172666666667,1.4417833333333,1.4463666666666999,4.8
COM8,507,16-Feb-20,2020-02-16 04:00:00,2.8917,1.9812833333333,1.7446666666667,1.6623666666666999,1.5449666666667,1.3891833333333001,1.3884666666667,4.8
COM8,507,16-Feb-20,2020-02-16 05:00:00,2.9835,2.0435166666667,1.7879833333333,1.6978333333333,1.5728833333333,1.4153833333333001,1.4208666666667,4.8
COM8,507,16-Feb-20,2020-02-16 06:00:00,2.4988,1.8462166666667,1.6291666666667,1.5525333333333,1.43985,1.2995166666667,1.32385,4.7466666666667
COM8,507,16-Feb-20,2020-02-16 07:00:00,-1.9171166666666999,-0.19156666666667002,-0.071133333333333,-0.0107,0.020066666666667,0.04775,0.0509,4.7
COM8,507,16-Feb-20,2020-02-16 08:00:00,-0.83593333333333,0.10613333333333,0.15866666666667,0.16916666666667002,0.15971666666667,0.14025,0.14113333333332997,4.7
COM8,507,16-Feb-20,2020-02-16 09:00:00,-0.73476666666667,-0.00265,0.075533333333333,0.09081666666666699,0.091516666666667,0.08401666666666702,0.08865,4.7
COM8,507,16-Feb-20,2020-02-16 10:00:00,-0.4423,0.047516666666667,0.10026666666667,0.11199999999999999,0.10806666666666999,0.098966666666667,0.09983333333333301,4.7
COM8,507,16-Feb-20,2020-02-16 11:00:00,-0.24815,0.089283333333333,0.12341666666666999,0.12986666666667,0.12303333333333001,0.11013333333333,0.1116,4.7
COM8,507,16-Feb-20,2020-02-16 12:00:00,-0.04725,0.16961666666667002,0.18793333333332995,0.18983333333332997,0.17998333333332997,0.16163333333333,0.16399999999999998,4.7
COM8,507,16-Feb-20,2020-02-16 13:00:00,0.019066666666667,0.17761666666667003,0.18523333333332997,0.18461666666667004,0.17213333333332997,0.15213333333332998,0.15305,4.7
COM8,507,16-Feb-20,2020-02-16 14:00:00,0.12331666666666999,0.16711666666667002,0.1672,0.16435,0.1597,0.1454,0.15243333333332998,4.4966666666667
COM8,507,16-Feb-20,2020-02-16 15:00:00,0.26318333333333,0.17115,0.16635,0.16348333333332998,0.15455,0.14676666666667001,0.14978333333333,5.0
COM8,507,16-Feb-20,2020-02-16 16:00:00,0.21388333333332996,0.18606666666667004,0.17616666666667002,0.17116666666667002,0.1623,0.15176666666667002,0.15368333333332998,5.0
COM8,507,16-Feb-20,2020-02-16 17:00:00,0.36803333333333,0.2719,0.24135,0.22745,0.21246666666667002,0.19308333333332997,0.1967,5.0
COM8,507,16-Feb-20,2020-02-16 18:00:00,0.65605,0.4275,0.37753333333333,0.34685,0.31958333333333,0.29098333333333,0.29478333333333,5.0
COM8,507,16-Feb-20,2020-02-16 19:00:00,0.8151,0.6965,0.63971666666667,0.61528333333333,0.58515,0.54731666666667,0.55801666666667,5.0
COM8,507,16-Feb-20,2020-02-16 20:00:00,0.28566666666667,0.26358333333332995,0.24363333333332995,0.23108333333332998,0.21771666666667003,0.2003,0.2034,5.0
COM8,507,16-Feb-20,2020-02-16 21:00:00,0.33581666666667,0.26078333333333,0.23675,0.22195,0.20538333333332998,0.18856666666667002,0.19173333333332998,5.0
COM8,507,16-Feb-20,2020-02-16 22:00:00,0.446,0.34613333333333,0.30908333333333,0.29053333333333,0.27196666666667,0.24836666666667004,0.25246666666667006,5.0
COM8,507,16-Feb-20,2020-02-16 23:00:00,0.52442372881356,0.40635593220339,0.36183050847458004,0.34281355932203,0.32113559322034,0.29366101694915003,0.29737288135593,5.0
