COM7,0507,11-Dec-18,2018-12-11 00:00:00,3.3213220338983,2.8722711864407,2.6274745762712,2.5347118644068,2.3447627118644,2.1721355932203,2.2244237288136,4.8,0,0,0,0,0,0,0,0,0,0,0,0,0,0,0,0,0,0,0,0,0,0,0,0,0,0,0,0,0,0,0,0,0,0,0,0,0,0,0,0,0,0
COM7,0507,11-Dec-18,2018-12-11 01:00:00,2.9525,2.5401166666667,2.3144833333333,2.2296,2.0514,1.887,1.9314666666667,4.7183333333333,0,0,0,0,0,0,0,0,0,0,0,0,0,0,0,0,0,0,0,0,0,0,0,0,0,0,0,0,0,0,0,0,0,0,0,0,0,0,0,0,0,0
COM7,0507,11-Dec-18,2018-12-11 02:00:00,2.6854,2.3293,2.1268833333333,2.0508166666667,1.89055,1.7394166666667,1.7777,4.7,0,0,0,0,0,0,0,0,0,0,0,0,0,0,0,0,0,0,0,0,0,0,0,0,0,0,0,0,0,0,0,0,0,0,0,0,0,0,0,0,0,0
COM7,0507,11-Dec-18,2018-12-11 03:00:00,2.028,1.8487666666667,1.7103166666667,1.6723333333333,1.5525666666667,1.4355666666667,1.4649833333333,4.7,0,0,0,0,0,0,0,0,0,0,0,0,0,0,0,0,0,0,0,0,0,0,0,0,0,0,0,0,0,0,0,0,0,0,0,0,0,0,0,0,0,0
COM7,0507,11-Dec-18,2018-12-11 04:00:00,1.8728833333333,1.6845,1.5481166666667,1.5052333333333,1.3893333333333,1.2756666666667,1.30255,4.7,0,0,0,0,0,0,0,0,0,0,0,0,0,0,0,0,0,0,0,0,0,0,0,0,0,0,0,0,0,0,0,0,0,0,0,0,0,0,0,0,0,0
COM7,0507,11-Dec-18,2018-12-11 05:00:00,1.4797333333333,1.39305,1.29015,1.2616833333333,1.1693,1.07625,1.0965333333333,4.7,0,0,0,0,0,0,0,0,0,0,0,0,0,0,0,0,0,0,0,0,0,0,0,0,0,0,0,0,0,0,0,0,0,0,0,0,0,0,0,0,0,0
COM7,0507,11-Dec-18,2018-12-11 06:00:00,1.29655,1.1923,1.1014666666667,1.0706666666667,0.98548333333333,0.90265,0.922,4.7,0,0,0,0,0,0,0,0,0,0,0,0,0,0,0,0,0,0,0,0,0,0,0,0,0,0,0,0,0,0,0,0,0,0,0,0,0,0,0,0,0,0
COM7,0507,11-Dec-18,2018-12-11 07:00:00,1.2015166666667,1.0888833333333,0.9951,0.96158333333333,0.88398333333333,0.80178333333333,0.81446666666667,4.7,0,0,0,0,0,0,0,0,0,0,0,0,0,0,0,0,0,0,0,0,0,0,0,0,0,0,0,0,0,0,0,0,0,0,0,0,0,0,0,0,0,0
COM7,0507,11-Dec-18,2018-12-11 08:00:00,1.1773333333333,1.06235,0.97735,0.94163333333333,0.8649,0.7888,0.80608333333333,4.68,0,0,0,0,0,0,0,0,0,0,0,0,0,0,0,0,0,0,0,0,0,0,0,0,0,0,0,0,0,0,0,0,0,0,0,0,0,0,0,0,0,0
COM7,0507,11-Dec-18,2018-12-11 09:00:00,1.0150833333333,0.9153,0.83518333333333,0.80773333333333,0.73606666666667,0.67113333333333,0.6817,4.6033333333333,0,0,0,0,0,0,0,0,0,0,0,0,0,0,0,0,0,0,0,0,0,0,0,0,0,0,0,0,0,0,0,0,0,0,0,0,0,0,0,0,0,0
COM7,0507,11-Dec-18,2018-12-11 10:00:00,0.81355,0.72196666666667,0.65658333333333,0.62916666666667,0.57456666666667,0.5106,0.5228,4.6,0,0,0,0,0,0,0,0,0,0,0,0,0,0,0,0,0,0,0,0,0,0,0,0,0,0,0,0,0,0,0,0,0,0,0,0,0,0,0,0,0,0
COM7,0507,11-Dec-18,2018-12-11 11:00:00,0.82976666666667,0.73205,0.67025,0.63995,0.59081666666667,0.52596666666667,0.53816666666667,4.6,0,0,0,0,0,0,0,0,0,0,0,0,0,0,0,0,0,0,0,0,0,0,0,0,0,0,0,0,0,0,0,0,0,0,0,0,0,0,0,0,0,0
COM7,0507,11-Dec-18,2018-12-11 12:00:00,0.036896751740139,0.033104408352668,0.030155452436195,0.028939675174014,0.026805104408353,0.024078886310905,0.024629930394432,0.18677494199536,0,0,0,0,0,0,0,0,0,0,0,0,0,0,0,0,0,0,0,0,0,0,0,0,0,0,0,0,0,0,0,0,0,0,0,0,0,0,0,0,0,0
COM7,0507,11-Dec-18,2018-12-11 13:00:00,1.8807833333333,1.85465,1.8002166666667,1.8042,1.7999666666667,1.9006333333333,1.992,4.9166666666667,0,0,0,0,0,0,0,0,0,0,0,0,0,0,0,0,0,0,0,0,0,0,0,0,0,0,0,0,0,0,0,0,0,0,0
COM7,0507,11-Dec-18,2018-12-11 14:00:00,1.6638833333333,1.7127833333333,1.6619333333333,1.6682666666667,1.6524833333333,1.7399,1.8090833333333,4.96,0,0,0,0,0,0,0,0,0,0,0,0,0,0,0,0,0,0,0,0,0,0,0,0,0,0,0,0,0,0,0,0,0,0,0,0,0,0,0,0,0,0
COM7,0507,11-Dec-18,2018-12-11 15:00:00,1.5964666666667,1.6657666666667,1.6196666666667,1.62985,1.6133,1.6936666666667,1.7594333333333,4.9,0,0,0,0,0,0,0,0,0,0,0,0,0,0,0,0,0,0,0,0,0,0,0,0,0,0,0,0,0,0,0,0,0,0,0,0,0,0,0,0,0,0
COM7,0507,11-Dec-18,2018-12-11 16:00:00,1.55165,1.6153833333333,1.57255,1.5858666666667,1.5676,1.63975,1.7055666666667,4.9,0,0,0,0,0,0,0,0,0,0,0,0,0,0,0,0,0,0,0,0,0,0,0,0,0,0,0,0,0,0,0,0,0,0,0,0,0,0,0,0,0,0
COM7,0507,11-Dec-18,2018-12-11 17:00:00,1.0481666666667,1.0888666666667,1.0599166666667,1.0689,1.0460333333333,1.06315,1.1006,4.9,0,0,0,0,0,0,0,0,0,0,0,0,0,0,0,0,0,0,0,0,0,0,0,0,0,0,0,0,0,0,0,0,0,0,0,0,0,0,0,0,0,0
COM7,0507,11-Dec-18,2018-12-11 18:00:00,0.87018333333333,0.89733333333333,0.87153333333333,0.87855,0.8564,0.85476666666667,0.88158333333333,4.8933333333333,0,0,0,0,0,0,0,0,0,0,0,0,0,0,0,0,0,0,0,0,0,0,0,0,0,0,0,0,0,0,0,0,0,0,0,0,0,0,0,0,0,0
COM7,0507,11-Dec-18,2018-12-11 19:00:00,0.84285,0.85918333333333,0.8344,0.84021666666667,0.81635,0.81391666666667,0.83746666666667,4.8,0,0,0,0,0,0,0,0,0,0,0,0,0,0,0,0,0,0,0,0,0,0,0,0,0,0,0,0,0,0,0,0,0,0,0,0,0,0,0,0,0,0
COM7,0507,11-Dec-18,2018-12-11 20:00:00,0.77671666666667,0.78848333333333,0.76295,0.76671666666667,0.74421666666667,0.73755,0.76128333333333,4.8,0,0,0,0,0,0,0,0,0,0,0,0,0,0,0,0,0,0,0,0,0,0,0,0,0,0,0,0,0,0,0,0,0,0,0,0,0,0,0,0,0,0
COM7,0507,11-Dec-18,2018-12-11 21:00:00,0.73583333333333,0.73728333333333,0.7115,0.71386666666667,0.69076666666667,0.68136666666667,0.70208333333333,4.8,0,0,0,0,0,0,0,0,0,0,0,0,0,0,0,0,0,0,0,0,0,0,0,0,0,0,0,0,0,0,0,0,0,0,0,0,0,0,0,0,0,0
COM7,0507,11-Dec-18,2018-12-11 22:00:00,1.4578,1.4599166666667,1.4084166666667,1.4164166666667,1.3860666666667,1.4342333333333,1.49245,4.8,0,0,0,0,0,0,0,0,0,0,0,0,0,0,0,0,0,0,0,0,0,0,0,0,0,0,0,0,0,0,0,0,0,0,0,0,0,0,0,0,0,0
COM7,0507,11-Dec-18,2018-12-11 23:00:00,0.80198333333333,0.79451666666667,0.76235,0.75995,0.73225,0.71925,0.74021666666667,4.8,0,0,0,0,0,0,0,0,0,0,0,0,0,0,0,0,0,0,0,0,0,0,0,0,0,0,0,0,0,0,0,0,0,0,0,0,0,0,0,0,0,0
