COM8,507,25-Jul-19,2019-07-25 00:00:00,0.35501694915253995,0.30233898305084994,0.27672881355932,0.27138983050847,0.25115254237288004,0.22725423728814,0.23242372881356002,4.7
COM8,507,25-Jul-19,2019-07-25 01:00:00,0.18785,0.16661666666667002,0.15413333333332999,0.15163333333332998,0.14276666666667,0.1297,0.1318,4.7
COM8,507,25-Jul-19,2019-07-25 02:00:00,0.22643333333332996,0.19531666666667002,0.17933333333332996,0.1776,0.16818333333332997,0.1554,0.1586,4.7
COM8,507,25-Jul-19,2019-07-25 03:00:00,0.23126666666667003,0.19733333333332997,0.18136666666667003,0.17885,0.16761666666667002,0.15301666666667002,0.15628333333333,4.7
COM8,507,25-Jul-19,2019-07-25 04:00:00,0.19503333333332998,0.17073333333332996,0.15786666666667,0.1576,0.14775,0.13606666666667,0.13888333333333,4.7
COM8,507,25-Jul-19,2019-07-25 05:00:00,0.36611666666667,0.33101666666667,0.3096,0.30521666666667,0.2907,0.27473333333332994,0.2817,4.7
COM8,507,25-Jul-19,2019-07-25 06:00:00,1.2456333333333,1.2053166666667,1.13715,1.1362666666666998,1.1048666666667,1.0746166666666999,1.1120166666667,4.7
COM8,507,25-Jul-19,2019-07-25 07:00:00,1.37025,1.2941833333333002,1.1918166666667,1.1820833333333,1.15105,1.0669166666667,1.0976666666666999,4.7
COM8,507,25-Jul-19,2019-07-25 08:00:00,0.38706666666667,0.37058333333333,0.35576666666667,0.35633333333333,0.34103333333333,0.32008333333333,0.32795,4.7
COM8,507,25-Jul-19,2019-07-25 09:00:00,0.50926666666667,0.4816,0.4586,0.45501666666667,0.43423333333333003,0.40871666666667,0.42003333333333,4.7
COM8,507,25-Jul-19,2019-07-25 10:00:00,0.70773333333333,0.69053333333333,0.6673666666666701,0.67011666666667,0.64665,0.6255,0.6444,4.7
COM8,507,25-Jul-19,2019-07-25 11:00:00,0.64365,0.62766666666667,0.6047,0.6061,0.5838,0.56125,0.5773833333333299,4.7
COM8,507,25-Jul-19,2019-07-25 12:00:00,0.6068333333333299,0.60775,0.5950166666666701,0.6046,0.58775,0.57555,0.59465,4.7
COM8,507,25-Jul-19,2019-07-25 13:00:00,0.47968333333333,0.4326,0.41791666666667,0.41625,0.40545,0.39299999999999996,0.40705,4.6166666666667
COM8,507,25-Jul-19,2019-07-25 14:00:00,0.2852,0.27285,0.26163333333332994,0.26063333333332994,0.2522,0.24516666666667003,0.25075,5.0
COM8,507,25-Jul-19,2019-07-25 15:00:00,0.21745,0.21895,0.20986666666667003,0.20888333333332998,0.20335,0.20028333333332995,0.20478333333332996,5.0
COM8,507,25-Jul-19,2019-07-25 16:00:00,0.42285,0.43241666666667,0.41531666666667,0.41306666666666997,0.40195,0.3946,0.4053,5.0
COM8,507,25-Jul-19,2019-07-25 17:00:00,0.46811666666667,0.48136666666667,0.46263333333333,0.46113333333333,0.44723333333333,0.4355,0.44508333333333,5.0
COM8,507,25-Jul-19,2019-07-25 18:00:00,0.54938333333333,0.5725166666666701,0.5563333333333299,0.56031666666667,0.5483,0.5447,0.5602833333333299,5.0
COM8,507,25-Jul-19,2019-07-25 19:00:00,0.78226666666667,0.7278,0.6849666666666699,0.67275,0.64648333333333,0.6262666666666701,0.6426833333333299,5.0
COM8,507,25-Jul-19,2019-07-25 20:00:00,0.6309833333333299,0.6209,0.5949,0.593,0.57675,0.5655333333333299,0.58146666666667,5.0
COM8,507,25-Jul-19,2019-07-25 21:00:00,0.69285,0.6247333333333299,0.5754833333333299,0.55888333333333,0.52968333333333,0.5021,0.5144,5.0
COM8,507,25-Jul-19,2019-07-25 22:00:00,0.47083333333333,0.46015,0.4364,0.43138333333333,0.41376666666667,0.39683333333333,0.40700000000000003,5.0
COM8,507,25-Jul-19,2019-07-25 23:00:00,0.41383333333333,0.40606666666667,0.38855,0.38736666666666997,0.37383333333333,0.3642,0.37426666666666997,5.0
